remove fftw/3.3.10 (FFTW_CFLAGS, FFTW_FFLAGS, FFTW_LDFLAGS, FFTW_INCL, FFTW_LIBS, LD_LIBRARY_PATH, C_INCLUDE_PATH)
remove netcdf-fortran/4.4.4 (PATH, LD_LIBRARY_PATH, C_INCLUDE_PATH, CPLUS_INCLUDE_PATH, PKG_CONFIG_PATH, NETCDF, HDF5/1.10.8 is used internally)
remove netcdf-c/4.4.1.1_hdf5-1.10.8 (PATH, LD_LIBRARY_PATH, C_INCLUDE_PATH, CPLUS_INCLUDE_PATH, PKG_CONFIG_PATH, NETCDF, HDF5/1.10.8 is used internally)
Removing mkl version 2021.4.0
Removing tbb version 2021.4.0
Removing mpi version 2021.4.0
Removing 2021.4.0 version compilers
Removing compiler-rt version 2021.4.0
Loading 2021.4.0 version compilers
Loading compiler-rt version 2021.4.0
Loading mpi version 2021.4.0
Loading mkl version 2021.4.0
Loading tbb version 2021.4.0
load netcdf-c/4.4.1.1_hdf5-1.10.8 (PATH, LD_LIBRARY_PATH, C_INCLUDE_PATH, CPLUS_INCLUDE_PATH, PKG_CONFIG_PATH, NETCDF, HDF5/1.10.8 is used internally)
load netcdf-fortran/4.4.4 (PATH, LD_LIBRARY_PATH, C_INCLUDE_PATH, CPLUS_INCLUDE_PATH, PKG_CONFIG_PATH, NETCDF, HDF5/1.10.8 is used internally)
load fftw/3.3.10 (FFTW_CFLAGS, FFTW_FFLAGS, FFTW_LDFLAGS, FFTW_INCL, FFTW_LIBS, LD_LIBRARY_PATH, C_INCLUDE_PATH)
==3380276== Callgrind, a call-graph generating cache profiler
==3380276== Copyright (C) 2002-2017, and GNU GPL'd, by Josef Weidendorfer et al.
==3380276== Using Valgrind-3.16.0 and LibVEX; rerun with -h for copyright info
==3380276== Command: ./knosos.x
==3380276== 
==3380276== For interactive control, run 'callgrind_control -h'.
==3380276== WARNING: valgrind ignores shmget(shmflg) SHM_HUGETLB
==3380276== brk segment overflow in thread #1: can't grow to 0x1fb84000
==3380276== (see section Limitations in user manual)
==3380276== NOTE: further instances of this message will not be shown
==3380276== 
==3380276== Events    : Ir
==3380276== Collected : 75688068217
==3380276== 
==3380276== I   refs:      75,688,068,217
