Set INTEL compilers as MPI wrappers backend 
remove impi/2018.4 (PATH, MANPATH, LD_LIBRARY_PATH) 
load impi/2018.4 (PATH, MANPATH, LD_LIBRARY_PATH) 
remove mkl/2018.4 (LD_LIBRARY_PATH) 
load mkl/2018.4 (LD_LIBRARY_PATH) 
load petsc/3.15.1-real (PATH, LD_LIBRARY_PATH, PETSC_DIR) 
load hdf5/1.8.19 (PATH, LD_LIBRARY_PATH, LIBRARY_PATH, C_INCLUDE_PATH,
CPLUS_INCLUDE_PATH) 
remove netcdf/4.4.1.1 (PATH, LD_LIBRARY_PATH, NETCDF, HDF5/1.8.19 is used
internally) 
load netcdf/4.4.1.1 (PATH, LD_LIBRARY_PATH, NETCDF, HDF5/1.8.19 is used
internally) 
Extrae: Warning! OMP_NUM_THREADS is set but OpenMP is not supported!
Extrae: Error! Hardware counter PAPI_TOT_INS (0x80000032) is not available. Check set 1.
Extrae: Error! Hardware counter PAPI_TOT_CYC (0x8000003b) is not available. Check set 1.
Extrae: Set 1 of counters seems to be empty/invalid, skipping

real	9m24.972s
user	0m0.026s
sys	0m0.058s
