Welcome to Extrae 4.0.1
Extrae: Parsing the configuration file (./extrae.xml) begins
Extrae: Tracing package is located on /apps/BSCTOOLS/extrae/4.0.1/impi_2018_1
Extrae: Generating intermediate files for Paraver traces.
Extrae: MPI routines will collect HW counters information.
Extrae: All MPI_Comm_* calls will be traced.
Extrae: Warning! <openmp> tag will be ignored. This library does not support OpenMP.
Extrae: Tracing 3 level(s) of MPI callers: [ 1 2 3 ]
Extrae: Resource usage is disabled at flush buffer.
Extrae: Memory usage is disabled at flush buffer.
Extrae: Tracing buffer can hold 5000000 events
Extrae: Circular buffer disabled.
Extrae: Sampling buffers will be written at instrumentation points
Extrae: Dynamic memory instrumentation is disabled.
Extrae: Basic I/O memory instrumentation is disabled.
Extrae: System calls instrumentation is disabled.
Extrae: Parsing the configuration file (./extrae.xml) has ended
Extrae: Intermediate traces will be stored in /gpfs/projects/bsc99/bsc99206/KNOSOS/runs/extrae_input2
Extrae: Tracing mode is set to: Detail.
Extrae: Successfully initiated with 10 tasks and 1 threads

Extrae: Temporal directory (/gpfs/projects/bsc99/bsc99206/KNOSOS/runs/extrae_input2) is shared among processes.
Extrae: Final directory (/gpfs/projects/bsc99/bsc99206/KNOSOS/runs/extrae_input2) is shared among processes.
Extrae: Successfully initiated with 10 tasks and 1 threads

Extrae: Intermediate raw trace file created : /gpfs/projects/bsc99/bsc99206/KNOSOS/runs/extrae_input2/set-0/TRACE@s15r2b01.0000031044000001000000.mpit
Extrae: Intermediate raw sym file created : /gpfs/projects/bsc99/bsc99206/KNOSOS/runs/extrae_input2/set-0/TRACE@s15r2b01.0000031044000001000000.sym
Extrae: Intermediate raw trace file created : /gpfs/projects/bsc99/bsc99206/KNOSOS/runs/extrae_input2/set-0/TRACE@s15r2b01.0000031043000004000000.mpit
Extrae: Intermediate raw trace file created : /gpfs/projects/bsc99/bsc99206/KNOSOS/runs/extrae_input2/set-0/TRACE@s15r2b01.0000031040000009000000.mpit
Extrae: Intermediate raw trace file created : /gpfs/projects/bsc99/bsc99206/KNOSOS/runs/extrae_input2/set-0/TRACE@s15r2b01.0000031039000003000000.mpit
Extrae: Intermediate raw trace file created : /gpfs/projects/bsc99/bsc99206/KNOSOS/runs/extrae_input2/set-0/TRACE@s15r2b01.0000031038000007000000.mpit
Extrae: Intermediate raw trace file created : /gpfs/projects/bsc99/bsc99206/KNOSOS/runs/extrae_input2/set-0/TRACE@s15r2b01.0000031036000008000000.mpit
Extrae: Intermediate raw trace file created : /gpfs/projects/bsc99/bsc99206/KNOSOS/runs/extrae_input2/set-0/TRACE@s15r2b01.0000031035000002000000.mpit
Extrae: Intermediate raw trace file created : /gpfs/projects/bsc99/bsc99206/KNOSOS/runs/extrae_input2/set-0/TRACE@s15r2b01.0000031041000006000000.mpit
Extrae: Intermediate raw trace file created : /gpfs/projects/bsc99/bsc99206/KNOSOS/runs/extrae_input2/set-0/TRACE@s15r2b01.0000031037000000000000.mpit
Extrae: Intermediate raw trace file created : /gpfs/projects/bsc99/bsc99206/KNOSOS/runs/extrae_input2/set-0/TRACE@s15r2b01.0000031042000005000000.mpit
Extrae: Intermediate raw sym file created : /gpfs/projects/bsc99/bsc99206/KNOSOS/runs/extrae_input2/set-0/TRACE@s15r2b01.0000031040000009000000.sym
Extrae: Intermediate raw sym file created : /gpfs/projects/bsc99/bsc99206/KNOSOS/runs/extrae_input2/set-0/TRACE@s15r2b01.0000031039000003000000.sym
Extrae: Intermediate raw sym file created : /gpfs/projects/bsc99/bsc99206/KNOSOS/runs/extrae_input2/set-0/TRACE@s15r2b01.0000031043000004000000.sym
Extrae: Intermediate raw sym file created : /gpfs/projects/bsc99/bsc99206/KNOSOS/runs/extrae_input2/set-0/TRACE@s15r2b01.0000031042000005000000.sym
Extrae: Intermediate raw sym file created : /gpfs/projects/bsc99/bsc99206/KNOSOS/runs/extrae_input2/set-0/TRACE@s15r2b01.0000031038000007000000.sym
Extrae: Intermediate raw sym file created : /gpfs/projects/bsc99/bsc99206/KNOSOS/runs/extrae_input2/set-0/TRACE@s15r2b01.0000031035000002000000.sym
Extrae: Intermediate raw sym file created : /gpfs/projects/bsc99/bsc99206/KNOSOS/runs/extrae_input2/set-0/TRACE@s15r2b01.0000031036000008000000.sym
Extrae: Intermediate raw sym file created : /gpfs/projects/bsc99/bsc99206/KNOSOS/runs/extrae_input2/set-0/TRACE@s15r2b01.0000031037000000000000.sym
Extrae: Intermediate raw sym file created : /gpfs/projects/bsc99/bsc99206/KNOSOS/runs/extrae_input2/set-0/TRACE@s15r2b01.0000031041000006000000.sym
Extrae: Deallocating memory.
Extrae: Application has ended. Tracing has been terminated.
mpi2prv: Proceeding with the merge of the intermediate tracefiles.
mpi2prv: Executing the merge process (using /gpfs/projects/bsc99/bsc99206/KNOSOS/runs/extrae_input2/TRACE.mpits).
merger: Extrae 4.0.1
mpi2prv: Tree order is set to 16 but is larger that numtasks. Setting tree order to 10
mpi2prv: Assigned nodes < s15r2b01, s15r2b01, s15r2b01, s15r2b01, s15r2b01, s15r2b01, s15r2b01, s15r2b01, s15r2b01, s15r2b01 >
mpi2prv: Assigned size per processor < <1 Mbyte, <1 Mbyte, <1 Mbyte, <1 Mbyte, <1 Mbyte, <1 Mbyte, <1 Mbyte, <1 Mbyte, <1 Mbyte, <1 Mbyte >
mpi2prv: File /gpfs/projects/bsc99/bsc99206/KNOSOS/runs/extrae_input2/set-0/TRACE@s15r2b01.0000031037000000000000.mpit is object 1.1.1 on node s15r2b01 assigned to processor 0
mpi2prv: File /gpfs/projects/bsc99/bsc99206/KNOSOS/runs/extrae_input2/set-0/TRACE@s15r2b01.0000031044000001000000.mpit is object 1.2.1 on node s15r2b01 assigned to processor 1
mpi2prv: File /gpfs/projects/bsc99/bsc99206/KNOSOS/runs/extrae_input2/set-0/TRACE@s15r2b01.0000031035000002000000.mpit is object 1.3.1 on node s15r2b01 assigned to processor 2
mpi2prv: File /gpfs/projects/bsc99/bsc99206/KNOSOS/runs/extrae_input2/set-0/TRACE@s15r2b01.0000031039000003000000.mpit is object 1.4.1 on node s15r2b01 assigned to processor 3
mpi2prv: File /gpfs/projects/bsc99/bsc99206/KNOSOS/runs/extrae_input2/set-0/TRACE@s15r2b01.0000031043000004000000.mpit is object 1.5.1 on node s15r2b01 assigned to processor 4
mpi2prv: File /gpfs/projects/bsc99/bsc99206/KNOSOS/runs/extrae_input2/set-0/TRACE@s15r2b01.0000031042000005000000.mpit is object 1.6.1 on node s15r2b01 assigned to processor 5
mpi2prv: File /gpfs/projects/bsc99/bsc99206/KNOSOS/runs/extrae_input2/set-0/TRACE@s15r2b01.0000031041000006000000.mpit is object 1.7.1 on node s15r2b01 assigned to processor 6
mpi2prv: File /gpfs/projects/bsc99/bsc99206/KNOSOS/runs/extrae_input2/set-0/TRACE@s15r2b01.0000031038000007000000.mpit is object 1.8.1 on node s15r2b01 assigned to processor 7
mpi2prv: File /gpfs/projects/bsc99/bsc99206/KNOSOS/runs/extrae_input2/set-0/TRACE@s15r2b01.0000031036000008000000.mpit is object 1.9.1 on node s15r2b01 assigned to processor 8
mpi2prv: File /gpfs/projects/bsc99/bsc99206/KNOSOS/runs/extrae_input2/set-0/TRACE@s15r2b01.0000031040000009000000.mpit is object 1.10.1 on node s15r2b01 assigned to processor 9
mpi2prv: Time synchronization has been turned off
mpi2prv: Checking for target directory existence... exists, ok!
mpi2prv: Selected output trace format is Paraver
mpi2prv: Stored trace format is Paraver
mpi2prv: Enabling Time Synchronization (Node).
mpi2prv: Circular buffer enabled at tracing time? NO
mpi2prv: Parsing intermediate files
mpi2prv: Processor 1 succeeded to translate its assigned files
mpi2prv: Processor 8 succeeded to translate its assigned files
mpi2prv: Processor 0 succeeded to translate its assigned files
mpi2prv: Processor 2 succeeded to translate its assigned files
mpi2prv: Processor 3 succeeded to translate its assigned files
mpi2prv: Processor 4 succeeded to translate its assigned files
mpi2prv: Processor 7 succeeded to translate its assigned files
mpi2prv: Processor 9 succeeded to translate its assigned files
mpi2prv: Processor 5 succeeded to translate its assigned files
mpi2prv: Processor 6 succeeded to translate its assigned files
mpi2prv: Elapsed time translating files: 0 hours 0 minutes 0 seconds
mpi2prv: Gathering addresses across processors... done
mpi2prv: Elapsed time broadcasting and sorting addresses: 0 hours 0 minutes 0 seconds
mpi2prv: Starting the distribution of foreign receives.
mpi2prv: Processor 0 is storing 0 foreign receives (0 Kbytes) for the next phase.
mpi2prv: Ended the distribution of foreign receives.
mpi2prv: Processor 1 is storing 0 foreign receives (0 Kbytes) for the next phase.
mpi2prv: Processor 2 is storing 0 foreign receives (0 Kbytes) for the next phase.
mpi2prv: Processor 3 is storing 0 foreign receives (0 Kbytes) for the next phase.
mpi2prv: Processor 4 is storing 0 foreign receives (0 Kbytes) for the next phase.
mpi2prv: Processor 5 is storing 0 foreign receives (0 Kbytes) for the next phase.
mpi2prv: Processor 6 is storing 0 foreign receives (0 Kbytes) for the next phase.
mpi2prv: Processor 7 is storing 0 foreign receives (0 Kbytes) for the next phase.
mpi2prv: Processor 8 is storing 0 foreign receives (0 Kbytes) for the next phase.
mpi2prv: Processor 9 is storing 0 foreign receives (0 Kbytes) for the next phase.
mpi2prv: Sharing information < MPI OpenMP pthread CUDA HWC MISC callers files >
mpi2prv: Elapsed time sharing communications: 0 hours 0 minutes 0 seconds
mpi2prv: Sharing thread accounting information for ptask 0 done
mpi2prv: Merge tree depth for 10 tasks is 1 levels using a fan-out of 10 leaves
mpi2prv: Executing merge tree step 1 of 1.
mpi2prv: Generating tracefile (intermediate buffers of 61007 events)
         This process can take a while. Please, be patient.
mpi2prv: Progress ... 5% 10% 15% 20% 25% 30% 35% 40% 45% 50% 55% 60% 65% 70% 75% 80% 85% 90% 95% done
mpi2prv: Elapsed time on tree step 1: 0 hours 0 minutes 0 seconds
mpi2prv: Resulting tracefile occupies 48438 bytes
mpi2prv: Removing temporal files... done
mpi2prv: Elapsed time removing temporal files: 0 hours 0 minutes 0 seconds
mpi2prv: Congratulations! knosos.x.0007.prv has been generated.
