remove fftw/3.3.10 (FFTW_CFLAGS, FFTW_FFLAGS, FFTW_LDFLAGS, FFTW_INCL, FFTW_LIBS, LD_LIBRARY_PATH, C_INCLUDE_PATH)
remove netcdf-fortran/4.4.4 (PATH, LD_LIBRARY_PATH, C_INCLUDE_PATH, CPLUS_INCLUDE_PATH, PKG_CONFIG_PATH, NETCDF, HDF5/1.10.8 is used internally)
remove netcdf-c/4.4.1.1_hdf5-1.10.8 (PATH, LD_LIBRARY_PATH, C_INCLUDE_PATH, CPLUS_INCLUDE_PATH, PKG_CONFIG_PATH, NETCDF, HDF5/1.10.8 is used internally)
Removing mkl version 2021.4.0
Removing tbb version 2021.4.0
Removing mpi version 2021.4.0
Removing 2021.4.0 version compilers
Removing compiler-rt version 2021.4.0
Loading 2021.4.0 version compilers
Loading compiler-rt version 2021.4.0
Loading mpi version 2021.4.0
Loading mkl version 2021.4.0
Loading tbb version 2021.4.0
load netcdf-c/4.4.1.1_hdf5-1.10.8 (PATH, LD_LIBRARY_PATH, C_INCLUDE_PATH, CPLUS_INCLUDE_PATH, PKG_CONFIG_PATH, NETCDF, HDF5/1.10.8 is used internally)
load netcdf-fortran/4.4.4 (PATH, LD_LIBRARY_PATH, C_INCLUDE_PATH, CPLUS_INCLUDE_PATH, PKG_CONFIG_PATH, NETCDF, HDF5/1.10.8 is used internally)
load fftw/3.3.10 (FFTW_CFLAGS, FFTW_FFLAGS, FFTW_LDFLAGS, FFTW_INCL, FFTW_LIBS, LD_LIBRARY_PATH, C_INCLUDE_PATH)

real	0m10,054s
user	0m0,012s
sys	0m0,019s
