 I am process           0 running is and jerr           1           1
           0
 I am process           1 running is and jerr           2           1
           1
 I am process           2 running is and jerr           3           1
           2
 I am process           3 running is and jerr           4           1
           3
 I am process           4 running is and jerr           5           1
           4
 I am process           9 running is and jerr          10           1
           9
 I am process          10 running is and jerr          11           1
          10
 Process          10 finished solver
 Process          10 ready to transport
 I am process           5 running is and jerr           6           1
           5
 I am process           7 running is and jerr           8           1
           7
 I am process          14 running is and jerr          15           1
          14
 I am process           8 running is and jerr           9           1
           8
 I am process           6 running is and jerr           7           1
           6
 Process           7 finished solver
 Process           7 ready to transport
 Process          14 finished solver
 Process          14 ready to transport
 Process           8 finished solver
 Process           8 ready to transport
 Process           6 finished solver
 Process           6 ready to transport
 I am process          12 running is and jerr          13           1
          12
 Process          12 finished solver
 Process          12 ready to transport
 I am process          17 running is and jerr          18           1
          17
 I am process          13 running is and jerr          14           1
          13
 Process          17 finished solver
 Process          17 ready to transport
 I am process          11 running is and jerr          12           1
          11
 Process          13 finished solver
 Process          13 ready to transport
 I am process          15 running is and jerr          16           1
          15
 Process          11 finished solver
 Process          11 ready to transport
 I am process          18 running is and jerr          19           1
          18
 Process          15 finished solver
 Process          15 ready to transport
 Process          18 finished solver
 Process          18 ready to transport
 I am process          16 running is and jerr          17           1
          16
 Process          16 finished solver
 Process          16 ready to transport
 I am process          19 running is and jerr          20           1
          19
 Process          19 finished solver
 Process          19 ready to transport
 I am process          20 running is and jerr          21           1
          20
 Process          20 finished solver
 Process          20 ready to transport
 Process           9 finished solver
 Process           9 ready to transport
 Process           4 finished solver
 Process           4 ready to transport
 Process           3 finished solver
 Process           3 ready to transport
 Process           2 finished solver
 Process           2 ready to transport
 Process           1 finished solver
 Process           1 ready to transport
 Process           0 finished solver
 Process           0 ready to transport
 Process           5 finished solver
 Process           5 ready to transport
