Set INTEL compilers as MPI wrappers backend 
remove impi/2018.4 (PATH, MANPATH, LD_LIBRARY_PATH) 
load impi/2018.4 (PATH, MANPATH, LD_LIBRARY_PATH) 
remove mkl/2018.4 (LD_LIBRARY_PATH) 
load mkl/2018.4 (LD_LIBRARY_PATH) 
remove netcdf/4.4.1.1 (PATH, LD_LIBRARY_PATH, NETCDF, HDF5/1.8.19 is used
internally) 
load netcdf/4.4.1.1 (PATH, LD_LIBRARY_PATH, NETCDF, HDF5/1.8.19 is used
internally) 

real	6m54.479s
user	0m0.022s
sys	0m0.017s
