s E_r[V/m] (\Gamma_b/n_b[m/s]  Q_b/n_b/T_b[m/s] L_1^b[m^2/s] L_2^b[m^2/s]  Z_b n_b[10^{19}m^{-3}] dlnn_b/dr[m^{-1}] T_b[eV] dlnT_b/dr[m^{-1}], b=1,NBB), size(e\varphi_1/T_i) 
  7.00000E-01 -1.99442E+04  2.14915E-02  6.39923E-02  7.45405E-04  2.74943E-03  4.94685E+00 -1.99078E+00  3.13449E+02 -9.24373E+00 -1.00000E+00 -4.82721E-01 -1.11953E+00  3.19274E-02  1.19727E-01  4.94685E+00 -1.99078E+00  3.17323E+02 -1.14649E+01  1.00000E+00  1.43597-109  0.00000E+00          NaN
  7.00000E-01 -1.92055E+04  2.08348E-02  6.22374E-02  7.45438E-04  2.74944E-03  4.94685E+00 -1.99078E+00  3.13449E+02 -9.24373E+00 -1.00000E+00 -4.57805E-01 -1.04540E+00  3.19300E-02  1.19728E-01  4.94685E+00 -1.99078E+00  3.17323E+02 -1.14649E+01  1.00000E+00  1.43597-109  0.00000E+00          NaN
  7.00000E-01 -1.84668E+04  2.01776E-02  6.04824E-02  7.45472E-04  2.74945E-03  4.94685E+00 -1.99078E+00  3.13449E+02 -9.24373E+00 -1.00000E+00 -4.32883E-01 -9.71256E-01  3.19328E-02  1.19729E-01  4.94685E+00 -1.99078E+00  3.17323E+02 -1.14649E+01  1.00000E+00  1.43597-109  0.00000E+00          NaN
  7.00000E-01 -1.77282E+04  1.95199E-02  5.87272E-02  7.45506E-04  2.74946E-03  4.94685E+00 -1.99078E+00  3.13449E+02 -9.24373E+00 -1.00000E+00 -4.07952E-01 -8.97112E-01  3.19357E-02  1.19731E-01  4.94685E+00 -1.99078E+00  3.17323E+02 -1.14649E+01  1.00000E+00  1.43597-109  0.00000E+00          NaN
  7.00000E-01 -1.69895E+04  1.88617E-02  5.69719E-02  7.45541E-04  2.74947E-03  4.94685E+00 -1.99078E+00  3.13449E+02 -9.24373E+00 -1.00000E+00 -3.83013E-01 -8.22963E-01  3.19388E-02  1.19732E-01  4.94685E+00 -1.99078E+00  3.17323E+02 -1.14649E+01  1.00000E+00  1.43597-109  0.00000E+00          NaN
  7.00000E-01 -1.62508E+04  1.82030E-02  5.52165E-02  7.45576E-04  2.74948E-03  4.94685E+00 -1.99078E+00  3.13449E+02 -9.24373E+00 -1.00000E+00 -3.58064E-01 -7.48808E-01  3.19419E-02  1.19734E-01  4.94685E+00 -1.99078E+00  3.17323E+02 -1.14649E+01  1.00000E+00  1.43597-109  0.00000E+00          NaN
  7.00000E-01 -1.55121E+04  1.75439E-02  5.34609E-02  7.45612E-04  2.74949E-03  4.94685E+00 -1.99078E+00  3.13449E+02 -9.24373E+00 -1.00000E+00 -3.33104E-01 -6.74647E-01  3.19453E-02  1.19736E-01  4.94685E+00 -1.99078E+00  3.17323E+02 -1.14649E+01  1.00000E+00  1.43597-109  0.00000E+00          NaN
  7.00000E-01 -1.47735E+04  1.68842E-02  5.17051E-02  7.45649E-04  2.74950E-03  4.94685E+00 -1.99078E+00  3.13449E+02 -9.24373E+00 -1.00000E+00 -3.08130E-01 -6.00478E-01  3.19487E-02  1.19737E-01  4.94685E+00 -1.99078E+00  3.17323E+02 -1.14649E+01  1.00000E+00  1.43597-109  0.00000E+00          NaN
  7.00000E-01 -1.40348E+04  1.62240E-02  4.99493E-02  7.45687E-04  2.74951E-03  4.94685E+00 -1.99078E+00  3.13449E+02 -9.24373E+00 -1.00000E+00 -2.83143E-01 -5.26300E-01  3.19523E-02  1.19739E-01  4.94685E+00 -1.99078E+00  3.17323E+02 -1.14649E+01  1.00000E+00  1.43597-109  0.00000E+00          NaN
  7.00000E-01 -1.32961E+04  1.55632E-02  4.81933E-02  7.45726E-04  2.74952E-03  4.94685E+00 -1.99078E+00  3.13449E+02 -9.24373E+00 -1.00000E+00 -2.58140E-01 -4.52114E-01  3.19561E-02  1.19741E-01  4.94685E+00 -1.99078E+00  3.17323E+02 -1.14649E+01  1.00000E+00  1.43597-109  0.00000E+00          NaN
  7.00000E-01 -1.25575E+04  1.49019E-02  4.64371E-02  7.45767E-04  2.74952E-03  4.94685E+00 -1.99078E+00  3.13449E+02 -9.24373E+00 -1.00000E+00 -2.33120E-01 -3.77918E-01  3.19600E-02  1.19743E-01  4.94685E+00 -1.99078E+00  3.17323E+02 -1.14649E+01  1.00000E+00  1.43597-109  0.00000E+00          NaN
  7.00000E-01 -1.18188E+04  1.42398E-02  4.46808E-02  7.45810E-04  2.74953E-03  4.94685E+00 -1.99078E+00  3.13449E+02 -9.24373E+00 -1.00000E+00 -2.08081E-01 -3.03711E-01  3.19640E-02  1.19745E-01  4.94685E+00 -1.99078E+00  3.17323E+02 -1.14649E+01  1.00000E+00  1.43597-109  0.00000E+00          NaN
  7.00000E-01 -1.10801E+04  1.35770E-02  4.29244E-02  7.45855E-04  2.74954E-03  4.94685E+00 -1.99078E+00  3.13449E+02 -9.24373E+00 -1.00000E+00 -1.83023E-01 -2.29492E-01  3.19682E-02  1.19747E-01  4.94685E+00 -1.99078E+00  3.17323E+02 -1.14649E+01  1.00000E+00  1.43597-109  0.00000E+00          NaN
  7.00000E-01 -1.03414E+04  1.29134E-02  4.11678E-02  7.45902E-04  2.74955E-03  4.94685E+00 -1.99078E+00  3.13449E+02 -9.24373E+00 -1.00000E+00 -1.57943E-01 -1.55260E-01  3.19726E-02  1.19749E-01  4.94685E+00 -1.99078E+00  3.17323E+02 -1.14649E+01  1.00000E+00  1.43597-109  0.00000E+00          NaN
  7.00000E-01 -9.60276E+03  1.22489E-02  3.94110E-02  7.45952E-04  2.74956E-03  4.94685E+00 -1.99078E+00  3.13449E+02 -9.24373E+00 -1.00000E+00 -1.32840E-01 -8.10156E-02  3.19771E-02  1.19751E-01  4.94685E+00 -1.99078E+00  3.17323E+02 -1.14649E+01  1.00000E+00  1.43597-109  0.00000E+00          NaN
  7.00000E-01 -8.86408E+03  1.15832E-02  3.76541E-02  7.46005E-04  2.74957E-03  4.94685E+00 -1.99078E+00  3.13449E+02 -9.24373E+00 -1.00000E+00 -1.07714E-01 -6.75674E-03  3.19818E-02  1.19753E-01  4.94685E+00 -1.99078E+00  3.17323E+02 -1.14649E+01  1.00000E+00  1.43597-109  0.00000E+00          NaN
  7.00000E-01 -8.12541E+03  1.09163E-02  3.58969E-02  7.46061E-04  2.74958E-03  4.94685E+00 -1.99078E+00  3.13449E+02 -9.24373E+00 -1.00000E+00 -8.25631E-02  6.75168E-02  3.19867E-02  1.19755E-01  4.94685E+00 -1.99078E+00  3.17323E+02 -1.14649E+01  1.00000E+00  1.43597-109  0.00000E+00          NaN
  7.00000E-01 -7.38674E+03  1.02478E-02  3.41395E-02  7.46122E-04  2.74959E-03  4.94685E+00 -1.99078E+00  3.13449E+02 -9.24373E+00 -1.00000E+00 -5.73867E-02  1.41806E-01  3.19918E-02  1.19757E-01  4.94685E+00 -1.99078E+00  3.17323E+02 -1.14649E+01  1.00000E+00  1.43597-109  0.00000E+00          NaN
  7.00000E-01 -6.64806E+03  9.57757E-03  3.23819E-02  7.46185E-04  2.74960E-03  4.94685E+00 -1.99078E+00  3.13449E+02 -9.24373E+00 -1.00000E+00 -3.21834E-02  2.16110E-01  3.19972E-02  1.19760E-01  4.94685E+00 -1.99078E+00  3.17323E+02 -1.14649E+01  1.00000E+00  1.43597-109  0.00000E+00          NaN
  7.00000E-01 -5.90939E+03  8.90531E-03  3.06240E-02  7.46253E-04  2.74961E-03  4.94685E+00 -1.99078E+00  3.13449E+02 -9.24373E+00 -1.00000E+00 -6.95118E-03  2.90431E-01  3.20027E-02  1.19762E-01  4.94685E+00 -1.99078E+00  3.17323E+02 -1.14649E+01  1.00000E+00  1.43597-109  0.00000E+00          NaN
  7.00000E-01 -5.17072E+03  8.23072E-03  2.88658E-02  7.46323E-04  2.74962E-03  4.94685E+00 -1.99078E+00  3.13449E+02 -9.24373E+00 -1.00000E+00  1.83134E-02  3.64770E-01  3.20086E-02  1.19764E-01  4.94685E+00 -1.99078E+00  3.17323E+02 -1.14649E+01  1.00000E+00  1.43597-109  0.00000E+00          NaN
  7.00000E-01 -4.43204E+03  7.55353E-03  2.71073E-02  7.46394E-04  2.74963E-03  4.94685E+00 -1.99078E+00  3.13449E+02 -9.24373E+00 -1.00000E+00  4.36165E-02  4.39128E-01  3.20147E-02  1.19767E-01  4.94685E+00 -1.99078E+00  3.17323E+02 -1.14649E+01  1.00000E+00  1.43597-109  0.00000E+00          NaN
  7.00000E-01 -3.69337E+03  6.87356E-03  2.53484E-02  7.46465E-04  2.74964E-03  4.94685E+00 -1.99078E+00  3.13449E+02 -9.24373E+00 -1.00000E+00  6.89670E-02  5.13509E-01  3.20211E-02  1.19769E-01  4.94685E+00 -1.99078E+00  3.17323E+02 -1.14649E+01  1.00000E+00  1.43597-109  0.00000E+00          NaN
  7.00000E-01 -2.95469E+03  6.19072E-03  2.35893E-02  7.46534E-04  2.74965E-03  4.94685E+00 -1.99078E+00  3.13449E+02 -9.24373E+00 -1.00000E+00  9.43766E-02  5.87916E-01  3.20275E-02  1.19771E-01  4.94685E+00 -1.99078E+00  3.17323E+02 -1.14649E+01  1.00000E+00  1.43597-109  0.00000E+00          NaN
  7.00000E-01 -2.21602E+03  5.50513E-03  2.18298E-02  7.46597E-04  2.74967E-03  4.94685E+00 -1.99078E+00  3.13449E+02 -9.24373E+00 -1.00000E+00  1.19851E-01  6.62353E-01  3.20339E-02  1.19773E-01  4.94685E+00 -1.99078E+00  3.17323E+02 -1.14649E+01  1.00000E+00  1.43597-109  0.00000E+00          NaN
  7.00000E-01 -1.47735E+03  4.81714E-03  2.00701E-02  7.46652E-04  2.74968E-03  4.94685E+00 -1.99078E+00  3.13449E+02 -9.24373E+00 -1.00000E+00  1.45365E-01  7.36821E-01  3.20401E-02  1.19775E-01  4.94685E+00 -1.99078E+00  3.17323E+02 -1.14649E+01  1.00000E+00  1.43597-109  0.00000E+00          NaN
  7.00000E-01 -7.38674E+02  4.12701E-03  1.83102E-02  7.46697E-04  2.74969E-03  4.94685E+00 -1.99078E+00  3.13449E+02 -9.24373E+00 -1.00000E+00  1.70783E-01  8.11306E-01  3.20467E-02  1.19777E-01  4.94685E+00 -1.99078E+00  3.17323E+02 -1.14649E+01  1.00000E+00  1.43597-109  0.00000E+00          NaN
  7.00000E-01 -1.55796E-12  3.39707E-03  1.65493E-02  7.46811E-04  2.74970E-03  4.94685E+00 -1.99078E+00  3.13449E+02 -9.24373E+00 -1.00000E+00  1.96002E-01  8.85817E-01  3.20535E-02  1.19778E-01  4.94685E+00 -1.99078E+00  3.17323E+02 -1.14649E+01  1.00000E+00  1.43597-109  0.00000E+00          NaN
  7.00000E-01  7.38674E+02  2.75277E-03  1.47908E-02  7.46697E-04  2.74969E-03  4.94685E+00 -1.99078E+00  3.13449E+02 -9.24373E+00 -1.00000E+00  2.22991E-01  9.60505E-01  3.20467E-02  1.19777E-01  4.94685E+00 -1.99078E+00  3.17323E+02 -1.14649E+01  1.00000E+00  1.43597-109  0.00000E+00          NaN
  7.00000E-01  1.47735E+03  2.07317E-03  1.30318E-02  7.46652E-04  2.74968E-03  4.94685E+00 -1.99078E+00  3.13449E+02 -9.24373E+00 -1.00000E+00  2.49423E-01  1.03516E+00  3.20401E-02  1.19775E-01  4.94685E+00 -1.99078E+00  3.17323E+02 -1.14649E+01  1.00000E+00  1.43597-109  0.00000E+00          NaN
  7.00000E-01  2.21602E+03  1.39652E-03  1.12732E-02  7.46597E-04  2.74967E-03  4.94685E+00 -1.99078E+00  3.13449E+02 -9.24373E+00 -1.00000E+00  2.75580E-01  1.10977E+00  3.20339E-02  1.19773E-01  4.94685E+00 -1.99078E+00  3.17323E+02 -1.14649E+01  1.00000E+00  1.43597-109  0.00000E+00          NaN
  7.00000E-01  2.95469E+03  7.23388E-04  9.51499E-03  7.46534E-04  2.74965E-03  4.94685E+00 -1.99078E+00  3.13449E+02 -9.24373E+00 -1.00000E+00  3.01594E-01  1.18435E+00  3.20275E-02  1.19771E-01  4.94685E+00 -1.99078E+00  3.17323E+02 -1.14649E+01  1.00000E+00  1.43597-109  0.00000E+00          NaN
  7.00000E-01  3.69337E+03  5.35295E-05  7.75722E-03  7.46465E-04  2.74964E-03  4.94685E+00 -1.99078E+00  3.13449E+02 -9.24373E+00 -1.00000E+00  3.27498E-01  1.25890E+00  3.20211E-02  1.19769E-01  4.94685E+00 -1.99078E+00  3.17323E+02 -1.14649E+01  1.00000E+00  1.43597-109  0.00000E+00          NaN
  7.00000E-01  4.43204E+03 -6.13418E-04  5.99985E-03  7.46394E-04  2.74963E-03  4.94685E+00 -1.99078E+00  3.13449E+02 -9.24373E+00 -1.00000E+00  3.53302E-01  1.33342E+00  3.20147E-02  1.19767E-01  4.94685E+00 -1.99078E+00  3.17323E+02 -1.14649E+01  1.00000E+00  1.43597-109  0.00000E+00          NaN
  7.00000E-01  5.17072E+03 -1.27789E-03  4.24282E-03  7.46323E-04  2.74962E-03  4.94685E+00 -1.99078E+00  3.13449E+02 -9.24373E+00 -1.00000E+00  3.79019E-01  1.40792E+00  3.20086E-02  1.19764E-01  4.94685E+00 -1.99078E+00  3.17323E+02 -1.14649E+01  1.00000E+00  1.43597-109  0.00000E+00          NaN
  7.00000E-01  5.90939E+03 -1.94034E-03  2.48609E-03  7.46253E-04  2.74961E-03  4.94685E+00 -1.99078E+00  3.13449E+02 -9.24373E+00 -1.00000E+00  4.04660E-01  1.48238E+00  3.20027E-02  1.19762E-01  4.94685E+00 -1.99078E+00  3.17323E+02 -1.14649E+01  1.00000E+00  1.43597-109  0.00000E+00          NaN
  7.00000E-01  6.64806E+03 -2.60120E-03  7.29590E-04  7.46185E-04  2.74960E-03  4.94685E+00 -1.99078E+00  3.13449E+02 -9.24373E+00 -1.00000E+00  4.30233E-01  1.55682E+00  3.19972E-02  1.19760E-01  4.94685E+00 -1.99078E+00  3.17323E+02 -1.14649E+01  1.00000E+00  1.43597-109  0.00000E+00          NaN
  7.00000E-01  7.38674E+03 -3.26083E-03 -1.02671E-03  7.46122E-04  2.74959E-03  4.94685E+00 -1.99078E+00  3.13449E+02 -9.24373E+00 -1.00000E+00  4.55747E-01  1.63123E+00  3.19918E-02  1.19757E-01  4.94685E+00 -1.99078E+00  3.17323E+02 -1.14649E+01  1.00000E+00  1.43597-109  0.00000E+00          NaN
  7.00000E-01  8.12541E+03 -3.91955E-03 -2.78284E-03  7.46061E-04  2.74958E-03  4.94685E+00 -1.99078E+00  3.13449E+02 -9.24373E+00 -1.00000E+00  4.81208E-01  1.70563E+00  3.19867E-02  1.19755E-01  4.94685E+00 -1.99078E+00  3.17323E+02 -1.14649E+01  1.00000E+00  1.43597-109  0.00000E+00          NaN
  7.00000E-01  8.86408E+03 -4.57758E-03 -4.53883E-03  7.46005E-04  2.74957E-03  4.94685E+00 -1.99078E+00  3.13449E+02 -9.24373E+00 -1.00000E+00  5.06621E-01  1.78000E+00  3.19818E-02  1.19753E-01  4.94685E+00 -1.99078E+00  3.17323E+02 -1.14649E+01  1.00000E+00  1.43597-109  0.00000E+00          NaN
  7.00000E-01  9.60276E+03 -5.23510E-03 -6.29469E-03  7.45952E-04  2.74956E-03  4.94685E+00 -1.99078E+00  3.13449E+02 -9.24373E+00 -1.00000E+00  5.31990E-01  1.85435E+00  3.19771E-02  1.19751E-01  4.94685E+00 -1.99078E+00  3.17323E+02 -1.14649E+01  1.00000E+00  1.43597-109  0.00000E+00          NaN
  7.00000E-01  1.03414E+04 -5.89222E-03 -8.05044E-03  7.45902E-04  2.74955E-03  4.94685E+00 -1.99078E+00  3.13449E+02 -9.24373E+00 -1.00000E+00  5.57320E-01  1.92869E+00  3.19726E-02  1.19749E-01  4.94685E+00 -1.99078E+00  3.17323E+02 -1.14649E+01  1.00000E+00  1.43597-109  0.00000E+00          NaN
  7.00000E-01  1.10801E+04 -6.54903E-03 -9.80609E-03  7.45855E-04  2.74954E-03  4.94685E+00 -1.99078E+00  3.13449E+02 -9.24373E+00 -1.00000E+00  5.82612E-01  2.00300E+00  3.19682E-02  1.19747E-01  4.94685E+00 -1.99078E+00  3.17323E+02 -1.14649E+01  1.00000E+00  1.43597-109  0.00000E+00          NaN
  7.00000E-01  1.18188E+04 -7.20558E-03 -1.15616E-02  7.45810E-04  2.74953E-03  4.94685E+00 -1.99078E+00  3.13449E+02 -9.24373E+00 -1.00000E+00  6.07870E-01  2.07730E+00  3.19640E-02  1.19745E-01  4.94685E+00 -1.99078E+00  3.17323E+02 -1.14649E+01  1.00000E+00  1.43597-109  0.00000E+00          NaN
  7.00000E-01  1.25575E+04 -7.86189E-03 -1.33171E-02  7.45767E-04  2.74952E-03  4.94685E+00 -1.99078E+00  3.13449E+02 -9.24373E+00 -1.00000E+00  6.33097E-01  2.15159E+00  3.19600E-02  1.19743E-01  4.94685E+00 -1.99078E+00  3.17323E+02 -1.14649E+01  1.00000E+00  1.43597-109  0.00000E+00          NaN
  7.00000E-01  1.32961E+04 -8.51798E-03 -1.50724E-02  7.45726E-04  2.74952E-03  4.94685E+00 -1.99078E+00  3.13449E+02 -9.24373E+00 -1.00000E+00  6.58295E-01  2.22586E+00  3.19561E-02  1.19741E-01  4.94685E+00 -1.99078E+00  3.17323E+02 -1.14649E+01  1.00000E+00  1.43597-109  0.00000E+00          NaN
  7.00000E-01  1.40348E+04 -9.17386E-03 -1.68277E-02  7.45687E-04  2.74951E-03  4.94685E+00 -1.99078E+00  3.13449E+02 -9.24373E+00 -1.00000E+00  6.83466E-01  2.30012E+00  3.19523E-02  1.19739E-01  4.94685E+00 -1.99078E+00  3.17323E+02 -1.14649E+01  1.00000E+00  1.43597-109  0.00000E+00          NaN
  7.00000E-01  1.47735E+04 -9.82951E-03 -1.85828E-02  7.45649E-04  2.74950E-03  4.94685E+00 -1.99078E+00  3.13449E+02 -9.24373E+00 -1.00000E+00  7.08613E-01  2.37436E+00  3.19487E-02  1.19737E-01  4.94685E+00 -1.99078E+00  3.17323E+02 -1.14649E+01  1.00000E+00  1.43597-109  0.00000E+00          NaN
  7.00000E-01  1.55121E+04 -1.04849E-02 -2.03378E-02  7.45612E-04  2.74949E-03  4.94685E+00 -1.99078E+00  3.13449E+02 -9.24373E+00 -1.00000E+00  7.33737E-01  2.44860E+00  3.19453E-02  1.19736E-01  4.94685E+00 -1.99078E+00  3.17323E+02 -1.14649E+01  1.00000E+00  1.43597-109  0.00000E+00          NaN
  7.00000E-01  1.62508E+04 -1.11401E-02 -2.20927E-02  7.45576E-04  2.74948E-03  4.94685E+00 -1.99078E+00  3.13449E+02 -9.24373E+00 -1.00000E+00  7.58840E-01  2.52282E+00  3.19419E-02  1.19734E-01  4.94685E+00 -1.99078E+00  3.17323E+02 -1.14649E+01  1.00000E+00  1.43597-109  0.00000E+00          NaN
  7.00000E-01 -5.90939E+03  8.90531E-03  3.06240E-02  7.46253E-04  2.74961E-03  4.94685E+00 -1.99078E+00  3.13449E+02 -9.24373E+00 -1.00000E+00 -6.95118E-03  2.90431E-01  3.20027E-02  1.19762E-01  4.94685E+00 -1.99078E+00  3.17323E+02 -1.14649E+01  1.00000E+00  1.43597-109  0.00000E+00          NaN
  7.00000E-01 -5.17072E+03  8.23072E-03  2.88658E-02  7.46323E-04  2.74962E-03  4.94685E+00 -1.99078E+00  3.13449E+02 -9.24373E+00 -1.00000E+00  1.83134E-02  3.64770E-01  3.20086E-02  1.19764E-01  4.94685E+00 -1.99078E+00  3.17323E+02 -1.14649E+01  1.00000E+00  1.43597-109  0.00000E+00          NaN
  7.00000E-01 -5.54005E+03  8.56833E-03  2.97450E-02  7.46287E-04  2.74962E-03  4.94685E+00 -1.99078E+00  3.13449E+02 -9.24373E+00 -1.00000E+00  5.67678E-03  3.27599E-01  3.20056E-02  1.19763E-01  4.94685E+00 -1.99078E+00  3.17323E+02 -1.14649E+01  1.00000E+00  1.43597-109  0.00000E+00          NaN
  7.00000E-01 -5.35538E+03  8.39960E-03  2.93054E-02  7.46305E-04  2.74962E-03  4.94685E+00 -1.99078E+00  3.13449E+02 -9.24373E+00 -1.00000E+00  1.19940E-02  3.46184E-01  3.20071E-02  1.19764E-01  4.94685E+00 -1.99078E+00  3.17323E+02 -1.14649E+01  1.00000E+00  1.43597-109  0.00000E+00          NaN
  7.00000E-01 -5.44772E+03  8.48398E-03  2.95252E-02  7.46296E-04  2.74962E-03  4.94685E+00 -1.99078E+00  3.13449E+02 -9.24373E+00 -1.00000E+00  8.83510E-03  3.36891E-01  3.20064E-02  1.19763E-01  4.94685E+00 -1.99078E+00  3.17323E+02 -1.14649E+01  1.00000E+00  1.43597-109  0.00000E+00          NaN
