s E_r[V/m] (\Gamma_b/n_b[m/s]  Q_b/n_b/T_b[m/s] L_1^b[m^2/s] L_2^b[m^2/s]  Z_b n_b[10^{19}m^{-3}] dlnn_b/dr[m^{-1}] T_b[eV] dlnT_b/dr[m^{-1}], b=1,NBB), size(e\varphi_1/T_i) 
  3.50000E-01 -1.76327E+04  2.95855E-02  9.91761E-02  2.67342E-03  9.99915E-03  5.55698E+00 -4.58748E-01  7.69288E+02 -6.12333E+00 -1.00000E+00 -6.55242E-01 -1.49493E+00  1.13506E-01  4.06278E-01  5.55698E+00 -4.58748E-01  7.88155E+02 -4.20457E+00  1.00000E+00 -2.84156E-64  0.00000E+00          NaN
  3.50000E-01 -1.67511E+04  2.85199E-02  9.61124E-02  2.67343E-03  9.99915E-03  5.55698E+00 -4.58748E-01  7.69288E+02 -6.12333E+00 -1.00000E+00 -6.10344E-01 -1.36782E+00  1.13545E-01  4.06562E-01  5.55698E+00 -4.58748E-01  7.88155E+02 -4.20457E+00  1.00000E+00 -2.84156E-64  0.00000E+00          NaN
  3.50000E-01 -1.58694E+04  2.74542E-02  9.30487E-02  2.67345E-03  9.99915E-03  5.55698E+00 -4.58748E-01  7.69288E+02 -6.12333E+00 -1.00000E+00 -5.65434E-01 -1.24063E+00  1.13584E-01  4.06852E-01  5.55698E+00 -4.58748E-01  7.88155E+02 -4.20457E+00  1.00000E+00 -2.84156E-64  0.00000E+00          NaN
  3.50000E-01 -1.49878E+04  2.63881E-02  8.99849E-02  2.67346E-03  9.99916E-03  5.55698E+00 -4.58748E-01  7.69288E+02 -6.12333E+00 -1.00000E+00 -5.20514E-01 -1.11335E+00  1.13623E-01  4.07130E-01  5.55698E+00 -4.58748E-01  7.88155E+02 -4.20457E+00  1.00000E+00 -2.84156E-64  0.00000E+00          NaN
  3.50000E-01 -1.41061E+04  2.53219E-02  8.69212E-02  2.67347E-03  9.99916E-03  5.55698E+00 -4.58748E-01  7.69288E+02 -6.12333E+00 -1.00000E+00 -4.75589E-01 -9.86030E-01  1.13655E-01  4.07364E-01  5.55698E+00 -4.58748E-01  7.88155E+02 -4.20457E+00  1.00000E+00 -2.84156E-64  0.00000E+00          NaN
  3.50000E-01 -1.32245E+04  2.42553E-02  8.38574E-02  2.67348E-03  9.99916E-03  5.55698E+00 -4.58748E-01  7.69288E+02 -6.12333E+00 -1.00000E+00 -4.30669E-01 -8.58743E-01  1.13674E-01  4.07503E-01  5.55698E+00 -4.58748E-01  7.88155E+02 -4.20457E+00  1.00000E+00 -2.84156E-64  0.00000E+00          NaN
  3.50000E-01 -1.23429E+04  2.31885E-02  8.07935E-02  2.67349E-03  9.99916E-03  5.55698E+00 -4.58748E-01  7.69288E+02 -6.12333E+00 -1.00000E+00 -3.85772E-01 -7.31616E-01  1.13671E-01  4.07482E-01  5.55698E+00 -4.58748E-01  7.88155E+02 -4.20457E+00  1.00000E+00 -2.84156E-64  0.00000E+00          NaN
  3.50000E-01 -1.14612E+04  2.21215E-02  7.77297E-02  2.67350E-03  9.99916E-03  5.55698E+00 -4.58748E-01  7.69288E+02 -6.12333E+00 -1.00000E+00 -3.40921E-01 -6.04818E-01  1.13637E-01  4.07232E-01  5.55698E+00 -4.58748E-01  7.88155E+02 -4.20457E+00  1.00000E+00 -2.84156E-64  0.00000E+00          NaN
  3.50000E-01 -1.05796E+04  2.10543E-02  7.46658E-02  2.67351E-03  9.99916E-03  5.55698E+00 -4.58748E-01  7.69288E+02 -6.12333E+00 -1.00000E+00 -2.96139E-01 -4.78506E-01  1.13567E-01  4.06721E-01  5.55698E+00 -4.58748E-01  7.88155E+02 -4.20457E+00  1.00000E+00 -2.84156E-64  0.00000E+00          NaN
  3.50000E-01 -9.69798E+03  1.99868E-02  7.16019E-02  2.67352E-03  9.99916E-03  5.55698E+00 -4.58748E-01  7.69288E+02 -6.12333E+00 -1.00000E+00 -2.51430E-01 -3.52716E-01  1.13468E-01  4.05998E-01  5.55698E+00 -4.58748E-01  7.88155E+02 -4.20457E+00  1.00000E+00 -2.84156E-64  0.00000E+00          NaN
  3.50000E-01 -8.81634E+03  1.89191E-02  6.85380E-02  2.67352E-03  9.99916E-03  5.55698E+00 -4.58748E-01  7.69288E+02 -6.12333E+00 -1.00000E+00 -2.06770E-01 -2.27271E-01  1.13360E-01  4.05208E-01  5.55698E+00 -4.58748E-01  7.88155E+02 -4.20457E+00  1.00000E+00 -2.84156E-64  0.00000E+00          NaN
  3.50000E-01 -7.93471E+03  1.78511E-02  6.54740E-02  2.67353E-03  9.99916E-03  5.55698E+00 -4.58748E-01  7.69288E+02 -6.12333E+00 -1.00000E+00 -1.62108E-01 -1.01790E-01  1.13271E-01  4.04556E-01  5.55698E+00 -4.58748E-01  7.88155E+02 -4.20457E+00  1.00000E+00 -2.84156E-64  0.00000E+00          NaN
  3.50000E-01 -7.05307E+03  1.67830E-02  6.24101E-02  2.67354E-03  9.99917E-03  5.55698E+00 -4.58748E-01  7.69288E+02 -6.12333E+00 -1.00000E+00 -1.17378E-01  2.42147E-02  1.13228E-01  4.04236E-01  5.55698E+00 -4.58748E-01  7.88155E+02 -4.20457E+00  1.00000E+00 -2.84156E-64  0.00000E+00          NaN
  3.50000E-01 -6.17144E+03  1.57147E-02  5.93461E-02  2.67355E-03  9.99917E-03  5.55698E+00 -4.58748E-01  7.69288E+02 -6.12333E+00 -1.00000E+00 -7.25110E-02  1.51248E-01  1.13251E-01  4.04400E-01  5.55698E+00 -4.58748E-01  7.88155E+02 -4.20457E+00  1.00000E+00 -2.84156E-64  0.00000E+00          NaN
  3.50000E-01 -5.28981E+03  1.46463E-02  5.62821E-02  2.67355E-03  9.99917E-03  5.55698E+00 -4.58748E-01  7.69288E+02 -6.12333E+00 -1.00000E+00 -2.74311E-02  2.79863E-01  1.13358E-01  4.05181E-01  5.55698E+00 -4.58748E-01  7.88155E+02 -4.20457E+00  1.00000E+00 -2.84156E-64  0.00000E+00          NaN
  3.50000E-01 -4.40817E+03  1.35776E-02  5.32181E-02  2.67356E-03  9.99917E-03  5.55698E+00 -4.58748E-01  7.69288E+02 -6.12333E+00 -1.00000E+00  1.79631E-02  4.10797E-01  1.13574E-01  4.06750E-01  5.55698E+00 -4.58748E-01  7.88155E+02 -4.20457E+00  1.00000E+00 -2.84156E-64  0.00000E+00          NaN
  3.50000E-01 -3.52654E+03  1.25087E-02  5.01541E-02  2.67356E-03  9.99917E-03  5.55698E+00 -4.58748E-01  7.69288E+02 -6.12333E+00 -1.00000E+00  6.38273E-02  5.45170E-01  1.13934E-01  4.09379E-01  5.55698E+00 -4.58748E-01  7.88155E+02 -4.20457E+00  1.00000E+00 -2.84156E-64  0.00000E+00          NaN
  3.50000E-01 -2.64490E+03  1.14395E-02  4.70900E-02  2.67357E-03  9.99917E-03  5.55698E+00 -4.58748E-01  7.69288E+02 -6.12333E+00 -1.00000E+00  1.10394E-01  6.84633E-01  1.14495E-01  4.13463E-01  5.55698E+00 -4.58748E-01  7.88155E+02 -4.20457E+00  1.00000E+00 -2.84156E-64  0.00000E+00          NaN
  3.50000E-01 -1.76327E+03  1.03693E-02  4.40260E-02  2.67358E-03  9.99917E-03  5.55698E+00 -4.58748E-01  7.69288E+02 -6.12333E+00 -1.00000E+00  1.57936E-01  8.31105E-01  1.15309E-01  4.19405E-01  5.55698E+00 -4.58748E-01  7.88155E+02 -4.20457E+00  1.00000E+00 -2.84156E-64  0.00000E+00          NaN
  3.50000E-01 -8.81634E+02  9.29500E-03  4.09618E-02  2.67359E-03  9.99917E-03  5.55698E+00 -4.58748E-01  7.69288E+02 -6.12333E+00 -1.00000E+00  2.06350E-01  9.83732E-01  1.16306E-01  4.26680E-01  5.55698E+00 -4.58748E-01  7.88155E+02 -4.20457E+00  1.00000E+00 -2.84156E-64  0.00000E+00          NaN
  3.50000E-01  3.14755E-13  8.21107E-03  3.78974E-02  2.67363E-03  9.99917E-03  5.55698E+00 -4.58748E-01  7.69288E+02 -6.12333E+00 -1.00000E+00  2.74465E-01  1.29552E+00  1.22892E-01  4.79050E-01  5.55698E+00 -4.58748E-01  7.88155E+02 -4.20457E+00  1.00000E+00 -2.84156E-64  0.00000E+00          NaN
  3.50000E-01  8.81634E+02  7.15529E-03  3.48337E-02  2.67359E-03  9.99917E-03  5.55698E+00 -4.58748E-01  7.69288E+02 -6.12333E+00 -1.00000E+00  2.96614E-01  1.24022E+00  1.16163E-01  4.25635E-01  5.55698E+00 -4.58748E-01  7.88155E+02 -4.20457E+00  1.00000E+00 -2.84156E-64  0.00000E+00          NaN
  3.50000E-01  1.76327E+03  6.09309E-03  3.17699E-02  2.67358E-03  9.99917E-03  5.55698E+00 -4.58748E-01  7.69288E+02 -6.12333E+00 -1.00000E+00  3.37173E-01  1.33489E+00  1.14861E-01  4.16129E-01  5.55698E+00 -4.58748E-01  7.88155E+02 -4.20457E+00  1.00000E+00 -2.84156E-64  0.00000E+00          NaN
  3.50000E-01  2.64490E+03  5.02677E-03  2.87059E-02  2.67357E-03  9.99917E-03  5.55698E+00 -4.58748E-01  7.69288E+02 -6.12333E+00 -1.00000E+00  3.79640E-01  1.44361E+00  1.14159E-01  4.11011E-01  5.55698E+00 -4.58748E-01  7.88155E+02 -4.20457E+00  1.00000E+00 -2.84156E-64  0.00000E+00          NaN
  3.50000E-01  3.52654E+03  3.95952E-03  2.56420E-02  2.67356E-03  9.99917E-03  5.55698E+00 -4.58748E-01  7.69288E+02 -6.12333E+00 -1.00000E+00  4.23098E-01  1.55970E+00  1.13762E-01  4.08121E-01  5.55698E+00 -4.58748E-01  7.88155E+02 -4.20457E+00  1.00000E+00 -2.84156E-64  0.00000E+00          NaN
  3.50000E-01  4.40817E+03  2.89207E-03  2.25780E-02  2.67356E-03  9.99917E-03  5.55698E+00 -4.58748E-01  7.69288E+02 -6.12333E+00 -1.00000E+00  4.67162E-01  1.68036E+00  1.13545E-01  4.06539E-01  5.55698E+00 -4.58748E-01  7.88155E+02 -4.20457E+00  1.00000E+00 -2.84156E-64  0.00000E+00          NaN
  3.50000E-01  5.28981E+03  1.82468E-03  1.95141E-02  2.67355E-03  9.99917E-03  5.55698E+00 -4.58748E-01  7.69288E+02 -6.12333E+00 -1.00000E+00  5.11647E-01  1.80420E+00  1.13444E-01  4.05806E-01  5.55698E+00 -4.58748E-01  7.88155E+02 -4.20457E+00  1.00000E+00 -2.84156E-64  0.00000E+00          NaN
  3.50000E-01  6.17144E+03  7.57446E-04  1.64502E-02  2.67355E-03  9.99917E-03  5.55698E+00 -4.58748E-01  7.69288E+02 -6.12333E+00 -1.00000E+00  5.56461E-01  1.93051E+00  1.13425E-01  4.05675E-01  5.55698E+00 -4.58748E-01  7.88155E+02 -4.20457E+00  1.00000E+00 -2.84156E-64  0.00000E+00          NaN
  3.50000E-01  7.05307E+03 -3.09584E-04  1.33864E-02  2.67354E-03  9.99917E-03  5.55698E+00 -4.58748E-01  7.69288E+02 -6.12333E+00 -1.00000E+00  6.01538E-01  2.05880E+00  1.13466E-01  4.05979E-01  5.55698E+00 -4.58748E-01  7.88155E+02 -4.20457E+00  1.00000E+00 -2.84156E-64  0.00000E+00          NaN
  3.50000E-01  7.93471E+03 -1.37638E-03  1.03225E-02  2.67353E-03  9.99916E-03  5.55698E+00 -4.58748E-01  7.69288E+02 -6.12333E+00 -1.00000E+00  6.46801E-01  2.18847E+00  1.13545E-01  4.06555E-01  5.55698E+00 -4.58748E-01  7.88155E+02 -4.20457E+00  1.00000E+00 -2.84156E-64  0.00000E+00          NaN
  3.50000E-01  8.81634E+03 -2.44293E-03  7.25869E-03  2.67352E-03  9.99916E-03  5.55698E+00 -4.58748E-01  7.69288E+02 -6.12333E+00 -1.00000E+00  6.92132E-01  2.31866E+00  1.13633E-01  4.07198E-01  5.55698E+00 -4.58748E-01  7.88155E+02 -4.20457E+00  1.00000E+00 -2.84156E-64  0.00000E+00          NaN
  3.50000E-01  9.69798E+03 -3.50921E-03  4.19490E-03  2.67352E-03  9.99916E-03  5.55698E+00 -4.58748E-01  7.69288E+02 -6.12333E+00 -1.00000E+00  7.37391E-01  2.44834E+00  1.13702E-01  4.07704E-01  5.55698E+00 -4.58748E-01  7.88155E+02 -4.20457E+00  1.00000E+00 -2.84156E-64  0.00000E+00          NaN
  3.50000E-01  1.05796E+04 -4.57522E-03  1.13114E-03  2.67351E-03  9.99916E-03  5.55698E+00 -4.58748E-01  7.69288E+02 -6.12333E+00 -1.00000E+00  7.82477E-01  2.57677E+00  1.13734E-01  4.07940E-01  5.55698E+00 -4.58748E-01  7.88155E+02 -4.20457E+00  1.00000E+00 -2.84156E-64  0.00000E+00          NaN
  3.50000E-01  1.14612E+04 -5.64095E-03 -1.93259E-03  2.67350E-03  9.99916E-03  5.55698E+00 -4.58748E-01  7.69288E+02 -6.12333E+00 -1.00000E+00  8.27362E-01  2.70373E+00  1.13727E-01  4.07893E-01  5.55698E+00 -4.58748E-01  7.88155E+02 -4.20457E+00  1.00000E+00 -2.84156E-64  0.00000E+00          NaN
  3.50000E-01  1.23429E+04 -6.70641E-03 -4.99630E-03  2.67349E-03  9.99916E-03  5.55698E+00 -4.58748E-01  7.69288E+02 -6.12333E+00 -1.00000E+00  8.72081E-01  2.82949E+00  1.13691E-01  4.07630E-01  5.55698E+00 -4.58748E-01  7.88155E+02 -4.20457E+00  1.00000E+00 -2.84156E-64  0.00000E+00          NaN
  3.50000E-01  1.32245E+04 -7.77159E-03 -8.05997E-03  2.67348E-03  9.99916E-03  5.55698E+00 -4.58748E-01  7.69288E+02 -6.12333E+00 -1.00000E+00  9.16692E-01  2.95447E+00  1.13638E-01  4.07245E-01  5.55698E+00 -4.58748E-01  7.88155E+02 -4.20457E+00  1.00000E+00 -2.84156E-64  0.00000E+00          NaN
  3.50000E-01  1.41061E+04 -8.83649E-03 -1.11236E-02  2.67347E-03  9.99916E-03  5.55698E+00 -4.58748E-01  7.69288E+02 -6.12333E+00 -1.00000E+00  9.61249E-01  3.07904E+00  1.13579E-01  4.06811E-01  5.55698E+00 -4.58748E-01  7.88155E+02 -4.20457E+00  1.00000E+00 -2.84156E-64  0.00000E+00          NaN
  3.50000E-01  1.49878E+04 -9.90112E-03 -1.41872E-02  2.67346E-03  9.99916E-03  5.55698E+00 -4.58748E-01  7.69288E+02 -6.12333E+00 -1.00000E+00  1.00579E+00  3.20349E+00  1.13519E-01  4.06377E-01  5.55698E+00 -4.58748E-01  7.88155E+02 -4.20457E+00  1.00000E+00 -2.84156E-64  0.00000E+00          NaN
  3.50000E-01  1.58694E+04 -1.09655E-02 -1.72508E-02  2.67345E-03  9.99915E-03  5.55698E+00 -4.58748E-01  7.69288E+02 -6.12333E+00 -1.00000E+00  1.05033E+00  3.32795E+00  1.13463E-01  4.05969E-01  5.55698E+00 -4.58748E-01  7.88155E+02 -4.20457E+00  1.00000E+00 -2.84156E-64  0.00000E+00          NaN
  3.50000E-01  1.67511E+04 -1.20296E-02 -2.03143E-02  2.67343E-03  9.99915E-03  5.55698E+00 -4.58748E-01  7.69288E+02 -6.12333E+00 -1.00000E+00  1.09488E+00  3.45252E+00  1.13412E-01  4.05597E-01  5.55698E+00 -4.58748E-01  7.88155E+02 -4.20457E+00  1.00000E+00 -2.84156E-64  0.00000E+00          NaN
  3.50000E-01  1.76327E+04 -1.30934E-02 -2.33778E-02  2.67342E-03  9.99915E-03  5.55698E+00 -4.58748E-01  7.69288E+02 -6.12333E+00 -1.00000E+00  1.13946E+00  3.57723E+00  1.13367E-01  4.05264E-01  5.55698E+00 -4.58748E-01  7.88155E+02 -4.20457E+00  1.00000E+00 -2.84156E-64  0.00000E+00          NaN
  3.50000E-01  1.85143E+04 -1.41570E-02 -2.64413E-02  2.67341E-03  9.99915E-03  5.55698E+00 -4.58748E-01  7.69288E+02 -6.12333E+00 -1.00000E+00  1.18405E+00  3.70209E+00  1.13326E-01  4.04968E-01  5.55698E+00 -4.58748E-01  7.88155E+02 -4.20457E+00  1.00000E+00 -2.84156E-64  0.00000E+00          NaN
  3.50000E-01  1.93960E+04 -1.52203E-02 -2.95048E-02  2.67340E-03  9.99915E-03  5.55698E+00 -4.58748E-01  7.69288E+02 -6.12333E+00 -1.00000E+00  1.22866E+00  3.82708E+00  1.13290E-01  4.04706E-01  5.55698E+00 -4.58748E-01  7.88155E+02 -4.20457E+00  1.00000E+00 -2.84156E-64  0.00000E+00          NaN
  3.50000E-01  2.02776E+04 -1.62833E-02 -3.25682E-02  2.67339E-03  9.99915E-03  5.55698E+00 -4.58748E-01  7.69288E+02 -6.12333E+00 -1.00000E+00  1.27329E+00  3.95221E+00  1.13259E-01  4.04475E-01  5.55698E+00 -4.58748E-01  7.88155E+02 -4.20457E+00  1.00000E+00 -2.84156E-64  0.00000E+00          NaN
  3.50000E-01  2.11592E+04 -1.73461E-02 -3.56316E-02  2.67338E-03  9.99914E-03  5.55698E+00 -4.58748E-01  7.69288E+02 -6.12333E+00 -1.00000E+00  1.31794E+00  4.07744E+00  1.13231E-01  4.04270E-01  5.55698E+00 -4.58748E-01  7.88155E+02 -4.20457E+00  1.00000E+00 -2.84156E-64  0.00000E+00          NaN
  3.50000E-01  2.20409E+04 -1.84087E-02 -3.86949E-02  2.67336E-03  9.99914E-03  5.55698E+00 -4.58748E-01  7.69288E+02 -6.12333E+00 -1.00000E+00  1.36260E+00  4.20278E+00  1.13205E-01  4.04087E-01  5.55698E+00 -4.58748E-01  7.88155E+02 -4.20457E+00  1.00000E+00 -2.84156E-64  0.00000E+00          NaN
  3.50000E-01  2.29225E+04 -1.94711E-02 -4.17582E-02  2.67335E-03  9.99914E-03  5.55698E+00 -4.58748E-01  7.69288E+02 -6.12333E+00 -1.00000E+00  1.40727E+00  4.32821E+00  1.13183E-01  4.03924E-01  5.55698E+00 -4.58748E-01  7.88155E+02 -4.20457E+00  1.00000E+00 -2.84156E-64  0.00000E+00          NaN
  3.50000E-01  2.38041E+04 -2.05332E-02 -4.48215E-02  2.67334E-03  9.99914E-03  5.55698E+00 -4.58748E-01  7.69288E+02 -6.12333E+00 -1.00000E+00  1.45195E+00  4.45372E+00  1.13163E-01  4.03778E-01  5.55698E+00 -4.58748E-01  7.88155E+02 -4.20457E+00  1.00000E+00 -2.84156E-64  0.00000E+00          NaN
  3.50000E-01  2.46858E+04 -2.15952E-02 -4.78848E-02  2.67333E-03  9.99914E-03  5.55698E+00 -4.58748E-01  7.69288E+02 -6.12333E+00 -1.00000E+00  1.49665E+00  4.57929E+00  1.13145E-01  4.03647E-01  5.55698E+00 -4.58748E-01  7.88155E+02 -4.20457E+00  1.00000E+00 -2.84156E-64  0.00000E+00          NaN
  3.50000E-01  2.55674E+04 -2.26569E-02 -5.09481E-02  2.67332E-03  9.99914E-03  5.55698E+00 -4.58748E-01  7.69288E+02 -6.12333E+00 -1.00000E+00  1.54134E+00  4.70493E+00  1.13129E-01  4.03529E-01  5.55698E+00 -4.58748E-01  7.88155E+02 -4.20457E+00  1.00000E+00 -2.84156E-64  0.00000E+00          NaN
  3.50000E-01 -5.28981E+03  1.46463E-02  5.62821E-02  2.67355E-03  9.99917E-03  5.55698E+00 -4.58748E-01  7.69288E+02 -6.12333E+00 -1.00000E+00 -2.74311E-02  2.79863E-01  1.13358E-01  4.05181E-01  5.55698E+00 -4.58748E-01  7.88155E+02 -4.20457E+00  1.00000E+00 -2.84156E-64  0.00000E+00          NaN
  3.50000E-01 -4.40817E+03  1.35776E-02  5.32181E-02  2.67356E-03  9.99917E-03  5.55698E+00 -4.58748E-01  7.69288E+02 -6.12333E+00 -1.00000E+00  1.79631E-02  4.10797E-01  1.13574E-01  4.06750E-01  5.55698E+00 -4.58748E-01  7.88155E+02 -4.20457E+00  1.00000E+00 -2.84156E-64  0.00000E+00          NaN
  3.50000E-01 -4.84899E+03  1.41119E-02  5.47501E-02  2.67355E-03  9.99917E-03  5.55698E+00 -4.58748E-01  7.69288E+02 -6.12333E+00 -1.00000E+00 -4.78137E-03  3.44982E-01  1.13450E-01  4.05853E-01  5.55698E+00 -4.58748E-01  7.88155E+02 -4.20457E+00  1.00000E+00 -2.84156E-64  0.00000E+00          NaN
  3.50000E-01 -4.62858E+03  1.38448E-02  5.39841E-02  2.67356E-03  9.99917E-03  5.55698E+00 -4.58748E-01  7.69288E+02 -6.12333E+00 -1.00000E+00  6.57780E-03  3.77794E-01  1.13508E-01  4.06271E-01  5.55698E+00 -4.58748E-01  7.88155E+02 -4.20457E+00  1.00000E+00 -2.84156E-64  0.00000E+00          NaN
  3.50000E-01 -4.51838E+03  1.37112E-02  5.36011E-02  2.67356E-03  9.99917E-03  5.55698E+00 -4.58748E-01  7.69288E+02 -6.12333E+00 -1.00000E+00  1.22670E-02  3.94270E-01  1.13540E-01  4.06502E-01  5.55698E+00 -4.58748E-01  7.88155E+02 -4.20457E+00  1.00000E+00 -2.84156E-64  0.00000E+00          NaN
  3.50000E-01 -4.46327E+03  1.36444E-02  5.34096E-02  2.67356E-03  9.99917E-03  5.55698E+00 -4.58748E-01  7.69288E+02 -6.12333E+00 -1.00000E+00  1.51142E-02  4.02527E-01  1.13556E-01  4.06624E-01  5.55698E+00 -4.58748E-01  7.88155E+02 -4.20457E+00  1.00000E+00 -2.84156E-64  0.00000E+00          NaN
