s E_r[V/m] (\Gamma_b/n_b[m/s]  Q_b/n_b/T_b[m/s] L_1^b[m^2/s] L_2^b[m^2/s]  Z_b n_b[10^{19}m^{-3}] dlnn_b/dr[m^{-1}] T_b[eV] dlnT_b/dr[m^{-1}], b=1,NBB), size(e\varphi_1/T_i) 
  7.10000E-02 -1.19368E+04  6.33311E-02  2.92510E-01  1.40305E-02  6.39716E-02  6.10093E+00 -5.78813E-01  2.06446E+03 -4.73524E+00 -1.00000E+00 -4.87288E-01 -1.07762E+00  1.66148E-01  4.99120E-01  6.10093E+00 -5.78813E-01  1.25220E+03 -1.64085E+00  1.00000E+00  1.64987+267  0.00000E+00          NaN
  7.10000E-02 -1.06105E+04  6.16036E-02  2.90283E-01  1.42432E-02  6.54669E-02  6.10093E+00 -5.78813E-01  2.06446E+03 -4.73524E+00 -1.00000E+00 -4.16836E-01 -9.01857E-01  1.66280E-01  4.99823E-01  6.10093E+00 -5.78813E-01  1.25220E+03 -1.64085E+00  1.00000E+00  1.64987+267  0.00000E+00          NaN
  7.10000E-02 -9.28418E+03  5.98183E-02  2.87707E-01  1.44519E-02  6.69447E-02  6.10093E+00 -5.78813E-01  2.06446E+03 -4.73524E+00 -1.00000E+00 -3.46339E-01 -7.25839E-01  1.66460E-01  5.00774E-01  6.10093E+00 -5.78813E-01  1.25220E+03 -1.64085E+00  1.00000E+00  1.64987+267  0.00000E+00          NaN
  7.10000E-02 -7.95787E+03  5.79642E-02  2.84700E-01  1.46539E-02  6.83842E-02  6.10093E+00 -5.78813E-01  2.06446E+03 -4.73524E+00 -1.00000E+00 -2.75765E-01 -5.49407E-01  1.66713E-01  5.02120E-01  6.10093E+00 -5.78813E-01  1.25220E+03 -1.64085E+00  1.00000E+00  1.64987+267  0.00000E+00          NaN
  7.10000E-02 -6.63156E+03  5.60291E-02  2.81164E-01  1.48457E-02  6.97600E-02  6.10093E+00 -5.78813E-01  2.06446E+03 -4.73524E+00 -1.00000E+00 -2.05055E-01 -3.72244E-01  1.67092E-01  5.04133E-01  6.10093E+00 -5.78813E-01  1.25220E+03 -1.64085E+00  1.00000E+00  1.64987+267  0.00000E+00          NaN
  7.10000E-02 -5.30525E+03  5.39992E-02  2.76994E-01  1.50234E-02  7.10418E-02  6.10093E+00 -5.78813E-01  2.06446E+03 -4.73524E+00 -1.00000E+00 -1.34079E-01 -1.93666E-01  1.67706E-01  5.07397E-01  6.10093E+00 -5.78813E-01  1.25220E+03 -1.64085E+00  1.00000E+00  1.64987+267  0.00000E+00          NaN
  7.10000E-02 -3.97894E+03  5.18588E-02  2.72065E-01  1.51821E-02  7.21933E-02  6.10093E+00 -5.78813E-01  2.06446E+03 -4.73524E+00 -1.00000E+00 -6.25060E-02 -1.19299E-02  1.68827E-01  5.13355E-01  6.10093E+00 -5.78813E-01  1.25220E+03 -1.64085E+00  1.00000E+00  1.64987+267  0.00000E+00          NaN
  7.10000E-02 -2.65262E+03  4.95879E-02  2.66231E-01  1.53154E-02  7.31685E-02  6.10093E+00 -5.78813E-01  2.06446E+03 -4.73524E+00 -1.00000E+00  1.07228E-02  1.78552E-01  1.71297E-01  5.26484E-01  6.10093E+00 -5.78813E-01  1.25220E+03 -1.64085E+00  1.00000E+00  1.64987+267  0.00000E+00          NaN
  7.10000E-02 -1.32631E+03  4.71566E-02  2.59275E-01  1.54137E-02  7.38995E-02  6.10093E+00 -5.78813E-01  2.06446E+03 -4.73524E+00 -1.00000E+00  1.10985E-01  5.41722E-01  1.95914E-01  6.81373E-01  6.10093E+00 -5.78813E-01  1.25220E+03 -1.64085E+00  1.00000E+00  1.64987+267  0.00000E+00          NaN
  7.10000E-02 -5.67058E-13  4.44914E-02  2.50695E-01  1.54537E-02  7.42340E-02  6.10093E+00 -5.78813E-01  2.06446E+03 -4.73524E+00 -1.00000E+00  2.45817E-01  1.15070E+00  2.39549E-01  9.76103E-01  6.10093E+00 -5.78813E-01  1.25220E+03 -1.64085E+00  1.00000E+00  1.64987+267  0.00000E+00          NaN
  7.10000E-02  1.32631E+03  4.18238E-02  2.41421E-01  1.55023E-02  7.44457E-02  6.10093E+00 -5.78813E-01  2.06446E+03 -4.73524E+00 -1.00000E+00  2.46287E-01  8.45900E-01  1.85196E-01  6.08445E-01  6.10093E+00 -5.78813E-01  1.25220E+03 -1.64085E+00  1.00000E+00  1.64987+267  0.00000E+00          NaN
  7.10000E-02  2.65262E+03  3.86675E-02  2.29079E-01  1.54104E-02  7.37909E-02  6.10093E+00 -5.78813E-01  2.06446E+03 -4.73524E+00 -1.00000E+00  2.96064E-01  8.99245E-01  1.70734E-01  5.23489E-01  6.10093E+00 -5.78813E-01  1.25220E+03 -1.64085E+00  1.00000E+00  1.64987+267  0.00000E+00          NaN
  7.10000E-02  3.97894E+03  3.54168E-02  2.16021E-01  1.52868E-02  7.29036E-02  6.10093E+00 -5.78813E-01  2.06446E+03 -4.73524E+00 -1.00000E+00  3.63449E-01  1.05848E+00  1.68577E-01  5.12024E-01  6.10093E+00 -5.78813E-01  1.25220E+03 -1.64085E+00  1.00000E+00  1.64987+267  0.00000E+00          NaN
  7.10000E-02  5.30525E+03  3.20990E-02  2.02457E-01  1.51370E-02  7.18254E-02  6.10093E+00 -5.78813E-01  2.06446E+03 -4.73524E+00 -1.00000E+00  4.32365E-01  1.22593E+00  1.67575E-01  5.06698E-01  6.10093E+00 -5.78813E-01  1.25220E+03 -1.64085E+00  1.00000E+00  1.64987+267  0.00000E+00          NaN
  7.10000E-02  6.63156E+03  2.87394E-02  1.88580E-01  1.49661E-02  7.05971E-02  6.10093E+00 -5.78813E-01  2.06446E+03 -4.73524E+00 -1.00000E+00  5.01884E-01  1.39666E+00  1.67017E-01  5.03734E-01  6.10093E+00 -5.78813E-01  1.25220E+03 -1.64085E+00  1.00000E+00  1.64987+267  0.00000E+00          NaN
  7.10000E-02  7.95787E+03  2.53602E-02  1.74557E-01  1.47788E-02  6.92557E-02  6.10093E+00 -5.78813E-01  2.06446E+03 -4.73524E+00 -1.00000E+00  5.71696E-01  1.56896E+00  1.66668E-01  5.01883E-01  6.10093E+00 -5.78813E-01  1.25220E+03 -1.64085E+00  1.00000E+00  1.64987+267  0.00000E+00          NaN
  7.10000E-02  9.28418E+03  2.19801E-02  1.60528E-01  1.45795E-02  6.78341E-02  6.10093E+00 -5.78813E-01  2.06446E+03 -4.73524E+00 -1.00000E+00  6.41669E-01  1.74214E+00  1.66433E-01  5.00632E-01  6.10093E+00 -5.78813E-01  1.25220E+03 -1.64085E+00  1.00000E+00  1.64987+267  0.00000E+00          NaN
  7.10000E-02  1.06105E+04  1.86147E-02  1.46608E-01  1.43718E-02  6.63609E-02  6.10093E+00 -5.78813E-01  2.06446E+03 -4.73524E+00 -1.00000E+00  7.11740E-01  1.91585E+00  1.66265E-01  4.99739E-01  6.10093E+00 -5.78813E-01  1.25220E+03 -1.64085E+00  1.00000E+00  1.64987+267  0.00000E+00          NaN
  7.10000E-02  1.19368E+04  1.52761E-02  1.32888E-01  1.41589E-02  6.48601E-02  6.10093E+00 -5.78813E-01  2.06446E+03 -4.73524E+00 -1.00000E+00  7.81877E-01  2.08991E+00  1.66140E-01  4.99074E-01  6.10093E+00 -5.78813E-01  1.25220E+03 -1.64085E+00  1.00000E+00  1.64987+267  0.00000E+00          NaN
  7.10000E-02  1.32631E+04  1.19742E-02  1.19437E-01  1.39434E-02  6.33512E-02  6.10093E+00 -5.78813E-01  2.06446E+03 -4.73524E+00 -1.00000E+00  8.52058E-01  2.26420E+00  1.66043E-01  4.98563E-01  6.10093E+00 -5.78813E-01  1.25220E+03 -1.64085E+00  1.00000E+00  1.64987+267  0.00000E+00          NaN
  7.10000E-02  1.45894E+04  8.71606E-03  1.06304E-01  1.37276E-02  6.18502E-02  6.10093E+00 -5.78813E-01  2.06446E+03 -4.73524E+00 -1.00000E+00  9.22271E-01  2.43867E+00  1.65967E-01  4.98160E-01  6.10093E+00 -5.78813E-01  1.25220E+03 -1.64085E+00  1.00000E+00  1.64987+267  0.00000E+00          NaN
  7.10000E-02  1.59157E+04  5.50683E-03  9.35240E-02  1.35132E-02  6.03691E-02  6.10093E+00 -5.78813E-01  2.06446E+03 -4.73524E+00 -1.00000E+00  9.92508E-01  2.61326E+00  1.65906E-01  4.97835E-01  6.10093E+00 -5.78813E-01  1.25220E+03 -1.64085E+00  1.00000E+00  1.64987+267  0.00000E+00          NaN
  7.10000E-02  1.72421E+04  2.34992E-03  8.11172E-02  1.33015E-02  5.89175E-02  6.10093E+00 -5.78813E-01  2.06446E+03 -4.73524E+00 -1.00000E+00  1.06276E+00  2.78795E+00  1.65856E-01  4.97567E-01  6.10093E+00 -5.78813E-01  1.25220E+03 -1.64085E+00  1.00000E+00  1.64987+267  0.00000E+00          NaN
  7.10000E-02  1.85684E+04 -1.82369E-03  5.88018E-02  1.27505E-02  5.42037E-02  6.10093E+00 -5.78813E-01  2.06446E+03 -4.73524E+00 -1.00000E+00  1.13303E+00  2.96272E+00  1.65814E-01  4.97345E-01  6.10093E+00 -5.78813E-01  1.25220E+03 -1.64085E+00  1.00000E+00  1.64987+267  0.00000E+00          NaN
  7.10000E-02  1.98947E+04 -4.78521E-03  4.79901E-02  1.25679E-02  5.30272E-02  6.10093E+00 -5.78813E-01  2.06446E+03 -4.73524E+00 -1.00000E+00  1.20331E+00  3.13754E+00  1.65778E-01  4.97157E-01  6.10093E+00 -5.78813E-01  1.25220E+03 -1.64085E+00  1.00000E+00  1.64987+267  0.00000E+00          NaN
  7.10000E-02  2.12210E+04 -7.69887E-03  3.74905E-02  1.23890E-02  5.18801E-02  6.10093E+00 -5.78813E-01  2.06446E+03 -4.73524E+00 -1.00000E+00  1.27360E+00  3.31241E+00  1.65748E-01  4.96996E-01  6.10093E+00 -5.78813E-01  1.25220E+03 -1.64085E+00  1.00000E+00  1.64987+267  0.00000E+00          NaN
  7.10000E-02  2.25473E+04 -1.05647E-02  2.73007E-02  1.22143E-02  5.07654E-02  6.10093E+00 -5.78813E-01  2.06446E+03 -4.73524E+00 -1.00000E+00  1.34390E+00  3.48732E+00  1.65722E-01  4.96858E-01  6.10093E+00 -5.78813E-01  1.25220E+03 -1.64085E+00  1.00000E+00  1.64987+267  0.00000E+00          NaN
  7.10000E-02  2.38736E+04 -1.33832E-02  1.74155E-02  1.20441E-02  4.96851E-02  6.10093E+00 -5.78813E-01  2.06446E+03 -4.73524E+00 -1.00000E+00  1.41420E+00  3.66226E+00  1.65699E-01  4.96737E-01  6.10093E+00 -5.78813E-01  1.25220E+03 -1.64085E+00  1.00000E+00  1.64987+267  0.00000E+00          NaN
  7.10000E-02  2.51999E+04 -1.61553E-02  7.82709E-03  1.18788E-02  4.86403E-02  6.10093E+00 -5.78813E-01  2.06446E+03 -4.73524E+00 -1.00000E+00  1.48451E+00  3.83723E+00  1.65679E-01  4.96631E-01  6.10093E+00 -5.78813E-01  1.25220E+03 -1.64085E+00  1.00000E+00  1.64987+267  0.00000E+00          NaN
  7.10000E-02  2.65262E+04 -1.88822E-02 -1.47414E-03  1.17185E-02  4.76319E-02  6.10093E+00 -5.78813E-01  2.06446E+03 -4.73524E+00 -1.00000E+00  1.55482E+00  4.01222E+00  1.65662E-01  4.96538E-01  6.10093E+00 -5.78813E-01  1.25220E+03 -1.64085E+00  1.00000E+00  1.64987+267  0.00000E+00          NaN
  7.10000E-02  2.78525E+04 -2.15654E-02 -1.04989E-02  1.15633E-02  4.66599E-02  6.10093E+00 -5.78813E-01  2.06446E+03 -4.73524E+00 -1.00000E+00  1.62514E+00  4.18724E+00  1.65646E-01  4.96455E-01  6.10093E+00 -5.78813E-01  1.25220E+03 -1.64085E+00  1.00000E+00  1.64987+267  0.00000E+00          NaN
  7.10000E-02  2.91789E+04 -2.42065E-02 -1.92588E-02  1.14133E-02  4.57242E-02  6.10093E+00 -5.78813E-01  2.06446E+03 -4.73524E+00 -1.00000E+00  1.69546E+00  4.36226E+00  1.65632E-01  4.96380E-01  6.10093E+00 -5.78813E-01  1.25220E+03 -1.64085E+00  1.00000E+00  1.64987+267  0.00000E+00          NaN
  7.10000E-02  3.05052E+04 -2.68071E-02 -2.77658E-02  1.12683E-02  4.48243E-02  6.10093E+00 -5.78813E-01  2.06446E+03 -4.73524E+00 -1.00000E+00  1.76578E+00  4.53731E+00  1.65620E-01  4.96314E-01  6.10093E+00 -5.78813E-01  1.25220E+03 -1.64085E+00  1.00000E+00  1.64987+267  0.00000E+00          NaN
  7.10000E-02  3.18315E+04 -2.93689E-02 -3.60321E-02  1.11285E-02  4.39595E-02  6.10093E+00 -5.78813E-01  2.06446E+03 -4.73524E+00 -1.00000E+00  1.83611E+00  4.71236E+00  1.65608E-01  4.96253E-01  6.10093E+00 -5.78813E-01  1.25220E+03 -1.64085E+00  1.00000E+00  1.64987+267  0.00000E+00          NaN
  7.10000E-02  3.31578E+04 -3.18938E-02 -4.40698E-02  1.09937E-02  4.31289E-02  6.10093E+00 -5.78813E-01  2.06446E+03 -4.73524E+00 -1.00000E+00  1.90643E+00  4.88743E+00  1.65598E-01  4.96199E-01  6.10093E+00 -5.78813E-01  1.25220E+03 -1.64085E+00  1.00000E+00  1.64987+267  0.00000E+00          NaN
  7.10000E-02  3.44841E+04 -3.43835E-02 -5.18910E-02  1.08638E-02  4.23316E-02  6.10093E+00 -5.78813E-01  2.06446E+03 -4.73524E+00 -1.00000E+00  1.97676E+00  5.06251E+00  1.65589E-01  4.96149E-01  6.10093E+00 -5.78813E-01  1.25220E+03 -1.64085E+00  1.00000E+00  1.64987+267  0.00000E+00          NaN
  7.10000E-02  3.58104E+04 -3.68397E-02 -5.95073E-02  1.07387E-02  4.15664E-02  6.10093E+00 -5.78813E-01  2.06446E+03 -4.73524E+00 -1.00000E+00  2.04709E+00  5.23759E+00  1.65580E-01  4.96104E-01  6.10093E+00 -5.78813E-01  1.25220E+03 -1.64085E+00  1.00000E+00  1.64987+267  0.00000E+00          NaN
  7.10000E-02  3.71367E+04 -3.92642E-02 -6.69301E-02  1.06182E-02  4.08322E-02  6.10093E+00 -5.78813E-01  2.06446E+03 -4.73524E+00 -1.00000E+00  2.11742E+00  5.41269E+00  1.65572E-01  4.96062E-01  6.10093E+00 -5.78813E-01  1.25220E+03 -1.64085E+00  1.00000E+00  1.64987+267  0.00000E+00          NaN
  7.10000E-02  3.84630E+04 -4.16586E-02 -7.41704E-02  1.05023E-02  4.01279E-02  6.10093E+00 -5.78813E-01  2.06446E+03 -4.73524E+00 -1.00000E+00  2.18775E+00  5.58779E+00  1.65565E-01  4.96024E-01  6.10093E+00 -5.78813E-01  1.25220E+03 -1.64085E+00  1.00000E+00  1.64987+267  0.00000E+00          NaN
  7.10000E-02  3.97894E+04 -4.40244E-02 -8.12386E-02  1.03907E-02  3.94523E-02  6.10093E+00 -5.78813E-01  2.06446E+03 -4.73524E+00 -1.00000E+00  2.25809E+00  5.76290E+00  1.65558E-01  4.95988E-01  6.10093E+00 -5.78813E-01  1.25220E+03 -1.64085E+00  1.00000E+00  1.64987+267  0.00000E+00          NaN
  7.10000E-02  4.11157E+04 -4.63634E-02 -8.81446E-02  1.02834E-02  3.88042E-02  6.10093E+00 -5.78813E-01  2.06446E+03 -4.73524E+00 -1.00000E+00  2.32842E+00  5.93801E+00  1.65552E-01  4.95956E-01  6.10093E+00 -5.78813E-01  1.25220E+03 -1.64085E+00  1.00000E+00  1.64987+267  0.00000E+00          NaN
  7.10000E-02  4.24420E+04 -4.86768E-02 -9.48979E-02  1.01801E-02  3.81824E-02  6.10093E+00 -5.78813E-01  2.06446E+03 -4.73524E+00 -1.00000E+00  2.39875E+00  6.11313E+00  1.65547E-01  4.95925E-01  6.10093E+00 -5.78813E-01  1.25220E+03 -1.64085E+00  1.00000E+00  1.64987+267  0.00000E+00          NaN
  7.10000E-02  4.37683E+04 -5.13527E-02 -1.04760E-01  9.81241E-03  3.53281E-02  6.10093E+00 -5.78813E-01  2.06446E+03 -4.73524E+00 -1.00000E+00  2.46909E+00  6.28825E+00  1.65541E-01  4.95897E-01  6.10093E+00 -5.78813E-01  1.25220E+03 -1.64085E+00  1.00000E+00  1.64987+267  0.00000E+00          NaN
  7.10000E-02  4.50946E+04 -5.35857E-02 -1.10952E-01  9.72645E-03  3.48369E-02  6.10093E+00 -5.78813E-01  2.06446E+03 -4.73524E+00 -1.00000E+00  2.53943E+00  6.46338E+00  1.65536E-01  4.95871E-01  6.10093E+00 -5.78813E-01  1.25220E+03 -1.64085E+00  1.00000E+00  1.64987+267  0.00000E+00          NaN
  7.10000E-02  4.64209E+04 -5.57994E-02 -1.17034E-01  9.64355E-03  3.43642E-02  6.10093E+00 -5.78813E-01  2.06446E+03 -4.73524E+00 -1.00000E+00  2.60976E+00  6.63851E+00  1.65532E-01  4.95847E-01  6.10093E+00 -5.78813E-01  1.25220E+03 -1.64085E+00  1.00000E+00  1.64987+267  0.00000E+00          NaN
  7.10000E-02  4.77472E+04 -5.79948E-02 -1.23014E-01  9.56361E-03  3.39092E-02  6.10093E+00 -5.78813E-01  2.06446E+03 -4.73524E+00 -1.00000E+00  2.68010E+00  6.81364E+00  1.65527E-01  4.95824E-01  6.10093E+00 -5.78813E-01  1.25220E+03 -1.64085E+00  1.00000E+00  1.64987+267  0.00000E+00          NaN
  7.10000E-02  4.90735E+04 -6.01731E-02 -1.28897E-01  9.48653E-03  3.34712E-02  6.10093E+00 -5.78813E-01  2.06446E+03 -4.73524E+00 -1.00000E+00  2.75044E+00  6.98878E+00  1.65523E-01  4.95803E-01  6.10093E+00 -5.78813E-01  1.25220E+03 -1.64085E+00  1.00000E+00  1.64987+267  0.00000E+00          NaN
  7.10000E-02  5.03998E+04 -6.23350E-02 -1.34688E-01  9.41220E-03  3.30496E-02  6.10093E+00 -5.78813E-01  2.06446E+03 -4.73524E+00 -1.00000E+00  2.82078E+00  7.16393E+00  1.65520E-01  4.95783E-01  6.10093E+00 -5.78813E-01  1.25220E+03 -1.64085E+00  1.00000E+00  1.64987+267  0.00000E+00          NaN
  7.10000E-02  5.17262E+04 -6.44815E-02 -1.40394E-01  9.34051E-03  3.26436E-02  6.10093E+00 -5.78813E-01  2.06446E+03 -4.73524E+00 -1.00000E+00  2.89111E+00  7.33907E+00  1.65516E-01  4.95764E-01  6.10093E+00 -5.78813E-01  1.25220E+03 -1.64085E+00  1.00000E+00  1.64987+267  0.00000E+00          NaN
  7.10000E-02  5.30525E+04 -6.66134E-02 -1.46018E-01  9.27137E-03  3.22527E-02  6.10093E+00 -5.78813E-01  2.06446E+03 -4.73524E+00 -1.00000E+00  2.96145E+00  7.51422E+00  1.65513E-01  4.95746E-01  6.10093E+00 -5.78813E-01  1.25220E+03 -1.64085E+00  1.00000E+00  1.64987+267  0.00000E+00          NaN
  7.10000E-02 -2.65262E+03  4.95879E-02  2.66231E-01  1.53154E-02  7.31685E-02  6.10093E+00 -5.78813E-01  2.06446E+03 -4.73524E+00 -1.00000E+00  1.07228E-02  1.78552E-01  1.71297E-01  5.26484E-01  6.10093E+00 -5.78813E-01  1.25220E+03 -1.64085E+00  1.00000E+00  1.64987+267  0.00000E+00          NaN
  7.10000E-02 -1.32631E+03  4.71566E-02  2.59275E-01  1.54137E-02  7.38995E-02  6.10093E+00 -5.78813E-01  2.06446E+03 -4.73524E+00 -1.00000E+00  1.10985E-01  5.41722E-01  1.95914E-01  6.81373E-01  6.10093E+00 -5.78813E-01  1.25220E+03 -1.64085E+00  1.00000E+00  1.64987+267  0.00000E+00          NaN
  7.10000E-02 -1.98947E+03  4.83950E-02  2.62912E-01  1.53698E-02  7.35705E-02  6.10093E+00 -5.78813E-01  2.06446E+03 -4.73524E+00 -1.00000E+00  4.90175E-02  2.82691E-01  1.73851E-01  5.40067E-01  6.10093E+00 -5.78813E-01  1.25220E+03 -1.64085E+00  1.00000E+00  1.64987+267  0.00000E+00          NaN
  7.10000E-02 -2.32105E+03  4.89967E-02  2.64608E-01  1.53438E-02  7.33777E-02  6.10093E+00 -5.78813E-01  2.06446E+03 -4.73524E+00 -1.00000E+00  2.96376E-02  2.29389E-01  1.72394E-01  5.32322E-01  6.10093E+00 -5.78813E-01  1.25220E+03 -1.64085E+00  1.00000E+00  1.64987+267  0.00000E+00          NaN
  7.10000E-02 -2.15526E+03  4.86972E-02  2.63770E-01  1.53571E-02  7.34763E-02  6.10093E+00 -5.78813E-01  2.06446E+03 -4.73524E+00 -1.00000E+00  3.92581E-02  2.55672E-01  1.73070E-01  5.35912E-01  6.10093E+00 -5.78813E-01  1.25220E+03 -1.64085E+00  1.00000E+00  1.64987+267  0.00000E+00          NaN
  7.10000E-02 -2.07236E+03  4.85465E-02  2.63343E-01  1.53636E-02  7.35239E-02  6.10093E+00 -5.78813E-01  2.06446E+03 -4.73524E+00 -1.00000E+00  4.41188E-02  2.69081E-01  1.73446E-01  5.37912E-01  6.10093E+00 -5.78813E-01  1.25220E+03 -1.64085E+00  1.00000E+00  1.64987+267  0.00000E+00          NaN
