s E_r[V/m] (\Gamma_b/n_b[m/s]  Q_b/n_b/T_b[m/s] L_1^b[m^2/s] L_2^b[m^2/s]  Z_b n_b[10^{19}m^{-3}] dlnn_b/dr[m^{-1}] T_b[eV] dlnT_b/dr[m^{-1}], b=1,NBB), size(e\varphi_1/T_i) 
  3.00000E-01 -1.69793E+04  3.19577E-02  1.09349E-01  3.27923E-03  1.22689E-02  5.61610E+00 -4.66645E-01  8.85851E+02 -6.11767E+00 -1.00000E+00 -6.53749E-01 -1.48788E+00  1.35022E-01  5.05425E-01  5.61610E+00 -4.66645E-01  8.62725E+02 -3.65309E+00  1.00000E+00  1.82518E+25  0.00000E+00          NaN
  3.00000E-01 -1.60360E+04  3.07471E-02  1.05857E-01  3.27924E-03  1.22689E-02  5.61610E+00 -4.66645E-01  8.85851E+02 -6.11767E+00 -1.00000E+00 -6.02976E-01 -1.34025E+00  1.35022E-01  5.05425E-01  5.61610E+00 -4.66645E-01  8.62725E+02 -3.65309E+00  1.00000E+00  1.82518E+25  0.00000E+00          NaN
  3.00000E-01 -1.50927E+04  2.95363E-02  1.02365E-01  3.27924E-03  1.22689E-02  5.61610E+00 -4.66645E-01  8.85851E+02 -6.11767E+00 -1.00000E+00 -5.52204E-01 -1.19262E+00  1.35022E-01  5.05425E-01  5.61610E+00 -4.66645E-01  8.62725E+02 -3.65309E+00  1.00000E+00  1.82518E+25  0.00000E+00          NaN
  3.00000E-01 -1.41494E+04  2.83254E-02  9.88737E-02  3.27925E-03  1.22689E-02  5.61610E+00 -4.66645E-01  8.85851E+02 -6.11767E+00 -1.00000E+00 -5.01432E-01 -1.04499E+00  1.35022E-01  5.05425E-01  5.61610E+00 -4.66645E-01  8.62725E+02 -3.65309E+00  1.00000E+00  1.82518E+25  0.00000E+00          NaN
  3.00000E-01 -1.32061E+04  2.71142E-02  9.53818E-02  3.27926E-03  1.22689E-02  5.61610E+00 -4.66645E-01  8.85851E+02 -6.11767E+00 -1.00000E+00 -4.50662E-01 -8.97360E-01  1.35023E-01  5.05425E-01  5.61610E+00 -4.66645E-01  8.62725E+02 -3.65309E+00  1.00000E+00  1.82518E+25  0.00000E+00          NaN
  3.00000E-01 -1.22628E+04  2.59029E-02  9.18899E-02  3.27927E-03  1.22689E-02  5.61610E+00 -4.66645E-01  8.85851E+02 -6.11767E+00 -1.00000E+00 -3.99892E-01 -7.49730E-01  1.35023E-01  5.05425E-01  5.61610E+00 -4.66645E-01  8.62725E+02 -3.65309E+00  1.00000E+00  1.82518E+25  0.00000E+00          NaN
  3.00000E-01 -1.13195E+04  2.46915E-02  8.83981E-02  3.27927E-03  1.22689E-02  5.61610E+00 -4.66645E-01  8.85851E+02 -6.11767E+00 -1.00000E+00 -3.49124E-01 -6.02100E-01  1.35023E-01  5.05425E-01  5.61610E+00 -4.66645E-01  8.62725E+02 -3.65309E+00  1.00000E+00  1.82518E+25  0.00000E+00          NaN
  3.00000E-01 -1.03763E+04  2.34798E-02  8.49062E-02  3.27928E-03  1.22689E-02  5.61610E+00 -4.66645E-01  8.85851E+02 -6.11767E+00 -1.00000E+00 -2.98358E-01 -4.54470E-01  1.35023E-01  5.05425E-01  5.61610E+00 -4.66645E-01  8.62725E+02 -3.65309E+00  1.00000E+00  1.82518E+25  0.00000E+00          NaN
  3.00000E-01 -9.43296E+03  2.22681E-02  8.14142E-02  3.27928E-03  1.22689E-02  5.61610E+00 -4.66645E-01  8.85851E+02 -6.11767E+00 -1.00000E+00 -2.47594E-01 -3.06840E-01  1.35023E-01  5.05425E-01  5.61610E+00 -4.66645E-01  8.62725E+02 -3.65309E+00  1.00000E+00  1.82518E+25  0.00000E+00          NaN
  3.00000E-01 -8.48966E+03  2.10562E-02  7.79223E-02  3.27929E-03  1.22689E-02  5.61610E+00 -4.66645E-01  8.85851E+02 -6.11767E+00 -1.00000E+00 -1.96832E-01 -1.59211E-01  1.35024E-01  5.05425E-01  5.61610E+00 -4.66645E-01  8.62725E+02 -3.65309E+00  1.00000E+00  1.82518E+25  0.00000E+00          NaN
  3.00000E-01 -7.54637E+03  1.98441E-02  7.44304E-02  3.27929E-03  1.22689E-02  5.61610E+00 -4.66645E-01  8.85851E+02 -6.11767E+00 -1.00000E+00 -1.46073E-01 -1.15817E-02  1.35024E-01  5.05425E-01  5.61610E+00 -4.66645E-01  8.62725E+02 -3.65309E+00  1.00000E+00  1.82518E+25  0.00000E+00          NaN
  3.00000E-01 -6.60307E+03  1.86320E-02  7.09384E-02  3.27930E-03  1.22689E-02  5.61610E+00 -4.66645E-01  8.85851E+02 -6.11767E+00 -1.00000E+00 -9.53165E-02  1.36047E-01  1.35024E-01  5.05425E-01  5.61610E+00 -4.66645E-01  8.62725E+02 -3.65309E+00  1.00000E+00  1.82518E+25  0.00000E+00          NaN
  3.00000E-01 -5.65977E+03  1.74197E-02  6.74465E-02  3.27930E-03  1.22689E-02  5.61610E+00 -4.66645E-01  8.85851E+02 -6.11767E+00 -1.00000E+00 -4.45628E-02  2.83675E-01  1.35025E-01  5.05425E-01  5.61610E+00 -4.66645E-01  8.62725E+02 -3.65309E+00  1.00000E+00  1.82518E+25  0.00000E+00          NaN
  3.00000E-01 -4.71648E+03  1.62072E-02  6.39545E-02  3.27931E-03  1.22689E-02  5.61610E+00 -4.66645E-01  8.85851E+02 -6.11767E+00 -1.00000E+00  6.18929E-03  4.31304E-01  1.35025E-01  5.05425E-01  5.61610E+00 -4.66645E-01  8.62725E+02 -3.65309E+00  1.00000E+00  1.82518E+25  0.00000E+00          NaN
  3.00000E-01 -3.77318E+03  1.49945E-02  6.04625E-02  3.27931E-03  1.22689E-02  5.61610E+00 -4.66645E-01  8.85851E+02 -6.11767E+00 -1.00000E+00  5.69428E-02  5.78932E-01  1.35026E-01  5.05425E-01  5.61610E+00 -4.66645E-01  8.62725E+02 -3.65309E+00  1.00000E+00  1.82518E+25  0.00000E+00          NaN
  3.00000E-01 -2.82989E+03  1.37815E-02  5.69705E-02  3.27932E-03  1.22689E-02  5.61610E+00 -4.66645E-01  8.85851E+02 -6.11767E+00 -1.00000E+00  1.07704E-01  7.26562E-01  1.35027E-01  5.05425E-01  5.61610E+00 -4.66645E-01  8.62725E+02 -3.65309E+00  1.00000E+00  1.82518E+25  0.00000E+00          NaN
  3.00000E-01 -1.88659E+03  1.25672E-02  5.34785E-02  3.27933E-03  1.22689E-02  5.61610E+00 -4.66645E-01  8.85851E+02 -6.11767E+00 -1.00000E+00  1.58481E-01  8.74193E-01  1.35028E-01  5.05425E-01  5.61610E+00 -4.66645E-01  8.62725E+02 -3.65309E+00  1.00000E+00  1.82518E+25  0.00000E+00          NaN
  3.00000E-01 -9.43296E+02  1.13487E-02  4.99864E-02  3.27935E-03  1.22689E-02  5.61610E+00 -4.66645E-01  8.85851E+02 -6.11767E+00 -1.00000E+00  2.09285E-01  1.02183E+00  1.35029E-01  5.05425E-01  5.61610E+00 -4.66645E-01  8.62725E+02 -3.65309E+00  1.00000E+00  1.82518E+25  0.00000E+00          NaN
  3.00000E-01 -1.45703E-12  1.01237E-02  4.64941E-02  3.27938E-03  1.22689E-02  5.61610E+00 -4.66645E-01  8.85851E+02 -6.11767E+00 -1.00000E+00  2.60060E-01  1.16946E+00  1.35029E-01  5.05425E-01  5.61610E+00 -4.66645E-01  8.62725E+02 -3.65309E+00  1.00000E+00  1.82518E+25  0.00000E+00          NaN
  3.00000E-01  9.43296E+02  8.92143E-03  4.30024E-02  3.27935E-03  1.22689E-02  5.61610E+00 -4.66645E-01  8.85851E+02 -6.11767E+00 -1.00000E+00  3.10985E-01  1.31711E+00  1.35029E-01  5.05425E-01  5.61610E+00 -4.66645E-01  8.62725E+02 -3.65309E+00  1.00000E+00  1.82518E+25  0.00000E+00          NaN
  3.00000E-01  1.88659E+03  7.71589E-03  3.95106E-02  3.27933E-03  1.22689E-02  5.61610E+00 -4.66645E-01  8.85851E+02 -6.11767E+00 -1.00000E+00  3.61852E-01  1.46475E+00  1.35028E-01  5.05425E-01  5.61610E+00 -4.66645E-01  8.62725E+02 -3.65309E+00  1.00000E+00  1.82518E+25  0.00000E+00          NaN
  3.00000E-01  2.82989E+03  6.50616E-03  3.60187E-02  3.27932E-03  1.22689E-02  5.61610E+00 -4.66645E-01  8.85851E+02 -6.11767E+00 -1.00000E+00  4.12705E-01  1.61239E+00  1.35027E-01  5.05425E-01  5.61610E+00 -4.66645E-01  8.62725E+02 -3.65309E+00  1.00000E+00  1.82518E+25  0.00000E+00          NaN
  3.00000E-01  3.77318E+03  5.29523E-03  3.25268E-02  3.27931E-03  1.22689E-02  5.61610E+00 -4.66645E-01  8.85851E+02 -6.11767E+00 -1.00000E+00  4.63541E-01  1.76002E+00  1.35026E-01  5.05425E-01  5.61610E+00 -4.66645E-01  8.62725E+02 -3.65309E+00  1.00000E+00  1.82518E+25  0.00000E+00          NaN
  3.00000E-01  4.71648E+03  4.08395E-03  2.90349E-02  3.27931E-03  1.22689E-02  5.61610E+00 -4.66645E-01  8.85851E+02 -6.11767E+00 -1.00000E+00  5.14359E-01  1.90766E+00  1.35025E-01  5.05425E-01  5.61610E+00 -4.66645E-01  8.62725E+02 -3.65309E+00  1.00000E+00  1.82518E+25  0.00000E+00          NaN
  3.00000E-01  5.65977E+03  2.87260E-03  2.55430E-02  3.27930E-03  1.22689E-02  5.61610E+00 -4.66645E-01  8.85851E+02 -6.11767E+00 -1.00000E+00  5.65165E-01  2.05529E+00  1.35025E-01  5.05425E-01  5.61610E+00 -4.66645E-01  8.62725E+02 -3.65309E+00  1.00000E+00  1.82518E+25  0.00000E+00          NaN
  3.00000E-01  6.60307E+03  1.66129E-03  2.20511E-02  3.27930E-03  1.22689E-02  5.61610E+00 -4.66645E-01  8.85851E+02 -6.11767E+00 -1.00000E+00  6.15961E-01  2.20293E+00  1.35024E-01  5.05425E-01  5.61610E+00 -4.66645E-01  8.62725E+02 -3.65309E+00  1.00000E+00  1.82518E+25  0.00000E+00          NaN
  3.00000E-01  7.54637E+03  4.50096E-04  1.85592E-02  3.27929E-03  1.22689E-02  5.61610E+00 -4.66645E-01  8.85851E+02 -6.11767E+00 -1.00000E+00  6.66751E-01  2.35056E+00  1.35024E-01  5.05425E-01  5.61610E+00 -4.66645E-01  8.62725E+02 -3.65309E+00  1.00000E+00  1.82518E+25  0.00000E+00          NaN
  3.00000E-01  8.48966E+03 -7.60959E-04  1.50674E-02  3.27929E-03  1.22689E-02  5.61610E+00 -4.66645E-01  8.85851E+02 -6.11767E+00 -1.00000E+00  7.17537E-01  2.49819E+00  1.35024E-01  5.05425E-01  5.61610E+00 -4.66645E-01  8.62725E+02 -3.65309E+00  1.00000E+00  1.82518E+25  0.00000E+00          NaN
  3.00000E-01  9.43296E+03 -1.97185E-03  1.15756E-02  3.27928E-03  1.22689E-02  5.61610E+00 -4.66645E-01  8.85851E+02 -6.11767E+00 -1.00000E+00  7.68321E-01  2.64582E+00  1.35023E-01  5.05425E-01  5.61610E+00 -4.66645E-01  8.62725E+02 -3.65309E+00  1.00000E+00  1.82518E+25  0.00000E+00          NaN
  3.00000E-01  1.03763E+04 -3.18257E-03  8.08373E-03  3.27928E-03  1.22689E-02  5.61610E+00 -4.66645E-01  8.85851E+02 -6.11767E+00 -1.00000E+00  8.19103E-01  2.79346E+00  1.35023E-01  5.05425E-01  5.61610E+00 -4.66645E-01  8.62725E+02 -3.65309E+00  1.00000E+00  1.82518E+25  0.00000E+00          NaN
  3.00000E-01  1.13195E+04 -4.39310E-03  4.59193E-03  3.27927E-03  1.22689E-02  5.61610E+00 -4.66645E-01  8.85851E+02 -6.11767E+00 -1.00000E+00  8.69883E-01  2.94109E+00  1.35023E-01  5.05425E-01  5.61610E+00 -4.66645E-01  8.62725E+02 -3.65309E+00  1.00000E+00  1.82518E+25  0.00000E+00          NaN
  3.00000E-01  1.22628E+04 -5.60344E-03  1.10016E-03  3.27927E-03  1.22689E-02  5.61610E+00 -4.66645E-01  8.85851E+02 -6.11767E+00 -1.00000E+00  9.20663E-01  3.08872E+00  1.35023E-01  5.05425E-01  5.61610E+00 -4.66645E-01  8.62725E+02 -3.65309E+00  1.00000E+00  1.82518E+25  0.00000E+00          NaN
  3.00000E-01  1.32061E+04 -6.81358E-03 -2.39160E-03  3.27926E-03  1.22689E-02  5.61610E+00 -4.66645E-01  8.85851E+02 -6.11767E+00 -1.00000E+00  9.71442E-01  3.23635E+00  1.35023E-01  5.05425E-01  5.61610E+00 -4.66645E-01  8.62725E+02 -3.65309E+00  1.00000E+00  1.82518E+25  0.00000E+00          NaN
  3.00000E-01  1.41494E+04 -8.02353E-03 -5.88334E-03  3.27925E-03  1.22689E-02  5.61610E+00 -4.66645E-01  8.85851E+02 -6.11767E+00 -1.00000E+00  1.02222E+00  3.38398E+00  1.35022E-01  5.05425E-01  5.61610E+00 -4.66645E-01  8.62725E+02 -3.65309E+00  1.00000E+00  1.82518E+25  0.00000E+00          NaN
  3.00000E-01  1.50927E+04 -9.23326E-03 -9.37505E-03  3.27924E-03  1.22689E-02  5.61610E+00 -4.66645E-01  8.85851E+02 -6.11767E+00 -1.00000E+00  1.07300E+00  3.53161E+00  1.35022E-01  5.05425E-01  5.61610E+00 -4.66645E-01  8.62725E+02 -3.65309E+00  1.00000E+00  1.82518E+25  0.00000E+00          NaN
  3.00000E-01  1.60360E+04 -1.04428E-02 -1.28667E-02  3.27924E-03  1.22689E-02  5.61610E+00 -4.66645E-01  8.85851E+02 -6.11767E+00 -1.00000E+00  1.12378E+00  3.67924E+00  1.35022E-01  5.05425E-01  5.61610E+00 -4.66645E-01  8.62725E+02 -3.65309E+00  1.00000E+00  1.82518E+25  0.00000E+00          NaN
  3.00000E-01  1.69793E+04 -1.16521E-02 -1.63584E-02  3.27923E-03  1.22689E-02  5.61610E+00 -4.66645E-01  8.85851E+02 -6.11767E+00 -1.00000E+00  1.17456E+00  3.82688E+00  1.35022E-01  5.05425E-01  5.61610E+00 -4.66645E-01  8.62725E+02 -3.65309E+00  1.00000E+00  1.82518E+25  0.00000E+00          NaN
  3.00000E-01  1.79226E+04 -1.28613E-02 -1.98501E-02  3.27922E-03  1.22689E-02  5.61610E+00 -4.66645E-01  8.85851E+02 -6.11767E+00 -1.00000E+00  1.22533E+00  3.97451E+00  1.35022E-01  5.05425E-01  5.61610E+00 -4.66645E-01  8.62725E+02 -3.65309E+00  1.00000E+00  1.82518E+25  0.00000E+00          NaN
  3.00000E-01  1.88659E+04 -1.40702E-02 -2.33417E-02  3.27921E-03  1.22689E-02  5.61610E+00 -4.66645E-01  8.85851E+02 -6.11767E+00 -1.00000E+00  1.27611E+00  4.12214E+00  1.35022E-01  5.05425E-01  5.61610E+00 -4.66645E-01  8.62725E+02 -3.65309E+00  1.00000E+00  1.82518E+25  0.00000E+00          NaN
  3.00000E-01  1.98092E+04 -1.52789E-02 -2.68333E-02  3.27920E-03  1.22689E-02  5.61610E+00 -4.66645E-01  8.85851E+02 -6.11767E+00 -1.00000E+00  1.32689E+00  4.26977E+00  1.35022E-01  5.05425E-01  5.61610E+00 -4.66645E-01  8.62725E+02 -3.65309E+00  1.00000E+00  1.82518E+25  0.00000E+00          NaN
  3.00000E-01  2.07525E+04 -1.64874E-02 -3.03248E-02  3.27919E-03  1.22689E-02  5.61610E+00 -4.66645E-01  8.85851E+02 -6.11767E+00 -1.00000E+00  1.37767E+00  4.41740E+00  1.35022E-01  5.05424E-01  5.61610E+00 -4.66645E-01  8.62725E+02 -3.65309E+00  1.00000E+00  1.82518E+25  0.00000E+00          NaN
  3.00000E-01  2.16958E+04 -1.76958E-02 -3.38164E-02  3.27919E-03  1.22689E-02  5.61610E+00 -4.66645E-01  8.85851E+02 -6.11767E+00 -1.00000E+00  1.42845E+00  4.56503E+00  1.35022E-01  5.05424E-01  5.61610E+00 -4.66645E-01  8.62725E+02 -3.65309E+00  1.00000E+00  1.82518E+25  0.00000E+00          NaN
  3.00000E-01  2.26391E+04 -1.89039E-02 -3.73079E-02  3.27918E-03  1.22689E-02  5.61610E+00 -4.66645E-01  8.85851E+02 -6.11767E+00 -1.00000E+00  1.47922E+00  4.71266E+00  1.35022E-01  5.05424E-01  5.61610E+00 -4.66645E-01  8.62725E+02 -3.65309E+00  1.00000E+00  1.82518E+25  0.00000E+00          NaN
  3.00000E-01  2.35824E+04 -2.01118E-02 -4.07994E-02  3.27917E-03  1.22689E-02  5.61610E+00 -4.66645E-01  8.85851E+02 -6.11767E+00 -1.00000E+00  1.53000E+00  4.86029E+00  1.35022E-01  5.05424E-01  5.61610E+00 -4.66645E-01  8.62725E+02 -3.65309E+00  1.00000E+00  1.82518E+25  0.00000E+00          NaN
  3.00000E-01  2.45257E+04 -2.13196E-02 -4.42909E-02  3.27916E-03  1.22689E-02  5.61610E+00 -4.66645E-01  8.85851E+02 -6.11767E+00 -1.00000E+00  1.58078E+00  5.00792E+00  1.35022E-01  5.05424E-01  5.61610E+00 -4.66645E-01  8.62725E+02 -3.65309E+00  1.00000E+00  1.82518E+25  0.00000E+00          NaN
  3.00000E-01  2.54690E+04 -2.25272E-02 -4.77824E-02  3.27915E-03  1.22689E-02  5.61610E+00 -4.66645E-01  8.85851E+02 -6.11767E+00 -1.00000E+00  1.63156E+00  5.15556E+00  1.35022E-01  5.05424E-01  5.61610E+00 -4.66645E-01  8.62725E+02 -3.65309E+00  1.00000E+00  1.82518E+25  0.00000E+00          NaN
  3.00000E-01  2.64123E+04 -2.37346E-02 -5.12738E-02  3.27914E-03  1.22689E-02  5.61610E+00 -4.66645E-01  8.85851E+02 -6.11767E+00 -1.00000E+00  1.68233E+00  5.30319E+00  1.35022E-01  5.05424E-01  5.61610E+00 -4.66645E-01  8.62725E+02 -3.65309E+00  1.00000E+00  1.82518E+25  0.00000E+00          NaN
  3.00000E-01  2.73556E+04 -2.49418E-02 -5.47652E-02  3.27913E-03  1.22689E-02  5.61610E+00 -4.66645E-01  8.85851E+02 -6.11767E+00 -1.00000E+00  1.73311E+00  5.45082E+00  1.35022E-01  5.05424E-01  5.61610E+00 -4.66645E-01  8.62725E+02 -3.65309E+00  1.00000E+00  1.82518E+25  0.00000E+00          NaN
  3.00000E-01  2.82989E+04 -2.61488E-02 -5.82566E-02  3.27912E-03  1.22689E-02  5.61610E+00 -4.66645E-01  8.85851E+02 -6.11767E+00 -1.00000E+00  1.78389E+00  5.59845E+00  1.35022E-01  5.05424E-01  5.61610E+00 -4.66645E-01  8.62725E+02 -3.65309E+00  1.00000E+00  1.82518E+25  0.00000E+00          NaN
  3.00000E-01  2.92422E+04 -2.73557E-02 -6.17480E-02  3.27911E-03  1.22689E-02  5.61610E+00 -4.66645E-01  8.85851E+02 -6.11767E+00 -1.00000E+00  1.83467E+00  5.74608E+00  1.35022E-01  5.05424E-01  5.61610E+00 -4.66645E-01  8.62725E+02 -3.65309E+00  1.00000E+00  1.82518E+25  0.00000E+00          NaN
  3.00000E-01 -4.71648E+03  1.62072E-02  6.39545E-02  3.27931E-03  1.22689E-02  5.61610E+00 -4.66645E-01  8.85851E+02 -6.11767E+00 -1.00000E+00  6.18929E-03  4.31304E-01  1.35025E-01  5.05425E-01  5.61610E+00 -4.66645E-01  8.62725E+02 -3.65309E+00  1.00000E+00  1.82518E+25  0.00000E+00          NaN
  3.00000E-01 -3.77318E+03  1.49945E-02  6.04625E-02  3.27931E-03  1.22689E-02  5.61610E+00 -4.66645E-01  8.85851E+02 -6.11767E+00 -1.00000E+00  5.69428E-02  5.78932E-01  1.35026E-01  5.05425E-01  5.61610E+00 -4.66645E-01  8.62725E+02 -3.65309E+00  1.00000E+00  1.82518E+25  0.00000E+00          NaN
  3.00000E-01 -4.24483E+03  1.56009E-02  6.22085E-02  3.27931E-03  1.22689E-02  5.61610E+00 -4.66645E-01  8.85851E+02 -6.11767E+00 -1.00000E+00  3.15656E-02  5.05118E-01  1.35026E-01  5.05425E-01  5.61610E+00 -4.66645E-01  8.62725E+02 -3.65309E+00  1.00000E+00  1.82518E+25  0.00000E+00          NaN
  3.00000E-01 -4.48066E+03  1.59041E-02  6.30815E-02  3.27931E-03  1.22689E-02  5.61610E+00 -4.66645E-01  8.85851E+02 -6.11767E+00 -1.00000E+00  1.88774E-02  4.68211E-01  1.35026E-01  5.05425E-01  5.61610E+00 -4.66645E-01  8.62725E+02 -3.65309E+00  1.00000E+00  1.82518E+25  0.00000E+00          NaN
  3.00000E-01 -4.59857E+03  1.60556E-02  6.35180E-02  3.27931E-03  1.22689E-02  5.61610E+00 -4.66645E-01  8.85851E+02 -6.11767E+00 -1.00000E+00  1.25333E-02  4.49757E-01  1.35026E-01  5.05425E-01  5.61610E+00 -4.66645E-01  8.62725E+02 -3.65309E+00  1.00000E+00  1.82518E+25  0.00000E+00          NaN
  3.00000E-01 -4.53961E+03  1.59798E-02  6.32998E-02  3.27931E-03  1.22689E-02  5.61610E+00 -4.66645E-01  8.85851E+02 -6.11767E+00 -1.00000E+00  1.57053E-02  4.58984E-01  1.35026E-01  5.05425E-01  5.61610E+00 -4.66645E-01  8.62725E+02 -3.65309E+00  1.00000E+00  1.82518E+25  0.00000E+00          NaN
