Set INTEL compilers as MPI wrappers backend 
remove impi/2017.4 (PATH, MANPATH, LD_LIBRARY_PATH) 
load impi/2017.4 (PATH, MANPATH, LD_LIBRARY_PATH) 
remove mkl/2017.4 (LD_LIBRARY_PATH) 
load mkl/2017.4 (LD_LIBRARY_PATH) 
load netcdf/4.4.1.1 (PATH, LD_LIBRARY_PATH, NETCDF, HDF5/1.8.19 is used
internally) 

The following have been reloaded with a version change:
  1) intel/2017.4 => intel/2018.4

env: '-np': No such file or directory
