{
  "popMetrics": [
    {
      "name": "MPI Execution",
      "elapsedTime": 648590713655,
      "parallelEfficiency": 0.00,
      "communicationEfficiency": 0.00,
      "loadBalance": 1.00,
      "lbIn": 1.00,
      "lbOut": 1.00
    },
    {
      "name": "MPI Execution",
      "elapsedTime": 648590713655,
      "parallelEfficiency": 0.00,
      "communicationEfficiency": 0.00,
      "loadBalance": 1.00,
      "lbIn": 1.00,
      "lbOut": 1.00
    }
  ]
}
