S 2070873663754224
S 2070873664441174
S 2070873733239860
B 0 "400000-51c000 0 /gpfs/projects/bsc99/bsc99520/KNOSOS/knosos/Sources/knosos.x"
B 0 "7feced130000-7feced13a000 0 /usr/lib64/libnuma.so.1"
B 0 "7fed104e8000-7fed10556000 0 /usr/lib64/libpcre.so.1.2.7"
B 0 "7fed10757000-7fed1077a000 0 /lib64/libselinux.so.1"
B 0 "7fed1097d000-7fed10980000 0 /lib64/libkeyutils.so.1.5"
B 0 "7fed10b81000-7fed10b84000 0 /usr/lib64/libXau.so.6.0.0"
B 0 "7fed10d85000-7fed10da1000 0 /usr/lib64/libsasl2.so.3.0.0"
B 0 "7fed10fa2000-7fed10fb6000 0 /lib64/libresolv-2.22.so"
B 0 "7fed111b9000-7fed111c5000 0 /usr/lib64/libkrb5support.so.0.1"
B 0 "7fed113c6000-7fed113c9000 0 /usr/lib64/libcom_err.so.2.1"
B 0 "7fed115ca000-7fed115f7000 0 /usr/lib64/libk5crypto.so.3.1"
B 0 "7fed117fa000-7fed118bc000 0 /usr/lib64/libkrb5.so.3.3"
B 0 "7fed11acb000-7fed11aea000 0 /usr/lib64/libxcb.so.1.1.0"
B 0 "7fed11ceb000-7fed11d35000 0 /usr/lib64/libldap-2.4.so.2.10.4"
B 0 "7fed11f38000-7fed11f46000 0 /usr/lib64/liblber-2.4.so.2.10.4"
B 0 "7fed12147000-7fed1218d000 0 /usr/lib64/libgssapi_krb5.so.2.2"
B 0 "7fed12390000-7fed125bd000 0 /lib64/libcrypto.so.1.0.0"
B 0 "7fed127ea000-7fed1284b000 0 /lib64/libssl.so.1.0.0"
B 0 "7fed12a56000-7fed12a80000 0 /usr/lib64/libssh2.so.1.0.1"
B 0 "7fed12c82000-7fed12cb4000 0 /usr/lib64/libidn.so.11.6.11"
B 0 "7fed12eb6000-7fed12ef4000 0 /usr/lib64/libquadmath.so.0.0.0"
B 0 "7fed130f6000-7fed13161000 0 /gpfs/apps/MN4/INTEL/2018.4.057/compilers_and_libraries_2018.5.274/linux/compiler/lib/intel64_lin/libirc.so"
B 0 "7fed13364000-7fed134df000 0 /usr/lib64/libstdc++.so.6.0.24"
B 0 "7fed136ed000-7fed13825000 0 /usr/lib64/libX11.so.6.3.0"
B 0 "7fed13a2b000-7fed159e1000 0 /gpfs/apps/MN4/INTEL/2018.4.057/compilers_and_libraries_2018.5.274/linux/mkl/lib/intel64_lin/libmkl_intel_thread.so"
B 0 "7fed15e56000-7fed15fb7000 0 /gpfs/apps/MN4/INTEL/2018.4.057/compilers_and_libraries_2018.5.274/linux/compiler/lib/intel64_lin/libirng.so"
B 0 "7fed161ca000-7fed16237000 0 /usr/lib64/libcurl.so.4.3.0"
B 0 "7fed1643b000-7fed16450000 0 /lib64/libz.so.1.2.8"
B 0 "7fed16651000-7fed16666000 0 /gpfs/apps/MN4/SZIP/2.1.1/INTEL/lib/libsz.so.2.0.0"
B 0 "7fed16870000-7fed16c3e000 0 /gpfs/apps/MN4/HDF5/1.8.19/INTEL/IMPI/lib/libhdf5.so.10.3.0"
B 0 "7fed16e4c000-7fed16e71000 0 /gpfs/apps/MN4/HDF5/1.8.19/INTEL/IMPI/lib/libhdf5_hl.so.10.2.0"
B 0 "7fed17074000-7fed171a8000 0 /gpfs/apps/MN4/BSCTOOLS/deps/binutils/2.38/lib/libbfd-2.38.so"
B 0 "7fed173c0000-7fed1752d000 0 /gpfs/apps/MN4/BSCTOOLS/deps/papi/6.0.0/lib/libpfm.so.4.10.1"
B 0 "7fed17823000-7fed17874000 0 /gpfs/apps/MN4/BSCTOOLS/deps/papi/6.0.0/lib/libpapi.so.6.0.0.0"
B 0 "7fed17a84000-7fed17aa9000 0 /usr/lib64/liblzma.so.5.0.5"
B 0 "7fed17caa000-7fed17e00000 0 /gpfs/apps/MN4/BSCTOOLS/deps/libxml/2.9.12/lib/libxml2.so.2.9.12"
B 0 "7fed1800b000-7fed18018000 0 /gpfs/apps/MN4/BSCTOOLS/deps/libunwind/1.6.2/lib/libunwind.so.8.0.1"
B 0 "7fed18223000-7fed18239000 0 /lib64/libgcc_s.so.1"
B 0 "7fed1843a000-7fed185d3000 0 /lib64/libc-2.22.so"
B 0 "7fed187dd000-7fed18848000 0 /gpfs/apps/MN4/INTEL/2018.4.057/compilers_and_libraries_2018.5.274/linux/compiler/lib/intel64_lin/libintlc.so.5"
B 0 "7fed18a4b000-7fed18bf3000 0 /gpfs/apps/MN4/INTEL/2018.4.057/compilers_and_libraries_2018.5.274/linux/compiler/lib/intel64_lin/libiomp5.so"
B 0 "7fed18e2e000-7fed18f2a000 0 /lib64/libm-2.22.so"
B 0 "7fed1912b000-7fed1a7b6000 0 /gpfs/apps/MN4/INTEL/2018.4.057/compilers_and_libraries_2018.5.274/linux/compiler/lib/intel64_lin/libsvml.so"
B 0 "7fed1aa39000-7fed1ad6f000 0 /gpfs/apps/MN4/INTEL/2018.4.057/compilers_and_libraries_2018.5.274/linux/compiler/lib/intel64_lin/libimf.so"
B 0 "7fed1afcc000-7fed1b108000 0 /gpfs/apps/MN4/INTEL/2018.4.057/compilers_and_libraries_2018.5.274/linux/compiler/lib/intel64_lin/libifcoremt.so.5"
B 0 "7fed1b360000-7fed1b386000 0 /gpfs/apps/MN4/INTEL/2018.4.057/compilers_and_libraries_2018.5.274/linux/compiler/lib/intel64_lin/libifport.so.5"
B 0 "7fed1b58c000-7fed1b5a4000 0 /lib64/libpthread-2.22.so"
B 0 "7fed1b7a9000-7fed1b7b0000 0 /lib64/librt-2.22.so"
B 0 "7fed1b9b1000-7fed1b9b3000 0 /lib64/libdl-2.22.so"
B 0 "7fed1bbb5000-7fed1c269000 0 /gpfs/apps/MN4/INTEL/2018.1.038/compilers_and_libraries_2018.1.163/linux/mpi/intel64/lib/release_mt/libmpi.so.12.0"
B 0 "7fed1c83a000-7fed1c9b8000 0 /gpfs/apps/MN4/INTEL/2018.1.038/compilers_and_libraries_2018.1.163/linux/mpi/intel64/lib/libmpifort.so.12.0"
B 0 "7fed1cbe3000-7fed1cc24000 0 /gpfs/apps/MN4/INTEL/2018.4.057/compilers_and_libraries_2018.5.274/linux/mkl/lib/intel64_lin/libmkl_blacs_intelmpi_lp64.so"
B 0 "7fed1ce25000-7fed20c29000 0 /gpfs/apps/MN4/INTEL/2018.4.057/compilers_and_libraries_2018.5.274/linux/mkl/lib/intel64_lin/libmkl_core.so"
B 0 "7fed20e72000-7fed2211e000 0 /gpfs/apps/MN4/INTEL/2018.4.057/compilers_and_libraries_2018.5.274/linux/mkl/lib/intel64_lin/libmkl_sequential.so"
B 0 "7fed22337000-7fed229b0000 0 /gpfs/apps/MN4/INTEL/2018.4.057/compilers_and_libraries_2018.5.274/linux/mkl/lib/intel64_lin/libmkl_scalapack_lp64.so"
B 0 "7fed22c38000-7fed2352f000 0 /gpfs/apps/MN4/INTEL/2018.4.057/compilers_and_libraries_2018.5.274/linux/mkl/lib/intel64_lin/libmkl_intel_lp64.so"
B 0 "7fed23748000-7fed26d4a000 0 /gpfs/projects/bsc99/bsc99520/KNOSOS/petsc-3.16.1-real/lib/libpetsc.so.3.16.1"
B 0 "7fed27210000-7fed274c8000 0 /gpfs/apps/MN4/NETCDF/4.4.1.1/INTEL/IMPI/lib/libnetcdf.so.11.0.4"
B 0 "7fed2a778000-7fed2a82c000 0 /gpfs/apps/MN4/NETCDF/4.4.1.1/INTEL/IMPI/lib/libnetcdff.so.6.1.1"
B 0 "7fed2ac07000-7fed2ad1a000 0 /gpfs/apps/MN4/BSCTOOLS/extrae/4.0.1/impi_2018_1/lib/libmpitracef-4.0.1.so"
B 0 "7fed2b8ab000-7fed2b8cc000 0 /lib64/ld-2.22.so"
