S 2124401866998511
S 2124401867989310
S 2124401969783132
B 0 "400000-51c000 0 /gpfs/projects/bsc99/bsc99520/KNOSOS/knosos/Sources/knosos.x"
B 0 "7f47d0266000-7f47d0270000 0 /usr/lib64/libnuma.so.1"
B 0 "7f47f361e000-7f47f368c000 0 /usr/lib64/libpcre.so.1.2.7"
B 0 "7f47f388d000-7f47f38b0000 0 /lib64/libselinux.so.1"
B 0 "7f47f3ab3000-7f47f3ab6000 0 /lib64/libkeyutils.so.1.5"
B 0 "7f47f3cb7000-7f47f3cba000 0 /usr/lib64/libXau.so.6.0.0"
B 0 "7f47f3ebb000-7f47f3ed7000 0 /usr/lib64/libsasl2.so.3.0.0"
B 0 "7f47f40d8000-7f47f40ec000 0 /lib64/libresolv-2.22.so"
B 0 "7f47f42ef000-7f47f42fb000 0 /usr/lib64/libkrb5support.so.0.1"
B 0 "7f47f44fc000-7f47f44ff000 0 /usr/lib64/libcom_err.so.2.1"
B 0 "7f47f4700000-7f47f472d000 0 /usr/lib64/libk5crypto.so.3.1"
B 0 "7f47f4930000-7f47f49f2000 0 /usr/lib64/libkrb5.so.3.3"
B 0 "7f47f4c01000-7f47f4c20000 0 /usr/lib64/libxcb.so.1.1.0"
B 0 "7f47f4e21000-7f47f4e6b000 0 /usr/lib64/libldap-2.4.so.2.10.4"
B 0 "7f47f506e000-7f47f507c000 0 /usr/lib64/liblber-2.4.so.2.10.4"
B 0 "7f47f527d000-7f47f52c3000 0 /usr/lib64/libgssapi_krb5.so.2.2"
B 0 "7f47f54c6000-7f47f56f3000 0 /lib64/libcrypto.so.1.0.0"
B 0 "7f47f5920000-7f47f5981000 0 /lib64/libssl.so.1.0.0"
B 0 "7f47f5b8c000-7f47f5bb6000 0 /usr/lib64/libssh2.so.1.0.1"
B 0 "7f47f5db8000-7f47f5dea000 0 /usr/lib64/libidn.so.11.6.11"
B 0 "7f47f5fec000-7f47f602a000 0 /usr/lib64/libquadmath.so.0.0.0"
B 0 "7f47f622c000-7f47f6297000 0 /gpfs/apps/MN4/INTEL/2018.4.057/compilers_and_libraries_2018.5.274/linux/compiler/lib/intel64_lin/libirc.so"
B 0 "7f47f649a000-7f47f6615000 0 /usr/lib64/libstdc++.so.6.0.24"
B 0 "7f47f6823000-7f47f695b000 0 /usr/lib64/libX11.so.6.3.0"
B 0 "7f47f6b61000-7f47f8b17000 0 /gpfs/apps/MN4/INTEL/2018.4.057/compilers_and_libraries_2018.5.274/linux/mkl/lib/intel64_lin/libmkl_intel_thread.so"
B 0 "7f47f8f8c000-7f47f90ed000 0 /gpfs/apps/MN4/INTEL/2018.4.057/compilers_and_libraries_2018.5.274/linux/compiler/lib/intel64_lin/libirng.so"
B 0 "7f47f9300000-7f47f936d000 0 /usr/lib64/libcurl.so.4.3.0"
B 0 "7f47f9571000-7f47f9586000 0 /lib64/libz.so.1.2.8"
B 0 "7f47f9787000-7f47f979c000 0 /gpfs/apps/MN4/SZIP/2.1.1/INTEL/lib/libsz.so.2.0.0"
B 0 "7f47f99a6000-7f47f9d74000 0 /gpfs/apps/MN4/HDF5/1.8.19/INTEL/IMPI/lib/libhdf5.so.10.3.0"
B 0 "7f47f9f82000-7f47f9fa7000 0 /gpfs/apps/MN4/HDF5/1.8.19/INTEL/IMPI/lib/libhdf5_hl.so.10.2.0"
B 0 "7f47fa1aa000-7f47fa2de000 0 /gpfs/apps/MN4/BSCTOOLS/deps/binutils/2.38/lib/libbfd-2.38.so"
B 0 "7f47fa4f6000-7f47fa663000 0 /gpfs/apps/MN4/BSCTOOLS/deps/papi/6.0.0/lib/libpfm.so.4.10.1"
B 0 "7f47fa959000-7f47fa9aa000 0 /gpfs/apps/MN4/BSCTOOLS/deps/papi/6.0.0/lib/libpapi.so.6.0.0.0"
B 0 "7f47fabba000-7f47fabdf000 0 /usr/lib64/liblzma.so.5.0.5"
B 0 "7f47fade0000-7f47faf36000 0 /gpfs/apps/MN4/BSCTOOLS/deps/libxml/2.9.12/lib/libxml2.so.2.9.12"
B 0 "7f47fb141000-7f47fb14e000 0 /gpfs/apps/MN4/BSCTOOLS/deps/libunwind/1.6.2/lib/libunwind.so.8.0.1"
B 0 "7f47fb359000-7f47fb36f000 0 /lib64/libgcc_s.so.1"
B 0 "7f47fb570000-7f47fb709000 0 /lib64/libc-2.22.so"
B 0 "7f47fb913000-7f47fb97e000 0 /gpfs/apps/MN4/INTEL/2018.4.057/compilers_and_libraries_2018.5.274/linux/compiler/lib/intel64_lin/libintlc.so.5"
B 0 "7f47fbb81000-7f47fbd29000 0 /gpfs/apps/MN4/INTEL/2018.4.057/compilers_and_libraries_2018.5.274/linux/compiler/lib/intel64_lin/libiomp5.so"
B 0 "7f47fbf64000-7f47fc060000 0 /lib64/libm-2.22.so"
B 0 "7f47fc261000-7f47fd8ec000 0 /gpfs/apps/MN4/INTEL/2018.4.057/compilers_and_libraries_2018.5.274/linux/compiler/lib/intel64_lin/libsvml.so"
B 0 "7f47fdb6f000-7f47fdea5000 0 /gpfs/apps/MN4/INTEL/2018.4.057/compilers_and_libraries_2018.5.274/linux/compiler/lib/intel64_lin/libimf.so"
B 0 "7f47fe102000-7f47fe23e000 0 /gpfs/apps/MN4/INTEL/2018.4.057/compilers_and_libraries_2018.5.274/linux/compiler/lib/intel64_lin/libifcoremt.so.5"
B 0 "7f47fe496000-7f47fe4bc000 0 /gpfs/apps/MN4/INTEL/2018.4.057/compilers_and_libraries_2018.5.274/linux/compiler/lib/intel64_lin/libifport.so.5"
B 0 "7f47fe6c2000-7f47fe6da000 0 /lib64/libpthread-2.22.so"
B 0 "7f47fe8df000-7f47fe8e6000 0 /lib64/librt-2.22.so"
B 0 "7f47feae7000-7f47feae9000 0 /lib64/libdl-2.22.so"
B 0 "7f47feceb000-7f47ff39f000 0 /gpfs/apps/MN4/INTEL/2018.1.038/compilers_and_libraries_2018.1.163/linux/mpi/intel64/lib/release_mt/libmpi.so.12.0"
B 0 "7f47ff970000-7f47ffaee000 0 /gpfs/apps/MN4/INTEL/2018.1.038/compilers_and_libraries_2018.1.163/linux/mpi/intel64/lib/libmpifort.so.12.0"
B 0 "7f47ffd19000-7f47ffd5a000 0 /gpfs/apps/MN4/INTEL/2018.4.057/compilers_and_libraries_2018.5.274/linux/mkl/lib/intel64_lin/libmkl_blacs_intelmpi_lp64.so"
B 0 "7f47fff5b000-7f4803d5f000 0 /gpfs/apps/MN4/INTEL/2018.4.057/compilers_and_libraries_2018.5.274/linux/mkl/lib/intel64_lin/libmkl_core.so"
B 0 "7f4803fa8000-7f4805254000 0 /gpfs/apps/MN4/INTEL/2018.4.057/compilers_and_libraries_2018.5.274/linux/mkl/lib/intel64_lin/libmkl_sequential.so"
B 0 "7f480546d000-7f4805ae6000 0 /gpfs/apps/MN4/INTEL/2018.4.057/compilers_and_libraries_2018.5.274/linux/mkl/lib/intel64_lin/libmkl_scalapack_lp64.so"
B 0 "7f4805d6e000-7f4806665000 0 /gpfs/apps/MN4/INTEL/2018.4.057/compilers_and_libraries_2018.5.274/linux/mkl/lib/intel64_lin/libmkl_intel_lp64.so"
B 0 "7f480687e000-7f4809e80000 0 /gpfs/projects/bsc99/bsc99520/KNOSOS/petsc-3.16.1-real/lib/libpetsc.so.3.16.1"
B 0 "7f480a346000-7f480a5fe000 0 /gpfs/apps/MN4/NETCDF/4.4.1.1/INTEL/IMPI/lib/libnetcdf.so.11.0.4"
B 0 "7f480d8ae000-7f480d962000 0 /gpfs/apps/MN4/NETCDF/4.4.1.1/INTEL/IMPI/lib/libnetcdff.so.6.1.1"
B 0 "7f480dd3d000-7f480de50000 0 /gpfs/apps/MN4/BSCTOOLS/extrae/4.0.1/impi_2018_1/lib/libmpitracef-4.0.1.so"
B 0 "7f480e9e1000-7f480ea02000 0 /lib64/ld-2.22.so"
