S 2223843816779693
S 2223843818277222
S 2223843918068357
B 0 "400000-51c000 0 /gpfs/projects/bsc99/bsc99206/KNOSOS/knosos/Sources/knosos.x"
B 0 "7f96074bc000-7f960b797000 0 /gpfs/apps/MN4/INTEL/2018.4.057/compilers_and_libraries_2018.5.274/linux/mkl/lib/intel64_lin/libmkl_avx512.so"
B 0 "7f961dca9000-7f961dcb3000 0 /usr/lib64/libnuma.so.1"
B 0 "7f9641061000-7f96410cf000 0 /usr/lib64/libpcre.so.1.2.7"
B 0 "7f96412d0000-7f96412f3000 0 /lib64/libselinux.so.1"
B 0 "7f96414f6000-7f96414f9000 0 /lib64/libkeyutils.so.1.5"
B 0 "7f96416fa000-7f96416fd000 0 /usr/lib64/libXau.so.6.0.0"
B 0 "7f96418fe000-7f964191a000 0 /usr/lib64/libsasl2.so.3.0.0"
B 0 "7f9641b1b000-7f9641b2f000 0 /lib64/libresolv-2.22.so"
B 0 "7f9641d32000-7f9641d3e000 0 /usr/lib64/libkrb5support.so.0.1"
B 0 "7f9641f3f000-7f9641f42000 0 /usr/lib64/libcom_err.so.2.1"
B 0 "7f9642143000-7f9642170000 0 /usr/lib64/libk5crypto.so.3.1"
B 0 "7f9642373000-7f9642435000 0 /usr/lib64/libkrb5.so.3.3"
B 0 "7f9642644000-7f9642663000 0 /usr/lib64/libxcb.so.1.1.0"
B 0 "7f9642864000-7f96428ae000 0 /usr/lib64/libldap-2.4.so.2.10.4"
B 0 "7f9642ab1000-7f9642abf000 0 /usr/lib64/liblber-2.4.so.2.10.4"
B 0 "7f9642cc0000-7f9642d06000 0 /usr/lib64/libgssapi_krb5.so.2.2"
B 0 "7f9642f09000-7f9643136000 0 /lib64/libcrypto.so.1.0.0"
B 0 "7f9643363000-7f96433c4000 0 /lib64/libssl.so.1.0.0"
B 0 "7f96435cf000-7f96435f9000 0 /usr/lib64/libssh2.so.1.0.1"
B 0 "7f96437fb000-7f964382d000 0 /usr/lib64/libidn.so.11.6.11"
B 0 "7f9643a2f000-7f9643a6d000 0 /usr/lib64/libquadmath.so.0.0.0"
B 0 "7f9643c6f000-7f9643cda000 0 /gpfs/apps/MN4/INTEL/2018.4.057/compilers_and_libraries_2018.5.274/linux/compiler/lib/intel64_lin/libirc.so"
B 0 "7f9643edd000-7f9644058000 0 /usr/lib64/libstdc++.so.6.0.24"
B 0 "7f9644266000-7f964439e000 0 /usr/lib64/libX11.so.6.3.0"
B 0 "7f96445a4000-7f964655a000 0 /gpfs/apps/MN4/INTEL/2018.4.057/compilers_and_libraries_2018.5.274/linux/mkl/lib/intel64_lin/libmkl_intel_thread.so"
B 0 "7f96469cf000-7f9646b30000 0 /gpfs/apps/MN4/INTEL/2018.4.057/compilers_and_libraries_2018.5.274/linux/compiler/lib/intel64_lin/libirng.so"
B 0 "7f9646d43000-7f9646db0000 0 /usr/lib64/libcurl.so.4.3.0"
B 0 "7f9646fb4000-7f9646fc9000 0 /lib64/libz.so.1.2.8"
B 0 "7f96471ca000-7f96471df000 0 /gpfs/apps/MN4/SZIP/2.1.1/INTEL/lib/libsz.so.2.0.0"
B 0 "7f96473e9000-7f96477b7000 0 /gpfs/apps/MN4/HDF5/1.8.19/INTEL/IMPI/lib/libhdf5.so.10.3.0"
B 0 "7f96479c5000-7f96479ea000 0 /gpfs/apps/MN4/HDF5/1.8.19/INTEL/IMPI/lib/libhdf5_hl.so.10.2.0"
B 0 "7f9647bed000-7f9647d21000 0 /gpfs/apps/MN4/BSCTOOLS/deps/binutils/2.38/lib/libbfd-2.38.so"
B 0 "7f9647f39000-7f96480a6000 0 /gpfs/apps/MN4/BSCTOOLS/deps/papi/6.0.0/lib/libpfm.so.4.10.1"
B 0 "7f964839c000-7f96483ed000 0 /gpfs/apps/MN4/BSCTOOLS/deps/papi/6.0.0/lib/libpapi.so.6.0.0.0"
B 0 "7f96485fd000-7f9648622000 0 /usr/lib64/liblzma.so.5.0.5"
B 0 "7f9648823000-7f9648979000 0 /gpfs/apps/MN4/BSCTOOLS/deps/libxml/2.9.12/lib/libxml2.so.2.9.12"
B 0 "7f9648b84000-7f9648b91000 0 /gpfs/apps/MN4/BSCTOOLS/deps/libunwind/1.6.2/lib/libunwind.so.8.0.1"
B 0 "7f9648d9c000-7f9648db2000 0 /lib64/libgcc_s.so.1"
B 0 "7f9648fb3000-7f964914c000 0 /lib64/libc-2.22.so"
B 0 "7f9649356000-7f96493c1000 0 /gpfs/apps/MN4/INTEL/2018.4.057/compilers_and_libraries_2018.5.274/linux/compiler/lib/intel64_lin/libintlc.so.5"
B 0 "7f96495c4000-7f964976c000 0 /gpfs/apps/MN4/INTEL/2018.4.057/compilers_and_libraries_2018.5.274/linux/compiler/lib/intel64_lin/libiomp5.so"
B 0 "7f96499a7000-7f9649aa3000 0 /lib64/libm-2.22.so"
B 0 "7f9649ca4000-7f964b32f000 0 /gpfs/apps/MN4/INTEL/2018.4.057/compilers_and_libraries_2018.5.274/linux/compiler/lib/intel64_lin/libsvml.so"
B 0 "7f964b5b2000-7f964b8e8000 0 /gpfs/apps/MN4/INTEL/2018.4.057/compilers_and_libraries_2018.5.274/linux/compiler/lib/intel64_lin/libimf.so"
B 0 "7f964bb45000-7f964bc81000 0 /gpfs/apps/MN4/INTEL/2018.4.057/compilers_and_libraries_2018.5.274/linux/compiler/lib/intel64_lin/libifcoremt.so.5"
B 0 "7f964bed9000-7f964beff000 0 /gpfs/apps/MN4/INTEL/2018.4.057/compilers_and_libraries_2018.5.274/linux/compiler/lib/intel64_lin/libifport.so.5"
B 0 "7f964c105000-7f964c11d000 0 /lib64/libpthread-2.22.so"
B 0 "7f964c322000-7f964c329000 0 /lib64/librt-2.22.so"
B 0 "7f964c52a000-7f964c52c000 0 /lib64/libdl-2.22.so"
B 0 "7f964c72e000-7f964cde2000 0 /gpfs/apps/MN4/INTEL/2018.1.038/compilers_and_libraries_2018.1.163/linux/mpi/intel64/lib/release_mt/libmpi.so.12.0"
B 0 "7f964d3b3000-7f964d531000 0 /gpfs/apps/MN4/INTEL/2018.1.038/compilers_and_libraries_2018.1.163/linux/mpi/intel64/lib/libmpifort.so.12.0"
B 0 "7f964d75c000-7f964d79d000 0 /gpfs/apps/MN4/INTEL/2018.4.057/compilers_and_libraries_2018.5.274/linux/mkl/lib/intel64_lin/libmkl_blacs_intelmpi_lp64.so"
B 0 "7f964d99e000-7f96517a2000 0 /gpfs/apps/MN4/INTEL/2018.4.057/compilers_and_libraries_2018.5.274/linux/mkl/lib/intel64_lin/libmkl_core.so"
B 0 "7f96519eb000-7f9652c97000 0 /gpfs/apps/MN4/INTEL/2018.4.057/compilers_and_libraries_2018.5.274/linux/mkl/lib/intel64_lin/libmkl_sequential.so"
B 0 "7f9652eb0000-7f9653529000 0 /gpfs/apps/MN4/INTEL/2018.4.057/compilers_and_libraries_2018.5.274/linux/mkl/lib/intel64_lin/libmkl_scalapack_lp64.so"
B 0 "7f96537b1000-7f96540a8000 0 /gpfs/apps/MN4/INTEL/2018.4.057/compilers_and_libraries_2018.5.274/linux/mkl/lib/intel64_lin/libmkl_intel_lp64.so"
B 0 "7f96542c1000-7f96578c3000 0 /gpfs/projects/bsc99/bsc99520/KNOSOS/petsc-3.16.1-real/lib/libpetsc.so.3.16.1"
B 0 "7f9657d89000-7f9658041000 0 /gpfs/apps/MN4/NETCDF/4.4.1.1/INTEL/IMPI/lib/libnetcdf.so.11.0.4"
B 0 "7f965b2f1000-7f965b3a5000 0 /gpfs/apps/MN4/NETCDF/4.4.1.1/INTEL/IMPI/lib/libnetcdff.so.6.1.1"
B 0 "7f965b780000-7f965b893000 0 /gpfs/apps/MN4/BSCTOOLS/extrae/4.0.1/impi_2018_1/lib/libmpitracef-4.0.1.so"
B 0 "7f965c424000-7f965c445000 0 /lib64/ld-2.22.so"
