S 2223843814411730
S 2223843816718202
S 2223843918068187
B 0 "400000-51c000 0 /gpfs/projects/bsc99/bsc99206/KNOSOS/knosos/Sources/knosos.x"
B 0 "7fa19d8df000-7fa1a1bba000 0 /gpfs/apps/MN4/INTEL/2018.4.057/compilers_and_libraries_2018.5.274/linux/mkl/lib/intel64_lin/libmkl_avx512.so"
B 0 "7fa1b40cc000-7fa1b40d6000 0 /usr/lib64/libnuma.so.1"
B 0 "7fa1d7484000-7fa1d74f2000 0 /usr/lib64/libpcre.so.1.2.7"
B 0 "7fa1d76f3000-7fa1d7716000 0 /lib64/libselinux.so.1"
B 0 "7fa1d7919000-7fa1d791c000 0 /lib64/libkeyutils.so.1.5"
B 0 "7fa1d7b1d000-7fa1d7b20000 0 /usr/lib64/libXau.so.6.0.0"
B 0 "7fa1d7d21000-7fa1d7d3d000 0 /usr/lib64/libsasl2.so.3.0.0"
B 0 "7fa1d7f3e000-7fa1d7f52000 0 /lib64/libresolv-2.22.so"
B 0 "7fa1d8155000-7fa1d8161000 0 /usr/lib64/libkrb5support.so.0.1"
B 0 "7fa1d8362000-7fa1d8365000 0 /usr/lib64/libcom_err.so.2.1"
B 0 "7fa1d8566000-7fa1d8593000 0 /usr/lib64/libk5crypto.so.3.1"
B 0 "7fa1d8796000-7fa1d8858000 0 /usr/lib64/libkrb5.so.3.3"
B 0 "7fa1d8a67000-7fa1d8a86000 0 /usr/lib64/libxcb.so.1.1.0"
B 0 "7fa1d8c87000-7fa1d8cd1000 0 /usr/lib64/libldap-2.4.so.2.10.4"
B 0 "7fa1d8ed4000-7fa1d8ee2000 0 /usr/lib64/liblber-2.4.so.2.10.4"
B 0 "7fa1d90e3000-7fa1d9129000 0 /usr/lib64/libgssapi_krb5.so.2.2"
B 0 "7fa1d932c000-7fa1d9559000 0 /lib64/libcrypto.so.1.0.0"
B 0 "7fa1d9786000-7fa1d97e7000 0 /lib64/libssl.so.1.0.0"
B 0 "7fa1d99f2000-7fa1d9a1c000 0 /usr/lib64/libssh2.so.1.0.1"
B 0 "7fa1d9c1e000-7fa1d9c50000 0 /usr/lib64/libidn.so.11.6.11"
B 0 "7fa1d9e52000-7fa1d9e90000 0 /usr/lib64/libquadmath.so.0.0.0"
B 0 "7fa1da092000-7fa1da0fd000 0 /gpfs/apps/MN4/INTEL/2018.4.057/compilers_and_libraries_2018.5.274/linux/compiler/lib/intel64_lin/libirc.so"
B 0 "7fa1da300000-7fa1da47b000 0 /usr/lib64/libstdc++.so.6.0.24"
B 0 "7fa1da689000-7fa1da7c1000 0 /usr/lib64/libX11.so.6.3.0"
B 0 "7fa1da9c7000-7fa1dc97d000 0 /gpfs/apps/MN4/INTEL/2018.4.057/compilers_and_libraries_2018.5.274/linux/mkl/lib/intel64_lin/libmkl_intel_thread.so"
B 0 "7fa1dcdf2000-7fa1dcf53000 0 /gpfs/apps/MN4/INTEL/2018.4.057/compilers_and_libraries_2018.5.274/linux/compiler/lib/intel64_lin/libirng.so"
B 0 "7fa1dd166000-7fa1dd1d3000 0 /usr/lib64/libcurl.so.4.3.0"
B 0 "7fa1dd3d7000-7fa1dd3ec000 0 /lib64/libz.so.1.2.8"
B 0 "7fa1dd5ed000-7fa1dd602000 0 /gpfs/apps/MN4/SZIP/2.1.1/INTEL/lib/libsz.so.2.0.0"
B 0 "7fa1dd80c000-7fa1ddbda000 0 /gpfs/apps/MN4/HDF5/1.8.19/INTEL/IMPI/lib/libhdf5.so.10.3.0"
B 0 "7fa1ddde8000-7fa1dde0d000 0 /gpfs/apps/MN4/HDF5/1.8.19/INTEL/IMPI/lib/libhdf5_hl.so.10.2.0"
B 0 "7fa1de010000-7fa1de144000 0 /gpfs/apps/MN4/BSCTOOLS/deps/binutils/2.38/lib/libbfd-2.38.so"
B 0 "7fa1de35c000-7fa1de4c9000 0 /gpfs/apps/MN4/BSCTOOLS/deps/papi/6.0.0/lib/libpfm.so.4.10.1"
B 0 "7fa1de7bf000-7fa1de810000 0 /gpfs/apps/MN4/BSCTOOLS/deps/papi/6.0.0/lib/libpapi.so.6.0.0.0"
B 0 "7fa1dea20000-7fa1dea45000 0 /usr/lib64/liblzma.so.5.0.5"
B 0 "7fa1dec46000-7fa1ded9c000 0 /gpfs/apps/MN4/BSCTOOLS/deps/libxml/2.9.12/lib/libxml2.so.2.9.12"
B 0 "7fa1defa7000-7fa1defb4000 0 /gpfs/apps/MN4/BSCTOOLS/deps/libunwind/1.6.2/lib/libunwind.so.8.0.1"
B 0 "7fa1df1bf000-7fa1df1d5000 0 /lib64/libgcc_s.so.1"
B 0 "7fa1df3d6000-7fa1df56f000 0 /lib64/libc-2.22.so"
B 0 "7fa1df779000-7fa1df7e4000 0 /gpfs/apps/MN4/INTEL/2018.4.057/compilers_and_libraries_2018.5.274/linux/compiler/lib/intel64_lin/libintlc.so.5"
B 0 "7fa1df9e7000-7fa1dfb8f000 0 /gpfs/apps/MN4/INTEL/2018.4.057/compilers_and_libraries_2018.5.274/linux/compiler/lib/intel64_lin/libiomp5.so"
B 0 "7fa1dfdca000-7fa1dfec6000 0 /lib64/libm-2.22.so"
B 0 "7fa1e00c7000-7fa1e1752000 0 /gpfs/apps/MN4/INTEL/2018.4.057/compilers_and_libraries_2018.5.274/linux/compiler/lib/intel64_lin/libsvml.so"
B 0 "7fa1e19d5000-7fa1e1d0b000 0 /gpfs/apps/MN4/INTEL/2018.4.057/compilers_and_libraries_2018.5.274/linux/compiler/lib/intel64_lin/libimf.so"
B 0 "7fa1e1f68000-7fa1e20a4000 0 /gpfs/apps/MN4/INTEL/2018.4.057/compilers_and_libraries_2018.5.274/linux/compiler/lib/intel64_lin/libifcoremt.so.5"
B 0 "7fa1e22fc000-7fa1e2322000 0 /gpfs/apps/MN4/INTEL/2018.4.057/compilers_and_libraries_2018.5.274/linux/compiler/lib/intel64_lin/libifport.so.5"
B 0 "7fa1e2528000-7fa1e2540000 0 /lib64/libpthread-2.22.so"
B 0 "7fa1e2745000-7fa1e274c000 0 /lib64/librt-2.22.so"
B 0 "7fa1e294d000-7fa1e294f000 0 /lib64/libdl-2.22.so"
B 0 "7fa1e2b51000-7fa1e3205000 0 /gpfs/apps/MN4/INTEL/2018.1.038/compilers_and_libraries_2018.1.163/linux/mpi/intel64/lib/release_mt/libmpi.so.12.0"
B 0 "7fa1e37d6000-7fa1e3954000 0 /gpfs/apps/MN4/INTEL/2018.1.038/compilers_and_libraries_2018.1.163/linux/mpi/intel64/lib/libmpifort.so.12.0"
B 0 "7fa1e3b7f000-7fa1e3bc0000 0 /gpfs/apps/MN4/INTEL/2018.4.057/compilers_and_libraries_2018.5.274/linux/mkl/lib/intel64_lin/libmkl_blacs_intelmpi_lp64.so"
B 0 "7fa1e3dc1000-7fa1e7bc5000 0 /gpfs/apps/MN4/INTEL/2018.4.057/compilers_and_libraries_2018.5.274/linux/mkl/lib/intel64_lin/libmkl_core.so"
B 0 "7fa1e7e0e000-7fa1e90ba000 0 /gpfs/apps/MN4/INTEL/2018.4.057/compilers_and_libraries_2018.5.274/linux/mkl/lib/intel64_lin/libmkl_sequential.so"
B 0 "7fa1e92d3000-7fa1e994c000 0 /gpfs/apps/MN4/INTEL/2018.4.057/compilers_and_libraries_2018.5.274/linux/mkl/lib/intel64_lin/libmkl_scalapack_lp64.so"
B 0 "7fa1e9bd4000-7fa1ea4cb000 0 /gpfs/apps/MN4/INTEL/2018.4.057/compilers_and_libraries_2018.5.274/linux/mkl/lib/intel64_lin/libmkl_intel_lp64.so"
B 0 "7fa1ea6e4000-7fa1edce6000 0 /gpfs/projects/bsc99/bsc99520/KNOSOS/petsc-3.16.1-real/lib/libpetsc.so.3.16.1"
B 0 "7fa1ee1ac000-7fa1ee464000 0 /gpfs/apps/MN4/NETCDF/4.4.1.1/INTEL/IMPI/lib/libnetcdf.so.11.0.4"
B 0 "7fa1f1714000-7fa1f17c8000 0 /gpfs/apps/MN4/NETCDF/4.4.1.1/INTEL/IMPI/lib/libnetcdff.so.6.1.1"
B 0 "7fa1f1ba3000-7fa1f1cb6000 0 /gpfs/apps/MN4/BSCTOOLS/extrae/4.0.1/impi_2018_1/lib/libmpitracef-4.0.1.so"
B 0 "7fa1f2847000-7fa1f2868000 0 /lib64/ld-2.22.so"
