S 2124401863070584
S 2124401864523258
S 2124401969783084
B 0 "400000-51c000 0 /gpfs/projects/bsc99/bsc99520/KNOSOS/knosos/Sources/knosos.x"
B 0 "7fbdc8049000-7fbdc8053000 0 /usr/lib64/libnuma.so.1"
B 0 "7fbdeb401000-7fbdeb46f000 0 /usr/lib64/libpcre.so.1.2.7"
B 0 "7fbdeb670000-7fbdeb693000 0 /lib64/libselinux.so.1"
B 0 "7fbdeb896000-7fbdeb899000 0 /lib64/libkeyutils.so.1.5"
B 0 "7fbdeba9a000-7fbdeba9d000 0 /usr/lib64/libXau.so.6.0.0"
B 0 "7fbdebc9e000-7fbdebcba000 0 /usr/lib64/libsasl2.so.3.0.0"
B 0 "7fbdebebb000-7fbdebecf000 0 /lib64/libresolv-2.22.so"
B 0 "7fbdec0d2000-7fbdec0de000 0 /usr/lib64/libkrb5support.so.0.1"
B 0 "7fbdec2df000-7fbdec2e2000 0 /usr/lib64/libcom_err.so.2.1"
B 0 "7fbdec4e3000-7fbdec510000 0 /usr/lib64/libk5crypto.so.3.1"
B 0 "7fbdec713000-7fbdec7d5000 0 /usr/lib64/libkrb5.so.3.3"
B 0 "7fbdec9e4000-7fbdeca03000 0 /usr/lib64/libxcb.so.1.1.0"
B 0 "7fbdecc04000-7fbdecc4e000 0 /usr/lib64/libldap-2.4.so.2.10.4"
B 0 "7fbdece51000-7fbdece5f000 0 /usr/lib64/liblber-2.4.so.2.10.4"
B 0 "7fbded060000-7fbded0a6000 0 /usr/lib64/libgssapi_krb5.so.2.2"
B 0 "7fbded2a9000-7fbded4d6000 0 /lib64/libcrypto.so.1.0.0"
B 0 "7fbded703000-7fbded764000 0 /lib64/libssl.so.1.0.0"
B 0 "7fbded96f000-7fbded999000 0 /usr/lib64/libssh2.so.1.0.1"
B 0 "7fbdedb9b000-7fbdedbcd000 0 /usr/lib64/libidn.so.11.6.11"
B 0 "7fbdeddcf000-7fbdede0d000 0 /usr/lib64/libquadmath.so.0.0.0"
B 0 "7fbdee00f000-7fbdee07a000 0 /gpfs/apps/MN4/INTEL/2018.4.057/compilers_and_libraries_2018.5.274/linux/compiler/lib/intel64_lin/libirc.so"
B 0 "7fbdee27d000-7fbdee3f8000 0 /usr/lib64/libstdc++.so.6.0.24"
B 0 "7fbdee606000-7fbdee73e000 0 /usr/lib64/libX11.so.6.3.0"
B 0 "7fbdee944000-7fbdf08fa000 0 /gpfs/apps/MN4/INTEL/2018.4.057/compilers_and_libraries_2018.5.274/linux/mkl/lib/intel64_lin/libmkl_intel_thread.so"
B 0 "7fbdf0d6f000-7fbdf0ed0000 0 /gpfs/apps/MN4/INTEL/2018.4.057/compilers_and_libraries_2018.5.274/linux/compiler/lib/intel64_lin/libirng.so"
B 0 "7fbdf10e3000-7fbdf1150000 0 /usr/lib64/libcurl.so.4.3.0"
B 0 "7fbdf1354000-7fbdf1369000 0 /lib64/libz.so.1.2.8"
B 0 "7fbdf156a000-7fbdf157f000 0 /gpfs/apps/MN4/SZIP/2.1.1/INTEL/lib/libsz.so.2.0.0"
B 0 "7fbdf1789000-7fbdf1b57000 0 /gpfs/apps/MN4/HDF5/1.8.19/INTEL/IMPI/lib/libhdf5.so.10.3.0"
B 0 "7fbdf1d65000-7fbdf1d8a000 0 /gpfs/apps/MN4/HDF5/1.8.19/INTEL/IMPI/lib/libhdf5_hl.so.10.2.0"
B 0 "7fbdf1f8d000-7fbdf20c1000 0 /gpfs/apps/MN4/BSCTOOLS/deps/binutils/2.38/lib/libbfd-2.38.so"
B 0 "7fbdf22d9000-7fbdf2446000 0 /gpfs/apps/MN4/BSCTOOLS/deps/papi/6.0.0/lib/libpfm.so.4.10.1"
B 0 "7fbdf273c000-7fbdf278d000 0 /gpfs/apps/MN4/BSCTOOLS/deps/papi/6.0.0/lib/libpapi.so.6.0.0.0"
B 0 "7fbdf299d000-7fbdf29c2000 0 /usr/lib64/liblzma.so.5.0.5"
B 0 "7fbdf2bc3000-7fbdf2d19000 0 /gpfs/apps/MN4/BSCTOOLS/deps/libxml/2.9.12/lib/libxml2.so.2.9.12"
B 0 "7fbdf2f24000-7fbdf2f31000 0 /gpfs/apps/MN4/BSCTOOLS/deps/libunwind/1.6.2/lib/libunwind.so.8.0.1"
B 0 "7fbdf313c000-7fbdf3152000 0 /lib64/libgcc_s.so.1"
B 0 "7fbdf3353000-7fbdf34ec000 0 /lib64/libc-2.22.so"
B 0 "7fbdf36f6000-7fbdf3761000 0 /gpfs/apps/MN4/INTEL/2018.4.057/compilers_and_libraries_2018.5.274/linux/compiler/lib/intel64_lin/libintlc.so.5"
B 0 "7fbdf3964000-7fbdf3b0c000 0 /gpfs/apps/MN4/INTEL/2018.4.057/compilers_and_libraries_2018.5.274/linux/compiler/lib/intel64_lin/libiomp5.so"
B 0 "7fbdf3d47000-7fbdf3e43000 0 /lib64/libm-2.22.so"
B 0 "7fbdf4044000-7fbdf56cf000 0 /gpfs/apps/MN4/INTEL/2018.4.057/compilers_and_libraries_2018.5.274/linux/compiler/lib/intel64_lin/libsvml.so"
B 0 "7fbdf5952000-7fbdf5c88000 0 /gpfs/apps/MN4/INTEL/2018.4.057/compilers_and_libraries_2018.5.274/linux/compiler/lib/intel64_lin/libimf.so"
B 0 "7fbdf5ee5000-7fbdf6021000 0 /gpfs/apps/MN4/INTEL/2018.4.057/compilers_and_libraries_2018.5.274/linux/compiler/lib/intel64_lin/libifcoremt.so.5"
B 0 "7fbdf6279000-7fbdf629f000 0 /gpfs/apps/MN4/INTEL/2018.4.057/compilers_and_libraries_2018.5.274/linux/compiler/lib/intel64_lin/libifport.so.5"
B 0 "7fbdf64a5000-7fbdf64bd000 0 /lib64/libpthread-2.22.so"
B 0 "7fbdf66c2000-7fbdf66c9000 0 /lib64/librt-2.22.so"
B 0 "7fbdf68ca000-7fbdf68cc000 0 /lib64/libdl-2.22.so"
B 0 "7fbdf6ace000-7fbdf7182000 0 /gpfs/apps/MN4/INTEL/2018.1.038/compilers_and_libraries_2018.1.163/linux/mpi/intel64/lib/release_mt/libmpi.so.12.0"
B 0 "7fbdf7753000-7fbdf78d1000 0 /gpfs/apps/MN4/INTEL/2018.1.038/compilers_and_libraries_2018.1.163/linux/mpi/intel64/lib/libmpifort.so.12.0"
B 0 "7fbdf7afc000-7fbdf7b3d000 0 /gpfs/apps/MN4/INTEL/2018.4.057/compilers_and_libraries_2018.5.274/linux/mkl/lib/intel64_lin/libmkl_blacs_intelmpi_lp64.so"
B 0 "7fbdf7d3e000-7fbdfbb42000 0 /gpfs/apps/MN4/INTEL/2018.4.057/compilers_and_libraries_2018.5.274/linux/mkl/lib/intel64_lin/libmkl_core.so"
B 0 "7fbdfbd8b000-7fbdfd037000 0 /gpfs/apps/MN4/INTEL/2018.4.057/compilers_and_libraries_2018.5.274/linux/mkl/lib/intel64_lin/libmkl_sequential.so"
B 0 "7fbdfd250000-7fbdfd8c9000 0 /gpfs/apps/MN4/INTEL/2018.4.057/compilers_and_libraries_2018.5.274/linux/mkl/lib/intel64_lin/libmkl_scalapack_lp64.so"
B 0 "7fbdfdb51000-7fbdfe448000 0 /gpfs/apps/MN4/INTEL/2018.4.057/compilers_and_libraries_2018.5.274/linux/mkl/lib/intel64_lin/libmkl_intel_lp64.so"
B 0 "7fbdfe661000-7fbe01c63000 0 /gpfs/projects/bsc99/bsc99520/KNOSOS/petsc-3.16.1-real/lib/libpetsc.so.3.16.1"
B 0 "7fbe02129000-7fbe023e1000 0 /gpfs/apps/MN4/NETCDF/4.4.1.1/INTEL/IMPI/lib/libnetcdf.so.11.0.4"
B 0 "7fbe05691000-7fbe05745000 0 /gpfs/apps/MN4/NETCDF/4.4.1.1/INTEL/IMPI/lib/libnetcdff.so.6.1.1"
B 0 "7fbe05b20000-7fbe05c33000 0 /gpfs/apps/MN4/BSCTOOLS/extrae/4.0.1/impi_2018_1/lib/libmpitracef-4.0.1.so"
B 0 "7fbe067c4000-7fbe067e5000 0 /lib64/ld-2.22.so"
