S 2223843819960329
S 2223843820511797
S 2223843918068067
B 0 "400000-51c000 0 /gpfs/projects/bsc99/bsc99206/KNOSOS/knosos/Sources/knosos.x"
B 0 "7f46d8f88000-7f46dd263000 0 /gpfs/apps/MN4/INTEL/2018.4.057/compilers_and_libraries_2018.5.274/linux/mkl/lib/intel64_lin/libmkl_avx512.so"
B 0 "7f46ef775000-7f46ef77f000 0 /usr/lib64/libnuma.so.1"
B 0 "7f4712b2d000-7f4712b9b000 0 /usr/lib64/libpcre.so.1.2.7"
B 0 "7f4712d9c000-7f4712dbf000 0 /lib64/libselinux.so.1"
B 0 "7f4712fc2000-7f4712fc5000 0 /lib64/libkeyutils.so.1.5"
B 0 "7f47131c6000-7f47131c9000 0 /usr/lib64/libXau.so.6.0.0"
B 0 "7f47133ca000-7f47133e6000 0 /usr/lib64/libsasl2.so.3.0.0"
B 0 "7f47135e7000-7f47135fb000 0 /lib64/libresolv-2.22.so"
B 0 "7f47137fe000-7f471380a000 0 /usr/lib64/libkrb5support.so.0.1"
B 0 "7f4713a0b000-7f4713a0e000 0 /usr/lib64/libcom_err.so.2.1"
B 0 "7f4713c0f000-7f4713c3c000 0 /usr/lib64/libk5crypto.so.3.1"
B 0 "7f4713e3f000-7f4713f01000 0 /usr/lib64/libkrb5.so.3.3"
B 0 "7f4714110000-7f471412f000 0 /usr/lib64/libxcb.so.1.1.0"
B 0 "7f4714330000-7f471437a000 0 /usr/lib64/libldap-2.4.so.2.10.4"
B 0 "7f471457d000-7f471458b000 0 /usr/lib64/liblber-2.4.so.2.10.4"
B 0 "7f471478c000-7f47147d2000 0 /usr/lib64/libgssapi_krb5.so.2.2"
B 0 "7f47149d5000-7f4714c02000 0 /lib64/libcrypto.so.1.0.0"
B 0 "7f4714e2f000-7f4714e90000 0 /lib64/libssl.so.1.0.0"
B 0 "7f471509b000-7f47150c5000 0 /usr/lib64/libssh2.so.1.0.1"
B 0 "7f47152c7000-7f47152f9000 0 /usr/lib64/libidn.so.11.6.11"
B 0 "7f47154fb000-7f4715539000 0 /usr/lib64/libquadmath.so.0.0.0"
B 0 "7f471573b000-7f47157a6000 0 /gpfs/apps/MN4/INTEL/2018.4.057/compilers_and_libraries_2018.5.274/linux/compiler/lib/intel64_lin/libirc.so"
B 0 "7f47159a9000-7f4715b24000 0 /usr/lib64/libstdc++.so.6.0.24"
B 0 "7f4715d32000-7f4715e6a000 0 /usr/lib64/libX11.so.6.3.0"
B 0 "7f4716070000-7f4718026000 0 /gpfs/apps/MN4/INTEL/2018.4.057/compilers_and_libraries_2018.5.274/linux/mkl/lib/intel64_lin/libmkl_intel_thread.so"
B 0 "7f471849b000-7f47185fc000 0 /gpfs/apps/MN4/INTEL/2018.4.057/compilers_and_libraries_2018.5.274/linux/compiler/lib/intel64_lin/libirng.so"
B 0 "7f471880f000-7f471887c000 0 /usr/lib64/libcurl.so.4.3.0"
B 0 "7f4718a80000-7f4718a95000 0 /lib64/libz.so.1.2.8"
B 0 "7f4718c96000-7f4718cab000 0 /gpfs/apps/MN4/SZIP/2.1.1/INTEL/lib/libsz.so.2.0.0"
B 0 "7f4718eb5000-7f4719283000 0 /gpfs/apps/MN4/HDF5/1.8.19/INTEL/IMPI/lib/libhdf5.so.10.3.0"
B 0 "7f4719491000-7f47194b6000 0 /gpfs/apps/MN4/HDF5/1.8.19/INTEL/IMPI/lib/libhdf5_hl.so.10.2.0"
B 0 "7f47196b9000-7f47197ed000 0 /gpfs/apps/MN4/BSCTOOLS/deps/binutils/2.38/lib/libbfd-2.38.so"
B 0 "7f4719a05000-7f4719b72000 0 /gpfs/apps/MN4/BSCTOOLS/deps/papi/6.0.0/lib/libpfm.so.4.10.1"
B 0 "7f4719e68000-7f4719eb9000 0 /gpfs/apps/MN4/BSCTOOLS/deps/papi/6.0.0/lib/libpapi.so.6.0.0.0"
B 0 "7f471a0c9000-7f471a0ee000 0 /usr/lib64/liblzma.so.5.0.5"
B 0 "7f471a2ef000-7f471a445000 0 /gpfs/apps/MN4/BSCTOOLS/deps/libxml/2.9.12/lib/libxml2.so.2.9.12"
B 0 "7f471a650000-7f471a65d000 0 /gpfs/apps/MN4/BSCTOOLS/deps/libunwind/1.6.2/lib/libunwind.so.8.0.1"
B 0 "7f471a868000-7f471a87e000 0 /lib64/libgcc_s.so.1"
B 0 "7f471aa7f000-7f471ac18000 0 /lib64/libc-2.22.so"
B 0 "7f471ae22000-7f471ae8d000 0 /gpfs/apps/MN4/INTEL/2018.4.057/compilers_and_libraries_2018.5.274/linux/compiler/lib/intel64_lin/libintlc.so.5"
B 0 "7f471b090000-7f471b238000 0 /gpfs/apps/MN4/INTEL/2018.4.057/compilers_and_libraries_2018.5.274/linux/compiler/lib/intel64_lin/libiomp5.so"
B 0 "7f471b473000-7f471b56f000 0 /lib64/libm-2.22.so"
B 0 "7f471b770000-7f471cdfb000 0 /gpfs/apps/MN4/INTEL/2018.4.057/compilers_and_libraries_2018.5.274/linux/compiler/lib/intel64_lin/libsvml.so"
B 0 "7f471d07e000-7f471d3b4000 0 /gpfs/apps/MN4/INTEL/2018.4.057/compilers_and_libraries_2018.5.274/linux/compiler/lib/intel64_lin/libimf.so"
B 0 "7f471d611000-7f471d74d000 0 /gpfs/apps/MN4/INTEL/2018.4.057/compilers_and_libraries_2018.5.274/linux/compiler/lib/intel64_lin/libifcoremt.so.5"
B 0 "7f471d9a5000-7f471d9cb000 0 /gpfs/apps/MN4/INTEL/2018.4.057/compilers_and_libraries_2018.5.274/linux/compiler/lib/intel64_lin/libifport.so.5"
B 0 "7f471dbd1000-7f471dbe9000 0 /lib64/libpthread-2.22.so"
B 0 "7f471ddee000-7f471ddf5000 0 /lib64/librt-2.22.so"
B 0 "7f471dff6000-7f471dff8000 0 /lib64/libdl-2.22.so"
B 0 "7f471e1fa000-7f471e8ae000 0 /gpfs/apps/MN4/INTEL/2018.1.038/compilers_and_libraries_2018.1.163/linux/mpi/intel64/lib/release_mt/libmpi.so.12.0"
B 0 "7f471ee7f000-7f471effd000 0 /gpfs/apps/MN4/INTEL/2018.1.038/compilers_and_libraries_2018.1.163/linux/mpi/intel64/lib/libmpifort.so.12.0"
B 0 "7f471f228000-7f471f269000 0 /gpfs/apps/MN4/INTEL/2018.4.057/compilers_and_libraries_2018.5.274/linux/mkl/lib/intel64_lin/libmkl_blacs_intelmpi_lp64.so"
B 0 "7f471f46a000-7f472326e000 0 /gpfs/apps/MN4/INTEL/2018.4.057/compilers_and_libraries_2018.5.274/linux/mkl/lib/intel64_lin/libmkl_core.so"
B 0 "7f47234b7000-7f4724763000 0 /gpfs/apps/MN4/INTEL/2018.4.057/compilers_and_libraries_2018.5.274/linux/mkl/lib/intel64_lin/libmkl_sequential.so"
B 0 "7f472497c000-7f4724ff5000 0 /gpfs/apps/MN4/INTEL/2018.4.057/compilers_and_libraries_2018.5.274/linux/mkl/lib/intel64_lin/libmkl_scalapack_lp64.so"
B 0 "7f472527d000-7f4725b74000 0 /gpfs/apps/MN4/INTEL/2018.4.057/compilers_and_libraries_2018.5.274/linux/mkl/lib/intel64_lin/libmkl_intel_lp64.so"
B 0 "7f4725d8d000-7f472938f000 0 /gpfs/projects/bsc99/bsc99520/KNOSOS/petsc-3.16.1-real/lib/libpetsc.so.3.16.1"
B 0 "7f4729855000-7f4729b0d000 0 /gpfs/apps/MN4/NETCDF/4.4.1.1/INTEL/IMPI/lib/libnetcdf.so.11.0.4"
B 0 "7f472cdbd000-7f472ce71000 0 /gpfs/apps/MN4/NETCDF/4.4.1.1/INTEL/IMPI/lib/libnetcdff.so.6.1.1"
B 0 "7f472d24c000-7f472d35f000 0 /gpfs/apps/MN4/BSCTOOLS/extrae/4.0.1/impi_2018_1/lib/libmpitracef-4.0.1.so"
B 0 "7f472def0000-7f472df11000 0 /lib64/ld-2.22.so"
