S 782095001477518
S 782095002349995
S 782095077402315
B 0 "400000-51c000 0 /gpfs/projects/bsc99/bsc99520/KNOSOS/knosos/Sources/knosos.x"
B 0 "7f102d840000-7f102d84a000 0 /usr/lib64/libnuma.so.1"
B 0 "7f1050bf8000-7f1050c66000 0 /usr/lib64/libpcre.so.1.2.7"
B 0 "7f1050e67000-7f1050e8a000 0 /lib64/libselinux.so.1"
B 0 "7f105108d000-7f1051090000 0 /lib64/libkeyutils.so.1.5"
B 0 "7f1051291000-7f1051294000 0 /usr/lib64/libXau.so.6.0.0"
B 0 "7f1051495000-7f10514b1000 0 /usr/lib64/libsasl2.so.3.0.0"
B 0 "7f10516b2000-7f10516c6000 0 /lib64/libresolv-2.22.so"
B 0 "7f10518c9000-7f10518d5000 0 /usr/lib64/libkrb5support.so.0.1"
B 0 "7f1051ad6000-7f1051ad9000 0 /usr/lib64/libcom_err.so.2.1"
B 0 "7f1051cda000-7f1051d07000 0 /usr/lib64/libk5crypto.so.3.1"
B 0 "7f1051f0a000-7f1051fcc000 0 /usr/lib64/libkrb5.so.3.3"
B 0 "7f10521db000-7f10521fa000 0 /usr/lib64/libxcb.so.1.1.0"
B 0 "7f10523fb000-7f1052445000 0 /usr/lib64/libldap-2.4.so.2.10.4"
B 0 "7f1052648000-7f1052656000 0 /usr/lib64/liblber-2.4.so.2.10.4"
B 0 "7f1052857000-7f105289d000 0 /usr/lib64/libgssapi_krb5.so.2.2"
B 0 "7f1052aa0000-7f1052ccd000 0 /lib64/libcrypto.so.1.0.0"
B 0 "7f1052efa000-7f1052f5b000 0 /lib64/libssl.so.1.0.0"
B 0 "7f1053166000-7f1053190000 0 /usr/lib64/libssh2.so.1.0.1"
B 0 "7f1053392000-7f10533c4000 0 /usr/lib64/libidn.so.11.6.11"
B 0 "7f10535c6000-7f1053604000 0 /usr/lib64/libquadmath.so.0.0.0"
B 0 "7f1053806000-7f1053871000 0 /gpfs/apps/MN4/INTEL/2018.4.057/compilers_and_libraries_2018.5.274/linux/compiler/lib/intel64_lin/libirc.so"
B 0 "7f1053a74000-7f1053bef000 0 /usr/lib64/libstdc++.so.6.0.24"
B 0 "7f1053dfd000-7f1053f35000 0 /usr/lib64/libX11.so.6.3.0"
B 0 "7f105413b000-7f1055817000 0 /gpfs/apps/MN4/INTEL/2017.4/compilers_and_libraries_2017.4.196/linux/mkl/lib/intel64_lin/libmkl_intel_thread.so"
B 0 "7f1055c00000-7f1055d61000 0 /gpfs/apps/MN4/INTEL/2018.4.057/compilers_and_libraries_2018.5.274/linux/compiler/lib/intel64_lin/libirng.so"
B 0 "7f1055f74000-7f1055fe1000 0 /usr/lib64/libcurl.so.4.3.0"
B 0 "7f10561e5000-7f10561fa000 0 /lib64/libz.so.1.2.8"
B 0 "7f10563fb000-7f1056410000 0 /gpfs/apps/MN4/SZIP/2.1.1/INTEL/lib/libsz.so.2.0.0"
B 0 "7f105661a000-7f10569e8000 0 /gpfs/apps/MN4/HDF5/1.8.19/INTEL/IMPI/lib/libhdf5.so.10.3.0"
B 0 "7f1056bf6000-7f1056c1b000 0 /gpfs/apps/MN4/HDF5/1.8.19/INTEL/IMPI/lib/libhdf5_hl.so.10.2.0"
B 0 "7f1056e1e000-7f1056f52000 0 /gpfs/apps/MN4/BSCTOOLS/deps/binutils/2.38/lib/libbfd-2.38.so"
B 0 "7f105716a000-7f10572d7000 0 /gpfs/apps/MN4/BSCTOOLS/deps/papi/6.0.0/lib/libpfm.so.4.10.1"
B 0 "7f10575cd000-7f105761e000 0 /gpfs/apps/MN4/BSCTOOLS/deps/papi/6.0.0/lib/libpapi.so.6.0.0.0"
B 0 "7f105782e000-7f1057853000 0 /usr/lib64/liblzma.so.5.0.5"
B 0 "7f1057a54000-7f1057baa000 0 /gpfs/apps/MN4/BSCTOOLS/deps/libxml/2.9.12/lib/libxml2.so.2.9.12"
B 0 "7f1057db5000-7f1057dc2000 0 /gpfs/apps/MN4/BSCTOOLS/deps/libunwind/1.6.2/lib/libunwind.so.8.0.1"
B 0 "7f1057fcd000-7f1057fe3000 0 /lib64/libgcc_s.so.1"
B 0 "7f10581e4000-7f105837d000 0 /lib64/libc-2.22.so"
B 0 "7f1058587000-7f10585f2000 0 /gpfs/apps/MN4/INTEL/2018.4.057/compilers_and_libraries_2018.5.274/linux/compiler/lib/intel64_lin/libintlc.so.5"
B 0 "7f10587f5000-7f105899d000 0 /gpfs/apps/MN4/INTEL/2018.4.057/compilers_and_libraries_2018.5.274/linux/compiler/lib/intel64_lin/libiomp5.so"
B 0 "7f1058bd8000-7f1058cd4000 0 /lib64/libm-2.22.so"
B 0 "7f1058ed5000-7f105a560000 0 /gpfs/apps/MN4/INTEL/2018.4.057/compilers_and_libraries_2018.5.274/linux/compiler/lib/intel64_lin/libsvml.so"
B 0 "7f105a7e3000-7f105ab19000 0 /gpfs/apps/MN4/INTEL/2018.4.057/compilers_and_libraries_2018.5.274/linux/compiler/lib/intel64_lin/libimf.so"
B 0 "7f105ad76000-7f105aeb2000 0 /gpfs/apps/MN4/INTEL/2018.4.057/compilers_and_libraries_2018.5.274/linux/compiler/lib/intel64_lin/libifcoremt.so.5"
B 0 "7f105b10a000-7f105b130000 0 /gpfs/apps/MN4/INTEL/2018.4.057/compilers_and_libraries_2018.5.274/linux/compiler/lib/intel64_lin/libifport.so.5"
B 0 "7f105b336000-7f105b34e000 0 /lib64/libpthread-2.22.so"
B 0 "7f105b553000-7f105b55a000 0 /lib64/librt-2.22.so"
B 0 "7f105b75b000-7f105b75d000 0 /lib64/libdl-2.22.so"
B 0 "7f105b95f000-7f105c013000 0 /gpfs/apps/MN4/INTEL/2018.1.038/compilers_and_libraries_2018.1.163/linux/mpi/intel64/lib/release_mt/libmpi.so.12.0"
B 0 "7f105c5e4000-7f105c762000 0 /gpfs/apps/MN4/INTEL/2018.1.038/compilers_and_libraries_2018.1.163/linux/mpi/intel64/lib/libmpifort.so.12.0"
B 0 "7f105c98d000-7f105c9ca000 0 /gpfs/apps/MN4/INTEL/2017.4/compilers_and_libraries_2017.4.196/linux/mkl/lib/intel64_lin/libmkl_blacs_intelmpi_lp64.so"
B 0 "7f105cbcb000-7f105e47e000 0 /gpfs/apps/MN4/INTEL/2017.4/compilers_and_libraries_2017.4.196/linux/mkl/lib/intel64_lin/libmkl_core.so"
B 0 "7f105e6fd000-7f105f287000 0 /gpfs/apps/MN4/INTEL/2017.4/compilers_and_libraries_2017.4.196/linux/mkl/lib/intel64_lin/libmkl_sequential.so"
B 0 "7f105f49a000-7f105faef000 0 /gpfs/apps/MN4/INTEL/2017.4/compilers_and_libraries_2017.4.196/linux/mkl/lib/intel64_lin/libmkl_scalapack_lp64.so"
B 0 "7f105fd76000-7f1060595000 0 /gpfs/apps/MN4/INTEL/2017.4/compilers_and_libraries_2017.4.196/linux/mkl/lib/intel64_lin/libmkl_intel_lp64.so"
B 0 "7f10607ad000-7f1063daf000 0 /gpfs/projects/bsc99/bsc99520/KNOSOS/petsc-3.16.1-real/lib/libpetsc.so.3.16.1"
B 0 "7f1064275000-7f106452d000 0 /gpfs/apps/MN4/NETCDF/4.4.1.1/INTEL/IMPI/lib/libnetcdf.so.11.0.4"
B 0 "7f10677dd000-7f1067891000 0 /gpfs/apps/MN4/NETCDF/4.4.1.1/INTEL/IMPI/lib/libnetcdff.so.6.1.1"
B 0 "7f1067c6c000-7f1067d7f000 0 /gpfs/apps/MN4/BSCTOOLS/extrae/4.0.1/impi_2018_1/lib/libmpitracef-4.0.1.so"
B 0 "7f1068910000-7f1068931000 0 /lib64/ld-2.22.so"
