S 2070873665014241
S 2070873665573293
S 2070873733241247
B 0 "400000-51c000 0 /gpfs/projects/bsc99/bsc99520/KNOSOS/knosos/Sources/knosos.x"
B 0 "7fe5bb35f000-7fe5bb369000 0 /usr/lib64/libnuma.so.1"
B 0 "7fe5de717000-7fe5de785000 0 /usr/lib64/libpcre.so.1.2.7"
B 0 "7fe5de986000-7fe5de9a9000 0 /lib64/libselinux.so.1"
B 0 "7fe5debac000-7fe5debaf000 0 /lib64/libkeyutils.so.1.5"
B 0 "7fe5dedb0000-7fe5dedb3000 0 /usr/lib64/libXau.so.6.0.0"
B 0 "7fe5defb4000-7fe5defd0000 0 /usr/lib64/libsasl2.so.3.0.0"
B 0 "7fe5df1d1000-7fe5df1e5000 0 /lib64/libresolv-2.22.so"
B 0 "7fe5df3e8000-7fe5df3f4000 0 /usr/lib64/libkrb5support.so.0.1"
B 0 "7fe5df5f5000-7fe5df5f8000 0 /usr/lib64/libcom_err.so.2.1"
B 0 "7fe5df7f9000-7fe5df826000 0 /usr/lib64/libk5crypto.so.3.1"
B 0 "7fe5dfa29000-7fe5dfaeb000 0 /usr/lib64/libkrb5.so.3.3"
B 0 "7fe5dfcfa000-7fe5dfd19000 0 /usr/lib64/libxcb.so.1.1.0"
B 0 "7fe5dff1a000-7fe5dff64000 0 /usr/lib64/libldap-2.4.so.2.10.4"
B 0 "7fe5e0167000-7fe5e0175000 0 /usr/lib64/liblber-2.4.so.2.10.4"
B 0 "7fe5e0376000-7fe5e03bc000 0 /usr/lib64/libgssapi_krb5.so.2.2"
B 0 "7fe5e05bf000-7fe5e07ec000 0 /lib64/libcrypto.so.1.0.0"
B 0 "7fe5e0a19000-7fe5e0a7a000 0 /lib64/libssl.so.1.0.0"
B 0 "7fe5e0c85000-7fe5e0caf000 0 /usr/lib64/libssh2.so.1.0.1"
B 0 "7fe5e0eb1000-7fe5e0ee3000 0 /usr/lib64/libidn.so.11.6.11"
B 0 "7fe5e10e5000-7fe5e1123000 0 /usr/lib64/libquadmath.so.0.0.0"
B 0 "7fe5e1325000-7fe5e1390000 0 /gpfs/apps/MN4/INTEL/2018.4.057/compilers_and_libraries_2018.5.274/linux/compiler/lib/intel64_lin/libirc.so"
B 0 "7fe5e1593000-7fe5e170e000 0 /usr/lib64/libstdc++.so.6.0.24"
B 0 "7fe5e191c000-7fe5e1a54000 0 /usr/lib64/libX11.so.6.3.0"
B 0 "7fe5e1c5a000-7fe5e3c10000 0 /gpfs/apps/MN4/INTEL/2018.4.057/compilers_and_libraries_2018.5.274/linux/mkl/lib/intel64_lin/libmkl_intel_thread.so"
B 0 "7fe5e4085000-7fe5e41e6000 0 /gpfs/apps/MN4/INTEL/2018.4.057/compilers_and_libraries_2018.5.274/linux/compiler/lib/intel64_lin/libirng.so"
B 0 "7fe5e43f9000-7fe5e4466000 0 /usr/lib64/libcurl.so.4.3.0"
B 0 "7fe5e466a000-7fe5e467f000 0 /lib64/libz.so.1.2.8"
B 0 "7fe5e4880000-7fe5e4895000 0 /gpfs/apps/MN4/SZIP/2.1.1/INTEL/lib/libsz.so.2.0.0"
B 0 "7fe5e4a9f000-7fe5e4e6d000 0 /gpfs/apps/MN4/HDF5/1.8.19/INTEL/IMPI/lib/libhdf5.so.10.3.0"
B 0 "7fe5e507b000-7fe5e50a0000 0 /gpfs/apps/MN4/HDF5/1.8.19/INTEL/IMPI/lib/libhdf5_hl.so.10.2.0"
B 0 "7fe5e52a3000-7fe5e53d7000 0 /gpfs/apps/MN4/BSCTOOLS/deps/binutils/2.38/lib/libbfd-2.38.so"
B 0 "7fe5e55ef000-7fe5e575c000 0 /gpfs/apps/MN4/BSCTOOLS/deps/papi/6.0.0/lib/libpfm.so.4.10.1"
B 0 "7fe5e5a52000-7fe5e5aa3000 0 /gpfs/apps/MN4/BSCTOOLS/deps/papi/6.0.0/lib/libpapi.so.6.0.0.0"
B 0 "7fe5e5cb3000-7fe5e5cd8000 0 /usr/lib64/liblzma.so.5.0.5"
B 0 "7fe5e5ed9000-7fe5e602f000 0 /gpfs/apps/MN4/BSCTOOLS/deps/libxml/2.9.12/lib/libxml2.so.2.9.12"
B 0 "7fe5e623a000-7fe5e6247000 0 /gpfs/apps/MN4/BSCTOOLS/deps/libunwind/1.6.2/lib/libunwind.so.8.0.1"
B 0 "7fe5e6452000-7fe5e6468000 0 /lib64/libgcc_s.so.1"
B 0 "7fe5e6669000-7fe5e6802000 0 /lib64/libc-2.22.so"
B 0 "7fe5e6a0c000-7fe5e6a77000 0 /gpfs/apps/MN4/INTEL/2018.4.057/compilers_and_libraries_2018.5.274/linux/compiler/lib/intel64_lin/libintlc.so.5"
B 0 "7fe5e6c7a000-7fe5e6e22000 0 /gpfs/apps/MN4/INTEL/2018.4.057/compilers_and_libraries_2018.5.274/linux/compiler/lib/intel64_lin/libiomp5.so"
B 0 "7fe5e705d000-7fe5e7159000 0 /lib64/libm-2.22.so"
B 0 "7fe5e735a000-7fe5e89e5000 0 /gpfs/apps/MN4/INTEL/2018.4.057/compilers_and_libraries_2018.5.274/linux/compiler/lib/intel64_lin/libsvml.so"
B 0 "7fe5e8c68000-7fe5e8f9e000 0 /gpfs/apps/MN4/INTEL/2018.4.057/compilers_and_libraries_2018.5.274/linux/compiler/lib/intel64_lin/libimf.so"
B 0 "7fe5e91fb000-7fe5e9337000 0 /gpfs/apps/MN4/INTEL/2018.4.057/compilers_and_libraries_2018.5.274/linux/compiler/lib/intel64_lin/libifcoremt.so.5"
B 0 "7fe5e958f000-7fe5e95b5000 0 /gpfs/apps/MN4/INTEL/2018.4.057/compilers_and_libraries_2018.5.274/linux/compiler/lib/intel64_lin/libifport.so.5"
B 0 "7fe5e97bb000-7fe5e97d3000 0 /lib64/libpthread-2.22.so"
B 0 "7fe5e99d8000-7fe5e99df000 0 /lib64/librt-2.22.so"
B 0 "7fe5e9be0000-7fe5e9be2000 0 /lib64/libdl-2.22.so"
B 0 "7fe5e9de4000-7fe5ea498000 0 /gpfs/apps/MN4/INTEL/2018.1.038/compilers_and_libraries_2018.1.163/linux/mpi/intel64/lib/release_mt/libmpi.so.12.0"
B 0 "7fe5eaa69000-7fe5eabe7000 0 /gpfs/apps/MN4/INTEL/2018.1.038/compilers_and_libraries_2018.1.163/linux/mpi/intel64/lib/libmpifort.so.12.0"
B 0 "7fe5eae12000-7fe5eae53000 0 /gpfs/apps/MN4/INTEL/2018.4.057/compilers_and_libraries_2018.5.274/linux/mkl/lib/intel64_lin/libmkl_blacs_intelmpi_lp64.so"
B 0 "7fe5eb054000-7fe5eee58000 0 /gpfs/apps/MN4/INTEL/2018.4.057/compilers_and_libraries_2018.5.274/linux/mkl/lib/intel64_lin/libmkl_core.so"
B 0 "7fe5ef0a1000-7fe5f034d000 0 /gpfs/apps/MN4/INTEL/2018.4.057/compilers_and_libraries_2018.5.274/linux/mkl/lib/intel64_lin/libmkl_sequential.so"
B 0 "7fe5f0566000-7fe5f0bdf000 0 /gpfs/apps/MN4/INTEL/2018.4.057/compilers_and_libraries_2018.5.274/linux/mkl/lib/intel64_lin/libmkl_scalapack_lp64.so"
B 0 "7fe5f0e67000-7fe5f175e000 0 /gpfs/apps/MN4/INTEL/2018.4.057/compilers_and_libraries_2018.5.274/linux/mkl/lib/intel64_lin/libmkl_intel_lp64.so"
B 0 "7fe5f1977000-7fe5f4f79000 0 /gpfs/projects/bsc99/bsc99520/KNOSOS/petsc-3.16.1-real/lib/libpetsc.so.3.16.1"
B 0 "7fe5f543f000-7fe5f56f7000 0 /gpfs/apps/MN4/NETCDF/4.4.1.1/INTEL/IMPI/lib/libnetcdf.so.11.0.4"
B 0 "7fe5f89a7000-7fe5f8a5b000 0 /gpfs/apps/MN4/NETCDF/4.4.1.1/INTEL/IMPI/lib/libnetcdff.so.6.1.1"
B 0 "7fe5f8e36000-7fe5f8f49000 0 /gpfs/apps/MN4/BSCTOOLS/extrae/4.0.1/impi_2018_1/lib/libmpitracef-4.0.1.so"
B 0 "7fe5f9ada000-7fe5f9afb000 0 /lib64/ld-2.22.so"
