S 2129928468825417
S 2129928470693482
S 2129928576123326
B 0 "400000-51c000 0 /gpfs/projects/bsc99/bsc99520/KNOSOS/knosos/Sources/knosos.x"
B 0 "7f09be8b2000-7f09be8bc000 0 /usr/lib64/libnuma.so.1"
B 0 "7f09e1c6a000-7f09e1cd8000 0 /usr/lib64/libpcre.so.1.2.7"
B 0 "7f09e1ed9000-7f09e1efc000 0 /lib64/libselinux.so.1"
B 0 "7f09e20ff000-7f09e2102000 0 /lib64/libkeyutils.so.1.5"
B 0 "7f09e2303000-7f09e2306000 0 /usr/lib64/libXau.so.6.0.0"
B 0 "7f09e2507000-7f09e2523000 0 /usr/lib64/libsasl2.so.3.0.0"
B 0 "7f09e2724000-7f09e2738000 0 /lib64/libresolv-2.22.so"
B 0 "7f09e293b000-7f09e2947000 0 /usr/lib64/libkrb5support.so.0.1"
B 0 "7f09e2b48000-7f09e2b4b000 0 /usr/lib64/libcom_err.so.2.1"
B 0 "7f09e2d4c000-7f09e2d79000 0 /usr/lib64/libk5crypto.so.3.1"
B 0 "7f09e2f7c000-7f09e303e000 0 /usr/lib64/libkrb5.so.3.3"
B 0 "7f09e324d000-7f09e326c000 0 /usr/lib64/libxcb.so.1.1.0"
B 0 "7f09e346d000-7f09e34b7000 0 /usr/lib64/libldap-2.4.so.2.10.4"
B 0 "7f09e36ba000-7f09e36c8000 0 /usr/lib64/liblber-2.4.so.2.10.4"
B 0 "7f09e38c9000-7f09e390f000 0 /usr/lib64/libgssapi_krb5.so.2.2"
B 0 "7f09e3b12000-7f09e3d3f000 0 /lib64/libcrypto.so.1.0.0"
B 0 "7f09e3f6c000-7f09e3fcd000 0 /lib64/libssl.so.1.0.0"
B 0 "7f09e41d8000-7f09e4202000 0 /usr/lib64/libssh2.so.1.0.1"
B 0 "7f09e4404000-7f09e4436000 0 /usr/lib64/libidn.so.11.6.11"
B 0 "7f09e4638000-7f09e4676000 0 /usr/lib64/libquadmath.so.0.0.0"
B 0 "7f09e4878000-7f09e48e3000 0 /gpfs/apps/MN4/INTEL/2018.4.057/compilers_and_libraries_2018.5.274/linux/compiler/lib/intel64_lin/libirc.so"
B 0 "7f09e4ae6000-7f09e4c61000 0 /usr/lib64/libstdc++.so.6.0.24"
B 0 "7f09e4e6f000-7f09e4fa7000 0 /usr/lib64/libX11.so.6.3.0"
B 0 "7f09e51ad000-7f09e6889000 0 /gpfs/apps/MN4/INTEL/2017.4/compilers_and_libraries_2017.4.196/linux/mkl/lib/intel64_lin/libmkl_intel_thread.so"
B 0 "7f09e6c72000-7f09e6dd3000 0 /gpfs/apps/MN4/INTEL/2018.4.057/compilers_and_libraries_2018.5.274/linux/compiler/lib/intel64_lin/libirng.so"
B 0 "7f09e6fe6000-7f09e7053000 0 /usr/lib64/libcurl.so.4.3.0"
B 0 "7f09e7257000-7f09e726c000 0 /lib64/libz.so.1.2.8"
B 0 "7f09e746d000-7f09e7482000 0 /gpfs/apps/MN4/SZIP/2.1.1/INTEL/lib/libsz.so.2.0.0"
B 0 "7f09e768c000-7f09e7a5a000 0 /gpfs/apps/MN4/HDF5/1.8.19/INTEL/IMPI/lib/libhdf5.so.10.3.0"
B 0 "7f09e7c68000-7f09e7c8d000 0 /gpfs/apps/MN4/HDF5/1.8.19/INTEL/IMPI/lib/libhdf5_hl.so.10.2.0"
B 0 "7f09e7e90000-7f09e7fc4000 0 /gpfs/apps/MN4/BSCTOOLS/deps/binutils/2.38/lib/libbfd-2.38.so"
B 0 "7f09e81dc000-7f09e8349000 0 /gpfs/apps/MN4/BSCTOOLS/deps/papi/6.0.0/lib/libpfm.so.4.10.1"
B 0 "7f09e863f000-7f09e8690000 0 /gpfs/apps/MN4/BSCTOOLS/deps/papi/6.0.0/lib/libpapi.so.6.0.0.0"
B 0 "7f09e88a0000-7f09e88c5000 0 /usr/lib64/liblzma.so.5.0.5"
B 0 "7f09e8ac6000-7f09e8c1c000 0 /gpfs/apps/MN4/BSCTOOLS/deps/libxml/2.9.12/lib/libxml2.so.2.9.12"
B 0 "7f09e8e27000-7f09e8e34000 0 /gpfs/apps/MN4/BSCTOOLS/deps/libunwind/1.6.2/lib/libunwind.so.8.0.1"
B 0 "7f09e903f000-7f09e9055000 0 /lib64/libgcc_s.so.1"
B 0 "7f09e9256000-7f09e93ef000 0 /lib64/libc-2.22.so"
B 0 "7f09e95f9000-7f09e9664000 0 /gpfs/apps/MN4/INTEL/2018.4.057/compilers_and_libraries_2018.5.274/linux/compiler/lib/intel64_lin/libintlc.so.5"
B 0 "7f09e9867000-7f09e9a0f000 0 /gpfs/apps/MN4/INTEL/2018.4.057/compilers_and_libraries_2018.5.274/linux/compiler/lib/intel64_lin/libiomp5.so"
B 0 "7f09e9c4a000-7f09e9d46000 0 /lib64/libm-2.22.so"
B 0 "7f09e9f47000-7f09eb5d2000 0 /gpfs/apps/MN4/INTEL/2018.4.057/compilers_and_libraries_2018.5.274/linux/compiler/lib/intel64_lin/libsvml.so"
B 0 "7f09eb855000-7f09ebb8b000 0 /gpfs/apps/MN4/INTEL/2018.4.057/compilers_and_libraries_2018.5.274/linux/compiler/lib/intel64_lin/libimf.so"
B 0 "7f09ebde8000-7f09ebf24000 0 /gpfs/apps/MN4/INTEL/2018.4.057/compilers_and_libraries_2018.5.274/linux/compiler/lib/intel64_lin/libifcoremt.so.5"
B 0 "7f09ec17c000-7f09ec1a2000 0 /gpfs/apps/MN4/INTEL/2018.4.057/compilers_and_libraries_2018.5.274/linux/compiler/lib/intel64_lin/libifport.so.5"
B 0 "7f09ec3a8000-7f09ec3c0000 0 /lib64/libpthread-2.22.so"
B 0 "7f09ec5c5000-7f09ec5cc000 0 /lib64/librt-2.22.so"
B 0 "7f09ec7cd000-7f09ec7cf000 0 /lib64/libdl-2.22.so"
B 0 "7f09ec9d1000-7f09ed085000 0 /gpfs/apps/MN4/INTEL/2018.1.038/compilers_and_libraries_2018.1.163/linux/mpi/intel64/lib/release_mt/libmpi.so.12.0"
B 0 "7f09ed656000-7f09ed7d4000 0 /gpfs/apps/MN4/INTEL/2018.1.038/compilers_and_libraries_2018.1.163/linux/mpi/intel64/lib/libmpifort.so.12.0"
B 0 "7f09ed9ff000-7f09eda3c000 0 /gpfs/apps/MN4/INTEL/2017.4/compilers_and_libraries_2017.4.196/linux/mkl/lib/intel64_lin/libmkl_blacs_intelmpi_lp64.so"
B 0 "7f09edc3d000-7f09ef4f0000 0 /gpfs/apps/MN4/INTEL/2017.4/compilers_and_libraries_2017.4.196/linux/mkl/lib/intel64_lin/libmkl_core.so"
B 0 "7f09ef76f000-7f09f02f9000 0 /gpfs/apps/MN4/INTEL/2017.4/compilers_and_libraries_2017.4.196/linux/mkl/lib/intel64_lin/libmkl_sequential.so"
B 0 "7f09f050c000-7f09f0b61000 0 /gpfs/apps/MN4/INTEL/2017.4/compilers_and_libraries_2017.4.196/linux/mkl/lib/intel64_lin/libmkl_scalapack_lp64.so"
B 0 "7f09f0de8000-7f09f1607000 0 /gpfs/apps/MN4/INTEL/2017.4/compilers_and_libraries_2017.4.196/linux/mkl/lib/intel64_lin/libmkl_intel_lp64.so"
B 0 "7f09f181f000-7f09f4e21000 0 /gpfs/projects/bsc99/bsc99520/KNOSOS/petsc-3.16.1-real/lib/libpetsc.so.3.16.1"
B 0 "7f09f52e7000-7f09f559f000 0 /gpfs/apps/MN4/NETCDF/4.4.1.1/INTEL/IMPI/lib/libnetcdf.so.11.0.4"
B 0 "7f09f884f000-7f09f8903000 0 /gpfs/apps/MN4/NETCDF/4.4.1.1/INTEL/IMPI/lib/libnetcdff.so.6.1.1"
B 0 "7f09f8cde000-7f09f8df1000 0 /gpfs/apps/MN4/BSCTOOLS/extrae/4.0.1/impi_2018_1/lib/libmpitracef-4.0.1.so"
B 0 "7f09f9982000-7f09f99a3000 0 /lib64/ld-2.22.so"
