S 2124401863066226
S 2124401865180368
S 2124401969783031
B 0 "400000-51c000 0 /gpfs/projects/bsc99/bsc99520/KNOSOS/knosos/Sources/knosos.x"
B 0 "7fd32d6cf000-7fd32d6d9000 0 /usr/lib64/libnuma.so.1"
B 0 "7fd350a87000-7fd350af5000 0 /usr/lib64/libpcre.so.1.2.7"
B 0 "7fd350cf6000-7fd350d19000 0 /lib64/libselinux.so.1"
B 0 "7fd350f1c000-7fd350f1f000 0 /lib64/libkeyutils.so.1.5"
B 0 "7fd351120000-7fd351123000 0 /usr/lib64/libXau.so.6.0.0"
B 0 "7fd351324000-7fd351340000 0 /usr/lib64/libsasl2.so.3.0.0"
B 0 "7fd351541000-7fd351555000 0 /lib64/libresolv-2.22.so"
B 0 "7fd351758000-7fd351764000 0 /usr/lib64/libkrb5support.so.0.1"
B 0 "7fd351965000-7fd351968000 0 /usr/lib64/libcom_err.so.2.1"
B 0 "7fd351b69000-7fd351b96000 0 /usr/lib64/libk5crypto.so.3.1"
B 0 "7fd351d99000-7fd351e5b000 0 /usr/lib64/libkrb5.so.3.3"
B 0 "7fd35206a000-7fd352089000 0 /usr/lib64/libxcb.so.1.1.0"
B 0 "7fd35228a000-7fd3522d4000 0 /usr/lib64/libldap-2.4.so.2.10.4"
B 0 "7fd3524d7000-7fd3524e5000 0 /usr/lib64/liblber-2.4.so.2.10.4"
B 0 "7fd3526e6000-7fd35272c000 0 /usr/lib64/libgssapi_krb5.so.2.2"
B 0 "7fd35292f000-7fd352b5c000 0 /lib64/libcrypto.so.1.0.0"
B 0 "7fd352d89000-7fd352dea000 0 /lib64/libssl.so.1.0.0"
B 0 "7fd352ff5000-7fd35301f000 0 /usr/lib64/libssh2.so.1.0.1"
B 0 "7fd353221000-7fd353253000 0 /usr/lib64/libidn.so.11.6.11"
B 0 "7fd353455000-7fd353493000 0 /usr/lib64/libquadmath.so.0.0.0"
B 0 "7fd353695000-7fd353700000 0 /gpfs/apps/MN4/INTEL/2018.4.057/compilers_and_libraries_2018.5.274/linux/compiler/lib/intel64_lin/libirc.so"
B 0 "7fd353903000-7fd353a7e000 0 /usr/lib64/libstdc++.so.6.0.24"
B 0 "7fd353c8c000-7fd353dc4000 0 /usr/lib64/libX11.so.6.3.0"
B 0 "7fd353fca000-7fd355f80000 0 /gpfs/apps/MN4/INTEL/2018.4.057/compilers_and_libraries_2018.5.274/linux/mkl/lib/intel64_lin/libmkl_intel_thread.so"
B 0 "7fd3563f5000-7fd356556000 0 /gpfs/apps/MN4/INTEL/2018.4.057/compilers_and_libraries_2018.5.274/linux/compiler/lib/intel64_lin/libirng.so"
B 0 "7fd356769000-7fd3567d6000 0 /usr/lib64/libcurl.so.4.3.0"
B 0 "7fd3569da000-7fd3569ef000 0 /lib64/libz.so.1.2.8"
B 0 "7fd356bf0000-7fd356c05000 0 /gpfs/apps/MN4/SZIP/2.1.1/INTEL/lib/libsz.so.2.0.0"
B 0 "7fd356e0f000-7fd3571dd000 0 /gpfs/apps/MN4/HDF5/1.8.19/INTEL/IMPI/lib/libhdf5.so.10.3.0"
B 0 "7fd3573eb000-7fd357410000 0 /gpfs/apps/MN4/HDF5/1.8.19/INTEL/IMPI/lib/libhdf5_hl.so.10.2.0"
B 0 "7fd357613000-7fd357747000 0 /gpfs/apps/MN4/BSCTOOLS/deps/binutils/2.38/lib/libbfd-2.38.so"
B 0 "7fd35795f000-7fd357acc000 0 /gpfs/apps/MN4/BSCTOOLS/deps/papi/6.0.0/lib/libpfm.so.4.10.1"
B 0 "7fd357dc2000-7fd357e13000 0 /gpfs/apps/MN4/BSCTOOLS/deps/papi/6.0.0/lib/libpapi.so.6.0.0.0"
B 0 "7fd358023000-7fd358048000 0 /usr/lib64/liblzma.so.5.0.5"
B 0 "7fd358249000-7fd35839f000 0 /gpfs/apps/MN4/BSCTOOLS/deps/libxml/2.9.12/lib/libxml2.so.2.9.12"
B 0 "7fd3585aa000-7fd3585b7000 0 /gpfs/apps/MN4/BSCTOOLS/deps/libunwind/1.6.2/lib/libunwind.so.8.0.1"
B 0 "7fd3587c2000-7fd3587d8000 0 /lib64/libgcc_s.so.1"
B 0 "7fd3589d9000-7fd358b72000 0 /lib64/libc-2.22.so"
B 0 "7fd358d7c000-7fd358de7000 0 /gpfs/apps/MN4/INTEL/2018.4.057/compilers_and_libraries_2018.5.274/linux/compiler/lib/intel64_lin/libintlc.so.5"
B 0 "7fd358fea000-7fd359192000 0 /gpfs/apps/MN4/INTEL/2018.4.057/compilers_and_libraries_2018.5.274/linux/compiler/lib/intel64_lin/libiomp5.so"
B 0 "7fd3593cd000-7fd3594c9000 0 /lib64/libm-2.22.so"
B 0 "7fd3596ca000-7fd35ad55000 0 /gpfs/apps/MN4/INTEL/2018.4.057/compilers_and_libraries_2018.5.274/linux/compiler/lib/intel64_lin/libsvml.so"
B 0 "7fd35afd8000-7fd35b30e000 0 /gpfs/apps/MN4/INTEL/2018.4.057/compilers_and_libraries_2018.5.274/linux/compiler/lib/intel64_lin/libimf.so"
B 0 "7fd35b56b000-7fd35b6a7000 0 /gpfs/apps/MN4/INTEL/2018.4.057/compilers_and_libraries_2018.5.274/linux/compiler/lib/intel64_lin/libifcoremt.so.5"
B 0 "7fd35b8ff000-7fd35b925000 0 /gpfs/apps/MN4/INTEL/2018.4.057/compilers_and_libraries_2018.5.274/linux/compiler/lib/intel64_lin/libifport.so.5"
B 0 "7fd35bb2b000-7fd35bb43000 0 /lib64/libpthread-2.22.so"
B 0 "7fd35bd48000-7fd35bd4f000 0 /lib64/librt-2.22.so"
B 0 "7fd35bf50000-7fd35bf52000 0 /lib64/libdl-2.22.so"
B 0 "7fd35c154000-7fd35c808000 0 /gpfs/apps/MN4/INTEL/2018.1.038/compilers_and_libraries_2018.1.163/linux/mpi/intel64/lib/release_mt/libmpi.so.12.0"
B 0 "7fd35cdd9000-7fd35cf57000 0 /gpfs/apps/MN4/INTEL/2018.1.038/compilers_and_libraries_2018.1.163/linux/mpi/intel64/lib/libmpifort.so.12.0"
B 0 "7fd35d182000-7fd35d1c3000 0 /gpfs/apps/MN4/INTEL/2018.4.057/compilers_and_libraries_2018.5.274/linux/mkl/lib/intel64_lin/libmkl_blacs_intelmpi_lp64.so"
B 0 "7fd35d3c4000-7fd3611c8000 0 /gpfs/apps/MN4/INTEL/2018.4.057/compilers_and_libraries_2018.5.274/linux/mkl/lib/intel64_lin/libmkl_core.so"
B 0 "7fd361411000-7fd3626bd000 0 /gpfs/apps/MN4/INTEL/2018.4.057/compilers_and_libraries_2018.5.274/linux/mkl/lib/intel64_lin/libmkl_sequential.so"
B 0 "7fd3628d6000-7fd362f4f000 0 /gpfs/apps/MN4/INTEL/2018.4.057/compilers_and_libraries_2018.5.274/linux/mkl/lib/intel64_lin/libmkl_scalapack_lp64.so"
B 0 "7fd3631d7000-7fd363ace000 0 /gpfs/apps/MN4/INTEL/2018.4.057/compilers_and_libraries_2018.5.274/linux/mkl/lib/intel64_lin/libmkl_intel_lp64.so"
B 0 "7fd363ce7000-7fd3672e9000 0 /gpfs/projects/bsc99/bsc99520/KNOSOS/petsc-3.16.1-real/lib/libpetsc.so.3.16.1"
B 0 "7fd3677af000-7fd367a67000 0 /gpfs/apps/MN4/NETCDF/4.4.1.1/INTEL/IMPI/lib/libnetcdf.so.11.0.4"
B 0 "7fd36ad17000-7fd36adcb000 0 /gpfs/apps/MN4/NETCDF/4.4.1.1/INTEL/IMPI/lib/libnetcdff.so.6.1.1"
B 0 "7fd36b1a6000-7fd36b2b9000 0 /gpfs/apps/MN4/BSCTOOLS/extrae/4.0.1/impi_2018_1/lib/libmpitracef-4.0.1.so"
B 0 "7fd36be4a000-7fd36be6b000 0 /lib64/ld-2.22.so"
