S 744438143285670
S 744438144182669
S 744438203452838
B 0 "400000-51c000 0 /gpfs/projects/bsc99/bsc99206/KNOSOS/knosos/Sources/knosos.x"
B 0 "7fb09d624000-7fb09d62e000 0 /usr/lib64/libnuma.so.1"
B 0 "7fb0c09dc000-7fb0c0a4a000 0 /usr/lib64/libpcre.so.1.2.7"
B 0 "7fb0c0c4b000-7fb0c0c6e000 0 /lib64/libselinux.so.1"
B 0 "7fb0c0e71000-7fb0c0e74000 0 /lib64/libkeyutils.so.1.5"
B 0 "7fb0c1075000-7fb0c1078000 0 /usr/lib64/libXau.so.6.0.0"
B 0 "7fb0c1279000-7fb0c1295000 0 /usr/lib64/libsasl2.so.3.0.0"
B 0 "7fb0c1496000-7fb0c14aa000 0 /lib64/libresolv-2.22.so"
B 0 "7fb0c16ad000-7fb0c16b9000 0 /usr/lib64/libkrb5support.so.0.1"
B 0 "7fb0c18ba000-7fb0c18bd000 0 /usr/lib64/libcom_err.so.2.1"
B 0 "7fb0c1abe000-7fb0c1aeb000 0 /usr/lib64/libk5crypto.so.3.1"
B 0 "7fb0c1cee000-7fb0c1db0000 0 /usr/lib64/libkrb5.so.3.3"
B 0 "7fb0c1fbf000-7fb0c1fde000 0 /usr/lib64/libxcb.so.1.1.0"
B 0 "7fb0c21df000-7fb0c2229000 0 /usr/lib64/libldap-2.4.so.2.10.4"
B 0 "7fb0c242c000-7fb0c243a000 0 /usr/lib64/liblber-2.4.so.2.10.4"
B 0 "7fb0c263b000-7fb0c2681000 0 /usr/lib64/libgssapi_krb5.so.2.2"
B 0 "7fb0c2884000-7fb0c2ab1000 0 /lib64/libcrypto.so.1.0.0"
B 0 "7fb0c2cde000-7fb0c2d3f000 0 /lib64/libssl.so.1.0.0"
B 0 "7fb0c2f4a000-7fb0c2f74000 0 /usr/lib64/libssh2.so.1.0.1"
B 0 "7fb0c3176000-7fb0c31a8000 0 /usr/lib64/libidn.so.11.6.11"
B 0 "7fb0c33aa000-7fb0c33e8000 0 /usr/lib64/libquadmath.so.0.0.0"
B 0 "7fb0c35ea000-7fb0c3655000 0 /gpfs/apps/MN4/INTEL/2018.4.057/compilers_and_libraries_2018.5.274/linux/compiler/lib/intel64_lin/libirc.so"
B 0 "7fb0c3858000-7fb0c39d3000 0 /usr/lib64/libstdc++.so.6.0.24"
B 0 "7fb0c3be1000-7fb0c3d19000 0 /usr/lib64/libX11.so.6.3.0"
B 0 "7fb0c3f1f000-7fb0c5ed5000 0 /gpfs/apps/MN4/INTEL/2018.4.057/compilers_and_libraries_2018.5.274/linux/mkl/lib/intel64_lin/libmkl_intel_thread.so"
B 0 "7fb0c634a000-7fb0c64ab000 0 /gpfs/apps/MN4/INTEL/2018.4.057/compilers_and_libraries_2018.5.274/linux/compiler/lib/intel64_lin/libirng.so"
B 0 "7fb0c66be000-7fb0c672b000 0 /usr/lib64/libcurl.so.4.3.0"
B 0 "7fb0c692f000-7fb0c6944000 0 /lib64/libz.so.1.2.8"
B 0 "7fb0c6b45000-7fb0c6b5a000 0 /gpfs/apps/MN4/SZIP/2.1.1/INTEL/lib/libsz.so.2.0.0"
B 0 "7fb0c6d64000-7fb0c7132000 0 /gpfs/apps/MN4/HDF5/1.8.19/INTEL/IMPI/lib/libhdf5.so.10.3.0"
B 0 "7fb0c7340000-7fb0c7365000 0 /gpfs/apps/MN4/HDF5/1.8.19/INTEL/IMPI/lib/libhdf5_hl.so.10.2.0"
B 0 "7fb0c7568000-7fb0c769c000 0 /gpfs/apps/MN4/BSCTOOLS/deps/binutils/2.38/lib/libbfd-2.38.so"
B 0 "7fb0c78b4000-7fb0c7a21000 0 /gpfs/apps/MN4/BSCTOOLS/deps/papi/6.0.0/lib/libpfm.so.4.10.1"
B 0 "7fb0c7d17000-7fb0c7d68000 0 /gpfs/apps/MN4/BSCTOOLS/deps/papi/6.0.0/lib/libpapi.so.6.0.0.0"
B 0 "7fb0c7f78000-7fb0c7f9d000 0 /usr/lib64/liblzma.so.5.0.5"
B 0 "7fb0c819e000-7fb0c82f4000 0 /gpfs/apps/MN4/BSCTOOLS/deps/libxml/2.9.12/lib/libxml2.so.2.9.12"
B 0 "7fb0c84ff000-7fb0c850c000 0 /gpfs/apps/MN4/BSCTOOLS/deps/libunwind/1.6.2/lib/libunwind.so.8.0.1"
B 0 "7fb0c8717000-7fb0c872d000 0 /lib64/libgcc_s.so.1"
B 0 "7fb0c892e000-7fb0c8ac7000 0 /lib64/libc-2.22.so"
B 0 "7fb0c8cd1000-7fb0c8d3c000 0 /gpfs/apps/MN4/INTEL/2018.4.057/compilers_and_libraries_2018.5.274/linux/compiler/lib/intel64_lin/libintlc.so.5"
B 0 "7fb0c8f3f000-7fb0c90e7000 0 /gpfs/apps/MN4/INTEL/2018.4.057/compilers_and_libraries_2018.5.274/linux/compiler/lib/intel64_lin/libiomp5.so"
B 0 "7fb0c9322000-7fb0c941e000 0 /lib64/libm-2.22.so"
B 0 "7fb0c961f000-7fb0cacaa000 0 /gpfs/apps/MN4/INTEL/2018.4.057/compilers_and_libraries_2018.5.274/linux/compiler/lib/intel64_lin/libsvml.so"
B 0 "7fb0caf2d000-7fb0cb263000 0 /gpfs/apps/MN4/INTEL/2018.4.057/compilers_and_libraries_2018.5.274/linux/compiler/lib/intel64_lin/libimf.so"
B 0 "7fb0cb4c0000-7fb0cb5fc000 0 /gpfs/apps/MN4/INTEL/2018.4.057/compilers_and_libraries_2018.5.274/linux/compiler/lib/intel64_lin/libifcoremt.so.5"
B 0 "7fb0cb854000-7fb0cb87a000 0 /gpfs/apps/MN4/INTEL/2018.4.057/compilers_and_libraries_2018.5.274/linux/compiler/lib/intel64_lin/libifport.so.5"
B 0 "7fb0cba80000-7fb0cba98000 0 /lib64/libpthread-2.22.so"
B 0 "7fb0cbc9d000-7fb0cbca4000 0 /lib64/librt-2.22.so"
B 0 "7fb0cbea5000-7fb0cbea7000 0 /lib64/libdl-2.22.so"
B 0 "7fb0cc0a9000-7fb0cc75d000 0 /gpfs/apps/MN4/INTEL/2018.1.038/compilers_and_libraries_2018.1.163/linux/mpi/intel64/lib/release_mt/libmpi.so.12.0"
B 0 "7fb0ccd2e000-7fb0cceac000 0 /gpfs/apps/MN4/INTEL/2018.1.038/compilers_and_libraries_2018.1.163/linux/mpi/intel64/lib/libmpifort.so.12.0"
B 0 "7fb0cd0d7000-7fb0cd118000 0 /gpfs/apps/MN4/INTEL/2018.4.057/compilers_and_libraries_2018.5.274/linux/mkl/lib/intel64_lin/libmkl_blacs_intelmpi_lp64.so"
B 0 "7fb0cd319000-7fb0d111d000 0 /gpfs/apps/MN4/INTEL/2018.4.057/compilers_and_libraries_2018.5.274/linux/mkl/lib/intel64_lin/libmkl_core.so"
B 0 "7fb0d1366000-7fb0d2612000 0 /gpfs/apps/MN4/INTEL/2018.4.057/compilers_and_libraries_2018.5.274/linux/mkl/lib/intel64_lin/libmkl_sequential.so"
B 0 "7fb0d282b000-7fb0d2ea4000 0 /gpfs/apps/MN4/INTEL/2018.4.057/compilers_and_libraries_2018.5.274/linux/mkl/lib/intel64_lin/libmkl_scalapack_lp64.so"
B 0 "7fb0d312c000-7fb0d3a23000 0 /gpfs/apps/MN4/INTEL/2018.4.057/compilers_and_libraries_2018.5.274/linux/mkl/lib/intel64_lin/libmkl_intel_lp64.so"
B 0 "7fb0d3c3c000-7fb0d58ae000 0 /gpfs/projects/bsc99/bsc99206/KNOSOS/petsc-3.16.1_tuned/build/lib/libpetsc.so.3.16.1"
B 0 "7fb0d5d71000-7fb0d6029000 0 /gpfs/apps/MN4/NETCDF/4.4.1.1/INTEL/IMPI/lib/libnetcdf.so.11.0.4"
B 0 "7fb0d92d9000-7fb0d938d000 0 /gpfs/apps/MN4/NETCDF/4.4.1.1/INTEL/IMPI/lib/libnetcdff.so.6.1.1"
B 0 "7fb0d9768000-7fb0d987b000 0 /gpfs/apps/MN4/BSCTOOLS/extrae/4.0.1/impi_2018_1/lib/libmpitracef-4.0.1.so"
B 0 "7fb0da40c000-7fb0da42d000 0 /lib64/ld-2.22.so"
