S 2223440183326799
S 2223440183817073
S 2223440262576588
B 0 "400000-51c000 0 /gpfs/projects/bsc99/bsc99206/KNOSOS/knosos/Sources/knosos.x"
B 0 "7ffb01438000-7ffb01442000 0 /usr/lib64/libnuma.so.1"
B 0 "7ffb247f0000-7ffb2485e000 0 /usr/lib64/libpcre.so.1.2.7"
B 0 "7ffb24a5f000-7ffb24a82000 0 /lib64/libselinux.so.1"
B 0 "7ffb24c85000-7ffb24c88000 0 /lib64/libkeyutils.so.1.5"
B 0 "7ffb24e89000-7ffb24e8c000 0 /usr/lib64/libXau.so.6.0.0"
B 0 "7ffb2508d000-7ffb250a9000 0 /usr/lib64/libsasl2.so.3.0.0"
B 0 "7ffb252aa000-7ffb252be000 0 /lib64/libresolv-2.22.so"
B 0 "7ffb254c1000-7ffb254cd000 0 /usr/lib64/libkrb5support.so.0.1"
B 0 "7ffb256ce000-7ffb256d1000 0 /usr/lib64/libcom_err.so.2.1"
B 0 "7ffb258d2000-7ffb258ff000 0 /usr/lib64/libk5crypto.so.3.1"
B 0 "7ffb25b02000-7ffb25bc4000 0 /usr/lib64/libkrb5.so.3.3"
B 0 "7ffb25dd3000-7ffb25df2000 0 /usr/lib64/libxcb.so.1.1.0"
B 0 "7ffb25ff3000-7ffb2603d000 0 /usr/lib64/libldap-2.4.so.2.10.4"
B 0 "7ffb26240000-7ffb2624e000 0 /usr/lib64/liblber-2.4.so.2.10.4"
B 0 "7ffb2644f000-7ffb26495000 0 /usr/lib64/libgssapi_krb5.so.2.2"
B 0 "7ffb26698000-7ffb268c5000 0 /lib64/libcrypto.so.1.0.0"
B 0 "7ffb26af2000-7ffb26b53000 0 /lib64/libssl.so.1.0.0"
B 0 "7ffb26d5e000-7ffb26d88000 0 /usr/lib64/libssh2.so.1.0.1"
B 0 "7ffb26f8a000-7ffb26fbc000 0 /usr/lib64/libidn.so.11.6.11"
B 0 "7ffb271be000-7ffb271fc000 0 /usr/lib64/libquadmath.so.0.0.0"
B 0 "7ffb273fe000-7ffb27469000 0 /gpfs/apps/MN4/INTEL/2018.4.057/compilers_and_libraries_2018.5.274/linux/compiler/lib/intel64_lin/libirc.so"
B 0 "7ffb2766c000-7ffb277e7000 0 /usr/lib64/libstdc++.so.6.0.24"
B 0 "7ffb279f5000-7ffb27b2d000 0 /usr/lib64/libX11.so.6.3.0"
B 0 "7ffb27d33000-7ffb29ce9000 0 /gpfs/apps/MN4/INTEL/2018.4.057/compilers_and_libraries_2018.5.274/linux/mkl/lib/intel64_lin/libmkl_intel_thread.so"
B 0 "7ffb2a15e000-7ffb2a2bf000 0 /gpfs/apps/MN4/INTEL/2018.4.057/compilers_and_libraries_2018.5.274/linux/compiler/lib/intel64_lin/libirng.so"
B 0 "7ffb2a4d2000-7ffb2a53f000 0 /usr/lib64/libcurl.so.4.3.0"
B 0 "7ffb2a743000-7ffb2a758000 0 /lib64/libz.so.1.2.8"
B 0 "7ffb2a959000-7ffb2a96e000 0 /gpfs/apps/MN4/SZIP/2.1.1/INTEL/lib/libsz.so.2.0.0"
B 0 "7ffb2ab78000-7ffb2af46000 0 /gpfs/apps/MN4/HDF5/1.8.19/INTEL/IMPI/lib/libhdf5.so.10.3.0"
B 0 "7ffb2b154000-7ffb2b179000 0 /gpfs/apps/MN4/HDF5/1.8.19/INTEL/IMPI/lib/libhdf5_hl.so.10.2.0"
B 0 "7ffb2b37c000-7ffb2b4b0000 0 /gpfs/apps/MN4/BSCTOOLS/deps/binutils/2.38/lib/libbfd-2.38.so"
B 0 "7ffb2b6c8000-7ffb2b835000 0 /gpfs/apps/MN4/BSCTOOLS/deps/papi/6.0.0/lib/libpfm.so.4.10.1"
B 0 "7ffb2bb2b000-7ffb2bb7c000 0 /gpfs/apps/MN4/BSCTOOLS/deps/papi/6.0.0/lib/libpapi.so.6.0.0.0"
B 0 "7ffb2bd8c000-7ffb2bdb1000 0 /usr/lib64/liblzma.so.5.0.5"
B 0 "7ffb2bfb2000-7ffb2c108000 0 /gpfs/apps/MN4/BSCTOOLS/deps/libxml/2.9.12/lib/libxml2.so.2.9.12"
B 0 "7ffb2c313000-7ffb2c320000 0 /gpfs/apps/MN4/BSCTOOLS/deps/libunwind/1.6.2/lib/libunwind.so.8.0.1"
B 0 "7ffb2c52b000-7ffb2c541000 0 /lib64/libgcc_s.so.1"
B 0 "7ffb2c742000-7ffb2c8db000 0 /lib64/libc-2.22.so"
B 0 "7ffb2cae5000-7ffb2cb50000 0 /gpfs/apps/MN4/INTEL/2018.4.057/compilers_and_libraries_2018.5.274/linux/compiler/lib/intel64_lin/libintlc.so.5"
B 0 "7ffb2cd53000-7ffb2cefb000 0 /gpfs/apps/MN4/INTEL/2018.4.057/compilers_and_libraries_2018.5.274/linux/compiler/lib/intel64_lin/libiomp5.so"
B 0 "7ffb2d136000-7ffb2d232000 0 /lib64/libm-2.22.so"
B 0 "7ffb2d433000-7ffb2eabe000 0 /gpfs/apps/MN4/INTEL/2018.4.057/compilers_and_libraries_2018.5.274/linux/compiler/lib/intel64_lin/libsvml.so"
B 0 "7ffb2ed41000-7ffb2f077000 0 /gpfs/apps/MN4/INTEL/2018.4.057/compilers_and_libraries_2018.5.274/linux/compiler/lib/intel64_lin/libimf.so"
B 0 "7ffb2f2d4000-7ffb2f410000 0 /gpfs/apps/MN4/INTEL/2018.4.057/compilers_and_libraries_2018.5.274/linux/compiler/lib/intel64_lin/libifcoremt.so.5"
B 0 "7ffb2f668000-7ffb2f68e000 0 /gpfs/apps/MN4/INTEL/2018.4.057/compilers_and_libraries_2018.5.274/linux/compiler/lib/intel64_lin/libifport.so.5"
B 0 "7ffb2f894000-7ffb2f8ac000 0 /lib64/libpthread-2.22.so"
B 0 "7ffb2fab1000-7ffb2fab8000 0 /lib64/librt-2.22.so"
B 0 "7ffb2fcb9000-7ffb2fcbb000 0 /lib64/libdl-2.22.so"
B 0 "7ffb2febd000-7ffb30571000 0 /gpfs/apps/MN4/INTEL/2018.1.038/compilers_and_libraries_2018.1.163/linux/mpi/intel64/lib/release_mt/libmpi.so.12.0"
B 0 "7ffb30b42000-7ffb30cc0000 0 /gpfs/apps/MN4/INTEL/2018.1.038/compilers_and_libraries_2018.1.163/linux/mpi/intel64/lib/libmpifort.so.12.0"
B 0 "7ffb30eeb000-7ffb30f2c000 0 /gpfs/apps/MN4/INTEL/2018.4.057/compilers_and_libraries_2018.5.274/linux/mkl/lib/intel64_lin/libmkl_blacs_intelmpi_lp64.so"
B 0 "7ffb3112d000-7ffb34f31000 0 /gpfs/apps/MN4/INTEL/2018.4.057/compilers_and_libraries_2018.5.274/linux/mkl/lib/intel64_lin/libmkl_core.so"
B 0 "7ffb3517a000-7ffb36426000 0 /gpfs/apps/MN4/INTEL/2018.4.057/compilers_and_libraries_2018.5.274/linux/mkl/lib/intel64_lin/libmkl_sequential.so"
B 0 "7ffb3663f000-7ffb36cb8000 0 /gpfs/apps/MN4/INTEL/2018.4.057/compilers_and_libraries_2018.5.274/linux/mkl/lib/intel64_lin/libmkl_scalapack_lp64.so"
B 0 "7ffb36f40000-7ffb37837000 0 /gpfs/apps/MN4/INTEL/2018.4.057/compilers_and_libraries_2018.5.274/linux/mkl/lib/intel64_lin/libmkl_intel_lp64.so"
B 0 "7ffb37a50000-7ffb3b052000 0 /gpfs/projects/bsc99/bsc99520/KNOSOS/petsc-3.16.1-real/lib/libpetsc.so.3.16.1"
B 0 "7ffb3b518000-7ffb3b7d0000 0 /gpfs/apps/MN4/NETCDF/4.4.1.1/INTEL/IMPI/lib/libnetcdf.so.11.0.4"
B 0 "7ffb3ea80000-7ffb3eb34000 0 /gpfs/apps/MN4/NETCDF/4.4.1.1/INTEL/IMPI/lib/libnetcdff.so.6.1.1"
B 0 "7ffb3ef0f000-7ffb3f022000 0 /gpfs/apps/MN4/BSCTOOLS/extrae/4.0.1/impi_2018_1/lib/libmpitracef-4.0.1.so"
B 0 "7ffb3fbb3000-7ffb3fbd4000 0 /lib64/ld-2.22.so"
