S 2070873665028447
S 2070873665663498
S 2070873733239822
B 0 "400000-51c000 0 /gpfs/projects/bsc99/bsc99520/KNOSOS/knosos/Sources/knosos.x"
B 0 "7f22303c0000-7f22303ca000 0 /usr/lib64/libnuma.so.1"
B 0 "7f2253778000-7f22537e6000 0 /usr/lib64/libpcre.so.1.2.7"
B 0 "7f22539e7000-7f2253a0a000 0 /lib64/libselinux.so.1"
B 0 "7f2253c0d000-7f2253c10000 0 /lib64/libkeyutils.so.1.5"
B 0 "7f2253e11000-7f2253e14000 0 /usr/lib64/libXau.so.6.0.0"
B 0 "7f2254015000-7f2254031000 0 /usr/lib64/libsasl2.so.3.0.0"
B 0 "7f2254232000-7f2254246000 0 /lib64/libresolv-2.22.so"
B 0 "7f2254449000-7f2254455000 0 /usr/lib64/libkrb5support.so.0.1"
B 0 "7f2254656000-7f2254659000 0 /usr/lib64/libcom_err.so.2.1"
B 0 "7f225485a000-7f2254887000 0 /usr/lib64/libk5crypto.so.3.1"
B 0 "7f2254a8a000-7f2254b4c000 0 /usr/lib64/libkrb5.so.3.3"
B 0 "7f2254d5b000-7f2254d7a000 0 /usr/lib64/libxcb.so.1.1.0"
B 0 "7f2254f7b000-7f2254fc5000 0 /usr/lib64/libldap-2.4.so.2.10.4"
B 0 "7f22551c8000-7f22551d6000 0 /usr/lib64/liblber-2.4.so.2.10.4"
B 0 "7f22553d7000-7f225541d000 0 /usr/lib64/libgssapi_krb5.so.2.2"
B 0 "7f2255620000-7f225584d000 0 /lib64/libcrypto.so.1.0.0"
B 0 "7f2255a7a000-7f2255adb000 0 /lib64/libssl.so.1.0.0"
B 0 "7f2255ce6000-7f2255d10000 0 /usr/lib64/libssh2.so.1.0.1"
B 0 "7f2255f12000-7f2255f44000 0 /usr/lib64/libidn.so.11.6.11"
B 0 "7f2256146000-7f2256184000 0 /usr/lib64/libquadmath.so.0.0.0"
B 0 "7f2256386000-7f22563f1000 0 /gpfs/apps/MN4/INTEL/2018.4.057/compilers_and_libraries_2018.5.274/linux/compiler/lib/intel64_lin/libirc.so"
B 0 "7f22565f4000-7f225676f000 0 /usr/lib64/libstdc++.so.6.0.24"
B 0 "7f225697d000-7f2256ab5000 0 /usr/lib64/libX11.so.6.3.0"
B 0 "7f2256cbb000-7f2258c71000 0 /gpfs/apps/MN4/INTEL/2018.4.057/compilers_and_libraries_2018.5.274/linux/mkl/lib/intel64_lin/libmkl_intel_thread.so"
B 0 "7f22590e6000-7f2259247000 0 /gpfs/apps/MN4/INTEL/2018.4.057/compilers_and_libraries_2018.5.274/linux/compiler/lib/intel64_lin/libirng.so"
B 0 "7f225945a000-7f22594c7000 0 /usr/lib64/libcurl.so.4.3.0"
B 0 "7f22596cb000-7f22596e0000 0 /lib64/libz.so.1.2.8"
B 0 "7f22598e1000-7f22598f6000 0 /gpfs/apps/MN4/SZIP/2.1.1/INTEL/lib/libsz.so.2.0.0"
B 0 "7f2259b00000-7f2259ece000 0 /gpfs/apps/MN4/HDF5/1.8.19/INTEL/IMPI/lib/libhdf5.so.10.3.0"
B 0 "7f225a0dc000-7f225a101000 0 /gpfs/apps/MN4/HDF5/1.8.19/INTEL/IMPI/lib/libhdf5_hl.so.10.2.0"
B 0 "7f225a304000-7f225a438000 0 /gpfs/apps/MN4/BSCTOOLS/deps/binutils/2.38/lib/libbfd-2.38.so"
B 0 "7f225a650000-7f225a7bd000 0 /gpfs/apps/MN4/BSCTOOLS/deps/papi/6.0.0/lib/libpfm.so.4.10.1"
B 0 "7f225aab3000-7f225ab04000 0 /gpfs/apps/MN4/BSCTOOLS/deps/papi/6.0.0/lib/libpapi.so.6.0.0.0"
B 0 "7f225ad14000-7f225ad39000 0 /usr/lib64/liblzma.so.5.0.5"
B 0 "7f225af3a000-7f225b090000 0 /gpfs/apps/MN4/BSCTOOLS/deps/libxml/2.9.12/lib/libxml2.so.2.9.12"
B 0 "7f225b29b000-7f225b2a8000 0 /gpfs/apps/MN4/BSCTOOLS/deps/libunwind/1.6.2/lib/libunwind.so.8.0.1"
B 0 "7f225b4b3000-7f225b4c9000 0 /lib64/libgcc_s.so.1"
B 0 "7f225b6ca000-7f225b863000 0 /lib64/libc-2.22.so"
B 0 "7f225ba6d000-7f225bad8000 0 /gpfs/apps/MN4/INTEL/2018.4.057/compilers_and_libraries_2018.5.274/linux/compiler/lib/intel64_lin/libintlc.so.5"
B 0 "7f225bcdb000-7f225be83000 0 /gpfs/apps/MN4/INTEL/2018.4.057/compilers_and_libraries_2018.5.274/linux/compiler/lib/intel64_lin/libiomp5.so"
B 0 "7f225c0be000-7f225c1ba000 0 /lib64/libm-2.22.so"
B 0 "7f225c3bb000-7f225da46000 0 /gpfs/apps/MN4/INTEL/2018.4.057/compilers_and_libraries_2018.5.274/linux/compiler/lib/intel64_lin/libsvml.so"
B 0 "7f225dcc9000-7f225dfff000 0 /gpfs/apps/MN4/INTEL/2018.4.057/compilers_and_libraries_2018.5.274/linux/compiler/lib/intel64_lin/libimf.so"
B 0 "7f225e25c000-7f225e398000 0 /gpfs/apps/MN4/INTEL/2018.4.057/compilers_and_libraries_2018.5.274/linux/compiler/lib/intel64_lin/libifcoremt.so.5"
B 0 "7f225e5f0000-7f225e616000 0 /gpfs/apps/MN4/INTEL/2018.4.057/compilers_and_libraries_2018.5.274/linux/compiler/lib/intel64_lin/libifport.so.5"
B 0 "7f225e81c000-7f225e834000 0 /lib64/libpthread-2.22.so"
B 0 "7f225ea39000-7f225ea40000 0 /lib64/librt-2.22.so"
B 0 "7f225ec41000-7f225ec43000 0 /lib64/libdl-2.22.so"
B 0 "7f225ee45000-7f225f4f9000 0 /gpfs/apps/MN4/INTEL/2018.1.038/compilers_and_libraries_2018.1.163/linux/mpi/intel64/lib/release_mt/libmpi.so.12.0"
B 0 "7f225faca000-7f225fc48000 0 /gpfs/apps/MN4/INTEL/2018.1.038/compilers_and_libraries_2018.1.163/linux/mpi/intel64/lib/libmpifort.so.12.0"
B 0 "7f225fe73000-7f225feb4000 0 /gpfs/apps/MN4/INTEL/2018.4.057/compilers_and_libraries_2018.5.274/linux/mkl/lib/intel64_lin/libmkl_blacs_intelmpi_lp64.so"
B 0 "7f22600b5000-7f2263eb9000 0 /gpfs/apps/MN4/INTEL/2018.4.057/compilers_and_libraries_2018.5.274/linux/mkl/lib/intel64_lin/libmkl_core.so"
B 0 "7f2264102000-7f22653ae000 0 /gpfs/apps/MN4/INTEL/2018.4.057/compilers_and_libraries_2018.5.274/linux/mkl/lib/intel64_lin/libmkl_sequential.so"
B 0 "7f22655c7000-7f2265c40000 0 /gpfs/apps/MN4/INTEL/2018.4.057/compilers_and_libraries_2018.5.274/linux/mkl/lib/intel64_lin/libmkl_scalapack_lp64.so"
B 0 "7f2265ec8000-7f22667bf000 0 /gpfs/apps/MN4/INTEL/2018.4.057/compilers_and_libraries_2018.5.274/linux/mkl/lib/intel64_lin/libmkl_intel_lp64.so"
B 0 "7f22669d8000-7f2269fda000 0 /gpfs/projects/bsc99/bsc99520/KNOSOS/petsc-3.16.1-real/lib/libpetsc.so.3.16.1"
B 0 "7f226a4a0000-7f226a758000 0 /gpfs/apps/MN4/NETCDF/4.4.1.1/INTEL/IMPI/lib/libnetcdf.so.11.0.4"
B 0 "7f226da08000-7f226dabc000 0 /gpfs/apps/MN4/NETCDF/4.4.1.1/INTEL/IMPI/lib/libnetcdff.so.6.1.1"
B 0 "7f226de97000-7f226dfaa000 0 /gpfs/apps/MN4/BSCTOOLS/extrae/4.0.1/impi_2018_1/lib/libmpitracef-4.0.1.so"
B 0 "7f226eb3b000-7f226eb5c000 0 /lib64/ld-2.22.so"
