S 2223499848658559
S 2223499849807468
S 2223499870320043
B 0 "400000-51c000 0 /gpfs/projects/bsc99/bsc99206/KNOSOS/knosos/Sources/knosos.x"
B 0 "7f0caf4cf000-7f0caf4d9000 0 /usr/lib64/libnuma.so.1"
B 0 "7f0cd2887000-7f0cd28f5000 0 /usr/lib64/libpcre.so.1.2.7"
B 0 "7f0cd2af6000-7f0cd2b19000 0 /lib64/libselinux.so.1"
B 0 "7f0cd2d1c000-7f0cd2d1f000 0 /lib64/libkeyutils.so.1.5"
B 0 "7f0cd2f20000-7f0cd2f23000 0 /usr/lib64/libXau.so.6.0.0"
B 0 "7f0cd3124000-7f0cd3140000 0 /usr/lib64/libsasl2.so.3.0.0"
B 0 "7f0cd3341000-7f0cd3355000 0 /lib64/libresolv-2.22.so"
B 0 "7f0cd3558000-7f0cd3564000 0 /usr/lib64/libkrb5support.so.0.1"
B 0 "7f0cd3765000-7f0cd3768000 0 /usr/lib64/libcom_err.so.2.1"
B 0 "7f0cd3969000-7f0cd3996000 0 /usr/lib64/libk5crypto.so.3.1"
B 0 "7f0cd3b99000-7f0cd3c5b000 0 /usr/lib64/libkrb5.so.3.3"
B 0 "7f0cd3e6a000-7f0cd3e89000 0 /usr/lib64/libxcb.so.1.1.0"
B 0 "7f0cd408a000-7f0cd40d4000 0 /usr/lib64/libldap-2.4.so.2.10.4"
B 0 "7f0cd42d7000-7f0cd42e5000 0 /usr/lib64/liblber-2.4.so.2.10.4"
B 0 "7f0cd44e6000-7f0cd452c000 0 /usr/lib64/libgssapi_krb5.so.2.2"
B 0 "7f0cd472f000-7f0cd495c000 0 /lib64/libcrypto.so.1.0.0"
B 0 "7f0cd4b89000-7f0cd4bea000 0 /lib64/libssl.so.1.0.0"
B 0 "7f0cd4df5000-7f0cd4e1f000 0 /usr/lib64/libssh2.so.1.0.1"
B 0 "7f0cd5021000-7f0cd5053000 0 /usr/lib64/libidn.so.11.6.11"
B 0 "7f0cd5255000-7f0cd5293000 0 /usr/lib64/libquadmath.so.0.0.0"
B 0 "7f0cd5495000-7f0cd5500000 0 /gpfs/apps/MN4/INTEL/2018.4.057/compilers_and_libraries_2018.5.274/linux/compiler/lib/intel64_lin/libirc.so"
B 0 "7f0cd5703000-7f0cd587e000 0 /usr/lib64/libstdc++.so.6.0.24"
B 0 "7f0cd5a8c000-7f0cd5bc4000 0 /usr/lib64/libX11.so.6.3.0"
B 0 "7f0cd5dca000-7f0cd7d80000 0 /gpfs/apps/MN4/INTEL/2018.4.057/compilers_and_libraries_2018.5.274/linux/mkl/lib/intel64_lin/libmkl_intel_thread.so"
B 0 "7f0cd81f5000-7f0cd8356000 0 /gpfs/apps/MN4/INTEL/2018.4.057/compilers_and_libraries_2018.5.274/linux/compiler/lib/intel64_lin/libirng.so"
B 0 "7f0cd8569000-7f0cd85d6000 0 /usr/lib64/libcurl.so.4.3.0"
B 0 "7f0cd87da000-7f0cd87ef000 0 /lib64/libz.so.1.2.8"
B 0 "7f0cd89f0000-7f0cd8a05000 0 /gpfs/apps/MN4/SZIP/2.1.1/INTEL/lib/libsz.so.2.0.0"
B 0 "7f0cd8c0f000-7f0cd8fdd000 0 /gpfs/apps/MN4/HDF5/1.8.19/INTEL/IMPI/lib/libhdf5.so.10.3.0"
B 0 "7f0cd91eb000-7f0cd9210000 0 /gpfs/apps/MN4/HDF5/1.8.19/INTEL/IMPI/lib/libhdf5_hl.so.10.2.0"
B 0 "7f0cd9413000-7f0cd9547000 0 /gpfs/apps/MN4/BSCTOOLS/deps/binutils/2.38/lib/libbfd-2.38.so"
B 0 "7f0cd975f000-7f0cd98cc000 0 /gpfs/apps/MN4/BSCTOOLS/deps/papi/6.0.0/lib/libpfm.so.4.10.1"
B 0 "7f0cd9bc2000-7f0cd9c13000 0 /gpfs/apps/MN4/BSCTOOLS/deps/papi/6.0.0/lib/libpapi.so.6.0.0.0"
B 0 "7f0cd9e23000-7f0cd9e48000 0 /usr/lib64/liblzma.so.5.0.5"
B 0 "7f0cda049000-7f0cda19f000 0 /gpfs/apps/MN4/BSCTOOLS/deps/libxml/2.9.12/lib/libxml2.so.2.9.12"
B 0 "7f0cda3aa000-7f0cda3b7000 0 /gpfs/apps/MN4/BSCTOOLS/deps/libunwind/1.6.2/lib/libunwind.so.8.0.1"
B 0 "7f0cda5c2000-7f0cda5d8000 0 /lib64/libgcc_s.so.1"
B 0 "7f0cda7d9000-7f0cda972000 0 /lib64/libc-2.22.so"
B 0 "7f0cdab7c000-7f0cdabe7000 0 /gpfs/apps/MN4/INTEL/2018.4.057/compilers_and_libraries_2018.5.274/linux/compiler/lib/intel64_lin/libintlc.so.5"
B 0 "7f0cdadea000-7f0cdaf92000 0 /gpfs/apps/MN4/INTEL/2018.4.057/compilers_and_libraries_2018.5.274/linux/compiler/lib/intel64_lin/libiomp5.so"
B 0 "7f0cdb1cd000-7f0cdb2c9000 0 /lib64/libm-2.22.so"
B 0 "7f0cdb4ca000-7f0cdcb55000 0 /gpfs/apps/MN4/INTEL/2018.4.057/compilers_and_libraries_2018.5.274/linux/compiler/lib/intel64_lin/libsvml.so"
B 0 "7f0cdcdd8000-7f0cdd10e000 0 /gpfs/apps/MN4/INTEL/2018.4.057/compilers_and_libraries_2018.5.274/linux/compiler/lib/intel64_lin/libimf.so"
B 0 "7f0cdd36b000-7f0cdd4a7000 0 /gpfs/apps/MN4/INTEL/2018.4.057/compilers_and_libraries_2018.5.274/linux/compiler/lib/intel64_lin/libifcoremt.so.5"
B 0 "7f0cdd6ff000-7f0cdd725000 0 /gpfs/apps/MN4/INTEL/2018.4.057/compilers_and_libraries_2018.5.274/linux/compiler/lib/intel64_lin/libifport.so.5"
B 0 "7f0cdd92b000-7f0cdd943000 0 /lib64/libpthread-2.22.so"
B 0 "7f0cddb48000-7f0cddb4f000 0 /lib64/librt-2.22.so"
B 0 "7f0cddd50000-7f0cddd52000 0 /lib64/libdl-2.22.so"
B 0 "7f0cddf54000-7f0cde608000 0 /gpfs/apps/MN4/INTEL/2018.1.038/compilers_and_libraries_2018.1.163/linux/mpi/intel64/lib/release_mt/libmpi.so.12.0"
B 0 "7f0cdebd9000-7f0cded57000 0 /gpfs/apps/MN4/INTEL/2018.1.038/compilers_and_libraries_2018.1.163/linux/mpi/intel64/lib/libmpifort.so.12.0"
B 0 "7f0cdef82000-7f0cdefc3000 0 /gpfs/apps/MN4/INTEL/2018.4.057/compilers_and_libraries_2018.5.274/linux/mkl/lib/intel64_lin/libmkl_blacs_intelmpi_lp64.so"
B 0 "7f0cdf1c4000-7f0ce2fc8000 0 /gpfs/apps/MN4/INTEL/2018.4.057/compilers_and_libraries_2018.5.274/linux/mkl/lib/intel64_lin/libmkl_core.so"
B 0 "7f0ce3211000-7f0ce44bd000 0 /gpfs/apps/MN4/INTEL/2018.4.057/compilers_and_libraries_2018.5.274/linux/mkl/lib/intel64_lin/libmkl_sequential.so"
B 0 "7f0ce46d6000-7f0ce4d4f000 0 /gpfs/apps/MN4/INTEL/2018.4.057/compilers_and_libraries_2018.5.274/linux/mkl/lib/intel64_lin/libmkl_scalapack_lp64.so"
B 0 "7f0ce4fd7000-7f0ce58ce000 0 /gpfs/apps/MN4/INTEL/2018.4.057/compilers_and_libraries_2018.5.274/linux/mkl/lib/intel64_lin/libmkl_intel_lp64.so"
B 0 "7f0ce5ae7000-7f0ce90e9000 0 /gpfs/projects/bsc99/bsc99520/KNOSOS/petsc-3.16.1-real/lib/libpetsc.so.3.16.1"
B 0 "7f0ce95af000-7f0ce9867000 0 /gpfs/apps/MN4/NETCDF/4.4.1.1/INTEL/IMPI/lib/libnetcdf.so.11.0.4"
B 0 "7f0cecb17000-7f0cecbcb000 0 /gpfs/apps/MN4/NETCDF/4.4.1.1/INTEL/IMPI/lib/libnetcdff.so.6.1.1"
B 0 "7f0cecfa6000-7f0ced0b9000 0 /gpfs/apps/MN4/BSCTOOLS/extrae/4.0.1/impi_2018_1/lib/libmpitracef-4.0.1.so"
B 0 "7f0cedc4a000-7f0cedc6b000 0 /lib64/ld-2.22.so"
