S 2070873665044095
S 2070873666129275
S 2070873733241666
B 0 "400000-51c000 0 /gpfs/projects/bsc99/bsc99520/KNOSOS/knosos/Sources/knosos.x"
B 0 "7fd550426000-7fd550430000 0 /usr/lib64/libnuma.so.1"
B 0 "7fd5737de000-7fd57384c000 0 /usr/lib64/libpcre.so.1.2.7"
B 0 "7fd573a4d000-7fd573a70000 0 /lib64/libselinux.so.1"
B 0 "7fd573c73000-7fd573c76000 0 /lib64/libkeyutils.so.1.5"
B 0 "7fd573e77000-7fd573e7a000 0 /usr/lib64/libXau.so.6.0.0"
B 0 "7fd57407b000-7fd574097000 0 /usr/lib64/libsasl2.so.3.0.0"
B 0 "7fd574298000-7fd5742ac000 0 /lib64/libresolv-2.22.so"
B 0 "7fd5744af000-7fd5744bb000 0 /usr/lib64/libkrb5support.so.0.1"
B 0 "7fd5746bc000-7fd5746bf000 0 /usr/lib64/libcom_err.so.2.1"
B 0 "7fd5748c0000-7fd5748ed000 0 /usr/lib64/libk5crypto.so.3.1"
B 0 "7fd574af0000-7fd574bb2000 0 /usr/lib64/libkrb5.so.3.3"
B 0 "7fd574dc1000-7fd574de0000 0 /usr/lib64/libxcb.so.1.1.0"
B 0 "7fd574fe1000-7fd57502b000 0 /usr/lib64/libldap-2.4.so.2.10.4"
B 0 "7fd57522e000-7fd57523c000 0 /usr/lib64/liblber-2.4.so.2.10.4"
B 0 "7fd57543d000-7fd575483000 0 /usr/lib64/libgssapi_krb5.so.2.2"
B 0 "7fd575686000-7fd5758b3000 0 /lib64/libcrypto.so.1.0.0"
B 0 "7fd575ae0000-7fd575b41000 0 /lib64/libssl.so.1.0.0"
B 0 "7fd575d4c000-7fd575d76000 0 /usr/lib64/libssh2.so.1.0.1"
B 0 "7fd575f78000-7fd575faa000 0 /usr/lib64/libidn.so.11.6.11"
B 0 "7fd5761ac000-7fd5761ea000 0 /usr/lib64/libquadmath.so.0.0.0"
B 0 "7fd5763ec000-7fd576457000 0 /gpfs/apps/MN4/INTEL/2018.4.057/compilers_and_libraries_2018.5.274/linux/compiler/lib/intel64_lin/libirc.so"
B 0 "7fd57665a000-7fd5767d5000 0 /usr/lib64/libstdc++.so.6.0.24"
B 0 "7fd5769e3000-7fd576b1b000 0 /usr/lib64/libX11.so.6.3.0"
B 0 "7fd576d21000-7fd578cd7000 0 /gpfs/apps/MN4/INTEL/2018.4.057/compilers_and_libraries_2018.5.274/linux/mkl/lib/intel64_lin/libmkl_intel_thread.so"
B 0 "7fd57914c000-7fd5792ad000 0 /gpfs/apps/MN4/INTEL/2018.4.057/compilers_and_libraries_2018.5.274/linux/compiler/lib/intel64_lin/libirng.so"
B 0 "7fd5794c0000-7fd57952d000 0 /usr/lib64/libcurl.so.4.3.0"
B 0 "7fd579731000-7fd579746000 0 /lib64/libz.so.1.2.8"
B 0 "7fd579947000-7fd57995c000 0 /gpfs/apps/MN4/SZIP/2.1.1/INTEL/lib/libsz.so.2.0.0"
B 0 "7fd579b66000-7fd579f34000 0 /gpfs/apps/MN4/HDF5/1.8.19/INTEL/IMPI/lib/libhdf5.so.10.3.0"
B 0 "7fd57a142000-7fd57a167000 0 /gpfs/apps/MN4/HDF5/1.8.19/INTEL/IMPI/lib/libhdf5_hl.so.10.2.0"
B 0 "7fd57a36a000-7fd57a49e000 0 /gpfs/apps/MN4/BSCTOOLS/deps/binutils/2.38/lib/libbfd-2.38.so"
B 0 "7fd57a6b6000-7fd57a823000 0 /gpfs/apps/MN4/BSCTOOLS/deps/papi/6.0.0/lib/libpfm.so.4.10.1"
B 0 "7fd57ab19000-7fd57ab6a000 0 /gpfs/apps/MN4/BSCTOOLS/deps/papi/6.0.0/lib/libpapi.so.6.0.0.0"
B 0 "7fd57ad7a000-7fd57ad9f000 0 /usr/lib64/liblzma.so.5.0.5"
B 0 "7fd57afa0000-7fd57b0f6000 0 /gpfs/apps/MN4/BSCTOOLS/deps/libxml/2.9.12/lib/libxml2.so.2.9.12"
B 0 "7fd57b301000-7fd57b30e000 0 /gpfs/apps/MN4/BSCTOOLS/deps/libunwind/1.6.2/lib/libunwind.so.8.0.1"
B 0 "7fd57b519000-7fd57b52f000 0 /lib64/libgcc_s.so.1"
B 0 "7fd57b730000-7fd57b8c9000 0 /lib64/libc-2.22.so"
B 0 "7fd57bad3000-7fd57bb3e000 0 /gpfs/apps/MN4/INTEL/2018.4.057/compilers_and_libraries_2018.5.274/linux/compiler/lib/intel64_lin/libintlc.so.5"
B 0 "7fd57bd41000-7fd57bee9000 0 /gpfs/apps/MN4/INTEL/2018.4.057/compilers_and_libraries_2018.5.274/linux/compiler/lib/intel64_lin/libiomp5.so"
B 0 "7fd57c124000-7fd57c220000 0 /lib64/libm-2.22.so"
B 0 "7fd57c421000-7fd57daac000 0 /gpfs/apps/MN4/INTEL/2018.4.057/compilers_and_libraries_2018.5.274/linux/compiler/lib/intel64_lin/libsvml.so"
B 0 "7fd57dd2f000-7fd57e065000 0 /gpfs/apps/MN4/INTEL/2018.4.057/compilers_and_libraries_2018.5.274/linux/compiler/lib/intel64_lin/libimf.so"
B 0 "7fd57e2c2000-7fd57e3fe000 0 /gpfs/apps/MN4/INTEL/2018.4.057/compilers_and_libraries_2018.5.274/linux/compiler/lib/intel64_lin/libifcoremt.so.5"
B 0 "7fd57e656000-7fd57e67c000 0 /gpfs/apps/MN4/INTEL/2018.4.057/compilers_and_libraries_2018.5.274/linux/compiler/lib/intel64_lin/libifport.so.5"
B 0 "7fd57e882000-7fd57e89a000 0 /lib64/libpthread-2.22.so"
B 0 "7fd57ea9f000-7fd57eaa6000 0 /lib64/librt-2.22.so"
B 0 "7fd57eca7000-7fd57eca9000 0 /lib64/libdl-2.22.so"
B 0 "7fd57eeab000-7fd57f55f000 0 /gpfs/apps/MN4/INTEL/2018.1.038/compilers_and_libraries_2018.1.163/linux/mpi/intel64/lib/release_mt/libmpi.so.12.0"
B 0 "7fd57fb30000-7fd57fcae000 0 /gpfs/apps/MN4/INTEL/2018.1.038/compilers_and_libraries_2018.1.163/linux/mpi/intel64/lib/libmpifort.so.12.0"
B 0 "7fd57fed9000-7fd57ff1a000 0 /gpfs/apps/MN4/INTEL/2018.4.057/compilers_and_libraries_2018.5.274/linux/mkl/lib/intel64_lin/libmkl_blacs_intelmpi_lp64.so"
B 0 "7fd58011b000-7fd583f1f000 0 /gpfs/apps/MN4/INTEL/2018.4.057/compilers_and_libraries_2018.5.274/linux/mkl/lib/intel64_lin/libmkl_core.so"
B 0 "7fd584168000-7fd585414000 0 /gpfs/apps/MN4/INTEL/2018.4.057/compilers_and_libraries_2018.5.274/linux/mkl/lib/intel64_lin/libmkl_sequential.so"
B 0 "7fd58562d000-7fd585ca6000 0 /gpfs/apps/MN4/INTEL/2018.4.057/compilers_and_libraries_2018.5.274/linux/mkl/lib/intel64_lin/libmkl_scalapack_lp64.so"
B 0 "7fd585f2e000-7fd586825000 0 /gpfs/apps/MN4/INTEL/2018.4.057/compilers_and_libraries_2018.5.274/linux/mkl/lib/intel64_lin/libmkl_intel_lp64.so"
B 0 "7fd586a3e000-7fd58a040000 0 /gpfs/projects/bsc99/bsc99520/KNOSOS/petsc-3.16.1-real/lib/libpetsc.so.3.16.1"
B 0 "7fd58a506000-7fd58a7be000 0 /gpfs/apps/MN4/NETCDF/4.4.1.1/INTEL/IMPI/lib/libnetcdf.so.11.0.4"
B 0 "7fd58da6e000-7fd58db22000 0 /gpfs/apps/MN4/NETCDF/4.4.1.1/INTEL/IMPI/lib/libnetcdff.so.6.1.1"
B 0 "7fd58defd000-7fd58e010000 0 /gpfs/apps/MN4/BSCTOOLS/extrae/4.0.1/impi_2018_1/lib/libmpitracef-4.0.1.so"
B 0 "7fd58eba1000-7fd58ebc2000 0 /lib64/ld-2.22.so"
