S 2223440183416122
S 2223440185551248
S 2223440262576464
B 0 "400000-51c000 0 /gpfs/projects/bsc99/bsc99206/KNOSOS/knosos/Sources/knosos.x"
B 0 "7f15febc0000-7f15febca000 0 /usr/lib64/libnuma.so.1"
B 0 "7f1621f78000-7f1621fe6000 0 /usr/lib64/libpcre.so.1.2.7"
B 0 "7f16221e7000-7f162220a000 0 /lib64/libselinux.so.1"
B 0 "7f162240d000-7f1622410000 0 /lib64/libkeyutils.so.1.5"
B 0 "7f1622611000-7f1622614000 0 /usr/lib64/libXau.so.6.0.0"
B 0 "7f1622815000-7f1622831000 0 /usr/lib64/libsasl2.so.3.0.0"
B 0 "7f1622a32000-7f1622a46000 0 /lib64/libresolv-2.22.so"
B 0 "7f1622c49000-7f1622c55000 0 /usr/lib64/libkrb5support.so.0.1"
B 0 "7f1622e56000-7f1622e59000 0 /usr/lib64/libcom_err.so.2.1"
B 0 "7f162305a000-7f1623087000 0 /usr/lib64/libk5crypto.so.3.1"
B 0 "7f162328a000-7f162334c000 0 /usr/lib64/libkrb5.so.3.3"
B 0 "7f162355b000-7f162357a000 0 /usr/lib64/libxcb.so.1.1.0"
B 0 "7f162377b000-7f16237c5000 0 /usr/lib64/libldap-2.4.so.2.10.4"
B 0 "7f16239c8000-7f16239d6000 0 /usr/lib64/liblber-2.4.so.2.10.4"
B 0 "7f1623bd7000-7f1623c1d000 0 /usr/lib64/libgssapi_krb5.so.2.2"
B 0 "7f1623e20000-7f162404d000 0 /lib64/libcrypto.so.1.0.0"
B 0 "7f162427a000-7f16242db000 0 /lib64/libssl.so.1.0.0"
B 0 "7f16244e6000-7f1624510000 0 /usr/lib64/libssh2.so.1.0.1"
B 0 "7f1624712000-7f1624744000 0 /usr/lib64/libidn.so.11.6.11"
B 0 "7f1624946000-7f1624984000 0 /usr/lib64/libquadmath.so.0.0.0"
B 0 "7f1624b86000-7f1624bf1000 0 /gpfs/apps/MN4/INTEL/2018.4.057/compilers_and_libraries_2018.5.274/linux/compiler/lib/intel64_lin/libirc.so"
B 0 "7f1624df4000-7f1624f6f000 0 /usr/lib64/libstdc++.so.6.0.24"
B 0 "7f162517d000-7f16252b5000 0 /usr/lib64/libX11.so.6.3.0"
B 0 "7f16254bb000-7f1627471000 0 /gpfs/apps/MN4/INTEL/2018.4.057/compilers_and_libraries_2018.5.274/linux/mkl/lib/intel64_lin/libmkl_intel_thread.so"
B 0 "7f16278e6000-7f1627a47000 0 /gpfs/apps/MN4/INTEL/2018.4.057/compilers_and_libraries_2018.5.274/linux/compiler/lib/intel64_lin/libirng.so"
B 0 "7f1627c5a000-7f1627cc7000 0 /usr/lib64/libcurl.so.4.3.0"
B 0 "7f1627ecb000-7f1627ee0000 0 /lib64/libz.so.1.2.8"
B 0 "7f16280e1000-7f16280f6000 0 /gpfs/apps/MN4/SZIP/2.1.1/INTEL/lib/libsz.so.2.0.0"
B 0 "7f1628300000-7f16286ce000 0 /gpfs/apps/MN4/HDF5/1.8.19/INTEL/IMPI/lib/libhdf5.so.10.3.0"
B 0 "7f16288dc000-7f1628901000 0 /gpfs/apps/MN4/HDF5/1.8.19/INTEL/IMPI/lib/libhdf5_hl.so.10.2.0"
B 0 "7f1628b04000-7f1628c38000 0 /gpfs/apps/MN4/BSCTOOLS/deps/binutils/2.38/lib/libbfd-2.38.so"
B 0 "7f1628e50000-7f1628fbd000 0 /gpfs/apps/MN4/BSCTOOLS/deps/papi/6.0.0/lib/libpfm.so.4.10.1"
B 0 "7f16292b3000-7f1629304000 0 /gpfs/apps/MN4/BSCTOOLS/deps/papi/6.0.0/lib/libpapi.so.6.0.0.0"
B 0 "7f1629514000-7f1629539000 0 /usr/lib64/liblzma.so.5.0.5"
B 0 "7f162973a000-7f1629890000 0 /gpfs/apps/MN4/BSCTOOLS/deps/libxml/2.9.12/lib/libxml2.so.2.9.12"
B 0 "7f1629a9b000-7f1629aa8000 0 /gpfs/apps/MN4/BSCTOOLS/deps/libunwind/1.6.2/lib/libunwind.so.8.0.1"
B 0 "7f1629cb3000-7f1629cc9000 0 /lib64/libgcc_s.so.1"
B 0 "7f1629eca000-7f162a063000 0 /lib64/libc-2.22.so"
B 0 "7f162a26d000-7f162a2d8000 0 /gpfs/apps/MN4/INTEL/2018.4.057/compilers_and_libraries_2018.5.274/linux/compiler/lib/intel64_lin/libintlc.so.5"
B 0 "7f162a4db000-7f162a683000 0 /gpfs/apps/MN4/INTEL/2018.4.057/compilers_and_libraries_2018.5.274/linux/compiler/lib/intel64_lin/libiomp5.so"
B 0 "7f162a8be000-7f162a9ba000 0 /lib64/libm-2.22.so"
B 0 "7f162abbb000-7f162c246000 0 /gpfs/apps/MN4/INTEL/2018.4.057/compilers_and_libraries_2018.5.274/linux/compiler/lib/intel64_lin/libsvml.so"
B 0 "7f162c4c9000-7f162c7ff000 0 /gpfs/apps/MN4/INTEL/2018.4.057/compilers_and_libraries_2018.5.274/linux/compiler/lib/intel64_lin/libimf.so"
B 0 "7f162ca5c000-7f162cb98000 0 /gpfs/apps/MN4/INTEL/2018.4.057/compilers_and_libraries_2018.5.274/linux/compiler/lib/intel64_lin/libifcoremt.so.5"
B 0 "7f162cdf0000-7f162ce16000 0 /gpfs/apps/MN4/INTEL/2018.4.057/compilers_and_libraries_2018.5.274/linux/compiler/lib/intel64_lin/libifport.so.5"
B 0 "7f162d01c000-7f162d034000 0 /lib64/libpthread-2.22.so"
B 0 "7f162d239000-7f162d240000 0 /lib64/librt-2.22.so"
B 0 "7f162d441000-7f162d443000 0 /lib64/libdl-2.22.so"
B 0 "7f162d645000-7f162dcf9000 0 /gpfs/apps/MN4/INTEL/2018.1.038/compilers_and_libraries_2018.1.163/linux/mpi/intel64/lib/release_mt/libmpi.so.12.0"
B 0 "7f162e2ca000-7f162e448000 0 /gpfs/apps/MN4/INTEL/2018.1.038/compilers_and_libraries_2018.1.163/linux/mpi/intel64/lib/libmpifort.so.12.0"
B 0 "7f162e673000-7f162e6b4000 0 /gpfs/apps/MN4/INTEL/2018.4.057/compilers_and_libraries_2018.5.274/linux/mkl/lib/intel64_lin/libmkl_blacs_intelmpi_lp64.so"
B 0 "7f162e8b5000-7f16326b9000 0 /gpfs/apps/MN4/INTEL/2018.4.057/compilers_and_libraries_2018.5.274/linux/mkl/lib/intel64_lin/libmkl_core.so"
B 0 "7f1632902000-7f1633bae000 0 /gpfs/apps/MN4/INTEL/2018.4.057/compilers_and_libraries_2018.5.274/linux/mkl/lib/intel64_lin/libmkl_sequential.so"
B 0 "7f1633dc7000-7f1634440000 0 /gpfs/apps/MN4/INTEL/2018.4.057/compilers_and_libraries_2018.5.274/linux/mkl/lib/intel64_lin/libmkl_scalapack_lp64.so"
B 0 "7f16346c8000-7f1634fbf000 0 /gpfs/apps/MN4/INTEL/2018.4.057/compilers_and_libraries_2018.5.274/linux/mkl/lib/intel64_lin/libmkl_intel_lp64.so"
B 0 "7f16351d8000-7f16387da000 0 /gpfs/projects/bsc99/bsc99520/KNOSOS/petsc-3.16.1-real/lib/libpetsc.so.3.16.1"
B 0 "7f1638ca0000-7f1638f58000 0 /gpfs/apps/MN4/NETCDF/4.4.1.1/INTEL/IMPI/lib/libnetcdf.so.11.0.4"
B 0 "7f163c208000-7f163c2bc000 0 /gpfs/apps/MN4/NETCDF/4.4.1.1/INTEL/IMPI/lib/libnetcdff.so.6.1.1"
B 0 "7f163c697000-7f163c7aa000 0 /gpfs/apps/MN4/BSCTOOLS/extrae/4.0.1/impi_2018_1/lib/libmpitracef-4.0.1.so"
B 0 "7f163d33b000-7f163d35c000 0 /lib64/ld-2.22.so"
