s \zeta_{Boozer}  \theta_{Boozer}(right-handed)  B[T]  (v_B.\nabla\psi)[A.U.]
  5.00000E-01  0.00000E+00  0.00000E+00  2.33363E+00  0.00000E+00 F
  5.00000E-01  0.00000E+00  1.96350E-01  2.33866E+00 -2.29037E-02 F
  5.00000E-01  0.00000E+00  3.92699E-01  2.35515E+00 -4.78167E-02 F
  5.00000E-01  0.00000E+00  5.89049E-01  2.38158E+00 -6.46235E-02 F
  5.00000E-01  0.00000E+00  7.85398E-01  2.41508E+00 -7.70391E-02 F
  5.00000E-01  0.00000E+00  9.81748E-01  2.45353E+00 -8.21873E-02 F
  5.00000E-01  0.00000E+00  1.17810E+00  2.49290E+00 -7.89455E-02 F
  5.00000E-01  0.00000E+00  1.37445E+00  2.53012E+00 -7.17542E-02 F
  5.00000E-01  0.00000E+00  1.57080E+00  2.56441E+00 -6.60240E-02 F
  5.00000E-01  0.00000E+00  1.76715E+00  2.59706E+00 -6.28816E-02 F
  5.00000E-01  0.00000E+00  1.96350E+00  2.62835E+00 -5.89537E-02 F
  5.00000E-01  0.00000E+00  2.15985E+00  2.65772E+00 -5.39402E-02 F
  5.00000E-01  0.00000E+00  2.35619E+00  2.68427E+00 -4.71123E-02 F
  5.00000E-01  0.00000E+00  2.55254E+00  2.70724E+00 -3.95343E-02 F
  5.00000E-01  0.00000E+00  2.74889E+00  2.72589E+00 -2.99133E-02 F
  5.00000E-01  0.00000E+00  2.94524E+00  2.73864E+00 -1.69714E-02 F
  5.00000E-01  0.00000E+00  3.14159E+00  2.74336E+00  8.07013E-09 F
  5.00000E-01  0.00000E+00  3.33794E+00  2.73864E+00  1.69714E-02 F
  5.00000E-01  0.00000E+00  3.53429E+00  2.72589E+00  2.99133E-02 F
  5.00000E-01  0.00000E+00  3.73064E+00  2.70724E+00  3.95343E-02 F
  5.00000E-01  0.00000E+00  3.92699E+00  2.68427E+00  4.71123E-02 F
  5.00000E-01  0.00000E+00  4.12334E+00  2.65772E+00  5.39402E-02 F
  5.00000E-01  0.00000E+00  4.31969E+00  2.62835E+00  5.89538E-02 F
  5.00000E-01  0.00000E+00  4.51604E+00  2.59706E+00  6.28816E-02 F
  5.00000E-01  0.00000E+00  4.71239E+00  2.56441E+00  6.60240E-02 F
  5.00000E-01  0.00000E+00  4.90874E+00  2.53012E+00  7.17542E-02 F
  5.00000E-01  0.00000E+00  5.10509E+00  2.49290E+00  7.89455E-02 F
  5.00000E-01  0.00000E+00  5.30144E+00  2.45353E+00  8.21873E-02 F
  5.00000E-01  0.00000E+00  5.49779E+00  2.41508E+00  7.70391E-02 F
  5.00000E-01  0.00000E+00  5.69414E+00  2.38158E+00  6.46234E-02 F
  5.00000E-01  0.00000E+00  5.89049E+00  2.35515E+00  4.78167E-02 F
  5.00000E-01  0.00000E+00  6.08684E+00  2.33866E+00  2.29037E-02 F
  5.00000E-01  3.92699E-02  0.00000E+00  2.34838E+00 -1.46782E-02 F
  5.00000E-01  3.92699E-02  1.96350E-01  2.36038E+00 -3.79467E-02 F
  5.00000E-01  3.92699E-02  3.92699E-01  2.38344E+00 -5.96469E-02 F
  5.00000E-01  3.92699E-02  5.89049E-01  2.41469E+00 -7.18312E-02 F
  5.00000E-01  3.92699E-02  7.85398E-01  2.45099E+00 -7.94888E-02 F
  5.00000E-01  3.92699E-02  9.81748E-01  2.49027E+00 -8.12119E-02 F
  5.00000E-01  3.92699E-02  1.17810E+00  2.52930E+00 -7.63322E-02 F
  5.00000E-01  3.92699E-02  1.37445E+00  2.56557E+00 -6.87657E-02 F
  5.00000E-01  3.92699E-02  1.57080E+00  2.59898E+00 -6.34735E-02 F
  5.00000E-01  3.92699E-02  1.76715E+00  2.63039E+00 -5.86548E-02 F
  5.00000E-01  3.92699E-02  1.96350E+00  2.65938E+00 -5.29012E-02 F
  5.00000E-01  3.92699E-02  2.15985E+00  2.68537E+00 -4.58183E-02 F
  5.00000E-01  3.92699E-02  2.35619E+00  2.70738E+00 -3.72460E-02 F
  5.00000E-01  3.92699E-02  2.55254E+00  2.72489E+00 -2.81721E-02 F
  5.00000E-01  3.92699E-02  2.74889E+00  2.73699E+00 -1.64150E-02 F
  5.00000E-01  3.92699E-02  2.94524E+00  2.74190E+00 -1.18498E-03 F
  5.00000E-01  3.92699E-02  3.14159E+00  2.73762E+00  1.73052E-02 F
  5.00000E-01  3.92699E-02  3.33794E+00  2.72383E+00  3.31324E-02 F
  5.00000E-01  3.92699E-02  3.53429E+00  2.70333E+00  4.29081E-02 F
  5.00000E-01  3.92699E-02  3.73064E+00  2.67913E+00  4.80955E-02 F
  5.00000E-01  3.92699E-02  3.92699E+00  2.65310E+00  5.13112E-02 F
  5.00000E-01  3.92699E-02  4.12334E+00  2.62567E+00  5.45298E-02 F
  5.00000E-01  3.92699E-02  4.31969E+00  2.59688E+00  5.77709E-02 F
  5.00000E-01  3.92699E-02  4.51604E+00  2.56687E+00  6.04105E-02 F
  5.00000E-01  3.92699E-02  4.71239E+00  2.53609E+00  6.27071E-02 F
  5.00000E-01  3.92699E-02  4.90874E+00  2.50402E+00  6.71607E-02 F
  5.00000E-01  3.92699E-02  5.10509E+00  2.47025E+00  7.07338E-02 F
  5.00000E-01  3.92699E-02  5.30144E+00  2.43590E+00  7.10522E-02 F
  5.00000E-01  3.92699E-02  5.49779E+00  2.40364E+00  6.32170E-02 F
  5.00000E-01  3.92699E-02  5.69414E+00  2.37687E+00  5.07901E-02 F
  5.00000E-01  3.92699E-02  5.89049E+00  2.35672E+00  3.42449E-02 F
  5.00000E-01  3.92699E-02  6.08684E+00  2.34673E+00  8.39816E-03 F
  5.00000E-01  7.85398E-02  0.00000E+00  2.34301E+00 -2.22105E-02 F
  5.00000E-01  7.85398E-02  1.96350E-01  2.35961E+00 -5.05874E-02 F
  5.00000E-01  7.85398E-02  3.92699E-01  2.38945E+00 -7.53359E-02 F
  5.00000E-01  7.85398E-02  5.89049E-01  2.42829E+00 -8.71731E-02 F
  5.00000E-01  7.85398E-02  7.85398E-01  2.47142E+00 -9.09789E-02 F
  5.00000E-01  7.85398E-02  9.81748E-01  2.51533E+00 -8.70749E-02 F
  5.00000E-01  7.85398E-02  1.17810E+00  2.55634E+00 -7.71090E-02 F
  5.00000E-01  7.85398E-02  1.37445E+00  2.59271E+00 -6.73466E-02 F
  5.00000E-01  7.85398E-02  1.57080E+00  2.62542E+00 -6.05290E-02 F
  5.00000E-01  7.85398E-02  1.76715E+00  2.65492E+00 -5.30541E-02 F
  5.00000E-01  7.85398E-02  1.96350E+00  2.68054E+00 -4.45749E-02 F
  5.00000E-01  7.85398E-02  2.15985E+00  2.70146E+00 -3.43484E-02 F
  5.00000E-01  7.85398E-02  2.35619E+00  2.71706E+00 -2.46603E-02 F
  5.00000E-01  7.85398E-02  2.55254E+00  2.72791E+00 -1.57575E-02 F
  5.00000E-01  7.85398E-02  2.74889E+00  2.73345E+00 -4.33230E-03 F
  5.00000E-01  7.85398E-02  2.94524E+00  2.73175E+00  1.15448E-02 F
  5.00000E-01  7.85398E-02  3.14159E+00  2.72046E+00  3.05589E-02 F
  5.00000E-01  7.85398E-02  3.33794E+00  2.69999E+00  4.52233E-02 F
  5.00000E-01  7.85398E-02  3.53429E+00  2.67377E+00  5.31506E-02 F
  5.00000E-01  7.85398E-02  3.73064E+00  2.64518E+00  5.56163E-02 F
  5.00000E-01  7.85398E-02  3.92699E+00  2.61636E+00  5.60009E-02 F
  5.00000E-01  7.85398E-02  4.12334E+00  2.58747E+00  5.73472E-02 F
  5.00000E-01  7.85398E-02  4.31969E+00  2.55785E+00  6.00870E-02 F
  5.00000E-01  7.85398E-02  4.51604E+00  2.52717E+00  6.26658E-02 F
  5.00000E-01  7.85398E-02  4.71239E+00  2.49563E+00  6.53804E-02 F
  5.00000E-01  7.85398E-02  4.90874E+00  2.46331E+00  6.67898E-02 F
  5.00000E-01  7.85398E-02  5.10509E+00  2.43165E+00  6.45682E-02 F
  5.00000E-01  7.85398E-02  5.30144E+00  2.40213E+00  5.87550E-02 F
  5.00000E-01  7.85398E-02  5.49779E+00  2.37738E+00  4.61375E-02 F
  5.00000E-01  7.85398E-02  5.69414E+00  2.35843E+00  3.63756E-02 F
  5.00000E-01  7.85398E-02  5.89049E+00  2.34406E+00  2.38651E-02 F
  5.00000E-01  7.85398E-02  6.08684E+00  2.33818E+00  1.00645E-03 F
  5.00000E-01  1.17810E-01  0.00000E+00  2.31578E+00 -3.21889E-02 F
  5.00000E-01  1.17810E-01  1.96350E-01  2.33771E+00 -6.46538E-02 F
  5.00000E-01  1.17810E-01  3.92699E-01  2.37429E+00 -9.09625E-02 F
  5.00000E-01  1.17810E-01  5.89049E-01  2.42029E+00 -1.02418E-01 F
  5.00000E-01  1.17810E-01  7.85398E-01  2.47006E+00 -1.03252E-01 F
  5.00000E-01  1.17810E-01  9.81748E-01  2.51882E+00 -9.44721E-02 F
  5.00000E-01  1.17810E-01  1.17810E+00  2.56259E+00 -8.09330E-02 F
  5.00000E-01  1.17810E-01  1.37445E+00  2.60071E+00 -7.02394E-02 F
  5.00000E-01  1.17810E-01  1.57080E+00  2.63469E+00 -6.19128E-02 F
  5.00000E-01  1.17810E-01  1.76715E+00  2.66447E+00 -5.23456E-02 F
  5.00000E-01  1.17810E-01  1.96350E+00  2.68900E+00 -4.03955E-02 F
  5.00000E-01  1.17810E-01  2.15985E+00  2.70651E+00 -2.55960E-02 F
  5.00000E-01  1.17810E-01  2.35619E+00  2.71659E+00 -1.28677E-02 F
  5.00000E-01  1.17810E-01  2.55254E+00  2.72059E+00 -2.17853E-03 F
  5.00000E-01  1.17810E-01  2.74889E+00  2.71875E+00  9.45285E-03 F
  5.00000E-01  1.17810E-01  2.94524E+00  2.70988E+00  2.44652E-02 F
  5.00000E-01  1.17810E-01  3.14159E+00  2.69257E+00  4.03686E-02 F
  5.00000E-01  1.17810E-01  3.33794E+00  2.66812E+00  5.16246E-02 F
  5.00000E-01  1.17810E-01  3.53429E+00  2.63942E+00  5.76720E-02 F
  5.00000E-01  1.17810E-01  3.73064E+00  2.60919E+00  5.91619E-02 F
  5.00000E-01  1.17810E-01  3.92699E+00  2.57892E+00  5.98563E-02 F
  5.00000E-01  1.17810E-01  4.12334E+00  2.54834E+00  6.18897E-02 F
  5.00000E-01  1.17810E-01  4.31969E+00  2.51681E+00  6.50047E-02 F
  5.00000E-01  1.17810E-01  4.51604E+00  2.48403E+00  6.86848E-02 F
  5.00000E-01  1.17810E-01  4.71239E+00  2.44975E+00  7.26266E-02 F
  5.00000E-01  1.17810E-01  4.90874E+00  2.41489E+00  7.23843E-02 F
  5.00000E-01  1.17810E-01  5.10509E+00  2.38179E+00  6.75534E-02 F
  5.00000E-01  1.17810E-01  5.30144E+00  2.35278E+00  5.54293E-02 F
  5.00000E-01  1.17810E-01  5.49779E+00  2.33162E+00  3.70337E-02 F
  5.00000E-01  1.17810E-01  5.69414E+00  2.31734E+00  2.67689E-02 F
  5.00000E-01  1.17810E-01  5.89049E+00  2.30786E+00  1.29569E-02 F
  5.00000E-01  1.17810E-01  6.08684E+00  2.30682E+00 -8.51833E-03 F
  5.00000E-01  1.57080E-01  0.00000E+00  2.33489E+00 -4.51993E-02 F
  5.00000E-01  1.57080E-01  1.96350E-01  2.36159E+00 -7.03984E-02 F
  5.00000E-01  1.57080E-01  3.92699E-01  2.39883E+00 -8.68275E-02 F
  5.00000E-01  1.57080E-01  5.89049E-01  2.44190E+00 -9.32618E-02 F
  5.00000E-01  1.57080E-01  7.85398E-01  2.48724E+00 -9.28792E-02 F
  5.00000E-01  1.57080E-01  9.81748E-01  2.53138E+00 -8.53407E-02 F
  5.00000E-01  1.57080E-01  1.17810E+00  2.57160E+00 -7.54401E-02 F
  5.00000E-01  1.57080E-01  1.37445E+00  2.60794E+00 -6.78156E-02 F
  5.00000E-01  1.57080E-01  1.57080E+00  2.64097E+00 -6.00586E-02 F
  5.00000E-01  1.57080E-01  1.76715E+00  2.66981E+00 -5.01255E-02 F
  5.00000E-01  1.57080E-01  1.96350E+00  2.69261E+00 -3.54798E-02 F
  5.00000E-01  1.57080E-01  2.15985E+00  2.70657E+00 -1.71704E-02 F
  5.00000E-01  1.57080E-01  2.35619E+00  2.71128E+00 -1.02730E-03 F
  5.00000E-01  1.57080E-01  2.55254E+00  2.70803E+00  1.30106E-02 F
  5.00000E-01  1.57080E-01  2.74889E+00  2.69763E+00  2.61458E-02 F
  5.00000E-01  1.57080E-01  2.94524E+00  2.68032E+00  3.93195E-02 F
  5.00000E-01  1.57080E-01  3.14159E+00  2.65684E+00  4.94605E-02 F
  5.00000E-01  1.57080E-01  3.33794E+00  2.62965E+00  5.45678E-02 F
  5.00000E-01  1.57080E-01  3.53429E+00  2.60130E+00  5.50749E-02 F
  5.00000E-01  1.57080E-01  3.73064E+00  2.57379E+00  5.33214E-02 F
  5.00000E-01  1.57080E-01  3.92699E+00  2.54696E+00  5.39121E-02 F
  5.00000E-01  1.57080E-01  4.12334E+00  2.51953E+00  5.66185E-02 F
  5.00000E-01  1.57080E-01  4.31969E+00  2.49079E+00  6.03214E-02 F
  5.00000E-01  1.57080E-01  4.51604E+00  2.46050E+00  6.43139E-02 F
  5.00000E-01  1.57080E-01  4.71239E+00  2.42892E+00  6.66448E-02 F
  5.00000E-01  1.57080E-01  4.90874E+00  2.39765E+00  6.48221E-02 F
  5.00000E-01  1.57080E-01  5.10509E+00  2.36821E+00  6.02578E-02 F
  5.00000E-01  1.57080E-01  5.30144E+00  2.34310E+00  4.62966E-02 F
  5.00000E-01  1.57080E-01  5.49779E+00  2.32620E+00  2.84148E-02 F
  5.00000E-01  1.57080E-01  5.69414E+00  2.31601E+00  1.62993E-02 F
  5.00000E-01  1.57080E-01  5.89049E+00  2.31270E+00 -3.31995E-03 F
  5.00000E-01  1.57080E-01  6.08684E+00  2.31920E+00 -2.44579E-02 F
  5.00000E-01  1.96350E-01  0.00000E+00  2.35887E+00 -6.03400E-02 F
  5.00000E-01  1.96350E-01  1.96350E-01  2.39086E+00 -7.54408E-02 F
  5.00000E-01  1.96350E-01  3.92699E-01  2.42815E+00 -8.08410E-02 F
  5.00000E-01  1.96350E-01  5.89049E-01  2.46726E+00 -8.14899E-02 F
  5.00000E-01  1.96350E-01  7.85398E-01  2.50661E+00 -7.90462E-02 F
  5.00000E-01  1.96350E-01  9.81748E-01  2.54450E+00 -7.34427E-02 F
  5.00000E-01  1.96350E-01  1.17810E+00  2.57993E+00 -6.75732E-02 F
  5.00000E-01  1.96350E-01  1.37445E+00  2.61304E+00 -6.22262E-02 F
  5.00000E-01  1.96350E-01  1.57080E+00  2.64344E+00 -5.52047E-02 F
  5.00000E-01  1.96350E-01  1.76715E+00  2.66974E+00 -4.47998E-02 F
  5.00000E-01  1.96350E-01  1.96350E+00  2.68917E+00 -2.80054E-02 F
  5.00000E-01  1.96350E-01  2.15985E+00  2.69877E+00 -8.44422E-03 F
  5.00000E-01  1.96350E-01  2.35619E+00  2.69850E+00  9.13033E-03 F
  5.00000E-01  1.96350E-01  2.55254E+00  2.68939E+00  2.50385E-02 F
  5.00000E-01  1.96350E-01  2.74889E+00  2.67235E+00  3.95195E-02 F
  5.00000E-01  1.96350E-01  2.94524E+00  2.64829E+00  5.19870E-02 F
  5.00000E-01  1.96350E-01  3.14159E+00  2.61930E+00  5.90546E-02 F
  5.00000E-01  1.96350E-01  3.33794E+00  2.58865E+00  5.98422E-02 F
  5.00000E-01  1.96350E-01  3.53429E+00  2.55939E+00  5.53537E-02 F
  5.00000E-01  1.96350E-01  3.73064E+00  2.53289E+00  5.13514E-02 F
  5.00000E-01  1.96350E-01  3.92699E+00  2.50759E+00  5.14346E-02 F
  5.00000E-01  1.96350E-01  4.12334E+00  2.48190E+00  5.37270E-02 F
  5.00000E-01  1.96350E-01  4.31969E+00  2.45503E+00  5.71661E-02 F
  5.00000E-01  1.96350E-01  4.51604E+00  2.42699E+00  5.94602E-02 F
  5.00000E-01  1.96350E-01  4.71239E+00  2.39898E+00  5.79739E-02 F
  5.00000E-01  1.96350E-01  4.90874E+00  2.37287E+00  5.33341E-02 F
  5.00000E-01  1.96350E-01  5.10509E+00  2.34954E+00  4.63377E-02 F
  5.00000E-01  1.96350E-01  5.30144E+00  2.33146E+00  3.11823E-02 F
  5.00000E-01  1.96350E-01  5.49779E+00  2.32082E+00  1.64105E-02 F
  5.00000E-01  1.96350E-01  5.69414E+00  2.31632E+00  2.05190E-03 F
  5.00000E-01  1.96350E-01  5.89049E+00  2.32053E+00 -2.13821E-02 F
  5.00000E-01  1.96350E-01  6.08684E+00  2.33530E+00 -4.21194E-02 F
  5.00000E-01  2.35619E-01  0.00000E+00  2.34726E+00 -7.60622E-02 F
  5.00000E-01  2.35619E-01  1.96350E-01  2.38520E+00 -8.52493E-02 F
  5.00000E-01  2.35619E-01  3.92699E-01  2.42558E+00 -8.46528E-02 F
  5.00000E-01  2.35619E-01  5.89049E-01  2.46522E+00 -8.00840E-02 F
  5.00000E-01  2.35619E-01  7.85398E-01  2.50289E+00 -7.43907E-02 F
  5.00000E-01  2.35619E-01  9.81748E-01  2.53842E+00 -6.93896E-02 F
  5.00000E-01  2.35619E-01  1.17810E+00  2.57218E+00 -6.52794E-02 F
  5.00000E-01  2.35619E-01  1.37445E+00  2.60429E+00 -6.08762E-02 F
  5.00000E-01  2.35619E-01  1.57080E+00  2.63400E+00 -5.40205E-02 F
  5.00000E-01  2.35619E-01  1.76715E+00  2.65914E+00 -4.14761E-02 F
  5.00000E-01  2.35619E-01  1.96350E+00  2.67591E+00 -2.16865E-02 F
  5.00000E-01  2.35619E-01  2.15985E+00  2.68168E+00 -5.96293E-04 F
  5.00000E-01  2.35619E-01  2.35619E+00  2.67709E+00  1.74866E-02 F
  5.00000E-01  2.35619E-01  2.55254E+00  2.66391E+00  3.23020E-02 F
  5.00000E-01  2.35619E-01  2.74889E+00  2.64359E+00  4.56606E-02 F
  5.00000E-01  2.35619E-01  2.94524E+00  2.61676E+00  5.77372E-02 F
  5.00000E-01  2.35619E-01  3.14159E+00  2.58506E+00  6.55353E-02 F
  5.00000E-01  2.35619E-01  3.33794E+00  2.55130E+00  6.72856E-02 F
  5.00000E-01  2.35619E-01  3.53429E+00  2.51849E+00  6.41993E-02 F
  5.00000E-01  2.35619E-01  3.73064E+00  2.48758E+00  6.20280E-02 F
  5.00000E-01  2.35619E-01  3.92699E+00  2.45769E+00  6.11155E-02 F
  5.00000E-01  2.35619E-01  4.12334E+00  2.42848E+00  6.09240E-02 F
  5.00000E-01  2.35619E-01  4.31969E+00  2.39942E+00  6.16341E-02 F
  5.00000E-01  2.35619E-01  4.51604E+00  2.37067E+00  6.06858E-02 F
  5.00000E-01  2.35619E-01  4.71239E+00  2.34354E+00  5.58038E-02 F
  5.00000E-01  2.35619E-01  4.90874E+00  2.31981E+00  4.74688E-02 F
  5.00000E-01  2.35619E-01  5.10509E+00  2.30083E+00  3.51357E-02 F
  5.00000E-01  2.35619E-01  5.30144E+00  2.28883E+00  1.80757E-02 F
  5.00000E-01  2.35619E-01  5.49779E+00  2.28386E+00  4.84854E-03 F
  5.00000E-01  2.35619E-01  5.69414E+00  2.28492E+00 -1.12664E-02 F
  5.00000E-01  2.35619E-01  5.89049E+00  2.29530E+00 -3.53372E-02 F
  5.00000E-01  2.35619E-01  6.08684E+00  2.31647E+00 -5.75595E-02 F
  5.00000E-01  2.74889E-01  0.00000E+00  2.35327E+00 -7.48454E-02 F
  5.00000E-01  2.74889E-01  1.96350E-01  2.38903E+00 -7.74100E-02 F
  5.00000E-01  2.74889E-01  3.92699E-01  2.42503E+00 -7.43833E-02 F
  5.00000E-01  2.74889E-01  5.89049E-01  2.45954E+00 -6.95887E-02 F
  5.00000E-01  2.74889E-01  7.85398E-01  2.49259E+00 -6.68562E-02 F
  5.00000E-01  2.74889E-01  9.81748E-01  2.52528E+00 -6.59236E-02 F
  5.00000E-01  2.74889E-01  1.17810E+00  2.55789E+00 -6.46521E-02 F
  5.00000E-01  2.74889E-01  1.37445E+00  2.58997E+00 -6.18782E-02 F
  5.00000E-01  2.74889E-01  1.57080E+00  2.62001E+00 -5.44176E-02 F
  5.00000E-01  2.74889E-01  1.76715E+00  2.64438E+00 -3.82168E-02 F
  5.00000E-01  2.74889E-01  1.96350E+00  2.65817E+00 -1.39660E-02 F
  5.00000E-01  2.74889E-01  2.15985E+00  2.65884E+00  1.08327E-02 F
  5.00000E-01  2.74889E-01  2.35619E+00  2.64795E+00  2.96932E-02 F
  5.00000E-01  2.74889E-01  2.55254E+00  2.62927E+00  4.15393E-02 F
  5.00000E-01  2.74889E-01  2.74889E+00  2.60554E+00  5.06564E-02 F
  5.00000E-01  2.74889E-01  2.94524E+00  2.57767E+00  5.85473E-02 F
  5.00000E-01  2.74889E-01  3.14159E+00  2.54674E+00  6.39096E-02 F
  5.00000E-01  2.74889E-01  3.33794E+00  2.51446E+00  6.52788E-02 F
  5.00000E-01  2.74889E-01  3.53429E+00  2.48270E+00  6.41740E-02 F
  5.00000E-01  2.74889E-01  3.73064E+00  2.45178E+00  6.34367E-02 F
  5.00000E-01  2.74889E-01  3.92699E+00  2.42183E+00  6.15759E-02 F
  5.00000E-01  2.74889E-01  4.12334E+00  2.39317E+00  5.98288E-02 F
  5.00000E-01  2.74889E-01  4.31969E+00  2.36564E+00  5.77800E-02 F
  5.00000E-01  2.74889E-01  4.51604E+00  2.33976E+00  5.38668E-02 F
  5.00000E-01  2.74889E-01  4.71239E+00  2.31657E+00  4.70776E-02 F
  5.00000E-01  2.74889E-01  4.90874E+00  2.29732E+00  3.74951E-02 F
  5.00000E-01  2.74889E-01  5.10509E+00  2.28329E+00  2.40304E-02 F
  5.00000E-01  2.74889E-01  5.30144E+00  2.27618E+00  7.95788E-03 F
  5.00000E-01  2.74889E-01  5.49779E+00  2.27565E+00 -5.39583E-03 F
  5.00000E-01  2.74889E-01  5.69414E+00  2.28164E+00 -2.26351E-02 F
  5.00000E-01  2.74889E-01  5.89049E+00  2.29670E+00 -4.43811E-02 F
  5.00000E-01  2.74889E-01  6.08684E+00  2.32127E+00 -6.31309E-02 F
  5.00000E-01  3.14159E-01  0.00000E+00  2.37463E+00 -6.04553E-02 F
  5.00000E-01  3.14159E-01  1.96350E-01  2.40216E+00 -5.69711E-02 F
  5.00000E-01  3.14159E-01  3.92699E-01  2.42849E+00 -5.42962E-02 F
  5.00000E-01  3.14159E-01  5.89049E-01  2.45439E+00 -5.45540E-02 F
  5.00000E-01  3.14159E-01  7.85398E-01  2.48182E+00 -5.90320E-02 F
  5.00000E-01  3.14159E-01  9.81748E-01  2.51180E+00 -6.27800E-02 F
  5.00000E-01  3.14159E-01  1.17810E+00  2.54329E+00 -6.36930E-02 F
  5.00000E-01  3.14159E-01  1.37445E+00  2.57482E+00 -6.09661E-02 F
  5.00000E-01  3.14159E-01  1.57080E+00  2.60371E+00 -5.11661E-02 F
  5.00000E-01  3.14159E-01  1.76715E+00  2.62532E+00 -3.12963E-02 F
  5.00000E-01  3.14159E-01  1.96350E+00  2.63444E+00 -3.20199E-03 F
  5.00000E-01  3.14159E-01  2.15985E+00  2.62865E+00  2.47771E-02 F
  5.00000E-01  3.14159E-01  2.35619E+00  2.61034E+00  4.48091E-02 F
  5.00000E-01  3.14159E-01  2.55254E+00  2.58426E+00  5.63824E-02 F
  5.00000E-01  3.14159E-01  2.74889E+00  2.55407E+00  6.24397E-02 F
  5.00000E-01  3.14159E-01  2.94524E+00  2.52253E+00  6.33572E-02 F
  5.00000E-01  3.14159E-01  3.14159E+00  2.49188E+00  6.06899E-02 F
  5.00000E-01  3.14159E-01  3.33794E+00  2.46346E+00  5.60221E-02 F
  5.00000E-01  3.14159E-01  3.53429E+00  2.43749E+00  5.23015E-02 F
  5.00000E-01  3.14159E-01  3.73064E+00  2.41311E+00  5.01696E-02 F
  5.00000E-01  3.14159E-01  3.92699E+00  2.38988E+00  4.86088E-02 F
  5.00000E-01  3.14159E-01  4.12334E+00  2.36722E+00  4.85188E-02 F
  5.00000E-01  3.14159E-01  4.31969E+00  2.34494E+00  4.74626E-02 F
  5.00000E-01  3.14159E-01  4.51604E+00  2.32382E+00  4.42870E-02 F
  5.00000E-01  3.14159E-01  4.71239E+00  2.30498E+00  3.80537E-02 F
  5.00000E-01  3.14159E-01  4.90874E+00  2.28985E+00  2.84179E-02 F
  5.00000E-01  3.14159E-01  5.10509E+00  2.28022E+00  1.34599E-02 F
  5.00000E-01  3.14159E-01  5.30144E+00  2.27834E+00 -5.06365E-03 F
  5.00000E-01  3.14159E-01  5.49779E+00  2.28444E+00 -2.19122E-02 F
  5.00000E-01  3.14159E-01  5.69414E+00  2.29812E+00 -3.90350E-02 F
  5.00000E-01  3.14159E-01  5.89049E+00  2.31943E+00 -5.40660E-02 F
  5.00000E-01  3.14159E-01  6.08684E+00  2.34619E+00 -6.12683E-02 F
  5.00000E-01  3.53429E-01  0.00000E+00  2.37437E+00 -5.06834E-02 F
  5.00000E-01  3.53429E-01  1.96350E-01  2.39614E+00 -4.30314E-02 F
  5.00000E-01  3.53429E-01  3.92699E-01  2.41562E+00 -4.04773E-02 F
  5.00000E-01  3.53429E-01  5.89049E-01  2.43577E+00 -4.54635E-02 F
  5.00000E-01  3.53429E-01  7.85398E-01  2.45991E+00 -5.50095E-02 F
  5.00000E-01  3.53429E-01  9.81748E-01  2.48841E+00 -6.15534E-02 F
  5.00000E-01  3.53429E-01  1.17810E+00  2.51935E+00 -6.35451E-02 F
  5.00000E-01  3.53429E-01  1.37445E+00  2.55032E+00 -5.97395E-02 F
  5.00000E-01  3.53429E-01  1.57080E+00  2.57778E+00 -4.77754E-02 F
  5.00000E-01  3.53429E-01  1.76715E+00  2.59687E+00 -2.56914E-02 F
  5.00000E-01  3.53429E-01  1.96350E+00  2.60264E+00  3.62855E-03 F
  5.00000E-01  3.53429E-01  2.15985E+00  2.59350E+00  3.12244E-02 F
  5.00000E-01  3.53429E-01  2.35619E+00  2.57215E+00  5.17763E-02 F
  5.00000E-01  3.53429E-01  2.55254E+00  2.54228E+00  6.62654E-02 F
  5.00000E-01  3.53429E-01  2.74889E+00  2.50723E+00  7.37239E-02 F
  5.00000E-01  3.53429E-01  2.94524E+00  2.47113E+00  7.27533E-02 F
  5.00000E-01  3.53429E-01  3.14159E+00  2.43753E+00  6.60129E-02 F
  5.00000E-01  3.53429E-01  3.33794E+00  2.40826E+00  5.70352E-02 F
  5.00000E-01  3.53429E-01  3.53429E+00  2.38328E+00  4.95438E-02 F
  5.00000E-01  3.53429E-01  3.73064E+00  2.36161E+00  4.37476E-02 F
  5.00000E-01  3.53429E-01  3.92699E+00  2.34226E+00  4.07152E-02 F
  5.00000E-01  3.53429E-01  4.12334E+00  2.32362E+00  4.09520E-02 F
  5.00000E-01  3.53429E-01  4.31969E+00  2.30486E+00  4.15368E-02 F
  5.00000E-01  3.53429E-01  4.51604E+00  2.28625E+00  4.05072E-02 F
  5.00000E-01  3.53429E-01  4.71239E+00  2.26918E+00  3.48788E-02 F
  5.00000E-01  3.53429E-01  4.90874E+00  2.25610E+00  2.27387E-02 F
  5.00000E-01  3.53429E-01  5.10509E+00  2.25025E+00  2.45009E-03 F
  5.00000E-01  3.53429E-01  5.30144E+00  2.25448E+00 -2.14005E-02 F
  5.00000E-01  3.53429E-01  5.49779E+00  2.26867E+00 -4.17761E-02 F
  5.00000E-01  3.53429E-01  5.69414E+00  2.29110E+00 -5.75015E-02 F
  5.00000E-01  3.53429E-01  5.89049E+00  2.31924E+00 -6.49996E-02 F
  5.00000E-01  3.53429E-01  6.08684E+00  2.34848E+00 -6.08429E-02 F
  5.00000E-01  3.92699E-01  0.00000E+00  2.36688E+00 -3.54944E-02 F
  5.00000E-01  3.92699E-01  1.96350E-01  2.38113E+00 -2.70077E-02 F
  5.00000E-01  3.92699E-01  3.92699E-01  2.39354E+00 -2.76693E-02 F
  5.00000E-01  3.92699E-01  5.89049E-01  2.40877E+00 -3.82789E-02 F
  5.00000E-01  3.92699E-01  7.85398E-01  2.43026E+00 -5.18735E-02 F
  5.00000E-01  3.92699E-01  9.81748E-01  2.45758E+00 -6.10153E-02 F
  5.00000E-01  3.92699E-01  1.17810E+00  2.48816E+00 -6.37511E-02 F
  5.00000E-01  3.92699E-01  1.37445E+00  2.51857E+00 -5.85286E-02 F
  5.00000E-01  3.92699E-01  1.57080E+00  2.54443E+00 -4.37865E-02 F
  5.00000E-01  3.92699E-01  1.76715E+00  2.56050E+00 -1.89241E-02 F
  5.00000E-01  3.92699E-01  1.96350E+00  2.56279E+00  9.53100E-03 F
  5.00000E-01  3.92699E-01  2.15985E+00  2.55194E+00  3.23590E-02 F
  5.00000E-01  3.92699E-01  2.35619E+00  2.53153E+00  4.86318E-02 F
  5.00000E-01  3.92699E-01  2.55254E+00  2.50424E+00  6.12112E-02 F
  5.00000E-01  3.92699E-01  2.74889E+00  2.47217E+00  6.91127E-02 F
  5.00000E-01  3.92699E-01  2.94524E+00  2.43815E+00  7.10386E-02 F
  5.00000E-01  3.92699E-01  3.14159E+00  2.40505E+00  6.73743E-02 F
  5.00000E-01  3.92699E-01  3.33794E+00  2.37501E+00  6.03901E-02 F
  5.00000E-01  3.92699E-01  3.53429E+00  2.34877E+00  5.27029E-02 F
  5.00000E-01  3.92699E-01  3.73064E+00  2.32636E+00  4.51659E-02 F
  5.00000E-01  3.92699E-01  3.92699E+00  2.30707E+00  4.02106E-02 F
  5.00000E-01  3.92699E-01  4.12334E+00  2.28953E+00  3.77673E-02 F
  5.00000E-01  3.92699E-01  4.31969E+00  2.27297E+00  3.62694E-02 F
  5.00000E-01  3.92699E-01  4.51604E+00  2.25726E+00  3.38860E-02 F
  5.00000E-01  3.92699E-01  4.71239E+00  2.24366E+00  2.65802E-02 F
  5.00000E-01  3.92699E-01  4.90874E+00  2.23492E+00  1.17944E-02 F
  5.00000E-01  3.92699E-01  5.10509E+00  2.23441E+00 -1.03853E-02 F
  5.00000E-01  3.92699E-01  5.30144E+00  2.24429E+00 -3.41632E-02 F
  5.00000E-01  3.92699E-01  5.49779E+00  2.26389E+00 -5.33785E-02 F
  5.00000E-01  3.92699E-01  5.69414E+00  2.29070E+00 -6.49411E-02 F
  5.00000E-01  3.92699E-01  5.89049E+00  2.32045E+00 -6.40736E-02 F
  5.00000E-01  3.92699E-01  6.08684E+00  2.34708E+00 -5.07543E-02 F
  5.00000E-01  4.31969E-01  0.00000E+00  2.36366E+00 -1.41840E-02 F
  5.00000E-01  4.31969E-01  1.96350E-01  2.36914E+00 -1.15015E-02 F
  5.00000E-01  4.31969E-01  3.92699E-01  2.37622E+00 -2.06652E-02 F
  5.00000E-01  4.31969E-01  5.89049E-01  2.38965E+00 -3.72793E-02 F
  5.00000E-01  4.31969E-01  7.85398E-01  2.41091E+00 -5.19134E-02 F
  5.00000E-01  4.31969E-01  9.81748E-01  2.43760E+00 -5.87957E-02 F
  5.00000E-01  4.31969E-01  1.17810E+00  2.46580E+00 -5.68565E-02 F
  5.00000E-01  4.31969E-01  1.37445E+00  2.49113E+00 -4.56066E-02 F
  5.00000E-01  4.31969E-01  1.57080E+00  2.50868E+00 -2.41940E-02 F
  5.00000E-01  4.31969E-01  1.76715E+00  2.51365E+00  4.50699E-03 F
  5.00000E-01  4.31969E-01  1.96350E+00  2.50480E+00  2.99146E-02 F
  5.00000E-01  4.31969E-01  2.15985E+00  2.48617E+00  4.42127E-02 F
  5.00000E-01  4.31969E-01  2.35619E+00  2.46319E+00  4.92732E-02 F
  5.00000E-01  4.31969E-01  2.55254E+00  2.43917E+00  5.02002E-02 F
  5.00000E-01  4.31969E-01  2.74889E+00  2.41521E+00  5.03852E-02 F
  5.00000E-01  4.31969E-01  2.94524E+00  2.39141E+00  5.03294E-02 F
  5.00000E-01  4.31969E-01  3.14159E+00  2.36813E+00  4.91455E-02 F
  5.00000E-01  4.31969E-01  3.33794E+00  2.34585E+00  4.69729E-02 F
  5.00000E-01  4.31969E-01  3.53429E+00  2.32503E+00  4.36189E-02 F
  5.00000E-01  4.31969E-01  3.73064E+00  2.30609E+00  3.97582E-02 F
  5.00000E-01  4.31969E-01  3.92699E+00  2.28892E+00  3.63504E-02 F
  5.00000E-01  4.31969E-01  4.12334E+00  2.27351E+00  3.23393E-02 F
  5.00000E-01  4.31969E-01  4.31969E+00  2.26010E+00  2.78280E-02 F
  5.00000E-01  4.31969E-01  4.51604E+00  2.24904E+00  2.15559E-02 F
  5.00000E-01  4.31969E-01  4.71239E+00  2.24181E+00  1.02794E-02 F
  5.00000E-01  4.31969E-01  4.90874E+00  2.24080E+00 -6.44625E-03 F
  5.00000E-01  4.31969E-01  5.10509E+00  2.24790E+00 -2.58718E-02 F
  5.00000E-01  4.31969E-01  5.30144E+00  2.26340E+00 -4.34561E-02 F
  5.00000E-01  4.31969E-01  5.49779E+00  2.28573E+00 -5.53331E-02 F
  5.00000E-01  4.31969E-01  5.69414E+00  2.31174E+00 -5.80303E-02 F
  5.00000E-01  4.31969E-01  5.89049E+00  2.33639E+00 -4.77723E-02 F
  5.00000E-01  4.31969E-01  6.08684E+00  2.35411E+00 -2.87649E-02 F
  5.00000E-01  4.71239E-01  0.00000E+00  2.36378E+00 -6.82059E-03 F
  5.00000E-01  4.71239E-01  1.96350E-01  2.36725E+00 -1.03384E-02 F
  5.00000E-01  4.71239E-01  3.92699E-01  2.37513E+00 -2.47859E-02 F
  5.00000E-01  4.71239E-01  5.89049E-01  2.39081E+00 -4.17191E-02 F
  5.00000E-01  4.71239E-01  7.85398E-01  2.41311E+00 -5.10492E-02 F
  5.00000E-01  4.71239E-01  9.81748E-01  2.43742E+00 -4.93028E-02 F
  5.00000E-01  4.71239E-01  1.17810E+00  2.45879E+00 -3.82130E-02 F
  5.00000E-01  4.71239E-01  1.37445E+00  2.47295E+00 -1.88789E-02 F
  5.00000E-01  4.71239E-01  1.57080E+00  2.47577E+00  8.34652E-03 F
  5.00000E-01  4.71239E-01  1.76715E+00  2.46453E+00  3.74211E-02 F
  5.00000E-01  4.71239E-01  1.96350E+00  2.44114E+00  5.74583E-02 F
  5.00000E-01  4.71239E-01  2.15985E+00  2.41183E+00  6.32459E-02 F
  5.00000E-01  4.71239E-01  2.35619E+00  2.38312E+00  5.72149E-02 F
  5.00000E-01  4.71239E-01  2.55254E+00  2.35908E+00  4.57889E-02 F
  5.00000E-01  4.71239E-01  2.74889E+00  2.34050E+00  3.51967E-02 F
  5.00000E-01  4.71239E-01  2.94524E+00  2.32613E+00  2.83004E-02 F
  5.00000E-01  4.71239E-01  3.14159E+00  2.31384E+00  2.65173E-02 F
  5.00000E-01  4.71239E-01  3.33794E+00  2.30151E+00  2.81683E-02 F
  5.00000E-01  4.71239E-01  3.53429E+00  2.28834E+00  3.02259E-02 F
  5.00000E-01  4.71239E-01  3.73064E+00  2.27442E+00  3.17813E-02 F
  5.00000E-01  4.71239E-01  3.92699E+00  2.26026E+00  3.13408E-02 F
  5.00000E-01  4.71239E-01  4.12334E+00  2.24702E+00  2.80974E-02 F
  5.00000E-01  4.71239E-01  4.31969E+00  2.23584E+00  2.21562E-02 F
  5.00000E-01  4.71239E-01  4.51604E+00  2.22824E+00  1.14954E-02 F
  5.00000E-01  4.71239E-01  4.71239E+00  2.22675E+00 -5.69000E-03 F
  5.00000E-01  4.71239E-01  4.90874E+00  2.23375E+00 -2.64004E-02 F
  5.00000E-01  4.71239E-01  5.10509E+00  2.24963E+00 -4.49490E-02 F
  5.00000E-01  4.71239E-01  5.30144E+00  2.27256E+00 -5.70057E-02 F
  5.00000E-01  4.71239E-01  5.49779E+00  2.29921E+00 -6.01875E-02 F
  5.00000E-01  4.71239E-01  5.69414E+00  2.32541E+00 -5.34810E-02 F
  5.00000E-01  4.71239E-01  5.89049E+00  2.34642E+00 -3.67567E-02 F
  5.00000E-01  4.71239E-01  6.08684E+00  2.35874E+00 -1.71773E-02 F
  5.00000E-01  5.10509E-01  0.00000E+00  2.36109E+00 -2.72623E-03 F
  5.00000E-01  5.10509E-01  1.96350E-01  2.36395E+00 -1.14996E-02 F
  5.00000E-01  5.10509E-01  3.92699E-01  2.37309E+00 -2.85315E-02 F
  5.00000E-01  5.10509E-01  5.89049E-01  2.39037E+00 -4.41801E-02 F
  5.00000E-01  5.10509E-01  7.85398E-01  2.41282E+00 -4.88044E-02 F
  5.00000E-01  5.10509E-01  9.81748E-01  2.43461E+00 -4.10205E-02 F
  5.00000E-01  5.10509E-01  1.17810E+00  2.45070E+00 -2.49944E-02 F
  5.00000E-01  5.10509E-01  1.37445E+00  2.45769E+00 -3.06308E-03 F
  5.00000E-01  5.10509E-01  1.57080E+00  2.45288E+00  2.34452E-02 F
  5.00000E-01  5.10509E-01  1.76715E+00  2.43540E+00  4.83883E-02 F
  5.00000E-01  5.10509E-01  1.96350E+00  2.40825E+00  6.38029E-02 F
  5.00000E-01  5.10509E-01  2.15985E+00  2.37701E+00  6.72981E-02 F
  5.00000E-01  5.10509E-01  2.35619E+00  2.34691E+00  6.12937E-02 F
  5.00000E-01  5.10509E-01  2.55254E+00  2.32118E+00  5.06368E-02 F
  5.00000E-01  5.10509E-01  2.74889E+00  2.30086E+00  3.89653E-02 F
  5.00000E-01  5.10509E-01  2.94524E+00  2.28559E+00  2.96621E-02 F
  5.00000E-01  5.10509E-01  3.14159E+00  2.27332E+00  2.60331E-02 F
  5.00000E-01  5.10509E-01  3.33794E+00  2.26186E+00  2.56914E-02 F
  5.00000E-01  5.10509E-01  3.53429E+00  2.25045E+00  2.57735E-02 F
  5.00000E-01  5.10509E-01  3.73064E+00  2.23928E+00  2.44999E-02 F
  5.00000E-01  5.10509E-01  3.92699E+00  2.22926E+00  2.08437E-02 F
  5.00000E-01  5.10509E-01  4.12334E+00  2.22123E+00  1.56644E-02 F
  5.00000E-01  5.10509E-01  4.31969E+00  2.21598E+00  7.76734E-03 F
  5.00000E-01  5.10509E-01  4.51604E+00  2.21520E+00 -5.20872E-03 F
  5.00000E-01  5.10509E-01  4.71239E+00  2.22140E+00 -2.39883E-02 F
  5.00000E-01  5.10509E-01  4.90874E+00  2.23637E+00 -4.40585E-02 F
  5.00000E-01  5.10509E-01  5.10509E+00  2.25937E+00 -5.88612E-02 F
  5.00000E-01  5.10509E-01  5.30144E+00  2.28719E+00 -6.39026E-02 F
  5.00000E-01  5.10509E-01  5.49779E+00  2.31505E+00 -5.76391E-02 F
  5.00000E-01  5.10509E-01  5.69414E+00  2.33816E+00 -4.22853E-02 F
  5.00000E-01  5.10509E-01  5.89049E+00  2.35308E+00 -2.23789E-02 F
  5.00000E-01  5.10509E-01  6.08684E+00  2.35944E+00 -6.62316E-03 F
  5.00000E-01  5.49779E-01  0.00000E+00  2.35310E+00  5.43498E-03 F
  5.00000E-01  5.49779E-01  1.96350E-01  2.35390E+00 -9.93837E-03 F
  5.00000E-01  5.49779E-01  3.92699E-01  2.36275E+00 -2.81425E-02 F
  5.00000E-01  5.49779E-01  5.89049E-01  2.37921E+00 -4.09323E-02 F
  5.00000E-01  5.49779E-01  7.85398E-01  2.39912E+00 -4.17867E-02 F
  5.00000E-01  5.49779E-01  9.81748E-01  2.41676E+00 -3.13612E-02 F
  5.00000E-01  5.49779E-01  1.17810E+00  2.42784E+00 -1.44725E-02 F
  5.00000E-01  5.49779E-01  1.37445E+00  2.42999E+00  5.89390E-03 F
  5.00000E-01  5.49779E-01  1.57080E+00  2.42196E+00  2.77450E-02 F
  5.00000E-01  5.49779E-01  1.76715E+00  2.40428E+00  4.57010E-02 F
  5.00000E-01  5.49779E-01  1.96350E+00  2.38024E+00  5.51855E-02 F
  5.00000E-01  5.49779E-01  2.15985E+00  2.35390E+00  5.71003E-02 F
  5.00000E-01  5.49779E-01  2.35619E+00  2.32820E+00  5.41769E-02 F
  5.00000E-01  5.49779E-01  2.55254E+00  2.30470E+00  4.88021E-02 F
  5.00000E-01  5.49779E-01  2.74889E+00  2.28438E+00  4.10804E-02 F
  5.00000E-01  5.49779E-01  2.94524E+00  2.26784E+00  3.32676E-02 F
  5.00000E-01  5.49779E-01  3.14159E+00  2.25434E+00  2.78659E-02 F
  5.00000E-01  5.49779E-01  3.33794E+00  2.24304E+00  2.33279E-02 F
  5.00000E-01  5.49779E-01  3.53429E+00  2.23381E+00  1.84843E-02 F
  5.00000E-01  5.49779E-01  3.73064E+00  2.22718E+00  1.13075E-02 F
  5.00000E-01  5.49779E-01  3.92699E+00  2.22414E+00  2.57953E-03 F
  5.00000E-01  5.49779E-01  4.12334E+00  2.22500E+00 -6.77057E-03 F
  5.00000E-01  5.49779E-01  4.31969E+00  2.23036E+00 -1.80448E-02 F
  5.00000E-01  5.49779E-01  4.51604E+00  2.24110E+00 -3.12392E-02 F
  5.00000E-01  5.49779E-01  4.71239E+00  2.25803E+00 -4.52000E-02 F
  5.00000E-01  5.49779E-01  4.90874E+00  2.28060E+00 -5.49561E-02 F
  5.00000E-01  5.49779E-01  5.10509E+00  2.30609E+00 -5.68480E-02 F
  5.00000E-01  5.49779E-01  5.30144E+00  2.33070E+00 -4.96814E-02 F
  5.00000E-01  5.49779E-01  5.49779E+00  2.35011E+00 -3.34876E-02 F
  5.00000E-01  5.49779E-01  5.69414E+00  2.36078E+00 -1.24307E-02 F
  5.00000E-01  5.49779E-01  5.89049E+00  2.36210E+00  5.42791E-03 F
  5.00000E-01  5.49779E-01  6.08684E+00  2.35755E+00  1.19113E-02 F
  5.00000E-01  5.89049E-01  0.00000E+00  2.36716E+00  4.75060E-03 F
  5.00000E-01  5.89049E-01  1.96350E-01  2.36860E+00 -1.09116E-02 F
  5.00000E-01  5.89049E-01  3.92699E-01  2.37676E+00 -2.30141E-02 F
  5.00000E-01  5.89049E-01  5.89049E-01  2.38871E+00 -2.62580E-02 F
  5.00000E-01  5.89049E-01  7.85398E-01  2.39964E+00 -1.85122E-02 F
  5.00000E-01  5.89049E-01  9.81748E-01  2.40478E+00 -2.21248E-03 F
  5.00000E-01  5.89049E-01  1.17810E+00  2.40115E+00  1.78323E-02 F
  5.00000E-01  5.89049E-01  1.37445E+00  2.38805E+00  3.75377E-02 F
  5.00000E-01  5.89049E-01  1.57080E+00  2.36674E+00  5.24373E-02 F
  5.00000E-01  5.89049E-01  1.76715E+00  2.34103E+00  5.68146E-02 F
  5.00000E-01  5.89049E-01  1.96350E+00  2.31604E+00  5.13749E-02 F
  5.00000E-01  5.89049E-01  2.15985E+00  2.29484E+00  4.20607E-02 F
  5.00000E-01  5.89049E-01  2.35619E+00  2.27806E+00  3.30067E-02 F
  5.00000E-01  5.89049E-01  2.55254E+00  2.26490E+00  2.63652E-02 F
  5.00000E-01  5.89049E-01  2.74889E+00  2.25439E+00  2.12400E-02 F
  5.00000E-01  5.89049E-01  2.94524E+00  2.24572E+00  1.85322E-02 F
  5.00000E-01  5.89049E-01  3.14159E+00  2.23773E+00  1.78704E-02 F
  5.00000E-01  5.89049E-01  3.33794E+00  2.23010E+00  1.66933E-02 F
  5.00000E-01  5.89049E-01  3.53429E+00  2.22352E+00  1.26158E-02 F
  5.00000E-01  5.89049E-01  3.73064E+00  2.21989E+00  3.20828E-03 F
  5.00000E-01  5.89049E-01  3.92699E+00  2.22118E+00 -9.48419E-03 F
  5.00000E-01  5.89049E-01  4.12334E+00  2.22854E+00 -2.46627E-02 F
  5.00000E-01  5.89049E-01  4.31969E+00  2.24300E+00 -4.11701E-02 F
  5.00000E-01  5.89049E-01  4.51604E+00  2.26467E+00 -5.63403E-02 F
  5.00000E-01  5.89049E-01  4.71239E+00  2.29241E+00 -6.62663E-02 F
  5.00000E-01  5.89049E-01  4.90874E+00  2.32266E+00 -6.52804E-02 F
  5.00000E-01  5.89049E-01  5.10509E+00  2.35042E+00 -5.44844E-02 F
  5.00000E-01  5.89049E-01  5.30144E+00  2.37193E+00 -3.74006E-02 F
  5.00000E-01  5.89049E-01  5.49779E+00  2.38450E+00 -1.59431E-02 F
  5.00000E-01  5.89049E-01  5.69414E+00  2.38687E+00  5.12936E-03 F
  5.00000E-01  5.89049E-01  5.89049E+00  2.38103E+00  1.77442E-02 F
  5.00000E-01  5.89049E-01  6.08684E+00  2.37246E+00  1.67271E-02 F
  5.00000E-01  6.28319E-01  0.00000E+00  2.38392E+00 -2.07488E-09 F
  5.00000E-01  6.28319E-01  1.96350E-01  2.38710E+00 -1.28421E-02 F
  5.00000E-01  6.28319E-01  3.92699E-01  2.39471E+00 -1.77871E-02 F
  5.00000E-01  6.28319E-01  5.89049E-01  2.40195E+00 -1.09446E-02 F
  5.00000E-01  6.28319E-01  7.85398E-01  2.40340E+00  6.09118E-03 F
  5.00000E-01  6.28319E-01  9.81748E-01  2.39546E+00  2.79075E-02 F
  5.00000E-01  6.28319E-01  1.17810E+00  2.37728E+00  4.93028E-02 F
  5.00000E-01  6.28319E-01  1.37445E+00  2.35019E+00  6.63425E-02 F
  5.00000E-01  6.28319E-01  1.57080E+00  2.31766E+00  7.33575E-02 F
  5.00000E-01  6.28319E-01  1.76715E+00  2.28565E+00  6.61396E-02 F
  5.00000E-01  6.28319E-01  1.96350E+00  2.25951E+00  5.03329E-02 F
  5.00000E-01  6.28319E-01  2.15985E+00  2.24110E+00  3.30937E-02 F
  5.00000E-01  6.28319E-01  2.35619E+00  2.23000E+00  1.81256E-02 F
  5.00000E-01  6.28319E-01  2.55254E+00  2.22457E+00  7.36749E-03 F
  5.00000E-01  6.28319E-01  2.74889E+00  2.22304E+00  3.92350E-04 F
  5.00000E-01  6.28319E-01  2.94524E+00  2.22345E+00 -1.43039E-03 F
  5.00000E-01  6.28319E-01  3.14159E+00  2.22381E+00 -8.45429E-09 F
  5.00000E-01  6.28319E-01  3.33794E+00  2.22345E+00  1.43037E-03 F
  5.00000E-01  6.28319E-01  3.53429E+00  2.22304E+00 -3.92370E-04 F
  5.00000E-01  6.28319E-01  3.73064E+00  2.22457E+00 -7.36751E-03 F
  5.00000E-01  6.28319E-01  3.92699E+00  2.23000E+00 -1.81256E-02 F
  5.00000E-01  6.28319E-01  4.12334E+00  2.24110E+00 -3.30937E-02 F
  5.00000E-01  6.28319E-01  4.31969E+00  2.25951E+00 -5.03329E-02 F
  5.00000E-01  6.28319E-01  4.51604E+00  2.28565E+00 -6.61396E-02 F
  5.00000E-01  6.28319E-01  4.71239E+00  2.31766E+00 -7.33575E-02 F
  5.00000E-01  6.28319E-01  4.90874E+00  2.35019E+00 -6.63425E-02 F
  5.00000E-01  6.28319E-01  5.10509E+00  2.37728E+00 -4.93028E-02 F
  5.00000E-01  6.28319E-01  5.30144E+00  2.39546E+00 -2.79075E-02 F
  5.00000E-01  6.28319E-01  5.49779E+00  2.40340E+00 -6.09115E-03 F
  5.00000E-01  6.28319E-01  5.69414E+00  2.40195E+00  1.09446E-02 F
  5.00000E-01  6.28319E-01  5.89049E+00  2.39471E+00  1.77871E-02 F
  5.00000E-01  6.28319E-01  6.08684E+00  2.38710E+00  1.28421E-02 F
  5.00000E-01  6.67588E-01  0.00000E+00  2.36716E+00 -4.75061E-03 F
  5.00000E-01  6.67588E-01  1.96350E-01  2.37246E+00 -1.67271E-02 F
  5.00000E-01  6.67588E-01  3.92699E-01  2.38103E+00 -1.77442E-02 F
  5.00000E-01  6.67588E-01  5.89049E-01  2.38687E+00 -5.12934E-03 F
  5.00000E-01  6.67588E-01  7.85398E-01  2.38450E+00  1.59431E-02 F
  5.00000E-01  6.67588E-01  9.81748E-01  2.37193E+00  3.74007E-02 F
  5.00000E-01  6.67588E-01  1.17810E+00  2.35042E+00  5.44844E-02 F
  5.00000E-01  6.67588E-01  1.37445E+00  2.32266E+00  6.52804E-02 F
  5.00000E-01  6.67588E-01  1.57080E+00  2.29241E+00  6.62663E-02 F
  5.00000E-01  6.67588E-01  1.76715E+00  2.26467E+00  5.63403E-02 F
  5.00000E-01  6.67588E-01  1.96350E+00  2.24300E+00  4.11701E-02 F
  5.00000E-01  6.67588E-01  2.15985E+00  2.22854E+00  2.46627E-02 F
  5.00000E-01  6.67588E-01  2.35619E+00  2.22118E+00  9.48417E-03 F
  5.00000E-01  6.67588E-01  2.55254E+00  2.21989E+00 -3.20829E-03 F
  5.00000E-01  6.67588E-01  2.74889E+00  2.22352E+00 -1.26158E-02 F
  5.00000E-01  6.67588E-01  2.94524E+00  2.23010E+00 -1.66933E-02 F
  5.00000E-01  6.67588E-01  3.14159E+00  2.23773E+00 -1.78704E-02 F
  5.00000E-01  6.67588E-01  3.33794E+00  2.24572E+00 -1.85322E-02 F
  5.00000E-01  6.67588E-01  3.53429E+00  2.25439E+00 -2.12400E-02 F
  5.00000E-01  6.67588E-01  3.73064E+00  2.26490E+00 -2.63652E-02 F
  5.00000E-01  6.67588E-01  3.92699E+00  2.27806E+00 -3.30067E-02 F
  5.00000E-01  6.67588E-01  4.12334E+00  2.29484E+00 -4.20607E-02 F
  5.00000E-01  6.67588E-01  4.31969E+00  2.31604E+00 -5.13749E-02 F
  5.00000E-01  6.67588E-01  4.51604E+00  2.34103E+00 -5.68146E-02 F
  5.00000E-01  6.67588E-01  4.71239E+00  2.36674E+00 -5.24373E-02 F
  5.00000E-01  6.67588E-01  4.90874E+00  2.38805E+00 -3.75377E-02 F
  5.00000E-01  6.67588E-01  5.10509E+00  2.40115E+00 -1.78322E-02 F
  5.00000E-01  6.67588E-01  5.30144E+00  2.40478E+00  2.21253E-03 F
  5.00000E-01  6.67588E-01  5.49779E+00  2.39964E+00  1.85122E-02 F
  5.00000E-01  6.67588E-01  5.69414E+00  2.38871E+00  2.62580E-02 F
  5.00000E-01  6.67588E-01  5.89049E+00  2.37676E+00  2.30141E-02 F
  5.00000E-01  6.67588E-01  6.08684E+00  2.36860E+00  1.09116E-02 F
  5.00000E-01  7.06858E-01  0.00000E+00  2.35310E+00 -5.43498E-03 F
  5.00000E-01  7.06858E-01  1.96350E-01  2.35755E+00 -1.19112E-02 F
  5.00000E-01  7.06858E-01  3.92699E-01  2.36210E+00 -5.42787E-03 F
  5.00000E-01  7.06858E-01  5.89049E-01  2.36078E+00  1.24307E-02 F
  5.00000E-01  7.06858E-01  7.85398E-01  2.35011E+00  3.34876E-02 F
  5.00000E-01  7.06858E-01  9.81748E-01  2.33070E+00  4.96815E-02 F
  5.00000E-01  7.06858E-01  1.17810E+00  2.30609E+00  5.68480E-02 F
  5.00000E-01  7.06858E-01  1.37445E+00  2.28060E+00  5.49561E-02 F
  5.00000E-01  7.06858E-01  1.57080E+00  2.25803E+00  4.52000E-02 F
  5.00000E-01  7.06858E-01  1.76715E+00  2.24110E+00  3.12392E-02 F
  5.00000E-01  7.06858E-01  1.96350E+00  2.23036E+00  1.80447E-02 F
  5.00000E-01  7.06858E-01  2.15985E+00  2.22500E+00  6.77054E-03 F
  5.00000E-01  7.06858E-01  2.35619E+00  2.22414E+00 -2.57955E-03 F
  5.00000E-01  7.06858E-01  2.55254E+00  2.22718E+00 -1.13075E-02 F
  5.00000E-01  7.06858E-01  2.74889E+00  2.23381E+00 -1.84843E-02 F
  5.00000E-01  7.06858E-01  2.94524E+00  2.24304E+00 -2.33279E-02 F
  5.00000E-01  7.06858E-01  3.14159E+00  2.25434E+00 -2.78660E-02 F
  5.00000E-01  7.06858E-01  3.33794E+00  2.26784E+00 -3.32677E-02 F
  5.00000E-01  7.06858E-01  3.53429E+00  2.28438E+00 -4.10804E-02 F
  5.00000E-01  7.06858E-01  3.73064E+00  2.30470E+00 -4.88021E-02 F
  5.00000E-01  7.06858E-01  3.92699E+00  2.32820E+00 -5.41769E-02 F
  5.00000E-01  7.06858E-01  4.12334E+00  2.35390E+00 -5.71003E-02 F
  5.00000E-01  7.06858E-01  4.31969E+00  2.38024E+00 -5.51855E-02 F
  5.00000E-01  7.06858E-01  4.51604E+00  2.40428E+00 -4.57010E-02 F
  5.00000E-01  7.06858E-01  4.71239E+00  2.42196E+00 -2.77450E-02 F
  5.00000E-01  7.06858E-01  4.90874E+00  2.42999E+00 -5.89386E-03 F
  5.00000E-01  7.06858E-01  5.10509E+00  2.42784E+00  1.44725E-02 F
  5.00000E-01  7.06858E-01  5.30144E+00  2.41676E+00  3.13613E-02 F
  5.00000E-01  7.06858E-01  5.49779E+00  2.39912E+00  4.17868E-02 F
  5.00000E-01  7.06858E-01  5.69414E+00  2.37921E+00  4.09323E-02 F
  5.00000E-01  7.06858E-01  5.89049E+00  2.36275E+00  2.81425E-02 F
  5.00000E-01  7.06858E-01  6.08684E+00  2.35390E+00  9.93835E-03 F
  5.00000E-01  7.46128E-01  0.00000E+00  2.36109E+00  2.72623E-03 F
  5.00000E-01  7.46128E-01  1.96350E-01  2.35944E+00  6.62319E-03 F
  5.00000E-01  7.46128E-01  3.92699E-01  2.35308E+00  2.23789E-02 F
  5.00000E-01  7.46128E-01  5.89049E-01  2.33816E+00  4.22853E-02 F
  5.00000E-01  7.46128E-01  7.85398E-01  2.31505E+00  5.76391E-02 F
  5.00000E-01  7.46128E-01  9.81748E-01  2.28719E+00  6.39026E-02 F
  5.00000E-01  7.46128E-01  1.17810E+00  2.25937E+00  5.88612E-02 F
  5.00000E-01  7.46128E-01  1.37445E+00  2.23637E+00  4.40584E-02 F
  5.00000E-01  7.46128E-01  1.57080E+00  2.22140E+00  2.39882E-02 F
  5.00000E-01  7.46128E-01  1.76715E+00  2.21520E+00  5.20869E-03 F
  5.00000E-01  7.46128E-01  1.96350E+00  2.21598E+00 -7.76736E-03 F
  5.00000E-01  7.46128E-01  2.15985E+00  2.22123E+00 -1.56644E-02 F
  5.00000E-01  7.46128E-01  2.35619E+00  2.22926E+00 -2.08438E-02 F
  5.00000E-01  7.46128E-01  2.55254E+00  2.23928E+00 -2.44999E-02 F
  5.00000E-01  7.46128E-01  2.74889E+00  2.25045E+00 -2.57735E-02 F
  5.00000E-01  7.46128E-01  2.94524E+00  2.26186E+00 -2.56914E-02 F
  5.00000E-01  7.46128E-01  3.14159E+00  2.27332E+00 -2.60331E-02 F
  5.00000E-01  7.46128E-01  3.33794E+00  2.28559E+00 -2.96620E-02 F
  5.00000E-01  7.46128E-01  3.53429E+00  2.30086E+00 -3.89653E-02 F
  5.00000E-01  7.46128E-01  3.73064E+00  2.32118E+00 -5.06368E-02 F
  5.00000E-01  7.46128E-01  3.92699E+00  2.34691E+00 -6.12937E-02 F
  5.00000E-01  7.46128E-01  4.12334E+00  2.37701E+00 -6.72982E-02 F
  5.00000E-01  7.46128E-01  4.31969E+00  2.40825E+00 -6.38029E-02 F
  5.00000E-01  7.46128E-01  4.51604E+00  2.43540E+00 -4.83883E-02 F
  5.00000E-01  7.46128E-01  4.71239E+00  2.45288E+00 -2.34451E-02 F
  5.00000E-01  7.46128E-01  4.90874E+00  2.45769E+00  3.06311E-03 F
  5.00000E-01  7.46128E-01  5.10509E+00  2.45070E+00  2.49944E-02 F
  5.00000E-01  7.46128E-01  5.30144E+00  2.43461E+00  4.10206E-02 F
  5.00000E-01  7.46128E-01  5.49779E+00  2.41282E+00  4.88044E-02 F
  5.00000E-01  7.46128E-01  5.69414E+00  2.39037E+00  4.41801E-02 F
  5.00000E-01  7.46128E-01  5.89049E+00  2.37309E+00  2.85315E-02 F
  5.00000E-01  7.46128E-01  6.08684E+00  2.36395E+00  1.14996E-02 F
  5.00000E-01  7.85398E-01  0.00000E+00  2.36378E+00  6.82059E-03 F
  5.00000E-01  7.85398E-01  1.96350E-01  2.35874E+00  1.71774E-02 F
  5.00000E-01  7.85398E-01  3.92699E-01  2.34642E+00  3.67567E-02 F
  5.00000E-01  7.85398E-01  5.89049E-01  2.32541E+00  5.34810E-02 F
  5.00000E-01  7.85398E-01  7.85398E-01  2.29921E+00  6.01875E-02 F
  5.00000E-01  7.85398E-01  9.81748E-01  2.27256E+00  5.70057E-02 F
  5.00000E-01  7.85398E-01  1.17810E+00  2.24963E+00  4.49489E-02 F
  5.00000E-01  7.85398E-01  1.37445E+00  2.23375E+00  2.64004E-02 F
  5.00000E-01  7.85398E-01  1.57080E+00  2.22675E+00  5.68996E-03 F
  5.00000E-01  7.85398E-01  1.76715E+00  2.22824E+00 -1.14954E-02 F
  5.00000E-01  7.85398E-01  1.96350E+00  2.23584E+00 -2.21562E-02 F
  5.00000E-01  7.85398E-01  2.15985E+00  2.24702E+00 -2.80975E-02 F
  5.00000E-01  7.85398E-01  2.35619E+00  2.26026E+00 -3.13408E-02 F
  5.00000E-01  7.85398E-01  2.55254E+00  2.27442E+00 -3.17813E-02 F
  5.00000E-01  7.85398E-01  2.74889E+00  2.28834E+00 -3.02259E-02 F
  5.00000E-01  7.85398E-01  2.94524E+00  2.30151E+00 -2.81683E-02 F
  5.00000E-01  7.85398E-01  3.14159E+00  2.31384E+00 -2.65173E-02 F
  5.00000E-01  7.85398E-01  3.33794E+00  2.32613E+00 -2.83004E-02 F
  5.00000E-01  7.85398E-01  3.53429E+00  2.34050E+00 -3.51967E-02 F
  5.00000E-01  7.85398E-01  3.73064E+00  2.35908E+00 -4.57889E-02 F
  5.00000E-01  7.85398E-01  3.92699E+00  2.38312E+00 -5.72149E-02 F
  5.00000E-01  7.85398E-01  4.12334E+00  2.41183E+00 -6.32459E-02 F
  5.00000E-01  7.85398E-01  4.31969E+00  2.44114E+00 -5.74583E-02 F
  5.00000E-01  7.85398E-01  4.51604E+00  2.46453E+00 -3.74211E-02 F
  5.00000E-01  7.85398E-01  4.71239E+00  2.47577E+00 -8.34646E-03 F
  5.00000E-01  7.85398E-01  4.90874E+00  2.47295E+00  1.88790E-02 F
  5.00000E-01  7.85398E-01  5.10509E+00  2.45879E+00  3.82130E-02 F
  5.00000E-01  7.85398E-01  5.30144E+00  2.43742E+00  4.93028E-02 F
  5.00000E-01  7.85398E-01  5.49779E+00  2.41311E+00  5.10492E-02 F
  5.00000E-01  7.85398E-01  5.69414E+00  2.39081E+00  4.17191E-02 F
  5.00000E-01  7.85398E-01  5.89049E+00  2.37513E+00  2.47858E-02 F
  5.00000E-01  7.85398E-01  6.08684E+00  2.36725E+00  1.03383E-02 F
  5.00000E-01  8.24668E-01  0.00000E+00  2.36366E+00  1.41840E-02 F
  5.00000E-01  8.24668E-01  1.96350E-01  2.35411E+00  2.87649E-02 F
  5.00000E-01  8.24668E-01  3.92699E-01  2.33639E+00  4.77723E-02 F
  5.00000E-01  8.24668E-01  5.89049E-01  2.31174E+00  5.80303E-02 F
  5.00000E-01  8.24668E-01  7.85398E-01  2.28573E+00  5.53331E-02 F
  5.00000E-01  8.24668E-01  9.81748E-01  2.26340E+00  4.34561E-02 F
  5.00000E-01  8.24668E-01  1.17810E+00  2.24790E+00  2.58717E-02 F
  5.00000E-01  8.24668E-01  1.37445E+00  2.24080E+00  6.44622E-03 F
  5.00000E-01  8.24668E-01  1.57080E+00  2.24181E+00 -1.02795E-02 F
  5.00000E-01  8.24668E-01  1.76715E+00  2.24904E+00 -2.15559E-02 F
  5.00000E-01  8.24668E-01  1.96350E+00  2.26010E+00 -2.78280E-02 F
  5.00000E-01  8.24668E-01  2.15985E+00  2.27351E+00 -3.23393E-02 F
  5.00000E-01  8.24668E-01  2.35619E+00  2.28892E+00 -3.63504E-02 F
  5.00000E-01  8.24668E-01  2.55254E+00  2.30609E+00 -3.97582E-02 F
  5.00000E-01  8.24668E-01  2.74889E+00  2.32503E+00 -4.36189E-02 F
  5.00000E-01  8.24668E-01  2.94524E+00  2.34585E+00 -4.69730E-02 F
  5.00000E-01  8.24668E-01  3.14159E+00  2.36813E+00 -4.91455E-02 F
  5.00000E-01  8.24668E-01  3.33794E+00  2.39141E+00 -5.03294E-02 F
  5.00000E-01  8.24668E-01  3.53429E+00  2.41521E+00 -5.03852E-02 F
  5.00000E-01  8.24668E-01  3.73064E+00  2.43917E+00 -5.02002E-02 F
  5.00000E-01  8.24668E-01  3.92699E+00  2.46319E+00 -4.92731E-02 F
  5.00000E-01  8.24668E-01  4.12334E+00  2.48617E+00 -4.42127E-02 F
  5.00000E-01  8.24668E-01  4.31969E+00  2.50480E+00 -2.99145E-02 F
  5.00000E-01  8.24668E-01  4.51604E+00  2.51365E+00 -4.50693E-03 F
  5.00000E-01  8.24668E-01  4.71239E+00  2.50868E+00  2.41941E-02 F
  5.00000E-01  8.24668E-01  4.90874E+00  2.49113E+00  4.56066E-02 F
  5.00000E-01  8.24668E-01  5.10509E+00  2.46580E+00  5.68565E-02 F
  5.00000E-01  8.24668E-01  5.30144E+00  2.43760E+00  5.87958E-02 F
  5.00000E-01  8.24668E-01  5.49779E+00  2.41091E+00  5.19134E-02 F
  5.00000E-01  8.24668E-01  5.69414E+00  2.38965E+00  3.72792E-02 F
  5.00000E-01  8.24668E-01  5.89049E+00  2.37622E+00  2.06651E-02 F
  5.00000E-01  8.24668E-01  6.08684E+00  2.36914E+00  1.15015E-02 F
  5.00000E-01  8.63938E-01  0.00000E+00  2.36688E+00  3.54944E-02 F
  5.00000E-01  8.63938E-01  1.96350E-01  2.34708E+00  5.07544E-02 F
  5.00000E-01  8.63938E-01  3.92699E-01  2.32045E+00  6.40736E-02 F
  5.00000E-01  8.63938E-01  5.89049E-01  2.29070E+00  6.49411E-02 F
  5.00000E-01  8.63938E-01  7.85398E-01  2.26389E+00  5.33785E-02 F
  5.00000E-01  8.63938E-01  9.81748E-01  2.24429E+00  3.41631E-02 F
  5.00000E-01  8.63938E-01  1.17810E+00  2.23441E+00  1.03853E-02 F
  5.00000E-01  8.63938E-01  1.37445E+00  2.23492E+00 -1.17944E-02 F
  5.00000E-01  8.63938E-01  1.57080E+00  2.24366E+00 -2.65803E-02 F
  5.00000E-01  8.63938E-01  1.76715E+00  2.25726E+00 -3.38861E-02 F
  5.00000E-01  8.63938E-01  1.96350E+00  2.27297E+00 -3.62694E-02 F
  5.00000E-01  8.63938E-01  2.15985E+00  2.28953E+00 -3.77673E-02 F
  5.00000E-01  8.63938E-01  2.35619E+00  2.30707E+00 -4.02106E-02 F
  5.00000E-01  8.63938E-01  2.55254E+00  2.32636E+00 -4.51659E-02 F
  5.00000E-01  8.63938E-01  2.74889E+00  2.34877E+00 -5.27030E-02 F
  5.00000E-01  8.63938E-01  2.94524E+00  2.37501E+00 -6.03901E-02 F
  5.00000E-01  8.63938E-01  3.14159E+00  2.40505E+00 -6.73744E-02 F
  5.00000E-01  8.63938E-01  3.33794E+00  2.43815E+00 -7.10386E-02 F
  5.00000E-01  8.63938E-01  3.53429E+00  2.47217E+00 -6.91127E-02 F
  5.00000E-01  8.63938E-01  3.73064E+00  2.50424E+00 -6.12112E-02 F
  5.00000E-01  8.63938E-01  3.92699E+00  2.53153E+00 -4.86318E-02 F
  5.00000E-01  8.63938E-01  4.12334E+00  2.55194E+00 -3.23590E-02 F
  5.00000E-01  8.63938E-01  4.31969E+00  2.56279E+00 -9.53097E-03 F
  5.00000E-01  8.63938E-01  4.51604E+00  2.56050E+00  1.89241E-02 F
  5.00000E-01  8.63938E-01  4.71239E+00  2.54443E+00  4.37865E-02 F
  5.00000E-01  8.63938E-01  4.90874E+00  2.51857E+00  5.85286E-02 F
  5.00000E-01  8.63938E-01  5.10509E+00  2.48816E+00  6.37511E-02 F
  5.00000E-01  8.63938E-01  5.30144E+00  2.45758E+00  6.10153E-02 F
  5.00000E-01  8.63938E-01  5.49779E+00  2.43026E+00  5.18735E-02 F
  5.00000E-01  8.63938E-01  5.69414E+00  2.40877E+00  3.82789E-02 F
  5.00000E-01  8.63938E-01  5.89049E+00  2.39354E+00  2.76693E-02 F
  5.00000E-01  8.63938E-01  6.08684E+00  2.38113E+00  2.70078E-02 F
  5.00000E-01  9.03208E-01  0.00000E+00  2.37437E+00  5.06834E-02 F
  5.00000E-01  9.03208E-01  1.96350E-01  2.34848E+00  6.08429E-02 F
  5.00000E-01  9.03208E-01  3.92699E-01  2.31924E+00  6.49996E-02 F
  5.00000E-01  9.03208E-01  5.89049E-01  2.29110E+00  5.75015E-02 F
  5.00000E-01  9.03208E-01  7.85398E-01  2.26867E+00  4.17761E-02 F
  5.00000E-01  9.03208E-01  9.81748E-01  2.25448E+00  2.14004E-02 F
  5.00000E-01  9.03208E-01  1.17810E+00  2.25025E+00 -2.45013E-03 F
  5.00000E-01  9.03208E-01  1.37445E+00  2.25610E+00 -2.27388E-02 F
  5.00000E-01  9.03208E-01  1.57080E+00  2.26918E+00 -3.48789E-02 F
  5.00000E-01  9.03208E-01  1.76715E+00  2.28625E+00 -4.05072E-02 F
  5.00000E-01  9.03208E-01  1.96350E+00  2.30486E+00 -4.15368E-02 F
  5.00000E-01  9.03208E-01  2.15985E+00  2.32362E+00 -4.09520E-02 F
  5.00000E-01  9.03208E-01  2.35619E+00  2.34226E+00 -4.07152E-02 F
  5.00000E-01  9.03208E-01  2.55254E+00  2.36161E+00 -4.37476E-02 F
  5.00000E-01  9.03208E-01  2.74889E+00  2.38328E+00 -4.95438E-02 F
  5.00000E-01  9.03208E-01  2.94524E+00  2.40826E+00 -5.70352E-02 F
  5.00000E-01  9.03208E-01  3.14159E+00  2.43753E+00 -6.60129E-02 F
  5.00000E-01  9.03208E-01  3.33794E+00  2.47113E+00 -7.27533E-02 F
  5.00000E-01  9.03208E-01  3.53429E+00  2.50723E+00 -7.37239E-02 F
  5.00000E-01  9.03208E-01  3.73064E+00  2.54228E+00 -6.62654E-02 F
  5.00000E-01  9.03208E-01  3.92699E+00  2.57215E+00 -5.17763E-02 F
  5.00000E-01  9.03208E-01  4.12334E+00  2.59350E+00 -3.12244E-02 F
  5.00000E-01  9.03208E-01  4.31969E+00  2.60264E+00 -3.62852E-03 F
  5.00000E-01  9.03208E-01  4.51604E+00  2.59687E+00  2.56914E-02 F
  5.00000E-01  9.03208E-01  4.71239E+00  2.57778E+00  4.77754E-02 F
  5.00000E-01  9.03208E-01  4.90874E+00  2.55032E+00  5.97395E-02 F
  5.00000E-01  9.03208E-01  5.10509E+00  2.51935E+00  6.35451E-02 F
  5.00000E-01  9.03208E-01  5.30144E+00  2.48841E+00  6.15534E-02 F
  5.00000E-01  9.03208E-01  5.49779E+00  2.45991E+00  5.50095E-02 F
  5.00000E-01  9.03208E-01  5.69414E+00  2.43577E+00  4.54635E-02 F
  5.00000E-01  9.03208E-01  5.89049E+00  2.41562E+00  4.04773E-02 F
  5.00000E-01  9.03208E-01  6.08684E+00  2.39614E+00  4.30314E-02 F
  5.00000E-01  9.42478E-01  0.00000E+00  2.37463E+00  6.04553E-02 F
  5.00000E-01  9.42478E-01  1.96350E-01  2.34619E+00  6.12683E-02 F
  5.00000E-01  9.42478E-01  3.92699E-01  2.31943E+00  5.40659E-02 F
  5.00000E-01  9.42478E-01  5.89049E-01  2.29812E+00  3.90350E-02 F
  5.00000E-01  9.42478E-01  7.85398E-01  2.28444E+00  2.19121E-02 F
  5.00000E-01  9.42478E-01  9.81748E-01  2.27834E+00  5.06362E-03 F
  5.00000E-01  9.42478E-01  1.17810E+00  2.28022E+00 -1.34600E-02 F
  5.00000E-01  9.42478E-01  1.37445E+00  2.28985E+00 -2.84179E-02 F
  5.00000E-01  9.42478E-01  1.57080E+00  2.30498E+00 -3.80537E-02 F
  5.00000E-01  9.42478E-01  1.76715E+00  2.32382E+00 -4.42870E-02 F
  5.00000E-01  9.42478E-01  1.96350E+00  2.34494E+00 -4.74626E-02 F
  5.00000E-01  9.42478E-01  2.15985E+00  2.36722E+00 -4.85188E-02 F
  5.00000E-01  9.42478E-01  2.35619E+00  2.38988E+00 -4.86088E-02 F
  5.00000E-01  9.42478E-01  2.55254E+00  2.41311E+00 -5.01696E-02 F
  5.00000E-01  9.42478E-01  2.74889E+00  2.43749E+00 -5.23015E-02 F
  5.00000E-01  9.42478E-01  2.94524E+00  2.46346E+00 -5.60221E-02 F
  5.00000E-01  9.42478E-01  3.14159E+00  2.49188E+00 -6.06899E-02 F
  5.00000E-01  9.42478E-01  3.33794E+00  2.52253E+00 -6.33572E-02 F
  5.00000E-01  9.42478E-01  3.53429E+00  2.55407E+00 -6.24397E-02 F
  5.00000E-01  9.42478E-01  3.73064E+00  2.58426E+00 -5.63824E-02 F
  5.00000E-01  9.42478E-01  3.92699E+00  2.61034E+00 -4.48091E-02 F
  5.00000E-01  9.42478E-01  4.12334E+00  2.62865E+00 -2.47771E-02 F
  5.00000E-01  9.42478E-01  4.31969E+00  2.63444E+00  3.20202E-03 F
  5.00000E-01  9.42478E-01  4.51604E+00  2.62532E+00  3.12963E-02 F
  5.00000E-01  9.42478E-01  4.71239E+00  2.60371E+00  5.11661E-02 F
  5.00000E-01  9.42478E-01  4.90874E+00  2.57482E+00  6.09661E-02 F
  5.00000E-01  9.42478E-01  5.10509E+00  2.54329E+00  6.36930E-02 F
  5.00000E-01  9.42478E-01  5.30144E+00  2.51180E+00  6.27800E-02 F
  5.00000E-01  9.42478E-01  5.49779E+00  2.48182E+00  5.90321E-02 F
  5.00000E-01  9.42478E-01  5.69414E+00  2.45439E+00  5.45540E-02 F
  5.00000E-01  9.42478E-01  5.89049E+00  2.42849E+00  5.42963E-02 F
  5.00000E-01  9.42478E-01  6.08684E+00  2.40216E+00  5.69711E-02 F
  5.00000E-01  9.81748E-01  0.00000E+00  2.35327E+00  7.48454E-02 F
  5.00000E-01  9.81748E-01  1.96350E-01  2.32127E+00  6.31309E-02 F
  5.00000E-01  9.81748E-01  3.92699E-01  2.29670E+00  4.43811E-02 F
  5.00000E-01  9.81748E-01  5.89049E-01  2.28164E+00  2.26351E-02 F
  5.00000E-01  9.81748E-01  7.85398E-01  2.27565E+00  5.39580E-03 F
  5.00000E-01  9.81748E-01  9.81748E-01  2.27618E+00 -7.95791E-03 F
  5.00000E-01  9.81748E-01  1.17810E+00  2.28329E+00 -2.40305E-02 F
  5.00000E-01  9.81748E-01  1.37445E+00  2.29732E+00 -3.74951E-02 F
  5.00000E-01  9.81748E-01  1.57080E+00  2.31657E+00 -4.70776E-02 F
  5.00000E-01  9.81748E-01  1.76715E+00  2.33976E+00 -5.38668E-02 F
  5.00000E-01  9.81748E-01  1.96350E+00  2.36564E+00 -5.77800E-02 F
  5.00000E-01  9.81748E-01  2.15985E+00  2.39317E+00 -5.98289E-02 F
  5.00000E-01  9.81748E-01  2.35619E+00  2.42183E+00 -6.15759E-02 F
  5.00000E-01  9.81748E-01  2.55254E+00  2.45178E+00 -6.34367E-02 F
  5.00000E-01  9.81748E-01  2.74889E+00  2.48270E+00 -6.41741E-02 F
  5.00000E-01  9.81748E-01  2.94524E+00  2.51446E+00 -6.52788E-02 F
  5.00000E-01  9.81748E-01  3.14159E+00  2.54674E+00 -6.39096E-02 F
  5.00000E-01  9.81748E-01  3.33794E+00  2.57767E+00 -5.85473E-02 F
  5.00000E-01  9.81748E-01  3.53429E+00  2.60554E+00 -5.06564E-02 F
  5.00000E-01  9.81748E-01  3.73064E+00  2.62927E+00 -4.15393E-02 F
  5.00000E-01  9.81748E-01  3.92699E+00  2.64795E+00 -2.96932E-02 F
  5.00000E-01  9.81748E-01  4.12334E+00  2.65884E+00 -1.08326E-02 F
  5.00000E-01  9.81748E-01  4.31969E+00  2.65817E+00  1.39660E-02 F
  5.00000E-01  9.81748E-01  4.51604E+00  2.64438E+00  3.82168E-02 F
  5.00000E-01  9.81748E-01  4.71239E+00  2.62001E+00  5.44176E-02 F
  5.00000E-01  9.81748E-01  4.90874E+00  2.58997E+00  6.18782E-02 F
  5.00000E-01  9.81748E-01  5.10509E+00  2.55789E+00  6.46521E-02 F
  5.00000E-01  9.81748E-01  5.30144E+00  2.52528E+00  6.59236E-02 F
  5.00000E-01  9.81748E-01  5.49779E+00  2.49259E+00  6.68562E-02 F
  5.00000E-01  9.81748E-01  5.69414E+00  2.45954E+00  6.95887E-02 F
  5.00000E-01  9.81748E-01  5.89049E+00  2.42503E+00  7.43833E-02 F
  5.00000E-01  9.81748E-01  6.08684E+00  2.38903E+00  7.74100E-02 F
  5.00000E-01  1.02102E+00  0.00000E+00  2.34726E+00  7.60622E-02 F
  5.00000E-01  1.02102E+00  1.96350E-01  2.31647E+00  5.75595E-02 F
  5.00000E-01  1.02102E+00  3.92699E-01  2.29530E+00  3.53372E-02 F
  5.00000E-01  1.02102E+00  5.89049E-01  2.28492E+00  1.12663E-02 F
  5.00000E-01  1.02102E+00  7.85398E-01  2.28386E+00 -4.84856E-03 F
  5.00000E-01  1.02102E+00  9.81748E-01  2.28883E+00 -1.80758E-02 F
  5.00000E-01  1.02102E+00  1.17810E+00  2.30083E+00 -3.51357E-02 F
  5.00000E-01  1.02102E+00  1.37445E+00  2.31981E+00 -4.74688E-02 F
  5.00000E-01  1.02102E+00  1.57080E+00  2.34354E+00 -5.58038E-02 F
  5.00000E-01  1.02102E+00  1.76715E+00  2.37067E+00 -6.06858E-02 F
  5.00000E-01  1.02102E+00  1.96350E+00  2.39943E+00 -6.16341E-02 F
  5.00000E-01  1.02102E+00  2.15985E+00  2.42848E+00 -6.09240E-02 F
  5.00000E-01  1.02102E+00  2.35619E+00  2.45769E+00 -6.11155E-02 F
  5.00000E-01  1.02102E+00  2.55254E+00  2.48758E+00 -6.20280E-02 F
  5.00000E-01  1.02102E+00  2.74889E+00  2.51849E+00 -6.41993E-02 F
  5.00000E-01  1.02102E+00  2.94524E+00  2.55130E+00 -6.72856E-02 F
  5.00000E-01  1.02102E+00  3.14159E+00  2.58506E+00 -6.55353E-02 F
  5.00000E-01  1.02102E+00  3.33794E+00  2.61676E+00 -5.77372E-02 F
  5.00000E-01  1.02102E+00  3.53429E+00  2.64359E+00 -4.56606E-02 F
  5.00000E-01  1.02102E+00  3.73064E+00  2.66391E+00 -3.23019E-02 F
  5.00000E-01  1.02102E+00  3.92699E+00  2.67709E+00 -1.74866E-02 F
  5.00000E-01  1.02102E+00  4.12334E+00  2.68168E+00  5.96318E-04 F
  5.00000E-01  1.02102E+00  4.31969E+00  2.67591E+00  2.16866E-02 F
  5.00000E-01  1.02102E+00  4.51604E+00  2.65914E+00  4.14761E-02 F
  5.00000E-01  1.02102E+00  4.71239E+00  2.63400E+00  5.40205E-02 F
  5.00000E-01  1.02102E+00  4.90874E+00  2.60429E+00  6.08762E-02 F
  5.00000E-01  1.02102E+00  5.10509E+00  2.57218E+00  6.52794E-02 F
  5.00000E-01  1.02102E+00  5.30144E+00  2.53842E+00  6.93896E-02 F
  5.00000E-01  1.02102E+00  5.49779E+00  2.50289E+00  7.43907E-02 F
  5.00000E-01  1.02102E+00  5.69414E+00  2.46522E+00  8.00840E-02 F
  5.00000E-01  1.02102E+00  5.89049E+00  2.42558E+00  8.46528E-02 F
  5.00000E-01  1.02102E+00  6.08684E+00  2.38520E+00  8.52493E-02 F
  5.00000E-01  1.06029E+00  0.00000E+00  2.35887E+00  6.03400E-02 F
  5.00000E-01  1.06029E+00  1.96350E-01  2.33530E+00  4.21194E-02 F
  5.00000E-01  1.06029E+00  3.92699E-01  2.32053E+00  2.13820E-02 F
  5.00000E-01  1.06029E+00  5.89049E-01  2.31632E+00 -2.05193E-03 F
  5.00000E-01  1.06029E+00  7.85398E-01  2.32082E+00 -1.64106E-02 F
  5.00000E-01  1.06029E+00  9.81748E-01  2.33146E+00 -3.11823E-02 F
  5.00000E-01  1.06029E+00  1.17810E+00  2.34954E+00 -4.63378E-02 F
  5.00000E-01  1.06029E+00  1.37445E+00  2.37287E+00 -5.33341E-02 F
  5.00000E-01  1.06029E+00  1.57080E+00  2.39898E+00 -5.79739E-02 F
  5.00000E-01  1.06029E+00  1.76715E+00  2.42699E+00 -5.94602E-02 F
  5.00000E-01  1.06029E+00  1.96350E+00  2.45503E+00 -5.71661E-02 F
  5.00000E-01  1.06029E+00  2.15985E+00  2.48190E+00 -5.37270E-02 F
  5.00000E-01  1.06029E+00  2.35619E+00  2.50759E+00 -5.14346E-02 F
  5.00000E-01  1.06029E+00  2.55254E+00  2.53289E+00 -5.13513E-02 F
  5.00000E-01  1.06029E+00  2.74889E+00  2.55939E+00 -5.53537E-02 F
  5.00000E-01  1.06029E+00  2.94524E+00  2.58865E+00 -5.98422E-02 F
  5.00000E-01  1.06029E+00  3.14159E+00  2.61930E+00 -5.90546E-02 F
  5.00000E-01  1.06029E+00  3.33794E+00  2.64829E+00 -5.19870E-02 F
  5.00000E-01  1.06029E+00  3.53429E+00  2.67235E+00 -3.95195E-02 F
  5.00000E-01  1.06029E+00  3.73064E+00  2.68939E+00 -2.50385E-02 F
  5.00000E-01  1.06029E+00  3.92699E+00  2.69850E+00 -9.13031E-03 F
  5.00000E-01  1.06029E+00  4.12334E+00  2.69877E+00  8.44425E-03 F
  5.00000E-01  1.06029E+00  4.31969E+00  2.68917E+00  2.80055E-02 F
  5.00000E-01  1.06029E+00  4.51604E+00  2.66974E+00  4.47998E-02 F
  5.00000E-01  1.06029E+00  4.71239E+00  2.64344E+00  5.52047E-02 F
  5.00000E-01  1.06029E+00  4.90874E+00  2.61304E+00  6.22262E-02 F
  5.00000E-01  1.06029E+00  5.10509E+00  2.57993E+00  6.75732E-02 F
  5.00000E-01  1.06029E+00  5.30144E+00  2.54450E+00  7.34427E-02 F
  5.00000E-01  1.06029E+00  5.49779E+00  2.50661E+00  7.90462E-02 F
  5.00000E-01  1.06029E+00  5.69414E+00  2.46726E+00  8.14899E-02 F
  5.00000E-01  1.06029E+00  5.89049E+00  2.42815E+00  8.08410E-02 F
  5.00000E-01  1.06029E+00  6.08684E+00  2.39086E+00  7.54408E-02 F
  5.00000E-01  1.09956E+00  0.00000E+00  2.33489E+00  4.51993E-02 F
  5.00000E-01  1.09956E+00  1.96350E-01  2.31920E+00  2.44578E-02 F
  5.00000E-01  1.09956E+00  3.92699E-01  2.31270E+00  3.31991E-03 F
  5.00000E-01  1.09956E+00  5.89049E-01  2.31601E+00 -1.62993E-02 F
  5.00000E-01  1.09956E+00  7.85398E-01  2.32620E+00 -2.84148E-02 F
  5.00000E-01  1.09956E+00  9.81748E-01  2.34310E+00 -4.62967E-02 F
  5.00000E-01  1.09956E+00  1.17810E+00  2.36821E+00 -6.02578E-02 F
  5.00000E-01  1.09956E+00  1.37445E+00  2.39765E+00 -6.48221E-02 F
  5.00000E-01  1.09956E+00  1.57080E+00  2.42892E+00 -6.66448E-02 F
  5.00000E-01  1.09956E+00  1.76715E+00  2.46050E+00 -6.43139E-02 F
  5.00000E-01  1.09956E+00  1.96350E+00  2.49079E+00 -6.03214E-02 F
  5.00000E-01  1.09956E+00  2.15985E+00  2.51953E+00 -5.66185E-02 F
  5.00000E-01  1.09956E+00  2.35619E+00  2.54696E+00 -5.39121E-02 F
  5.00000E-01  1.09956E+00  2.55254E+00  2.57379E+00 -5.33214E-02 F
  5.00000E-01  1.09956E+00  2.74889E+00  2.60130E+00 -5.50749E-02 F
  5.00000E-01  1.09956E+00  2.94524E+00  2.62965E+00 -5.45678E-02 F
  5.00000E-01  1.09956E+00  3.14159E+00  2.65684E+00 -4.94605E-02 F
  5.00000E-01  1.09956E+00  3.33794E+00  2.68032E+00 -3.93195E-02 F
  5.00000E-01  1.09956E+00  3.53429E+00  2.69763E+00 -2.61458E-02 F
  5.00000E-01  1.09956E+00  3.73064E+00  2.70803E+00 -1.30106E-02 F
  5.00000E-01  1.09956E+00  3.92699E+00  2.71128E+00  1.02732E-03 F
  5.00000E-01  1.09956E+00  4.12334E+00  2.70657E+00  1.71704E-02 F
  5.00000E-01  1.09956E+00  4.31969E+00  2.69261E+00  3.54798E-02 F
  5.00000E-01  1.09956E+00  4.51604E+00  2.66981E+00  5.01255E-02 F
  5.00000E-01  1.09956E+00  4.71239E+00  2.64097E+00  6.00587E-02 F
  5.00000E-01  1.09956E+00  4.90874E+00  2.60794E+00  6.78156E-02 F
  5.00000E-01  1.09956E+00  5.10509E+00  2.57160E+00  7.54401E-02 F
  5.00000E-01  1.09956E+00  5.30144E+00  2.53138E+00  8.53408E-02 F
  5.00000E-01  1.09956E+00  5.49779E+00  2.48724E+00  9.28793E-02 F
  5.00000E-01  1.09956E+00  5.69414E+00  2.44190E+00  9.32618E-02 F
  5.00000E-01  1.09956E+00  5.89049E+00  2.39883E+00  8.68275E-02 F
  5.00000E-01  1.09956E+00  6.08684E+00  2.36159E+00  7.03983E-02 F
  5.00000E-01  1.13883E+00  0.00000E+00  2.31578E+00  3.21889E-02 F
  5.00000E-01  1.13883E+00  1.96350E-01  2.30682E+00  8.51830E-03 F
  5.00000E-01  1.13883E+00  3.92699E-01  2.30786E+00 -1.29570E-02 F
  5.00000E-01  1.13883E+00  5.89049E-01  2.31734E+00 -2.67689E-02 F
  5.00000E-01  1.13883E+00  7.85398E-01  2.33162E+00 -3.70338E-02 F
  5.00000E-01  1.13883E+00  9.81748E-01  2.35278E+00 -5.54293E-02 F
  5.00000E-01  1.13883E+00  1.17810E+00  2.38179E+00 -6.75534E-02 F
  5.00000E-01  1.13883E+00  1.37445E+00  2.41489E+00 -7.23843E-02 F
  5.00000E-01  1.13883E+00  1.57080E+00  2.44975E+00 -7.26266E-02 F
  5.00000E-01  1.13883E+00  1.76715E+00  2.48403E+00 -6.86848E-02 F
  5.00000E-01  1.13883E+00  1.96350E+00  2.51681E+00 -6.50047E-02 F
  5.00000E-01  1.13883E+00  2.15985E+00  2.54834E+00 -6.18897E-02 F
  5.00000E-01  1.13883E+00  2.35619E+00  2.57892E+00 -5.98563E-02 F
  5.00000E-01  1.13883E+00  2.55254E+00  2.60919E+00 -5.91619E-02 F
  5.00000E-01  1.13883E+00  2.74889E+00  2.63942E+00 -5.76720E-02 F
  5.00000E-01  1.13883E+00  2.94524E+00  2.66812E+00 -5.16246E-02 F
  5.00000E-01  1.13883E+00  3.14159E+00  2.69257E+00 -4.03686E-02 F
  5.00000E-01  1.13883E+00  3.33794E+00  2.70988E+00 -2.44652E-02 F
  5.00000E-01  1.13883E+00  3.53429E+00  2.71875E+00 -9.45283E-03 F
  5.00000E-01  1.13883E+00  3.73064E+00  2.72059E+00  2.17855E-03 F
  5.00000E-01  1.13883E+00  3.92699E+00  2.71659E+00  1.28677E-02 F
  5.00000E-01  1.13883E+00  4.12334E+00  2.70651E+00  2.55960E-02 F
  5.00000E-01  1.13883E+00  4.31969E+00  2.68900E+00  4.03956E-02 F
  5.00000E-01  1.13883E+00  4.51604E+00  2.66447E+00  5.23456E-02 F
  5.00000E-01  1.13883E+00  4.71239E+00  2.63469E+00  6.19128E-02 F
  5.00000E-01  1.13883E+00  4.90874E+00  2.60071E+00  7.02394E-02 F
  5.00000E-01  1.13883E+00  5.10509E+00  2.56259E+00  8.09330E-02 F
  5.00000E-01  1.13883E+00  5.30144E+00  2.51882E+00  9.44721E-02 F
  5.00000E-01  1.13883E+00  5.49779E+00  2.47006E+00  1.03252E-01 F
  5.00000E-01  1.13883E+00  5.69414E+00  2.42029E+00  1.02418E-01 F
  5.00000E-01  1.13883E+00  5.89049E+00  2.37429E+00  9.09624E-02 F
  5.00000E-01  1.13883E+00  6.08684E+00  2.33771E+00  6.46538E-02 F
  5.00000E-01  1.17810E+00  0.00000E+00  2.34301E+00  2.22105E-02 F
  5.00000E-01  1.17810E+00  1.96350E-01  2.33818E+00 -1.00648E-03 F
  5.00000E-01  1.17810E+00  3.92699E-01  2.34406E+00 -2.38652E-02 F
  5.00000E-01  1.17810E+00  5.89049E-01  2.35843E+00 -3.63756E-02 F
  5.00000E-01  1.17810E+00  7.85398E-01  2.37738E+00 -4.61375E-02 F
  5.00000E-01  1.17810E+00  9.81748E-01  2.40213E+00 -5.87550E-02 F
  5.00000E-01  1.17810E+00  1.17810E+00  2.43165E+00 -6.45682E-02 F
  5.00000E-01  1.17810E+00  1.37445E+00  2.46331E+00 -6.67898E-02 F
  5.00000E-01  1.17810E+00  1.57080E+00  2.49563E+00 -6.53804E-02 F
  5.00000E-01  1.17810E+00  1.76715E+00  2.52717E+00 -6.26658E-02 F
  5.00000E-01  1.17810E+00  1.96350E+00  2.55785E+00 -6.00870E-02 F
  5.00000E-01  1.17810E+00  2.15985E+00  2.58747E+00 -5.73472E-02 F
  5.00000E-01  1.17810E+00  2.35619E+00  2.61636E+00 -5.60009E-02 F
  5.00000E-01  1.17810E+00  2.55254E+00  2.64518E+00 -5.56163E-02 F
  5.00000E-01  1.17810E+00  2.74889E+00  2.67377E+00 -5.31506E-02 F
  5.00000E-01  1.17810E+00  2.94524E+00  2.69999E+00 -4.52233E-02 F
  5.00000E-01  1.17810E+00  3.14159E+00  2.72046E+00 -3.05589E-02 F
  5.00000E-01  1.17810E+00  3.33794E+00  2.73175E+00 -1.15447E-02 F
  5.00000E-01  1.17810E+00  3.53429E+00  2.73345E+00  4.33232E-03 F
  5.00000E-01  1.17810E+00  3.73064E+00  2.72791E+00  1.57575E-02 F
  5.00000E-01  1.17810E+00  3.92699E+00  2.71706E+00  2.46603E-02 F
  5.00000E-01  1.17810E+00  4.12334E+00  2.70145E+00  3.43484E-02 F
  5.00000E-01  1.17810E+00  4.31969E+00  2.68054E+00  4.45749E-02 F
  5.00000E-01  1.17810E+00  4.51604E+00  2.65492E+00  5.30542E-02 F
  5.00000E-01  1.17810E+00  4.71239E+00  2.62542E+00  6.05290E-02 F
  5.00000E-01  1.17810E+00  4.90874E+00  2.59271E+00  6.73466E-02 F
  5.00000E-01  1.17810E+00  5.10509E+00  2.55634E+00  7.71090E-02 F
  5.00000E-01  1.17810E+00  5.30144E+00  2.51533E+00  8.70749E-02 F
  5.00000E-01  1.17810E+00  5.49779E+00  2.47142E+00  9.09789E-02 F
  5.00000E-01  1.17810E+00  5.69414E+00  2.42829E+00  8.71731E-02 F
  5.00000E-01  1.17810E+00  5.89049E+00  2.38945E+00  7.53358E-02 F
  5.00000E-01  1.17810E+00  6.08684E+00  2.35961E+00  5.05874E-02 F
  5.00000E-01  1.21737E+00  0.00000E+00  2.34838E+00  1.46782E-02 F
  5.00000E-01  1.21737E+00  1.96350E-01  2.34673E+00 -8.39819E-03 F
  5.00000E-01  1.21737E+00  3.92699E-01  2.35672E+00 -3.42449E-02 F
  5.00000E-01  1.21737E+00  5.89049E-01  2.37687E+00 -5.07901E-02 F
  5.00000E-01  1.21737E+00  7.85398E-01  2.40364E+00 -6.32170E-02 F
  5.00000E-01  1.21737E+00  9.81748E-01  2.43590E+00 -7.10522E-02 F
  5.00000E-01  1.21737E+00  1.17810E+00  2.47025E+00 -7.07338E-02 F
  5.00000E-01  1.21737E+00  1.37445E+00  2.50402E+00 -6.71607E-02 F
  5.00000E-01  1.21737E+00  1.57080E+00  2.53609E+00 -6.27071E-02 F
  5.00000E-01  1.21737E+00  1.76715E+00  2.56687E+00 -6.04105E-02 F
  5.00000E-01  1.21737E+00  1.96350E+00  2.59688E+00 -5.77709E-02 F
  5.00000E-01  1.21737E+00  2.15985E+00  2.62567E+00 -5.45298E-02 F
  5.00000E-01  1.21737E+00  2.35619E+00  2.65310E+00 -5.13112E-02 F
  5.00000E-01  1.21737E+00  2.55254E+00  2.67913E+00 -4.80955E-02 F
  5.00000E-01  1.21737E+00  2.74889E+00  2.70333E+00 -4.29081E-02 F
  5.00000E-01  1.21737E+00  2.94524E+00  2.72383E+00 -3.31323E-02 F
  5.00000E-01  1.21737E+00  3.14159E+00  2.73762E+00 -1.73052E-02 F
  5.00000E-01  1.21737E+00  3.33794E+00  2.74190E+00  1.18501E-03 F
  5.00000E-01  1.21737E+00  3.53429E+00  2.73699E+00  1.64150E-02 F
  5.00000E-01  1.21737E+00  3.73064E+00  2.72489E+00  2.81721E-02 F
  5.00000E-01  1.21737E+00  3.92699E+00  2.70738E+00  3.72460E-02 F
  5.00000E-01  1.21737E+00  4.12334E+00  2.68537E+00  4.58184E-02 F
  5.00000E-01  1.21737E+00  4.31969E+00  2.65938E+00  5.29012E-02 F
  5.00000E-01  1.21737E+00  4.51604E+00  2.63039E+00  5.86548E-02 F
  5.00000E-01  1.21737E+00  4.71239E+00  2.59898E+00  6.34735E-02 F
  5.00000E-01  1.21737E+00  4.90874E+00  2.56557E+00  6.87657E-02 F
  5.00000E-01  1.21737E+00  5.10509E+00  2.52930E+00  7.63322E-02 F
  5.00000E-01  1.21737E+00  5.30144E+00  2.49027E+00  8.12119E-02 F
  5.00000E-01  1.21737E+00  5.49779E+00  2.45099E+00  7.94888E-02 F
  5.00000E-01  1.21737E+00  5.69414E+00  2.41469E+00  7.18312E-02 F
  5.00000E-01  1.21737E+00  5.89049E+00  2.38344E+00  5.96469E-02 F
  5.00000E-01  1.21737E+00  6.08684E+00  2.36038E+00  3.79467E-02 F
