s \zeta_{Boozer}  \theta_{Boozer}(right-handed)  B[T]  (v_B.\nabla\psi)[A.U.]
  2.00000E-01  0.00000E+00  0.00000E+00  2.38213E+00  0.00000E+00 F
  2.00000E-01  0.00000E+00  1.96350E-01  2.38510E+00 -1.29112E-02 F
  2.00000E-01  0.00000E+00  3.92699E-01  2.39438E+00 -2.64281E-02 F
  2.00000E-01  0.00000E+00  5.89049E-01  2.40942E+00 -3.66146E-02 F
  2.00000E-01  0.00000E+00  7.85398E-01  2.42852E+00 -4.34964E-02 F
  2.00000E-01  0.00000E+00  9.81748E-01  2.45065E+00 -4.84664E-02 F
  2.00000E-01  0.00000E+00  1.17810E+00  2.47464E+00 -5.01839E-02 F
  2.00000E-01  0.00000E+00  1.37445E+00  2.49903E+00 -4.95277E-02 F
  2.00000E-01  0.00000E+00  1.57080E+00  2.52310E+00 -4.79354E-02 F
  2.00000E-01  0.00000E+00  1.76715E+00  2.54631E+00 -4.51218E-02 F
  2.00000E-01  0.00000E+00  1.96350E+00  2.56797E+00 -4.09057E-02 F
  2.00000E-01  0.00000E+00  2.15985E+00  2.58728E+00 -3.51933E-02 F
  2.00000E-01  0.00000E+00  2.35619E+00  2.60360E+00 -2.88583E-02 F
  2.00000E-01  0.00000E+00  2.55254E+00  2.61687E+00 -2.29902E-02 F
  2.00000E-01  0.00000E+00  2.74889E+00  2.62715E+00 -1.67416E-02 F
  2.00000E-01  0.00000E+00  2.94524E+00  2.63385E+00 -8.96446E-03 F
  2.00000E-01  0.00000E+00  3.14159E+00  2.63620E+00  4.08824E-09 F
  2.00000E-01  0.00000E+00  3.33794E+00  2.63385E+00  8.96447E-03 F
  2.00000E-01  0.00000E+00  3.53429E+00  2.62715E+00  1.67416E-02 F
  2.00000E-01  0.00000E+00  3.73064E+00  2.61687E+00  2.29902E-02 F
  2.00000E-01  0.00000E+00  3.92699E+00  2.60360E+00  2.88583E-02 F
  2.00000E-01  0.00000E+00  4.12334E+00  2.58728E+00  3.51933E-02 F
  2.00000E-01  0.00000E+00  4.31969E+00  2.56797E+00  4.09057E-02 F
  2.00000E-01  0.00000E+00  4.51604E+00  2.54631E+00  4.51218E-02 F
  2.00000E-01  0.00000E+00  4.71239E+00  2.52310E+00  4.79354E-02 F
  2.00000E-01  0.00000E+00  4.90874E+00  2.49903E+00  4.95277E-02 F
  2.00000E-01  0.00000E+00  5.10509E+00  2.47464E+00  5.01839E-02 F
  2.00000E-01  0.00000E+00  5.30144E+00  2.45065E+00  4.84664E-02 F
  2.00000E-01  0.00000E+00  5.49779E+00  2.42852E+00  4.34964E-02 F
  2.00000E-01  0.00000E+00  5.69414E+00  2.40942E+00  3.66146E-02 F
  2.00000E-01  0.00000E+00  5.89049E+00  2.39438E+00  2.64280E-02 F
  2.00000E-01  0.00000E+00  6.08684E+00  2.38510E+00  1.29111E-02 F
  2.00000E-01  3.92699E-02  0.00000E+00  2.38962E+00 -8.06050E-03 F
  2.00000E-01  3.92699E-02  1.96350E-01  2.39639E+00 -2.09826E-02 F
  2.00000E-01  3.92699E-02  3.92699E-01  2.40928E+00 -3.31511E-02 F
  2.00000E-01  3.92699E-02  5.89049E-01  2.42711E+00 -4.12623E-02 F
  2.00000E-01  3.92699E-02  7.85398E-01  2.44823E+00 -4.67313E-02 F
  2.00000E-01  3.92699E-02  9.81748E-01  2.47169E+00 -4.98800E-02 F
  2.00000E-01  3.92699E-02  1.17810E+00  2.49612E+00 -4.98730E-02 F
  2.00000E-01  3.92699E-02  1.37445E+00  2.52033E+00 -4.82765E-02 F
  2.00000E-01  3.92699E-02  1.57080E+00  2.54374E+00 -4.57321E-02 F
  2.00000E-01  3.92699E-02  1.76715E+00  2.56578E+00 -4.18779E-02 F
  2.00000E-01  3.92699E-02  1.96350E+00  2.58566E+00 -3.64866E-02 F
  2.00000E-01  3.92699E-02  2.15985E+00  2.60253E+00 -2.95595E-02 F
  2.00000E-01  3.92699E-02  2.35619E+00  2.61584E+00 -2.24942E-02 F
  2.00000E-01  3.92699E-02  2.55254E+00  2.62573E+00 -1.60032E-02 F
  2.00000E-01  3.92699E-02  2.74889E+00  2.63222E+00 -8.93267E-03 F
  2.00000E-01  3.92699E-02  2.94524E+00  2.63473E+00 -5.58607E-04 F
  2.00000E-01  3.92699E-02  3.14159E+00  2.63266E+00  8.59348E-03 F
  2.00000E-01  3.92699E-02  3.33794E+00  2.62594E+00  1.72213E-02 F
  2.00000E-01  3.92699E-02  3.53429E+00  2.61525E+00  2.39320E-02 F
  2.00000E-01  3.92699E-02  3.73064E+00  2.60171E+00  2.87462E-02 F
  2.00000E-01  3.92699E-02  3.92699E+00  2.58595E+00  3.32066E-02 F
  2.00000E-01  3.92699E-02  4.12334E+00  2.56797E+00  3.78333E-02 F
  2.00000E-01  3.92699E-02  4.31969E+00  2.54796E+00  4.16418E-02 F
  2.00000E-01  3.92699E-02  4.51604E+00  2.52652E+00  4.41989E-02 F
  2.00000E-01  3.92699E-02  4.71239E+00  2.50433E+00  4.54306E-02 F
  2.00000E-01  3.92699E-02  4.90874E+00  2.48201E+00  4.56915E-02 F
  2.00000E-01  3.92699E-02  5.10509E+00  2.45993E+00  4.50135E-02 F
  2.00000E-01  3.92699E-02  5.30144E+00  2.43895E+00  4.16946E-02 F
  2.00000E-01  3.92699E-02  5.49779E+00  2.42036E+00  3.60337E-02 F
  2.00000E-01  3.92699E-02  5.69414E+00  2.40491E+00  2.87647E-02 F
  2.00000E-01  3.92699E-02  5.89049E+00  2.39382E+00  1.76099E-02 F
  2.00000E-01  3.92699E-02  6.08684E+00  2.38869E+00  4.24999E-03 F
  2.00000E-01  7.85398E-02  0.00000E+00  2.38281E+00 -1.32810E-02 F
  2.00000E-01  7.85398E-02  1.96350E-01  2.39232E+00 -2.74117E-02 F
  2.00000E-01  7.85398E-02  3.92699E-01  2.40829E+00 -3.96591E-02 F
  2.00000E-01  7.85398E-02  5.89049E-01  2.42916E+00 -4.75814E-02 F
  2.00000E-01  7.85398E-02  7.85398E-01  2.45324E+00 -5.24241E-02 F
  2.00000E-01  7.85398E-02  9.81748E-01  2.47908E+00 -5.35874E-02 F
  2.00000E-01  7.85398E-02  1.17810E+00  2.50488E+00 -5.15487E-02 F
  2.00000E-01  7.85398E-02  1.37445E+00  2.52958E+00 -4.82438E-02 F
  2.00000E-01  7.85398E-02  1.57080E+00  2.55263E+00 -4.39721E-02 F
  2.00000E-01  7.85398E-02  1.76715E+00  2.57345E+00 -3.86026E-02 F
  2.00000E-01  7.85398E-02  1.96350E+00  2.59136E+00 -3.17468E-02 F
  2.00000E-01  7.85398E-02  2.15985E+00  2.60554E+00 -2.38017E-02 F
  2.00000E-01  7.85398E-02  2.35619E+00  2.61581E+00 -1.64236E-02 F
  2.00000E-01  7.85398E-02  2.55254E+00  2.62252E+00 -9.69374E-03 F
  2.00000E-01  7.85398E-02  2.74889E+00  2.62567E+00 -2.36501E-03 F
  2.00000E-01  7.85398E-02  2.94524E+00  2.62475E+00  6.13917E-03 F
  2.00000E-01  7.85398E-02  3.14159E+00  2.61922E+00  1.53801E-02 F
  2.00000E-01  7.85398E-02  3.33794E+00  2.60909E+00  2.37785E-02 F
  2.00000E-01  7.85398E-02  3.53429E+00  2.59529E+00  2.98015E-02 F
  2.00000E-01  7.85398E-02  3.73064E+00  2.57907E+00  3.38710E-02 F
  2.00000E-01  7.85398E-02  3.92699E+00  2.56106E+00  3.75157E-02 F
  2.00000E-01  7.85398E-02  4.12334E+00  2.54139E+00  4.09134E-02 F
  2.00000E-01  7.85398E-02  4.31969E+00  2.52039E+00  4.34016E-02 F
  2.00000E-01  7.85398E-02  4.51604E+00  2.49865E+00  4.46065E-02 F
  2.00000E-01  7.85398E-02  4.71239E+00  2.47689E+00  4.42262E-02 F
  2.00000E-01  7.85398E-02  4.90874E+00  2.45579E+00  4.28284E-02 F
  2.00000E-01  7.85398E-02  5.10509E+00  2.43578E+00  4.01228E-02 F
  2.00000E-01  7.85398E-02  5.30144E+00  2.41778E+00  3.51432E-02 F
  2.00000E-01  7.85398E-02  5.49779E+00  2.40249E+00  2.94493E-02 F
  2.00000E-01  7.85398E-02  5.69414E+00  2.39017E+00  2.24217E-02 F
  2.00000E-01  7.85398E-02  5.89049E+00  2.38208E+00  1.15236E-02 F
  2.00000E-01  7.85398E-02  6.08684E+00  2.37958E+00 -7.79681E-04 F
  2.00000E-01  1.17810E-01  0.00000E+00  2.36209E+00 -1.98579E-02 F
  2.00000E-01  1.17810E-01  1.96350E-01  2.37478E+00 -3.46309E-02 F
  2.00000E-01  1.17810E-01  3.92699E-01  2.39396E+00 -4.65543E-02 F
  2.00000E-01  1.17810E-01  5.89049E-01  2.41794E+00 -5.44047E-02 F
  2.00000E-01  1.17810E-01  7.85398E-01  2.44506E+00 -5.84648E-02 F
  2.00000E-01  1.17810E-01  9.81748E-01  2.47334E+00 -5.79509E-02 F
  2.00000E-01  1.17810E-01  1.17810E+00  2.50086E+00 -5.44922E-02 F
  2.00000E-01  1.17810E-01  1.37445E+00  2.52663E+00 -4.97547E-02 F
  2.00000E-01  1.17810E-01  1.57080E+00  2.55003E+00 -4.39826E-02 F
  2.00000E-01  1.17810E-01  1.76715E+00  2.57047E+00 -3.70688E-02 F
  2.00000E-01  1.17810E-01  1.96350E+00  2.58713E+00 -2.84571E-02 F
  2.00000E-01  1.17810E-01  2.15985E+00  2.59923E+00 -1.91355E-02 F
  2.00000E-01  1.17810E-01  2.35619E+00  2.60681E+00 -1.07512E-02 F
  2.00000E-01  1.17810E-01  2.55254E+00  2.61036E+00 -3.14049E-03 F
  2.00000E-01  1.17810E-01  2.74889E+00  2.61001E+00  4.55728E-03 F
  2.00000E-01  1.17810E-01  2.94524E+00  2.60557E+00  1.29316E-02 F
  2.00000E-01  1.17810E-01  3.14159E+00  2.59672E+00  2.16809E-02 F
  2.00000E-01  1.17810E-01  3.33794E+00  2.58370E+00  2.91504E-02 F
  2.00000E-01  1.17810E-01  3.53429E+00  2.56758E+00  3.42277E-02 F
  2.00000E-01  1.17810E-01  3.73064E+00  2.54946E+00  3.77887E-02 F
  2.00000E-01  1.17810E-01  3.92699E+00  2.52980E+00  4.10316E-02 F
  2.00000E-01  1.17810E-01  4.12334E+00  2.50877E+00  4.39002E-02 F
  2.00000E-01  1.17810E-01  4.31969E+00  2.48669E+00  4.59884E-02 F
  2.00000E-01  1.17810E-01  4.51604E+00  2.46409E+00  4.66936E-02 F
  2.00000E-01  1.17810E-01  4.71239E+00  2.44180E+00  4.56277E-02 F
  2.00000E-01  1.17810E-01  4.90874E+00  2.42054E+00  4.32097E-02 F
  2.00000E-01  1.17810E-01  5.10509E+00  2.40106E+00  3.86064E-02 F
  2.00000E-01  1.17810E-01  5.30144E+00  2.38445E+00  3.19708E-02 F
  2.00000E-01  1.17810E-01  5.49779E+00  2.37107E+00  2.53605E-02 F
  2.00000E-01  1.17810E-01  5.69414E+00  2.36110E+00  1.69925E-02 F
  2.00000E-01  1.17810E-01  5.89049E+00  2.35582E+00  5.48013E-03 F
  2.00000E-01  1.17810E-01  6.08684E+00  2.35607E+00 -6.55189E-03 F
  2.00000E-01  1.57080E-01  0.00000E+00  2.36939E+00 -2.72628E-02 F
  2.00000E-01  1.57080E-01  1.96350E-01  2.38499E+00 -3.91975E-02 F
  2.00000E-01  1.57080E-01  3.92699E-01  2.40558E+00 -4.77955E-02 F
  2.00000E-01  1.57080E-01  5.89049E-01  2.42969E+00 -5.33135E-02 F
  2.00000E-01  1.57080E-01  7.85398E-01  2.45593E+00 -5.53968E-02 F
  2.00000E-01  1.57080E-01  9.81748E-01  2.48252E+00 -5.38510E-02 F
  2.00000E-01  1.57080E-01  1.17810E+00  2.50812E+00 -5.04209E-02 F
  2.00000E-01  1.57080E-01  1.37445E+00  2.53197E+00 -4.57841E-02 F
  2.00000E-01  1.57080E-01  1.57080E+00  2.55342E+00 -3.99633E-02 F
  2.00000E-01  1.57080E-01  1.76715E+00  2.57174E+00 -3.24597E-02 F
  2.00000E-01  1.57080E-01  1.96350E+00  2.58580E+00 -2.28247E-02 F
  2.00000E-01  1.57080E-01  2.15985E+00  2.59479E+00 -1.26033E-02 F
  2.00000E-01  1.57080E-01  2.35619E+00  2.59879E+00 -3.23557E-03 F
  2.00000E-01  1.57080E-01  2.55254E+00  2.59826E+00  5.18450E-03 F
  2.00000E-01  1.57080E-01  2.74889E+00  2.59361E+00  1.29803E-02 F
  2.00000E-01  1.57080E-01  2.94524E+00  2.58504E+00  2.07372E-02 F
  2.00000E-01  1.57080E-01  3.14159E+00  2.57265E+00  2.79903E-02 F
  2.00000E-01  1.57080E-01  3.33794E+00  2.55713E+00  3.32402E-02 F
  2.00000E-01  1.57080E-01  3.53429E+00  2.53968E+00  3.62103E-02 F
  2.00000E-01  1.57080E-01  3.73064E+00  2.52119E+00  3.81642E-02 F
  2.00000E-01  1.57080E-01  3.92699E+00  2.50192E+00  3.99885E-02 F
  2.00000E-01  1.57080E-01  4.12334E+00  2.48194E+00  4.16328E-02 F
  2.00000E-01  1.57080E-01  4.31969E+00  2.46142E+00  4.27819E-02 F
  2.00000E-01  1.57080E-01  4.51604E+00  2.44080E+00  4.26516E-02 F
  2.00000E-01  1.57080E-01  4.71239E+00  2.42077E+00  4.10550E-02 F
  2.00000E-01  1.57080E-01  4.90874E+00  2.40198E+00  3.79925E-02 F
  2.00000E-01  1.57080E-01  5.10509E+00  2.38535E+00  3.22902E-02 F
  2.00000E-01  1.57080E-01  5.30144E+00  2.37196E+00  2.50226E-02 F
  2.00000E-01  1.57080E-01  5.49779E+00  2.36203E+00  1.75583E-02 F
  2.00000E-01  1.57080E-01  5.69414E+00  2.35606E+00  7.68783E-03 F
  2.00000E-01  1.57080E-01  5.89049E+00  2.35519E+00 -3.95522E-03 F
  2.00000E-01  1.57080E-01  6.08684E+00  2.35961E+00 -1.51044E-02 F
  2.00000E-01  1.96350E-01  0.00000E+00  2.37914E+00 -3.51316E-02 F
  2.00000E-01  1.96350E-01  1.96350E-01  2.39777E+00 -4.36956E-02 F
  2.00000E-01  1.96350E-01  3.92699E-01  2.41974E+00 -4.87409E-02 F
  2.00000E-01  1.96350E-01  5.89049E-01  2.44371E+00 -5.12348E-02 F
  2.00000E-01  1.96350E-01  7.85398E-01  2.46844E+00 -5.08241E-02 F
  2.00000E-01  1.96350E-01  9.81748E-01  2.49262E+00 -4.82889E-02 F
  2.00000E-01  1.96350E-01  1.17810E+00  2.51555E+00 -4.48209E-02 F
  2.00000E-01  1.96350E-01  1.37445E+00  2.53671E+00 -4.02955E-02 F
  2.00000E-01  1.96350E-01  1.57080E+00  2.55547E+00 -3.44880E-02 F
  2.00000E-01  1.96350E-01  1.76715E+00  2.57092E+00 -2.65018E-02 F
  2.00000E-01  1.96350E-01  1.96350E+00  2.58182E+00 -1.63757E-02 F
  2.00000E-01  1.96350E-01  2.15985E+00  2.58745E+00 -5.86543E-03 F
  2.00000E-01  1.96350E-01  2.35619E+00  2.58790E+00  3.91489E-03 F
  2.00000E-01  1.96350E-01  2.55254E+00  2.58367E+00  1.25447E-02 F
  2.00000E-01  1.96350E-01  2.74889E+00  2.57534E+00  2.02642E-02 F
  2.00000E-01  1.96350E-01  2.94524E+00  2.56325E+00  2.76057E-02 F
  2.00000E-01  1.96350E-01  3.14159E+00  2.54779E+00  3.36535E-02 F
  2.00000E-01  1.96350E-01  3.33794E+00  2.53003E+00  3.71601E-02 F
  2.00000E-01  1.96350E-01  3.53429E+00  2.51124E+00  3.85113E-02 F
  2.00000E-01  1.96350E-01  3.73064E+00  2.49218E+00  3.90358E-02 F
  2.00000E-01  1.96350E-01  3.92699E+00  2.47305E+00  3.94392E-02 F
  2.00000E-01  1.96350E-01  4.12334E+00  2.45389E+00  3.97756E-02 F
  2.00000E-01  1.96350E-01  4.31969E+00  2.43480E+00  3.96145E-02 F
  2.00000E-01  1.96350E-01  4.51604E+00  2.41623E+00  3.81445E-02 F
  2.00000E-01  1.96350E-01  4.71239E+00  2.39879E+00  3.54501E-02 F
  2.00000E-01  1.96350E-01  4.90874E+00  2.38307E+00  3.11538E-02 F
  2.00000E-01  1.96350E-01  5.10509E+00  2.37002E+00  2.44441E-02 F
  2.00000E-01  1.96350E-01  5.30144E+00  2.36041E+00  1.69572E-02 F
  2.00000E-01  1.96350E-01  5.49779E+00  2.35439E+00  8.72241E-03 F
  2.00000E-01  1.96350E-01  5.69414E+00  2.35278E+00 -2.16288E-03 F
  2.00000E-01  1.96350E-01  5.89049E+00  2.35647E+00 -1.36330E-02 F
  2.00000E-01  1.96350E-01  6.08684E+00  2.36527E+00 -2.43323E-02 F
  2.00000E-01  2.35619E-01  0.00000E+00  2.36620E+00 -4.24278E-02 F
  2.00000E-01  2.35619E-01  1.96350E-01  2.38773E+00 -4.91590E-02 F
  2.00000E-01  2.35619E-01  3.92699E-01  2.41177E+00 -5.23693E-02 F
  2.00000E-01  2.35619E-01  5.89049E-01  2.43690E+00 -5.27573E-02 F
  2.00000E-01  2.35619E-01  7.85398E-01  2.46181E+00 -5.04560E-02 F
  2.00000E-01  2.35619E-01  9.81748E-01  2.48549E+00 -4.69795E-02 F
  2.00000E-01  2.35619E-01  1.17810E+00  2.50755E+00 -4.28773E-02 F
  2.00000E-01  2.35619E-01  1.37445E+00  2.52754E+00 -3.78409E-02 F
  2.00000E-01  2.35619E-01  1.57080E+00  2.54486E+00 -3.13965E-02 F
  2.00000E-01  2.35619E-01  1.76715E+00  2.55848E+00 -2.25375E-02 F
  2.00000E-01  2.35619E-01  1.96350E+00  2.56718E+00 -1.19090E-02 F
  2.00000E-01  2.35619E-01  2.15985E+00  2.57045E+00 -1.13550E-03 F
  2.00000E-01  2.35619E-01  2.35619E+00  2.56847E+00  8.75872E-03 F
  2.00000E-01  2.35619E-01  2.55254E+00  2.56188E+00  1.71995E-02 F
  2.00000E-01  2.35619E-01  2.74889E+00  2.55131E+00  2.48472E-02 F
  2.00000E-01  2.35619E-01  2.94524E+00  2.53705E+00  3.21312E-02 F
  2.00000E-01  2.35619E-01  3.14159E+00  2.51959E+00  3.78373E-02 F
  2.00000E-01  2.35619E-01  3.33794E+00  2.50005E+00  4.10646E-02 F
  2.00000E-01  2.35619E-01  3.53429E+00  2.47960E+00  4.23356E-02 F
  2.00000E-01  2.35619E-01  3.73064E+00  2.45898E+00  4.26316E-02 F
  2.00000E-01  2.35619E-01  3.92699E+00  2.43851E+00  4.24702E-02 F
  2.00000E-01  2.35619E-01  4.12334E+00  2.41836E+00  4.19546E-02 F
  2.00000E-01  2.35619E-01  4.31969E+00  2.39880E+00  4.05678E-02 F
  2.00000E-01  2.35619E-01  4.51604E+00  2.38038E+00  3.77087E-02 F
  2.00000E-01  2.35619E-01  4.71239E+00  2.36372E+00  3.35864E-02 F
  2.00000E-01  2.35619E-01  4.90874E+00  2.34948E+00  2.75983E-02 F
  2.00000E-01  2.35619E-01  5.10509E+00  2.33855E+00  1.97339E-02 F
  2.00000E-01  2.35619E-01  5.30144E+00  2.33135E+00  1.16604E-02 F
  2.00000E-01  2.35619E-01  5.49779E+00  2.32806E+00  2.28431E-03 F
  2.00000E-01  2.35619E-01  5.69414E+00  2.32964E+00 -9.38198E-03 F
  2.00000E-01  2.35619E-01  5.89049E+00  2.33663E+00 -2.09858E-02 F
  2.00000E-01  2.35619E-01  6.08684E+00  2.34885E+00 -3.21569E-02 F
  2.00000E-01  2.74889E-01  0.00000E+00  2.36476E+00 -4.32590E-02 F
  2.00000E-01  2.74889E-01  1.96350E-01  2.38607E+00 -4.76155E-02 F
  2.00000E-01  2.74889E-01  3.92699E-01  2.40900E+00 -4.94159E-02 F
  2.00000E-01  2.74889E-01  5.89049E-01  2.43244E+00 -4.88166E-02 F
  2.00000E-01  2.74889E-01  7.85398E-01  2.45533E+00 -4.64221E-02 F
  2.00000E-01  2.74889E-01  9.81748E-01  2.47711E+00 -4.34672E-02 F
  2.00000E-01  2.74889E-01  1.17810E+00  2.49747E+00 -3.97179E-02 F
  2.00000E-01  2.74889E-01  1.37445E+00  2.51586E+00 -3.47914E-02 F
  2.00000E-01  2.74889E-01  1.57080E+00  2.53149E+00 -2.78336E-02 F
  2.00000E-01  2.74889E-01  1.76715E+00  2.54303E+00 -1.81103E-02 F
  2.00000E-01  2.74889E-01  1.96350E+00  2.54928E+00 -6.77124E-03 F
  2.00000E-01  2.74889E-01  2.15985E+00  2.54980E+00  4.60005E-03 F
  2.00000E-01  2.74889E-01  2.35619E+00  2.54493E+00  1.44989E-02 F
  2.00000E-01  2.74889E-01  2.55254E+00  2.53568E+00  2.22983E-02 F
  2.00000E-01  2.74889E-01  2.74889E+00  2.52291E+00  2.90496E-02 F
  2.00000E-01  2.74889E-01  2.94524E+00  2.50704E+00  3.50052E-02 F
  2.00000E-01  2.74889E-01  3.14159E+00  2.48876E+00  3.92271E-02 F
  2.00000E-01  2.74889E-01  3.33794E+00  2.46905E+00  4.14131E-02 F
  2.00000E-01  2.74889E-01  3.53429E+00  2.44886E+00  4.20620E-02 F
  2.00000E-01  2.74889E-01  3.73064E+00  2.42875E+00  4.18011E-02 F
  2.00000E-01  2.74889E-01  3.92699E+00  2.40908E+00  4.09464E-02 F
  2.00000E-01  2.74889E-01  4.12334E+00  2.39009E+00  3.95686E-02 F
  2.00000E-01  2.74889E-01  4.31969E+00  2.37209E+00  3.71905E-02 F
  2.00000E-01  2.74889E-01  4.51604E+00  2.35564E+00  3.34751E-02 F
  2.00000E-01  2.74889E-01  4.71239E+00  2.34130E+00  2.84723E-02 F
  2.00000E-01  2.74889E-01  4.90874E+00  2.32977E+00  2.14643E-02 F
  2.00000E-01  2.74889E-01  5.10509E+00  2.32186E+00  1.31193E-02 F
  2.00000E-01  2.74889E-01  5.30144E+00  2.31779E+00  4.68474E-03 F
  2.00000E-01  2.74889E-01  5.49779E+00  2.31781E+00 -5.12270E-03 F
  2.00000E-01  2.74889E-01  5.69414E+00  2.32262E+00 -1.59662E-02 F
  2.00000E-01  2.74889E-01  5.89049E+00  2.33225E+00 -2.60235E-02 F
  2.00000E-01  2.74889E-01  6.08684E+00  2.34641E+00 -3.55433E-02 F
  2.00000E-01  3.14159E-01  0.00000E+00  2.37372E+00 -4.02501E-02 F
  2.00000E-01  3.14159E-01  1.96350E-01  2.39290E+00 -4.15176E-02 F
  2.00000E-01  3.14159E-01  3.92699E-01  2.41259E+00 -4.18020E-02 F
  2.00000E-01  3.14159E-01  5.89049E-01  2.43231E+00 -4.09688E-02 F
  2.00000E-01  3.14159E-01  7.85398E-01  2.45165E+00 -3.96583E-02 F
  2.00000E-01  3.14159E-01  9.81748E-01  2.47044E+00 -3.79694E-02 F
  2.00000E-01  3.14159E-01  1.17810E+00  2.48827E+00 -3.50245E-02 F
  2.00000E-01  3.14159E-01  1.37445E+00  2.50437E+00 -3.03022E-02 F
  2.00000E-01  3.14159E-01  1.57080E+00  2.51758E+00 -2.27490E-02 F
  2.00000E-01  3.14159E-01  1.76715E+00  2.52634E+00 -1.22174E-02 F
  2.00000E-01  3.14159E-01  1.96350E+00  2.52942E+00 -5.29043E-05 F
  2.00000E-01  3.14159E-01  2.15985E+00  2.52640E+00  1.20093E-02 F
  2.00000E-01  3.14159E-01  2.35619E+00  2.51789E+00  2.18762E-02 F
  2.00000E-01  3.14159E-01  2.55254E+00  2.50524E+00  2.90757E-02 F
  2.00000E-01  3.14159E-01  2.74889E+00  2.48957E+00  3.45762E-02 F
  2.00000E-01  3.14159E-01  2.94524E+00  2.47173E+00  3.83224E-02 F
  2.00000E-01  3.14159E-01  3.14159E+00  2.45272E+00  3.99864E-02 F
  2.00000E-01  3.14159E-01  3.33794E+00  2.43351E+00  3.98928E-02 F
  2.00000E-01  3.14159E-01  3.53429E+00  2.41477E+00  3.87348E-02 F
  2.00000E-01  3.14159E-01  3.73064E+00  2.39684E+00  3.71231E-02 F
  2.00000E-01  3.14159E-01  3.92699E+00  2.37986E+00  3.52717E-02 F
  2.00000E-01  3.14159E-01  4.12334E+00  2.36390E+00  3.31922E-02 F
  2.00000E-01  3.14159E-01  4.31969E+00  2.34916E+00  3.03482E-02 F
  2.00000E-01  3.14159E-01  4.51604E+00  2.33607E+00  2.63423E-02 F
  2.00000E-01  3.14159E-01  4.71239E+00  2.32521E+00  2.07957E-02 F
  2.00000E-01  3.14159E-01  4.90874E+00  2.31743E+00  1.30095E-02 F
  2.00000E-01  3.14159E-01  5.10509E+00  2.31354E+00  4.07068E-03 F
  2.00000E-01  3.14159E-01  5.30144E+00  2.31375E+00 -5.10351E-03 F
  2.00000E-01  3.14159E-01  5.49779E+00  2.31830E+00 -1.49567E-02 F
  2.00000E-01  3.14159E-01  5.69414E+00  2.32725E+00 -2.39832E-02 F
  2.00000E-01  3.14159E-01  5.89049E+00  2.33994E+00 -3.11662E-02 F
  2.00000E-01  3.14159E-01  6.08684E+00  2.35570E+00 -3.69053E-02 F
  2.00000E-01  3.53429E-01  0.00000E+00  2.36847E+00 -3.83086E-02 F
  2.00000E-01  3.53429E-01  1.96350E-01  2.38608E+00 -3.71666E-02 F
  2.00000E-01  3.53429E-01  3.92699E-01  2.40332E+00 -3.61795E-02 F
  2.00000E-01  3.53429E-01  5.89049E-01  2.42023E+00 -3.53261E-02 F
  2.00000E-01  3.53429E-01  7.85398E-01  2.43697E+00 -3.49247E-02 F
  2.00000E-01  3.53429E-01  9.81748E-01  2.45357E+00 -3.39977E-02 F
  2.00000E-01  3.53429E-01  1.17810E+00  2.46947E+00 -3.15176E-02 F
  2.00000E-01  3.53429E-01  1.37445E+00  2.48377E+00 -2.68248E-02 F
  2.00000E-01  3.53429E-01  1.57080E+00  2.49510E+00 -1.89953E-02 F
  2.00000E-01  3.53429E-01  1.76715E+00  2.50190E+00 -8.35199E-03 F
  2.00000E-01  3.53429E-01  1.96350E+00  2.50302E+00  3.97720E-03 F
  2.00000E-01  3.53429E-01  2.15985E+00  2.49803E+00  1.61051E-02 F
  2.00000E-01  3.53429E-01  2.35619E+00  2.48763E+00  2.59155E-02 F
  2.00000E-01  3.53429E-01  2.55254E+00  2.47313E+00  3.33235E-02 F
  2.00000E-01  3.53429E-01  2.74889E+00  2.45561E+00  3.87288E-02 F
  2.00000E-01  3.53429E-01  2.94524E+00  2.43619E+00  4.16897E-02 F
  2.00000E-01  3.53429E-01  3.14159E+00  2.41612E+00  4.21796E-02 F
  2.00000E-01  3.53429E-01  3.33794E+00  2.39649E+00  4.06825E-02 F
  2.00000E-01  3.53429E-01  3.53429E+00  2.37799E+00  3.81250E-02 F
  2.00000E-01  3.53429E-01  3.73064E+00  2.36092E+00  3.52363E-02 F
  2.00000E-01  3.53429E-01  3.92699E+00  2.34532E+00  3.23494E-02 F
  2.00000E-01  3.53429E-01  4.12334E+00  2.33109E+00  2.96248E-02 F
  2.00000E-01  3.53429E-01  4.31969E+00  2.31826E+00  2.64201E-02 F
  2.00000E-01  3.53429E-01  4.51604E+00  2.30720E+00  2.20787E-02 F
  2.00000E-01  3.53429E-01  4.71239E+00  2.29854E+00  1.57765E-02 F
  2.00000E-01  3.53429E-01  4.90874E+00  2.29335E+00  6.91515E-03 F
  2.00000E-01  3.53429E-01  5.10509E+00  2.29250E+00 -3.23819E-03 F
  2.00000E-01  3.53429E-01  5.30144E+00  2.29632E+00 -1.37614E-02 F
  2.00000E-01  3.53429E-01  5.49779E+00  2.30487E+00 -2.38829E-02 F
  2.00000E-01  3.53429E-01  5.69414E+00  2.31757E+00 -3.15727E-02 F
  2.00000E-01  3.53429E-01  5.89049E+00  2.33319E+00 -3.64254E-02 F
  2.00000E-01  3.53429E-01  6.08684E+00  2.35056E+00 -3.86544E-02 F
  2.00000E-01  3.92699E-01  0.00000E+00  2.35907E+00 -3.29932E-02 F
  2.00000E-01  3.92699E-01  1.96350E-01  2.37387E+00 -3.08880E-02 F
  2.00000E-01  3.92699E-01  3.92699E-01  2.38802E+00 -2.97938E-02 F
  2.00000E-01  3.92699E-01  5.89049E-01  2.40198E+00 -2.98016E-02 F
  2.00000E-01  3.92699E-01  7.85398E-01  2.41624E+00 -3.04774E-02 F
  2.00000E-01  3.92699E-01  9.81748E-01  2.43074E+00 -3.01609E-02 F
  2.00000E-01  3.92699E-01  1.17810E+00  2.44473E+00 -2.79241E-02 F
  2.00000E-01  3.92699E-01  1.37445E+00  2.45711E+00 -2.30381E-02 F
  2.00000E-01  3.92699E-01  1.57080E+00  2.46644E+00 -1.51000E-02 F
  2.00000E-01  3.92699E-01  1.76715E+00  2.47134E+00 -4.79235E-03 F
  2.00000E-01  3.92699E-01  1.96350E+00  2.47087E+00  6.80279E-03 F
  2.00000E-01  3.92699E-01  2.15985E+00  2.46489E+00  1.75610E-02 F
  2.00000E-01  3.92699E-01  2.35619E+00  2.45428E+00  2.60057E-02 F
  2.00000E-01  3.92699E-01  2.55254E+00  2.44014E+00  3.25846E-02 F
  2.00000E-01  3.92699E-01  2.74889E+00  2.42336E+00  3.73515E-02 F
  2.00000E-01  3.92699E-01  2.94524E+00  2.40494E+00  3.99944E-02 F
  2.00000E-01  3.92699E-01  3.14159E+00  2.38593E+00  4.05161E-02 F
  2.00000E-01  3.92699E-01  3.33794E+00  2.36728E+00  3.91631E-02 F
  2.00000E-01  3.92699E-01  3.53429E+00  2.34968E+00  3.67054E-02 F
  2.00000E-01  3.92699E-01  3.73064E+00  2.33351E+00  3.35130E-02 F
  2.00000E-01  3.92699E-01  3.92699E+00  2.31901E+00  3.00116E-02 F
  2.00000E-01  3.92699E-01  4.12334E+00  2.30615E+00  2.65895E-02 F
  2.00000E-01  3.92699E-01  4.31969E+00  2.29500E+00  2.26355E-02 F
  2.00000E-01  3.92699E-01  4.51604E+00  2.28591E+00  1.75552E-02 F
  2.00000E-01  3.92699E-01  4.71239E+00  2.27953E+00  1.04688E-02 F
  2.00000E-01  3.92699E-01  4.90874E+00  2.27689E+00  1.04675E-03 F
  2.00000E-01  3.92699E-01  5.10509E+00  2.27874E+00 -9.37642E-03 F
  2.00000E-01  3.92699E-01  5.30144E+00  2.28528E+00 -1.97317E-02 F
  2.00000E-01  3.92699E-01  5.49779E+00  2.29623E+00 -2.85134E-02 F
  2.00000E-01  3.92699E-01  5.69414E+00  2.31051E+00 -3.40361E-02 F
  2.00000E-01  3.92699E-01  5.89049E+00  2.32664E+00 -3.63194E-02 F
  2.00000E-01  3.92699E-01  6.08684E+00  2.34323E+00 -3.55587E-02 F
  2.00000E-01  4.31969E-01  0.00000E+00  2.35463E+00 -2.44341E-02 F
  2.00000E-01  4.31969E-01  1.96350E-01  2.36548E+00 -2.26756E-02 F
  2.00000E-01  4.31969E-01  3.92699E-01  2.37594E+00 -2.24990E-02 F
  2.00000E-01  4.31969E-01  5.89049E-01  2.38669E+00 -2.36739E-02 F
  2.00000E-01  4.31969E-01  7.85398E-01  2.39812E+00 -2.47871E-02 F
  2.00000E-01  4.31969E-01  9.81748E-01  2.40973E+00 -2.40345E-02 F
  2.00000E-01  4.31969E-01  1.17810E+00  2.42046E+00 -2.07448E-02 F
  2.00000E-01  4.31969E-01  1.37445E+00  2.42897E+00 -1.44920E-02 F
  2.00000E-01  4.31969E-01  1.57080E+00  2.43387E+00 -5.73962E-03 F
  2.00000E-01  4.31969E-01  1.76715E+00  2.43422E+00  4.43747E-03 F
  2.00000E-01  4.31969E-01  1.96350E+00  2.42964E+00  1.45270E-02 F
  2.00000E-01  4.31969E-01  2.15985E+00  2.42076E+00  2.22882E-02 F
  2.00000E-01  4.31969E-01  2.35619E+00  2.40892E+00  2.72690E-02 F
  2.00000E-01  4.31969E-01  2.55254E+00  2.39526E+00  3.04000E-02 F
  2.00000E-01  4.31969E-01  2.74889E+00  2.38056E+00  3.20704E-02 F
  2.00000E-01  4.31969E-01  2.94524E+00  2.36543E+00  3.27149E-02 F
  2.00000E-01  4.31969E-01  3.14159E+00  2.35032E+00  3.24001E-02 F
  2.00000E-01  4.31969E-01  3.33794E+00  2.33566E+00  3.12543E-02 F
  2.00000E-01  4.31969E-01  3.53429E+00  2.32174E+00  2.95070E-02 F
  2.00000E-01  4.31969E-01  3.73064E+00  2.30891E+00  2.67327E-02 F
  2.00000E-01  4.31969E-01  3.92699E+00  2.29759E+00  2.32971E-02 F
  2.00000E-01  4.31969E-01  4.12334E+00  2.28793E+00  1.95001E-02 F
  2.00000E-01  4.31969E-01  4.31969E+00  2.28020E+00  1.47975E-02 F
  2.00000E-01  4.31969E-01  4.51604E+00  2.27483E+00  8.99645E-03 F
  2.00000E-01  4.31969E-01  4.71239E+00  2.27241E+00  1.51333E-03 F
  2.00000E-01  4.31969E-01  4.90874E+00  2.27372E+00 -7.47888E-03 F
  2.00000E-01  4.31969E-01  5.10509E+00  2.27910E+00 -1.65036E-02 F
  2.00000E-01  4.31969E-01  5.30144E+00  2.28834E+00 -2.44068E-02 F
  2.00000E-01  4.31969E-01  5.49779E+00  2.30066E+00 -2.97503E-02 F
  2.00000E-01  4.31969E-01  5.69414E+00  2.31472E+00 -3.17864E-02 F
  2.00000E-01  4.31969E-01  5.89049E+00  2.32912E+00 -3.09230E-02 F
  2.00000E-01  4.31969E-01  6.08684E+00  2.34264E+00 -2.77760E-02 F
  2.00000E-01  4.71239E-01  0.00000E+00  2.35197E+00 -1.97559E-02 F
  2.00000E-01  4.71239E-01  1.96350E-01  2.36074E+00 -1.84668E-02 F
  2.00000E-01  4.71239E-01  3.92699E-01  2.36931E+00 -1.86699E-02 F
  2.00000E-01  4.71239E-01  5.89049E-01  2.37823E+00 -1.95606E-02 F
  2.00000E-01  4.71239E-01  7.85398E-01  2.38738E+00 -1.91964E-02 F
  2.00000E-01  4.71239E-01  9.81748E-01  2.39582E+00 -1.63081E-02 F
  2.00000E-01  4.71239E-01  1.17810E+00  2.40229E+00 -1.06838E-02 F
  2.00000E-01  4.71239E-01  1.37445E+00  2.40549E+00 -2.51661E-03 F
  2.00000E-01  4.71239E-01  1.57080E+00  2.40444E+00  7.07762E-03 F
  2.00000E-01  4.71239E-01  1.76715E+00  2.39878E+00  1.68676E-02 F
  2.00000E-01  4.71239E-01  1.96350E+00  2.38884E+00  2.49299E-02 F
  2.00000E-01  4.71239E-01  2.15985E+00  2.37598E+00  2.94399E-02 F
  2.00000E-01  4.71239E-01  2.35619E+00  2.36186E+00  3.08211E-02 F
  2.00000E-01  4.71239E-01  2.55254E+00  2.34772E+00  3.00764E-02 F
  2.00000E-01  4.71239E-01  2.74889E+00  2.33431E+00  2.81755E-02 F
  2.00000E-01  4.71239E-01  2.94524E+00  2.32190E+00  2.61466E-02 F
  2.00000E-01  4.71239E-01  3.14159E+00  2.31046E+00  2.41801E-02 F
  2.00000E-01  4.71239E-01  3.33794E+00  2.29988E+00  2.26466E-02 F
  2.00000E-01  4.71239E-01  3.53429E+00  2.28999E+00  2.11829E-02 F
  2.00000E-01  4.71239E-01  3.73064E+00  2.28097E+00  1.88357E-02 F
  2.00000E-01  4.71239E-01  3.92699E+00  2.27319E+00  1.59188E-02 F
  2.00000E-01  4.71239E-01  4.12334E+00  2.26688E+00  1.21888E-02 F
  2.00000E-01  4.71239E-01  4.31969E+00  2.26255E+00  7.04948E-03 F
  2.00000E-01  4.71239E-01  4.51604E+00  2.26080E+00  5.76759E-04 F
  2.00000E-01  4.71239E-01  4.71239E+00  2.26229E+00 -7.52772E-03 F
  2.00000E-01  4.71239E-01  4.90874E+00  2.26761E+00 -1.63846E-02 F
  2.00000E-01  4.71239E-01  5.10509E+00  2.27673E+00 -2.41810E-02 F
  2.00000E-01  4.71239E-01  5.30144E+00  2.28890E+00 -2.96660E-02 F
  2.00000E-01  4.71239E-01  5.49779E+00  2.30290E+00 -3.18371E-02 F
  2.00000E-01  4.71239E-01  5.69414E+00  2.31722E+00 -3.08506E-02 F
  2.00000E-01  4.71239E-01  5.89049E+00  2.33060E+00 -2.74835E-02 F
  2.00000E-01  4.71239E-01  6.08684E+00  2.34219E+00 -2.30253E-02 F
  2.00000E-01  5.10509E-01  0.00000E+00  2.35033E+00 -1.56435E-02 F
  2.00000E-01  5.10509E-01  1.96350E-01  2.35746E+00 -1.54540E-02 F
  2.00000E-01  5.10509E-01  3.92699E-01  2.36482E+00 -1.64206E-02 F
  2.00000E-01  5.10509E-01  5.89049E-01  2.37267E+00 -1.71060E-02 F
  2.00000E-01  5.10509E-01  7.85398E-01  2.38041E+00 -1.56060E-02 F
  2.00000E-01  5.10509E-01  9.81748E-01  2.38683E+00 -1.13843E-02 F
  2.00000E-01  5.10509E-01  1.17810E+00  2.39067E+00 -4.59452E-03 F
  2.00000E-01  5.10509E-01  1.37445E+00  2.39084E+00  4.09182E-03 F
  2.00000E-01  5.10509E-01  1.57080E+00  2.38672E+00  1.35187E-02 F
  2.00000E-01  5.10509E-01  1.76715E+00  2.37823E+00  2.25679E-02 F
  2.00000E-01  5.10509E-01  1.96350E+00  2.36602E+00  2.93014E-02 F
  2.00000E-01  5.10509E-01  2.15985E+00  2.35155E+00  3.26848E-02 F
  2.00000E-01  5.10509E-01  2.35619E+00  2.33627E+00  3.32752E-02 F
  2.00000E-01  5.10509E-01  2.55254E+00  2.32137E+00  3.15968E-02 F
  2.00000E-01  5.10509E-01  2.74889E+00  2.30763E+00  2.87689E-02 F
  2.00000E-01  5.10509E-01  2.94524E+00  2.29534E+00  2.55939E-02 F
  2.00000E-01  5.10509E-01  3.14159E+00  2.28457E+00  2.23536E-02 F
  2.00000E-01  5.10509E-01  3.33794E+00  2.27518E+00  1.97029E-02 F
  2.00000E-01  5.10509E-01  3.53429E+00  2.26699E+00  1.68549E-02 F
  2.00000E-01  5.10509E-01  3.73064E+00  2.26030E+00  1.31741E-02 F
  2.00000E-01  5.10509E-01  3.92699E+00  2.25533E+00  9.21888E-03 F
  2.00000E-01  5.10509E-01  4.12334E+00  2.25227E+00  4.40261E-03 F
  2.00000E-01  5.10509E-01  4.31969E+00  2.25160E+00 -1.56386E-03 F
  2.00000E-01  5.10509E-01  4.51604E+00  2.25379E+00 -8.49022E-03 F
  2.00000E-01  5.10509E-01  4.71239E+00  2.25929E+00 -1.64845E-02 F
  2.00000E-01  5.10509E-01  4.90874E+00  2.26837E+00 -2.41210E-02 F
  2.00000E-01  5.10509E-01  5.10509E+00  2.28047E+00 -2.96211E-02 F
  2.00000E-01  5.10509E-01  5.30144E+00  2.29444E+00 -3.20062E-02 F
  2.00000E-01  5.10509E-01  5.49779E+00  2.30879E+00 -3.09661E-02 F
  2.00000E-01  5.10509E-01  5.69414E+00  2.32212E+00 -2.73713E-02 F
  2.00000E-01  5.10509E-01  5.89049E+00  2.33352E+00 -2.23914E-02 F
  2.00000E-01  5.10509E-01  6.08684E+00  2.34270E+00 -1.78820E-02 F
  2.00000E-01  5.49779E-01  0.00000E+00  2.35148E+00 -7.66771E-03 F
  2.00000E-01  5.49779E-01  1.96350E-01  2.35533E+00 -9.16925E-03 F
  2.00000E-01  5.49779E-01  3.92699E-01  2.36006E+00 -1.12609E-02 F
  2.00000E-01  5.49779E-01  5.89049E-01  2.36555E+00 -1.20105E-02 F
  2.00000E-01  5.49779E-01  7.85398E-01  2.37078E+00 -1.00005E-02 F
  2.00000E-01  5.49779E-01  9.81748E-01  2.37445E+00 -5.36267E-03 F
  2.00000E-01  5.49779E-01  1.17810E+00  2.37545E+00  1.38295E-03 F
  2.00000E-01  5.49779E-01  1.37445E+00  2.37300E+00  9.19624E-03 F
  2.00000E-01  5.49779E-01  1.57080E+00  2.36687E+00  1.71081E-02 F
  2.00000E-01  5.49779E-01  1.76715E+00  2.35725E+00  2.40984E-02 F
  2.00000E-01  5.49779E-01  1.96350E+00  2.34495E+00  2.87269E-02 F
  2.00000E-01  5.49779E-01  2.15985E+00  2.33118E+00  3.08743E-02 F
  2.00000E-01  5.49779E-01  2.35619E+00  2.31702E+00  3.08408E-02 F
  2.00000E-01  5.49779E-01  2.55254E+00  2.30342E+00  2.88968E-02 F
  2.00000E-01  5.49779E-01  2.74889E+00  2.29100E+00  2.60441E-02 F
  2.00000E-01  5.49779E-01  2.94524E+00  2.28009E+00  2.24570E-02 F
  2.00000E-01  5.49779E-01  3.14159E+00  2.27094E+00  1.85582E-02 F
  2.00000E-01  5.49779E-01  3.33794E+00  2.26350E+00  1.48045E-02 F
  2.00000E-01  5.49779E-01  3.53429E+00  2.25793E+00  1.00532E-02 F
  2.00000E-01  5.49779E-01  3.73064E+00  2.25471E+00  4.44599E-03 F
  2.00000E-01  5.49779E-01  3.92699E+00  2.25399E+00 -1.24903E-03 F
  2.00000E-01  5.49779E-01  4.12334E+00  2.25590E+00 -7.41764E-03 F
  2.00000E-01  5.49779E-01  4.31969E+00  2.26057E+00 -1.35840E-02 F
  2.00000E-01  5.49779E-01  4.51604E+00  2.26792E+00 -1.94948E-02 F
  2.00000E-01  5.49779E-01  4.71239E+00  2.27789E+00 -2.50326E-02 F
  2.00000E-01  5.49779E-01  4.90874E+00  2.29005E+00 -2.87427E-02 F
  2.00000E-01  5.49779E-01  5.10509E+00  2.30332E+00 -2.96325E-02 F
  2.00000E-01  5.49779E-01  5.30144E+00  2.31639E+00 -2.74885E-02 F
  2.00000E-01  5.49779E-01  5.49779E+00  2.32793E+00 -2.28331E-02 F
  2.00000E-01  5.49779E-01  5.69414E+00  2.33708E+00 -1.70108E-02 F
  2.00000E-01  5.49779E-01  5.89049E+00  2.34357E+00 -1.14540E-02 F
  2.00000E-01  5.49779E-01  6.08684E+00  2.34795E+00 -8.07619E-03 F
  2.00000E-01  5.89049E-01  0.00000E+00  2.35953E+00 -1.97248E-03 F
  2.00000E-01  5.89049E-01  1.96350E-01  2.36072E+00 -3.23603E-03 F
  2.00000E-01  5.89049E-01  3.92699E-01  2.36246E+00 -4.03394E-03 F
  2.00000E-01  5.89049E-01  5.89049E-01  2.36409E+00 -2.50878E-03 F
  2.00000E-01  5.89049E-01  7.85398E-01  2.36435E+00  1.76366E-03 F
  2.00000E-01  5.89049E-01  9.81748E-01  2.36216E+00  7.91994E-03 F
  2.00000E-01  5.89049E-01  1.17810E+00  2.35689E+00  1.48727E-02 F
  2.00000E-01  5.89049E-01  1.37445E+00  2.34850E+00  2.12328E-02 F
  2.00000E-01  5.89049E-01  1.57080E+00  2.33753E+00  2.61604E-02 F
  2.00000E-01  5.89049E-01  1.76715E+00  2.32484E+00  2.88457E-02 F
  2.00000E-01  5.89049E-01  1.96350E+00  2.31160E+00  2.89559E-02 F
  2.00000E-01  5.89049E-01  2.15985E+00  2.29881E+00  2.73249E-02 F
  2.00000E-01  5.89049E-01  2.35619E+00  2.28714E+00  2.42961E-02 F
  2.00000E-01  5.89049E-01  2.55254E+00  2.27709E+00  2.05856E-02 F
  2.00000E-01  5.89049E-01  2.74889E+00  2.26870E+00  1.70088E-02 F
  2.00000E-01  5.89049E-01  2.94524E+00  2.26196E+00  1.32937E-02 F
  2.00000E-01  5.89049E-01  3.14159E+00  2.25683E+00  9.93778E-03 F
  2.00000E-01  5.89049E-01  3.33794E+00  2.25315E+00  6.50153E-03 F
  2.00000E-01  5.89049E-01  3.53429E+00  2.25132E+00  1.49904E-03 F
  2.00000E-01  5.89049E-01  3.73064E+00  2.25197E+00 -4.48972E-03 F
  2.00000E-01  5.89049E-01  3.92699E+00  2.25537E+00 -1.10074E-02 F
  2.00000E-01  5.89049E-01  4.12334E+00  2.26180E+00 -1.79604E-02 F
  2.00000E-01  5.89049E-01  4.31969E+00  2.27121E+00 -2.41608E-02 F
  2.00000E-01  5.89049E-01  4.51604E+00  2.28319E+00 -2.92094E-02 F
  2.00000E-01  5.89049E-01  4.71239E+00  2.29714E+00 -3.24383E-02 F
  2.00000E-01  5.89049E-01  4.90874E+00  2.31199E+00 -3.26187E-02 F
  2.00000E-01  5.89049E-01  5.10509E+00  2.32628E+00 -2.96594E-02 F
  2.00000E-01  5.89049E-01  5.30144E+00  2.33866E+00 -2.40255E-02 F
  2.00000E-01  5.89049E-01  5.49779E+00  2.34810E+00 -1.68963E-02 F
  2.00000E-01  5.89049E-01  5.69414E+00  2.35424E+00 -9.83024E-03 F
  2.00000E-01  5.89049E-01  5.89049E+00  2.35742E+00 -4.32585E-03 F
  2.00000E-01  5.89049E-01  6.08684E+00  2.35872E+00 -1.82520E-03 F
  2.00000E-01  6.28319E-01  0.00000E+00  2.36557E+00  5.94487E-10 F
  2.00000E-01  6.28319E-01  1.96350E-01  2.36563E+00 -1.51227E-04 F
  2.00000E-01  6.28319E-01  3.92699E-01  2.36545E+00  1.34294E-03 F
  2.00000E-01  6.28319E-01  5.89049E-01  2.36392E+00  5.75196E-03 F
  2.00000E-01  6.28319E-01  7.85398E-01  2.35976E+00  1.24397E-02 F
  2.00000E-01  6.28319E-01  9.81748E-01  2.35226E+00  2.00502E-02 F
  2.00000E-01  6.28319E-01  1.17810E+00  2.34134E+00  2.70855E-02 F
  2.00000E-01  6.28319E-01  1.37445E+00  2.32769E+00  3.20652E-02 F
  2.00000E-01  6.28319E-01  1.57080E+00  2.31247E+00  3.42386E-02 F
  2.00000E-01  6.28319E-01  1.76715E+00  2.29710E+00  3.31329E-02 F
  2.00000E-01  6.28319E-01  1.96350E+00  2.28296E+00  2.94531E-02 F
  2.00000E-01  6.28319E-01  2.15985E+00  2.27089E+00  2.43344E-02 F
  2.00000E-01  6.28319E-01  2.35619E+00  2.26140E+00  1.82416E-02 F
  2.00000E-01  6.28319E-01  2.55254E+00  2.25464E+00  1.24235E-02 F
  2.00000E-01  6.28319E-01  2.74889E+00  2.25027E+00  7.39843E-03 F
  2.00000E-01  6.28319E-01  2.94524E+00  2.24801E+00  3.05611E-03 F
  2.00000E-01  6.28319E-01  3.14159E+00  2.24737E+00 -5.76464E-09 F
  2.00000E-01  6.28319E-01  3.33794E+00  2.24801E+00 -3.05612E-03 F
  2.00000E-01  6.28319E-01  3.53429E+00  2.25027E+00 -7.39845E-03 F
  2.00000E-01  6.28319E-01  3.73064E+00  2.25464E+00 -1.24235E-02 F
  2.00000E-01  6.28319E-01  3.92699E+00  2.26140E+00 -1.82416E-02 F
  2.00000E-01  6.28319E-01  4.12334E+00  2.27089E+00 -2.43344E-02 F
  2.00000E-01  6.28319E-01  4.31969E+00  2.28296E+00 -2.94531E-02 F
  2.00000E-01  6.28319E-01  4.51604E+00  2.29710E+00 -3.31329E-02 F
  2.00000E-01  6.28319E-01  4.71239E+00  2.31247E+00 -3.42386E-02 F
  2.00000E-01  6.28319E-01  4.90874E+00  2.32769E+00 -3.20652E-02 F
  2.00000E-01  6.28319E-01  5.10509E+00  2.34134E+00 -2.70855E-02 F
  2.00000E-01  6.28319E-01  5.30144E+00  2.35226E+00 -2.00502E-02 F
  2.00000E-01  6.28319E-01  5.49779E+00  2.35976E+00 -1.24397E-02 F
  2.00000E-01  6.28319E-01  5.69414E+00  2.36392E+00 -5.75195E-03 F
  2.00000E-01  6.28319E-01  5.89049E+00  2.36545E+00 -1.34294E-03 F
  2.00000E-01  6.28319E-01  6.08684E+00  2.36563E+00  1.51229E-04 F
  2.00000E-01  6.67588E-01  0.00000E+00  2.35953E+00  1.97248E-03 F
  2.00000E-01  6.67588E-01  1.96350E-01  2.35872E+00  1.82520E-03 F
  2.00000E-01  6.67588E-01  3.92699E-01  2.35742E+00  4.32586E-03 F
  2.00000E-01  6.67588E-01  5.89049E-01  2.35424E+00  9.83025E-03 F
  2.00000E-01  6.67588E-01  7.85398E-01  2.34810E+00  1.68963E-02 F
  2.00000E-01  6.67588E-01  9.81748E-01  2.33866E+00  2.40255E-02 F
  2.00000E-01  6.67588E-01  1.17810E+00  2.32628E+00  2.96594E-02 F
  2.00000E-01  6.67588E-01  1.37445E+00  2.31199E+00  3.26187E-02 F
  2.00000E-01  6.67588E-01  1.57080E+00  2.29714E+00  3.24382E-02 F
  2.00000E-01  6.67588E-01  1.76715E+00  2.28319E+00  2.92094E-02 F
  2.00000E-01  6.67588E-01  1.96350E+00  2.27121E+00  2.41608E-02 F
  2.00000E-01  6.67588E-01  2.15985E+00  2.26180E+00  1.79604E-02 F
  2.00000E-01  6.67588E-01  2.35619E+00  2.25537E+00  1.10074E-02 F
  2.00000E-01  6.67588E-01  2.55254E+00  2.25197E+00  4.48970E-03 F
  2.00000E-01  6.67588E-01  2.74889E+00  2.25132E+00 -1.49906E-03 F
  2.00000E-01  6.67588E-01  2.94524E+00  2.25315E+00 -6.50154E-03 F
  2.00000E-01  6.67588E-01  3.14159E+00  2.25683E+00 -9.93779E-03 F
  2.00000E-01  6.67588E-01  3.33794E+00  2.26196E+00 -1.32937E-02 F
  2.00000E-01  6.67588E-01  3.53429E+00  2.26870E+00 -1.70088E-02 F
  2.00000E-01  6.67588E-01  3.73064E+00  2.27709E+00 -2.05856E-02 F
  2.00000E-01  6.67588E-01  3.92699E+00  2.28714E+00 -2.42961E-02 F
  2.00000E-01  6.67588E-01  4.12334E+00  2.29881E+00 -2.73249E-02 F
  2.00000E-01  6.67588E-01  4.31969E+00  2.31160E+00 -2.89559E-02 F
  2.00000E-01  6.67588E-01  4.51604E+00  2.32484E+00 -2.88456E-02 F
  2.00000E-01  6.67588E-01  4.71239E+00  2.33753E+00 -2.61604E-02 F
  2.00000E-01  6.67588E-01  4.90874E+00  2.34850E+00 -2.12328E-02 F
  2.00000E-01  6.67588E-01  5.10509E+00  2.35689E+00 -1.48726E-02 F
  2.00000E-01  6.67588E-01  5.30144E+00  2.36216E+00 -7.91992E-03 F
  2.00000E-01  6.67588E-01  5.49779E+00  2.36435E+00 -1.76364E-03 F
  2.00000E-01  6.67588E-01  5.69414E+00  2.36409E+00  2.50879E-03 F
  2.00000E-01  6.67588E-01  5.89049E+00  2.36246E+00  4.03395E-03 F
  2.00000E-01  6.67588E-01  6.08684E+00  2.36072E+00  3.23603E-03 F
  2.00000E-01  7.06858E-01  0.00000E+00  2.35148E+00  7.66772E-03 F
  2.00000E-01  7.06858E-01  1.96350E-01  2.34795E+00  8.07620E-03 F
  2.00000E-01  7.06858E-01  3.92699E-01  2.34357E+00  1.14540E-02 F
  2.00000E-01  7.06858E-01  5.89049E-01  2.33708E+00  1.70108E-02 F
  2.00000E-01  7.06858E-01  7.85398E-01  2.32793E+00  2.28332E-02 F
  2.00000E-01  7.06858E-01  9.81748E-01  2.31639E+00  2.74885E-02 F
  2.00000E-01  7.06858E-01  1.17810E+00  2.30332E+00  2.96325E-02 F
  2.00000E-01  7.06858E-01  1.37445E+00  2.29005E+00  2.87427E-02 F
  2.00000E-01  7.06858E-01  1.57080E+00  2.27789E+00  2.50326E-02 F
  2.00000E-01  7.06858E-01  1.76715E+00  2.26792E+00  1.94948E-02 F
  2.00000E-01  7.06858E-01  1.96350E+00  2.26057E+00  1.35840E-02 F
  2.00000E-01  7.06858E-01  2.15985E+00  2.25590E+00  7.41763E-03 F
  2.00000E-01  7.06858E-01  2.35619E+00  2.25399E+00  1.24901E-03 F
  2.00000E-01  7.06858E-01  2.55254E+00  2.25471E+00 -4.44600E-03 F
  2.00000E-01  7.06858E-01  2.74889E+00  2.25793E+00 -1.00532E-02 F
  2.00000E-01  7.06858E-01  2.94524E+00  2.26350E+00 -1.48045E-02 F
  2.00000E-01  7.06858E-01  3.14159E+00  2.27094E+00 -1.85583E-02 F
  2.00000E-01  7.06858E-01  3.33794E+00  2.28009E+00 -2.24570E-02 F
  2.00000E-01  7.06858E-01  3.53429E+00  2.29100E+00 -2.60441E-02 F
  2.00000E-01  7.06858E-01  3.73064E+00  2.30342E+00 -2.88968E-02 F
  2.00000E-01  7.06858E-01  3.92699E+00  2.31702E+00 -3.08408E-02 F
  2.00000E-01  7.06858E-01  4.12334E+00  2.33118E+00 -3.08743E-02 F
  2.00000E-01  7.06858E-01  4.31969E+00  2.34495E+00 -2.87269E-02 F
  2.00000E-01  7.06858E-01  4.51604E+00  2.35725E+00 -2.40984E-02 F
  2.00000E-01  7.06858E-01  4.71239E+00  2.36687E+00 -1.71081E-02 F
  2.00000E-01  7.06858E-01  4.90874E+00  2.37300E+00 -9.19623E-03 F
  2.00000E-01  7.06858E-01  5.10509E+00  2.37545E+00 -1.38294E-03 F
  2.00000E-01  7.06858E-01  5.30144E+00  2.37445E+00  5.36268E-03 F
  2.00000E-01  7.06858E-01  5.49779E+00  2.37078E+00  1.00005E-02 F
  2.00000E-01  7.06858E-01  5.69414E+00  2.36555E+00  1.20105E-02 F
  2.00000E-01  7.06858E-01  5.89049E+00  2.36006E+00  1.12609E-02 F
  2.00000E-01  7.06858E-01  6.08684E+00  2.35533E+00  9.16925E-03 F
  2.00000E-01  7.46128E-01  0.00000E+00  2.35033E+00  1.56435E-02 F
  2.00000E-01  7.46128E-01  1.96350E-01  2.34270E+00  1.78820E-02 F
  2.00000E-01  7.46128E-01  3.92699E-01  2.33352E+00  2.23914E-02 F
  2.00000E-01  7.46128E-01  5.89049E-01  2.32212E+00  2.73713E-02 F
  2.00000E-01  7.46128E-01  7.85398E-01  2.30879E+00  3.09661E-02 F
  2.00000E-01  7.46128E-01  9.81748E-01  2.29444E+00  3.20062E-02 F
  2.00000E-01  7.46128E-01  1.17810E+00  2.28047E+00  2.96211E-02 F
  2.00000E-01  7.46128E-01  1.37445E+00  2.26837E+00  2.41210E-02 F
  2.00000E-01  7.46128E-01  1.57080E+00  2.25929E+00  1.64845E-02 F
  2.00000E-01  7.46128E-01  1.76715E+00  2.25379E+00  8.49020E-03 F
  2.00000E-01  7.46128E-01  1.96350E+00  2.25160E+00  1.56385E-03 F
  2.00000E-01  7.46128E-01  2.15985E+00  2.25227E+00 -4.40263E-03 F
  2.00000E-01  7.46128E-01  2.35619E+00  2.25533E+00 -9.21889E-03 F
  2.00000E-01  7.46128E-01  2.55254E+00  2.26030E+00 -1.31741E-02 F
  2.00000E-01  7.46128E-01  2.74889E+00  2.26699E+00 -1.68549E-02 F
  2.00000E-01  7.46128E-01  2.94524E+00  2.27518E+00 -1.97029E-02 F
  2.00000E-01  7.46128E-01  3.14159E+00  2.28457E+00 -2.23537E-02 F
  2.00000E-01  7.46128E-01  3.33794E+00  2.29534E+00 -2.55940E-02 F
  2.00000E-01  7.46128E-01  3.53429E+00  2.30763E+00 -2.87689E-02 F
  2.00000E-01  7.46128E-01  3.73064E+00  2.32137E+00 -3.15968E-02 F
  2.00000E-01  7.46128E-01  3.92699E+00  2.33627E+00 -3.32752E-02 F
  2.00000E-01  7.46128E-01  4.12334E+00  2.35155E+00 -3.26848E-02 F
  2.00000E-01  7.46128E-01  4.31969E+00  2.36602E+00 -2.93014E-02 F
  2.00000E-01  7.46128E-01  4.51604E+00  2.37823E+00 -2.25679E-02 F
  2.00000E-01  7.46128E-01  4.71239E+00  2.38672E+00 -1.35187E-02 F
  2.00000E-01  7.46128E-01  4.90874E+00  2.39084E+00 -4.09181E-03 F
  2.00000E-01  7.46128E-01  5.10509E+00  2.39067E+00  4.59453E-03 F
  2.00000E-01  7.46128E-01  5.30144E+00  2.38683E+00  1.13843E-02 F
  2.00000E-01  7.46128E-01  5.49779E+00  2.38041E+00  1.56060E-02 F
  2.00000E-01  7.46128E-01  5.69414E+00  2.37267E+00  1.71060E-02 F
  2.00000E-01  7.46128E-01  5.89049E+00  2.36482E+00  1.64206E-02 F
  2.00000E-01  7.46128E-01  6.08684E+00  2.35746E+00  1.54540E-02 F
  2.00000E-01  7.85398E-01  0.00000E+00  2.35197E+00  1.97559E-02 F
  2.00000E-01  7.85398E-01  1.96350E-01  2.34219E+00  2.30253E-02 F
  2.00000E-01  7.85398E-01  3.92699E-01  2.33060E+00  2.74835E-02 F
  2.00000E-01  7.85398E-01  5.89049E-01  2.31722E+00  3.08506E-02 F
  2.00000E-01  7.85398E-01  7.85398E-01  2.30290E+00  3.18371E-02 F
  2.00000E-01  7.85398E-01  9.81748E-01  2.28890E+00  2.96660E-02 F
  2.00000E-01  7.85398E-01  1.17810E+00  2.27673E+00  2.41810E-02 F
  2.00000E-01  7.85398E-01  1.37445E+00  2.26761E+00  1.63846E-02 F
  2.00000E-01  7.85398E-01  1.57080E+00  2.26229E+00  7.52770E-03 F
  2.00000E-01  7.85398E-01  1.76715E+00  2.26080E+00 -5.76773E-04 F
  2.00000E-01  7.85398E-01  1.96350E+00  2.26255E+00 -7.04949E-03 F
  2.00000E-01  7.85398E-01  2.15985E+00  2.26688E+00 -1.21888E-02 F
  2.00000E-01  7.85398E-01  2.35619E+00  2.27319E+00 -1.59188E-02 F
  2.00000E-01  7.85398E-01  2.55254E+00  2.28097E+00 -1.88357E-02 F
  2.00000E-01  7.85398E-01  2.74889E+00  2.28999E+00 -2.11829E-02 F
  2.00000E-01  7.85398E-01  2.94524E+00  2.29988E+00 -2.26466E-02 F
  2.00000E-01  7.85398E-01  3.14159E+00  2.31046E+00 -2.41801E-02 F
  2.00000E-01  7.85398E-01  3.33794E+00  2.32190E+00 -2.61466E-02 F
  2.00000E-01  7.85398E-01  3.53429E+00  2.33431E+00 -2.81755E-02 F
  2.00000E-01  7.85398E-01  3.73064E+00  2.34772E+00 -3.00764E-02 F
  2.00000E-01  7.85398E-01  3.92699E+00  2.36186E+00 -3.08211E-02 F
  2.00000E-01  7.85398E-01  4.12334E+00  2.37598E+00 -2.94399E-02 F
  2.00000E-01  7.85398E-01  4.31969E+00  2.38884E+00 -2.49298E-02 F
  2.00000E-01  7.85398E-01  4.51604E+00  2.39878E+00 -1.68675E-02 F
  2.00000E-01  7.85398E-01  4.71239E+00  2.40444E+00 -7.07760E-03 F
  2.00000E-01  7.85398E-01  4.90874E+00  2.40549E+00  2.51662E-03 F
  2.00000E-01  7.85398E-01  5.10509E+00  2.40229E+00  1.06838E-02 F
  2.00000E-01  7.85398E-01  5.30144E+00  2.39582E+00  1.63081E-02 F
  2.00000E-01  7.85398E-01  5.49779E+00  2.38738E+00  1.91964E-02 F
  2.00000E-01  7.85398E-01  5.69414E+00  2.37823E+00  1.95606E-02 F
  2.00000E-01  7.85398E-01  5.89049E+00  2.36931E+00  1.86699E-02 F
  2.00000E-01  7.85398E-01  6.08684E+00  2.36074E+00  1.84668E-02 F
  2.00000E-01  8.24668E-01  0.00000E+00  2.35463E+00  2.44341E-02 F
  2.00000E-01  8.24668E-01  1.96350E-01  2.34264E+00  2.77760E-02 F
  2.00000E-01  8.24668E-01  3.92699E-01  2.32912E+00  3.09230E-02 F
  2.00000E-01  8.24668E-01  5.89049E-01  2.31472E+00  3.17864E-02 F
  2.00000E-01  8.24668E-01  7.85398E-01  2.30066E+00  2.97503E-02 F
  2.00000E-01  8.24668E-01  9.81748E-01  2.28834E+00  2.44068E-02 F
  2.00000E-01  8.24668E-01  1.17810E+00  2.27910E+00  1.65035E-02 F
  2.00000E-01  8.24668E-01  1.37445E+00  2.27372E+00  7.47887E-03 F
  2.00000E-01  8.24668E-01  1.57080E+00  2.27241E+00 -1.51334E-03 F
  2.00000E-01  8.24668E-01  1.76715E+00  2.27483E+00 -8.99647E-03 F
  2.00000E-01  8.24668E-01  1.96350E+00  2.28020E+00 -1.47976E-02 F
  2.00000E-01  8.24668E-01  2.15985E+00  2.28793E+00 -1.95001E-02 F
  2.00000E-01  8.24668E-01  2.35619E+00  2.29759E+00 -2.32972E-02 F
  2.00000E-01  8.24668E-01  2.55254E+00  2.30891E+00 -2.67327E-02 F
  2.00000E-01  8.24668E-01  2.74889E+00  2.32174E+00 -2.95070E-02 F
  2.00000E-01  8.24668E-01  2.94524E+00  2.33566E+00 -3.12543E-02 F
  2.00000E-01  8.24668E-01  3.14159E+00  2.35032E+00 -3.24001E-02 F
  2.00000E-01  8.24668E-01  3.33794E+00  2.36543E+00 -3.27149E-02 F
  2.00000E-01  8.24668E-01  3.53429E+00  2.38056E+00 -3.20704E-02 F
  2.00000E-01  8.24668E-01  3.73064E+00  2.39526E+00 -3.04000E-02 F
  2.00000E-01  8.24668E-01  3.92699E+00  2.40892E+00 -2.72690E-02 F
  2.00000E-01  8.24668E-01  4.12334E+00  2.42076E+00 -2.22882E-02 F
  2.00000E-01  8.24668E-01  4.31969E+00  2.42964E+00 -1.45270E-02 F
  2.00000E-01  8.24668E-01  4.51604E+00  2.43422E+00 -4.43745E-03 F
  2.00000E-01  8.24668E-01  4.71239E+00  2.43387E+00  5.73964E-03 F
  2.00000E-01  8.24668E-01  4.90874E+00  2.42897E+00  1.44920E-02 F
  2.00000E-01  8.24668E-01  5.10509E+00  2.42046E+00  2.07448E-02 F
  2.00000E-01  8.24668E-01  5.30144E+00  2.40973E+00  2.40345E-02 F
  2.00000E-01  8.24668E-01  5.49779E+00  2.39812E+00  2.47871E-02 F
  2.00000E-01  8.24668E-01  5.69414E+00  2.38669E+00  2.36739E-02 F
  2.00000E-01  8.24668E-01  5.89049E+00  2.37594E+00  2.24990E-02 F
  2.00000E-01  8.24668E-01  6.08684E+00  2.36548E+00  2.26756E-02 F
  2.00000E-01  8.63938E-01  0.00000E+00  2.35907E+00  3.29933E-02 F
  2.00000E-01  8.63938E-01  1.96350E-01  2.34323E+00  3.55587E-02 F
  2.00000E-01  8.63938E-01  3.92699E-01  2.32664E+00  3.63194E-02 F
  2.00000E-01  8.63938E-01  5.89049E-01  2.31051E+00  3.40361E-02 F
  2.00000E-01  8.63938E-01  7.85398E-01  2.29623E+00  2.85134E-02 F
  2.00000E-01  8.63938E-01  9.81748E-01  2.28528E+00  1.97317E-02 F
  2.00000E-01  8.63938E-01  1.17810E+00  2.27874E+00  9.37641E-03 F
  2.00000E-01  8.63938E-01  1.37445E+00  2.27689E+00 -1.04676E-03 F
  2.00000E-01  8.63938E-01  1.57080E+00  2.27953E+00 -1.04689E-02 F
  2.00000E-01  8.63938E-01  1.76715E+00  2.28591E+00 -1.75552E-02 F
  2.00000E-01  8.63938E-01  1.96350E+00  2.29500E+00 -2.26355E-02 F
  2.00000E-01  8.63938E-01  2.15985E+00  2.30615E+00 -2.65896E-02 F
  2.00000E-01  8.63938E-01  2.35619E+00  2.31901E+00 -3.00117E-02 F
  2.00000E-01  8.63938E-01  2.55254E+00  2.33351E+00 -3.35130E-02 F
  2.00000E-01  8.63938E-01  2.74889E+00  2.34968E+00 -3.67054E-02 F
  2.00000E-01  8.63938E-01  2.94524E+00  2.36728E+00 -3.91631E-02 F
  2.00000E-01  8.63938E-01  3.14159E+00  2.38593E+00 -4.05161E-02 F
  2.00000E-01  8.63938E-01  3.33794E+00  2.40494E+00 -3.99944E-02 F
  2.00000E-01  8.63938E-01  3.53429E+00  2.42336E+00 -3.73515E-02 F
  2.00000E-01  8.63938E-01  3.73064E+00  2.44014E+00 -3.25846E-02 F
  2.00000E-01  8.63938E-01  3.92699E+00  2.45428E+00 -2.60057E-02 F
  2.00000E-01  8.63938E-01  4.12334E+00  2.46489E+00 -1.75610E-02 F
  2.00000E-01  8.63938E-01  4.31969E+00  2.47087E+00 -6.80278E-03 F
  2.00000E-01  8.63938E-01  4.51604E+00  2.47134E+00  4.79236E-03 F
  2.00000E-01  8.63938E-01  4.71239E+00  2.46644E+00  1.51000E-02 F
  2.00000E-01  8.63938E-01  4.90874E+00  2.45711E+00  2.30381E-02 F
  2.00000E-01  8.63938E-01  5.10509E+00  2.44473E+00  2.79241E-02 F
  2.00000E-01  8.63938E-01  5.30144E+00  2.43074E+00  3.01609E-02 F
  2.00000E-01  8.63938E-01  5.49779E+00  2.41624E+00  3.04774E-02 F
  2.00000E-01  8.63938E-01  5.69414E+00  2.40198E+00  2.98016E-02 F
  2.00000E-01  8.63938E-01  5.89049E+00  2.38802E+00  2.97938E-02 F
  2.00000E-01  8.63938E-01  6.08684E+00  2.37387E+00  3.08880E-02 F
  2.00000E-01  9.03208E-01  0.00000E+00  2.36847E+00  3.83086E-02 F
  2.00000E-01  9.03208E-01  1.96350E-01  2.35056E+00  3.86544E-02 F
  2.00000E-01  9.03208E-01  3.92699E-01  2.33319E+00  3.64254E-02 F
  2.00000E-01  9.03208E-01  5.89049E-01  2.31757E+00  3.15727E-02 F
  2.00000E-01  9.03208E-01  7.85398E-01  2.30487E+00  2.38829E-02 F
  2.00000E-01  9.03208E-01  9.81748E-01  2.29632E+00  1.37614E-02 F
  2.00000E-01  9.03208E-01  1.17810E+00  2.29250E+00  3.23818E-03 F
  2.00000E-01  9.03208E-01  1.37445E+00  2.29335E+00 -6.91516E-03 F
  2.00000E-01  9.03208E-01  1.57080E+00  2.29854E+00 -1.57765E-02 F
  2.00000E-01  9.03208E-01  1.76715E+00  2.30720E+00 -2.20787E-02 F
  2.00000E-01  9.03208E-01  1.96350E+00  2.31826E+00 -2.64201E-02 F
  2.00000E-01  9.03208E-01  2.15985E+00  2.33109E+00 -2.96248E-02 F
  2.00000E-01  9.03208E-01  2.35619E+00  2.34532E+00 -3.23494E-02 F
  2.00000E-01  9.03208E-01  2.55254E+00  2.36092E+00 -3.52363E-02 F
  2.00000E-01  9.03208E-01  2.74889E+00  2.37799E+00 -3.81250E-02 F
  2.00000E-01  9.03208E-01  2.94524E+00  2.39649E+00 -4.06825E-02 F
  2.00000E-01  9.03208E-01  3.14159E+00  2.41612E+00 -4.21796E-02 F
  2.00000E-01  9.03208E-01  3.33794E+00  2.43619E+00 -4.16897E-02 F
  2.00000E-01  9.03208E-01  3.53429E+00  2.45561E+00 -3.87288E-02 F
  2.00000E-01  9.03208E-01  3.73064E+00  2.47313E+00 -3.33235E-02 F
  2.00000E-01  9.03208E-01  3.92699E+00  2.48763E+00 -2.59155E-02 F
  2.00000E-01  9.03208E-01  4.12334E+00  2.49803E+00 -1.61051E-02 F
  2.00000E-01  9.03208E-01  4.31969E+00  2.50302E+00 -3.97719E-03 F
  2.00000E-01  9.03208E-01  4.51604E+00  2.50190E+00  8.35201E-03 F
  2.00000E-01  9.03208E-01  4.71239E+00  2.49510E+00  1.89953E-02 F
  2.00000E-01  9.03208E-01  4.90874E+00  2.48377E+00  2.68248E-02 F
  2.00000E-01  9.03208E-01  5.10509E+00  2.46947E+00  3.15176E-02 F
  2.00000E-01  9.03208E-01  5.30144E+00  2.45357E+00  3.39977E-02 F
  2.00000E-01  9.03208E-01  5.49779E+00  2.43697E+00  3.49247E-02 F
  2.00000E-01  9.03208E-01  5.69414E+00  2.42023E+00  3.53261E-02 F
  2.00000E-01  9.03208E-01  5.89049E+00  2.40332E+00  3.61795E-02 F
  2.00000E-01  9.03208E-01  6.08684E+00  2.38608E+00  3.71666E-02 F
  2.00000E-01  9.42478E-01  0.00000E+00  2.37372E+00  4.02501E-02 F
  2.00000E-01  9.42478E-01  1.96350E-01  2.35570E+00  3.69053E-02 F
  2.00000E-01  9.42478E-01  3.92699E-01  2.33994E+00  3.11662E-02 F
  2.00000E-01  9.42478E-01  5.89049E-01  2.32725E+00  2.39832E-02 F
  2.00000E-01  9.42478E-01  7.85398E-01  2.31830E+00  1.49567E-02 F
  2.00000E-01  9.42478E-01  9.81748E-01  2.31375E+00  5.10349E-03 F
  2.00000E-01  9.42478E-01  1.17810E+00  2.31354E+00 -4.07069E-03 F
  2.00000E-01  9.42478E-01  1.37445E+00  2.31743E+00 -1.30095E-02 F
  2.00000E-01  9.42478E-01  1.57080E+00  2.32521E+00 -2.07957E-02 F
  2.00000E-01  9.42478E-01  1.76715E+00  2.33607E+00 -2.63423E-02 F
  2.00000E-01  9.42478E-01  1.96350E+00  2.34916E+00 -3.03482E-02 F
  2.00000E-01  9.42478E-01  2.15985E+00  2.36390E+00 -3.31922E-02 F
  2.00000E-01  9.42478E-01  2.35619E+00  2.37986E+00 -3.52717E-02 F
  2.00000E-01  9.42478E-01  2.55254E+00  2.39684E+00 -3.71231E-02 F
  2.00000E-01  9.42478E-01  2.74889E+00  2.41477E+00 -3.87348E-02 F
  2.00000E-01  9.42478E-01  2.94524E+00  2.43351E+00 -3.98928E-02 F
  2.00000E-01  9.42478E-01  3.14159E+00  2.45272E+00 -3.99864E-02 F
  2.00000E-01  9.42478E-01  3.33794E+00  2.47174E+00 -3.83224E-02 F
  2.00000E-01  9.42478E-01  3.53429E+00  2.48957E+00 -3.45762E-02 F
  2.00000E-01  9.42478E-01  3.73064E+00  2.50524E+00 -2.90757E-02 F
  2.00000E-01  9.42478E-01  3.92699E+00  2.51789E+00 -2.18761E-02 F
  2.00000E-01  9.42478E-01  4.12334E+00  2.52640E+00 -1.20093E-02 F
  2.00000E-01  9.42478E-01  4.31969E+00  2.52942E+00  5.29207E-05 F
  2.00000E-01  9.42478E-01  4.51604E+00  2.52634E+00  1.22174E-02 F
  2.00000E-01  9.42478E-01  4.71239E+00  2.51758E+00  2.27490E-02 F
  2.00000E-01  9.42478E-01  4.90874E+00  2.50437E+00  3.03022E-02 F
  2.00000E-01  9.42478E-01  5.10509E+00  2.48827E+00  3.50245E-02 F
  2.00000E-01  9.42478E-01  5.30144E+00  2.47044E+00  3.79694E-02 F
  2.00000E-01  9.42478E-01  5.49779E+00  2.45165E+00  3.96583E-02 F
  2.00000E-01  9.42478E-01  5.69414E+00  2.43231E+00  4.09688E-02 F
  2.00000E-01  9.42478E-01  5.89049E+00  2.41259E+00  4.18020E-02 F
  2.00000E-01  9.42478E-01  6.08684E+00  2.39290E+00  4.15176E-02 F
  2.00000E-01  9.81748E-01  0.00000E+00  2.36476E+00  4.32590E-02 F
  2.00000E-01  9.81748E-01  1.96350E-01  2.34641E+00  3.55433E-02 F
  2.00000E-01  9.81748E-01  3.92699E-01  2.33225E+00  2.60235E-02 F
  2.00000E-01  9.81748E-01  5.89049E-01  2.32262E+00  1.59662E-02 F
  2.00000E-01  9.81748E-01  7.85398E-01  2.31781E+00  5.12268E-03 F
  2.00000E-01  9.81748E-01  9.81748E-01  2.31779E+00 -4.68476E-03 F
  2.00000E-01  9.81748E-01  1.17810E+00  2.32186E+00 -1.31193E-02 F
  2.00000E-01  9.81748E-01  1.37445E+00  2.32977E+00 -2.14643E-02 F
  2.00000E-01  9.81748E-01  1.57080E+00  2.34130E+00 -2.84723E-02 F
  2.00000E-01  9.81748E-01  1.76715E+00  2.35564E+00 -3.34751E-02 F
  2.00000E-01  9.81748E-01  1.96350E+00  2.37209E+00 -3.71905E-02 F
  2.00000E-01  9.81748E-01  2.15985E+00  2.39009E+00 -3.95686E-02 F
  2.00000E-01  9.81748E-01  2.35619E+00  2.40908E+00 -4.09464E-02 F
  2.00000E-01  9.81748E-01  2.55254E+00  2.42875E+00 -4.18011E-02 F
  2.00000E-01  9.81748E-01  2.74889E+00  2.44886E+00 -4.20620E-02 F
  2.00000E-01  9.81748E-01  2.94524E+00  2.46905E+00 -4.14131E-02 F
  2.00000E-01  9.81748E-01  3.14159E+00  2.48876E+00 -3.92271E-02 F
  2.00000E-01  9.81748E-01  3.33794E+00  2.50704E+00 -3.50052E-02 F
  2.00000E-01  9.81748E-01  3.53429E+00  2.52291E+00 -2.90496E-02 F
  2.00000E-01  9.81748E-01  3.73064E+00  2.53568E+00 -2.22983E-02 F
  2.00000E-01  9.81748E-01  3.92699E+00  2.54493E+00 -1.44988E-02 F
  2.00000E-01  9.81748E-01  4.12334E+00  2.54980E+00 -4.60004E-03 F
  2.00000E-01  9.81748E-01  4.31969E+00  2.54928E+00  6.77126E-03 F
  2.00000E-01  9.81748E-01  4.51604E+00  2.54303E+00  1.81103E-02 F
  2.00000E-01  9.81748E-01  4.71239E+00  2.53149E+00  2.78337E-02 F
  2.00000E-01  9.81748E-01  4.90874E+00  2.51586E+00  3.47914E-02 F
  2.00000E-01  9.81748E-01  5.10509E+00  2.49747E+00  3.97179E-02 F
  2.00000E-01  9.81748E-01  5.30144E+00  2.47711E+00  4.34672E-02 F
  2.00000E-01  9.81748E-01  5.49779E+00  2.45533E+00  4.64221E-02 F
  2.00000E-01  9.81748E-01  5.69414E+00  2.43244E+00  4.88166E-02 F
  2.00000E-01  9.81748E-01  5.89049E+00  2.40900E+00  4.94159E-02 F
  2.00000E-01  9.81748E-01  6.08684E+00  2.38607E+00  4.76155E-02 F
  2.00000E-01  1.02102E+00  0.00000E+00  2.36620E+00  4.24278E-02 F
  2.00000E-01  1.02102E+00  1.96350E-01  2.34885E+00  3.21569E-02 F
  2.00000E-01  1.02102E+00  3.92699E-01  2.33663E+00  2.09857E-02 F
  2.00000E-01  1.02102E+00  5.89049E-01  2.32964E+00  9.38196E-03 F
  2.00000E-01  1.02102E+00  7.85398E-01  2.32806E+00 -2.28432E-03 F
  2.00000E-01  1.02102E+00  9.81748E-01  2.33135E+00 -1.16604E-02 F
  2.00000E-01  1.02102E+00  1.17810E+00  2.33855E+00 -1.97339E-02 F
  2.00000E-01  1.02102E+00  1.37445E+00  2.34948E+00 -2.75983E-02 F
  2.00000E-01  1.02102E+00  1.57080E+00  2.36372E+00 -3.35864E-02 F
  2.00000E-01  1.02102E+00  1.76715E+00  2.38038E+00 -3.77087E-02 F
  2.00000E-01  1.02102E+00  1.96350E+00  2.39880E+00 -4.05678E-02 F
  2.00000E-01  1.02102E+00  2.15985E+00  2.41836E+00 -4.19546E-02 F
  2.00000E-01  1.02102E+00  2.35619E+00  2.43851E+00 -4.24702E-02 F
  2.00000E-01  1.02102E+00  2.55254E+00  2.45898E+00 -4.26316E-02 F
  2.00000E-01  1.02102E+00  2.74889E+00  2.47960E+00 -4.23356E-02 F
  2.00000E-01  1.02102E+00  2.94524E+00  2.50005E+00 -4.10646E-02 F
  2.00000E-01  1.02102E+00  3.14159E+00  2.51959E+00 -3.78373E-02 F
  2.00000E-01  1.02102E+00  3.33794E+00  2.53705E+00 -3.21312E-02 F
  2.00000E-01  1.02102E+00  3.53429E+00  2.55131E+00 -2.48471E-02 F
  2.00000E-01  1.02102E+00  3.73064E+00  2.56188E+00 -1.71995E-02 F
  2.00000E-01  1.02102E+00  3.92699E+00  2.56847E+00 -8.75871E-03 F
  2.00000E-01  1.02102E+00  4.12334E+00  2.57045E+00  1.13551E-03 F
  2.00000E-01  1.02102E+00  4.31969E+00  2.56718E+00  1.19090E-02 F
  2.00000E-01  1.02102E+00  4.51604E+00  2.55848E+00  2.25376E-02 F
  2.00000E-01  1.02102E+00  4.71239E+00  2.54486E+00  3.13965E-02 F
  2.00000E-01  1.02102E+00  4.90874E+00  2.52754E+00  3.78409E-02 F
  2.00000E-01  1.02102E+00  5.10509E+00  2.50755E+00  4.28773E-02 F
  2.00000E-01  1.02102E+00  5.30144E+00  2.48549E+00  4.69795E-02 F
  2.00000E-01  1.02102E+00  5.49779E+00  2.46181E+00  5.04560E-02 F
  2.00000E-01  1.02102E+00  5.69414E+00  2.43690E+00  5.27573E-02 F
  2.00000E-01  1.02102E+00  5.89049E+00  2.41177E+00  5.23693E-02 F
  2.00000E-01  1.02102E+00  6.08684E+00  2.38773E+00  4.91590E-02 F
  2.00000E-01  1.06029E+00  0.00000E+00  2.37914E+00  3.51316E-02 F
  2.00000E-01  1.06029E+00  1.96350E-01  2.36527E+00  2.43323E-02 F
  2.00000E-01  1.06029E+00  3.92699E-01  2.35647E+00  1.36330E-02 F
  2.00000E-01  1.06029E+00  5.89049E-01  2.35278E+00  2.16286E-03 F
  2.00000E-01  1.06029E+00  7.85398E-01  2.35439E+00 -8.72242E-03 F
  2.00000E-01  1.06029E+00  9.81748E-01  2.36041E+00 -1.69572E-02 F
  2.00000E-01  1.06029E+00  1.17810E+00  2.37002E+00 -2.44441E-02 F
  2.00000E-01  1.06029E+00  1.37445E+00  2.38307E+00 -3.11538E-02 F
  2.00000E-01  1.06029E+00  1.57080E+00  2.39879E+00 -3.54501E-02 F
  2.00000E-01  1.06029E+00  1.76715E+00  2.41623E+00 -3.81445E-02 F
  2.00000E-01  1.06029E+00  1.96350E+00  2.43480E+00 -3.96145E-02 F
  2.00000E-01  1.06029E+00  2.15985E+00  2.45389E+00 -3.97756E-02 F
  2.00000E-01  1.06029E+00  2.35619E+00  2.47305E+00 -3.94392E-02 F
  2.00000E-01  1.06029E+00  2.55254E+00  2.49218E+00 -3.90358E-02 F
  2.00000E-01  1.06029E+00  2.74889E+00  2.51124E+00 -3.85113E-02 F
  2.00000E-01  1.06029E+00  2.94524E+00  2.53003E+00 -3.71601E-02 F
  2.00000E-01  1.06029E+00  3.14159E+00  2.54779E+00 -3.36535E-02 F
  2.00000E-01  1.06029E+00  3.33794E+00  2.56325E+00 -2.76057E-02 F
  2.00000E-01  1.06029E+00  3.53429E+00  2.57534E+00 -2.02642E-02 F
  2.00000E-01  1.06029E+00  3.73064E+00  2.58367E+00 -1.25447E-02 F
  2.00000E-01  1.06029E+00  3.92699E+00  2.58790E+00 -3.91487E-03 F
  2.00000E-01  1.06029E+00  4.12334E+00  2.58745E+00  5.86545E-03 F
  2.00000E-01  1.06029E+00  4.31969E+00  2.58182E+00  1.63757E-02 F
  2.00000E-01  1.06029E+00  4.51604E+00  2.57092E+00  2.65018E-02 F
  2.00000E-01  1.06029E+00  4.71239E+00  2.55547E+00  3.44880E-02 F
  2.00000E-01  1.06029E+00  4.90874E+00  2.53671E+00  4.02955E-02 F
  2.00000E-01  1.06029E+00  5.10509E+00  2.51555E+00  4.48209E-02 F
  2.00000E-01  1.06029E+00  5.30144E+00  2.49262E+00  4.82889E-02 F
  2.00000E-01  1.06029E+00  5.49779E+00  2.46844E+00  5.08241E-02 F
  2.00000E-01  1.06029E+00  5.69414E+00  2.44371E+00  5.12348E-02 F
  2.00000E-01  1.06029E+00  5.89049E+00  2.41974E+00  4.87409E-02 F
  2.00000E-01  1.06029E+00  6.08684E+00  2.39777E+00  4.36955E-02 F
  2.00000E-01  1.09956E+00  0.00000E+00  2.36939E+00  2.72628E-02 F
  2.00000E-01  1.09956E+00  1.96350E-01  2.35961E+00  1.51044E-02 F
  2.00000E-01  1.09956E+00  3.92699E-01  2.35519E+00  3.95520E-03 F
  2.00000E-01  1.09956E+00  5.89049E-01  2.35606E+00 -7.68785E-03 F
  2.00000E-01  1.09956E+00  7.85398E-01  2.36203E+00 -1.75583E-02 F
  2.00000E-01  1.09956E+00  9.81748E-01  2.37196E+00 -2.50226E-02 F
  2.00000E-01  1.09956E+00  1.17810E+00  2.38535E+00 -3.22902E-02 F
  2.00000E-01  1.09956E+00  1.37445E+00  2.40198E+00 -3.79925E-02 F
  2.00000E-01  1.09956E+00  1.57080E+00  2.42077E+00 -4.10550E-02 F
  2.00000E-01  1.09956E+00  1.76715E+00  2.44080E+00 -4.26516E-02 F
  2.00000E-01  1.09956E+00  1.96350E+00  2.46142E+00 -4.27819E-02 F
  2.00000E-01  1.09956E+00  2.15985E+00  2.48194E+00 -4.16328E-02 F
  2.00000E-01  1.09956E+00  2.35619E+00  2.50192E+00 -3.99885E-02 F
  2.00000E-01  1.09956E+00  2.55254E+00  2.52119E+00 -3.81642E-02 F
  2.00000E-01  1.09956E+00  2.74889E+00  2.53968E+00 -3.62103E-02 F
  2.00000E-01  1.09956E+00  2.94524E+00  2.55713E+00 -3.32402E-02 F
  2.00000E-01  1.09956E+00  3.14159E+00  2.57265E+00 -2.79903E-02 F
  2.00000E-01  1.09956E+00  3.33794E+00  2.58504E+00 -2.07372E-02 F
  2.00000E-01  1.09956E+00  3.53429E+00  2.59361E+00 -1.29803E-02 F
  2.00000E-01  1.09956E+00  3.73064E+00  2.59826E+00 -5.18448E-03 F
  2.00000E-01  1.09956E+00  3.92699E+00  2.59879E+00  3.23558E-03 F
  2.00000E-01  1.09956E+00  4.12334E+00  2.59479E+00  1.26033E-02 F
  2.00000E-01  1.09956E+00  4.31969E+00  2.58580E+00  2.28247E-02 F
  2.00000E-01  1.09956E+00  4.51604E+00  2.57174E+00  3.24598E-02 F
  2.00000E-01  1.09956E+00  4.71239E+00  2.55342E+00  3.99633E-02 F
  2.00000E-01  1.09956E+00  4.90874E+00  2.53197E+00  4.57842E-02 F
  2.00000E-01  1.09956E+00  5.10509E+00  2.50812E+00  5.04209E-02 F
  2.00000E-01  1.09956E+00  5.30144E+00  2.48252E+00  5.38510E-02 F
  2.00000E-01  1.09956E+00  5.49779E+00  2.45593E+00  5.53968E-02 F
  2.00000E-01  1.09956E+00  5.69414E+00  2.42969E+00  5.33135E-02 F
  2.00000E-01  1.09956E+00  5.89049E+00  2.40558E+00  4.77955E-02 F
  2.00000E-01  1.09956E+00  6.08684E+00  2.38499E+00  3.91974E-02 F
  2.00000E-01  1.13883E+00  0.00000E+00  2.36209E+00  1.98578E-02 F
  2.00000E-01  1.13883E+00  1.96350E-01  2.35607E+00  6.55187E-03 F
  2.00000E-01  1.13883E+00  3.92699E-01  2.35582E+00 -5.48015E-03 F
  2.00000E-01  1.13883E+00  5.89049E-01  2.36110E+00 -1.69925E-02 F
  2.00000E-01  1.13883E+00  7.85398E-01  2.37107E+00 -2.53605E-02 F
  2.00000E-01  1.13883E+00  9.81748E-01  2.38445E+00 -3.19708E-02 F
  2.00000E-01  1.13883E+00  1.17810E+00  2.40106E+00 -3.86064E-02 F
  2.00000E-01  1.13883E+00  1.37445E+00  2.42054E+00 -4.32097E-02 F
  2.00000E-01  1.13883E+00  1.57080E+00  2.44180E+00 -4.56277E-02 F
  2.00000E-01  1.13883E+00  1.76715E+00  2.46409E+00 -4.66936E-02 F
  2.00000E-01  1.13883E+00  1.96350E+00  2.48669E+00 -4.59884E-02 F
  2.00000E-01  1.13883E+00  2.15985E+00  2.50877E+00 -4.39002E-02 F
  2.00000E-01  1.13883E+00  2.35619E+00  2.52980E+00 -4.10316E-02 F
  2.00000E-01  1.13883E+00  2.55254E+00  2.54946E+00 -3.77887E-02 F
  2.00000E-01  1.13883E+00  2.74889E+00  2.56758E+00 -3.42276E-02 F
  2.00000E-01  1.13883E+00  2.94524E+00  2.58370E+00 -2.91504E-02 F
  2.00000E-01  1.13883E+00  3.14159E+00  2.59672E+00 -2.16809E-02 F
  2.00000E-01  1.13883E+00  3.33794E+00  2.60557E+00 -1.29315E-02 F
  2.00000E-01  1.13883E+00  3.53429E+00  2.61001E+00 -4.55726E-03 F
  2.00000E-01  1.13883E+00  3.73064E+00  2.61036E+00  3.14050E-03 F
  2.00000E-01  1.13883E+00  3.92699E+00  2.60681E+00  1.07512E-02 F
  2.00000E-01  1.13883E+00  4.12334E+00  2.59923E+00  1.91355E-02 F
  2.00000E-01  1.13883E+00  4.31969E+00  2.58713E+00  2.84571E-02 F
  2.00000E-01  1.13883E+00  4.51604E+00  2.57047E+00  3.70688E-02 F
  2.00000E-01  1.13883E+00  4.71239E+00  2.55003E+00  4.39826E-02 F
  2.00000E-01  1.13883E+00  4.90874E+00  2.52663E+00  4.97547E-02 F
  2.00000E-01  1.13883E+00  5.10509E+00  2.50086E+00  5.44923E-02 F
  2.00000E-01  1.13883E+00  5.30144E+00  2.47334E+00  5.79509E-02 F
  2.00000E-01  1.13883E+00  5.49779E+00  2.44506E+00  5.84648E-02 F
  2.00000E-01  1.13883E+00  5.69414E+00  2.41794E+00  5.44047E-02 F
  2.00000E-01  1.13883E+00  5.89049E+00  2.39396E+00  4.65543E-02 F
  2.00000E-01  1.13883E+00  6.08684E+00  2.37478E+00  3.46309E-02 F
  2.00000E-01  1.17810E+00  0.00000E+00  2.38281E+00  1.32810E-02 F
  2.00000E-01  1.17810E+00  1.96350E-01  2.37958E+00  7.79667E-04 F
  2.00000E-01  1.17810E+00  3.92699E-01  2.38208E+00 -1.15236E-02 F
  2.00000E-01  1.17810E+00  5.89049E-01  2.39017E+00 -2.24217E-02 F
  2.00000E-01  1.17810E+00  7.85398E-01  2.40249E+00 -2.94493E-02 F
  2.00000E-01  1.17810E+00  9.81748E-01  2.41778E+00 -3.51432E-02 F
  2.00000E-01  1.17810E+00  1.17810E+00  2.43578E+00 -4.01228E-02 F
  2.00000E-01  1.17810E+00  1.37445E+00  2.45579E+00 -4.28284E-02 F
  2.00000E-01  1.17810E+00  1.57080E+00  2.47689E+00 -4.42262E-02 F
  2.00000E-01  1.17810E+00  1.76715E+00  2.49865E+00 -4.46065E-02 F
  2.00000E-01  1.17810E+00  1.96350E+00  2.52039E+00 -4.34016E-02 F
  2.00000E-01  1.17810E+00  2.15985E+00  2.54139E+00 -4.09134E-02 F
  2.00000E-01  1.17810E+00  2.35619E+00  2.56106E+00 -3.75156E-02 F
  2.00000E-01  1.17810E+00  2.55254E+00  2.57907E+00 -3.38710E-02 F
  2.00000E-01  1.17810E+00  2.74889E+00  2.59529E+00 -2.98015E-02 F
  2.00000E-01  1.17810E+00  2.94524E+00  2.60909E+00 -2.37785E-02 F
  2.00000E-01  1.17810E+00  3.14159E+00  2.61922E+00 -1.53801E-02 F
  2.00000E-01  1.17810E+00  3.33794E+00  2.62475E+00 -6.13916E-03 F
  2.00000E-01  1.17810E+00  3.53429E+00  2.62567E+00  2.36503E-03 F
  2.00000E-01  1.17810E+00  3.73064E+00  2.62252E+00  9.69376E-03 F
  2.00000E-01  1.17810E+00  3.92699E+00  2.61581E+00  1.64236E-02 F
  2.00000E-01  1.17810E+00  4.12334E+00  2.60554E+00  2.38017E-02 F
  2.00000E-01  1.17810E+00  4.31969E+00  2.59136E+00  3.17468E-02 F
  2.00000E-01  1.17810E+00  4.51604E+00  2.57345E+00  3.86026E-02 F
  2.00000E-01  1.17810E+00  4.71239E+00  2.55263E+00  4.39721E-02 F
  2.00000E-01  1.17810E+00  4.90874E+00  2.52958E+00  4.82438E-02 F
  2.00000E-01  1.17810E+00  5.10509E+00  2.50488E+00  5.15487E-02 F
  2.00000E-01  1.17810E+00  5.30144E+00  2.47908E+00  5.35874E-02 F
  2.00000E-01  1.17810E+00  5.49779E+00  2.45324E+00  5.24241E-02 F
  2.00000E-01  1.17810E+00  5.69414E+00  2.42916E+00  4.75814E-02 F
  2.00000E-01  1.17810E+00  5.89049E+00  2.40829E+00  3.96591E-02 F
  2.00000E-01  1.17810E+00  6.08684E+00  2.39232E+00  2.74117E-02 F
  2.00000E-01  1.21737E+00  0.00000E+00  2.38962E+00  8.06049E-03 F
  2.00000E-01  1.21737E+00  1.96350E-01  2.38869E+00 -4.25000E-03 F
  2.00000E-01  1.21737E+00  3.92699E-01  2.39382E+00 -1.76099E-02 F
  2.00000E-01  1.21737E+00  5.89049E-01  2.40491E+00 -2.87647E-02 F
  2.00000E-01  1.21737E+00  7.85398E-01  2.42036E+00 -3.60337E-02 F
  2.00000E-01  1.21737E+00  9.81748E-01  2.43895E+00 -4.16946E-02 F
  2.00000E-01  1.21737E+00  1.17810E+00  2.45993E+00 -4.50135E-02 F
  2.00000E-01  1.21737E+00  1.37445E+00  2.48201E+00 -4.56915E-02 F
  2.00000E-01  1.21737E+00  1.57080E+00  2.50433E+00 -4.54306E-02 F
  2.00000E-01  1.21737E+00  1.76715E+00  2.52652E+00 -4.41989E-02 F
  2.00000E-01  1.21737E+00  1.96350E+00  2.54796E+00 -4.16418E-02 F
  2.00000E-01  1.21737E+00  2.15985E+00  2.56797E+00 -3.78333E-02 F
  2.00000E-01  1.21737E+00  2.35619E+00  2.58595E+00 -3.32066E-02 F
  2.00000E-01  1.21737E+00  2.55254E+00  2.60171E+00 -2.87462E-02 F
  2.00000E-01  1.21737E+00  2.74889E+00  2.61525E+00 -2.39320E-02 F
  2.00000E-01  1.21737E+00  2.94524E+00  2.62594E+00 -1.72213E-02 F
  2.00000E-01  1.21737E+00  3.14159E+00  2.63266E+00 -8.59347E-03 F
  2.00000E-01  1.21737E+00  3.33794E+00  2.63473E+00  5.58621E-04 F
  2.00000E-01  1.21737E+00  3.53429E+00  2.63222E+00  8.93268E-03 F
  2.00000E-01  1.21737E+00  3.73064E+00  2.62573E+00  1.60032E-02 F
  2.00000E-01  1.21737E+00  3.92699E+00  2.61584E+00  2.24942E-02 F
  2.00000E-01  1.21737E+00  4.12334E+00  2.60253E+00  2.95595E-02 F
  2.00000E-01  1.21737E+00  4.31969E+00  2.58566E+00  3.64866E-02 F
  2.00000E-01  1.21737E+00  4.51604E+00  2.56578E+00  4.18779E-02 F
  2.00000E-01  1.21737E+00  4.71239E+00  2.54374E+00  4.57321E-02 F
  2.00000E-01  1.21737E+00  4.90874E+00  2.52033E+00  4.82765E-02 F
  2.00000E-01  1.21737E+00  5.10509E+00  2.49612E+00  4.98730E-02 F
  2.00000E-01  1.21737E+00  5.30144E+00  2.47169E+00  4.98800E-02 F
  2.00000E-01  1.21737E+00  5.49779E+00  2.44823E+00  4.67313E-02 F
  2.00000E-01  1.21737E+00  5.69414E+00  2.42711E+00  4.12622E-02 F
  2.00000E-01  1.21737E+00  5.89049E+00  2.40928E+00  3.31511E-02 F
  2.00000E-01  1.21737E+00  6.08684E+00  2.39639E+00  2.09826E-02 F
