s E_r[V/m] (\Gamma_b/n_b[m/s]  Q_b/n_b/T_b[m/s] L_1^b[m^2/s] L_2^b[m^2/s]  Z_b n_b[10^{19}m^{-3}] dlnn_b/dr[m^{-1}] T_b[eV] dlnT_b/dr[m^{-1}], b=1,NBB), size(e\varphi_1/T_i) 
  2.50000E-01 -1.62864E+04  3.49758E-02  1.22251E-01  4.09316E-03  1.53183E-02  5.68427E+00 -4.99721E-01  1.03233E+03 -6.06093E+00 -1.00000E+00 -6.49525E-01 -1.48670E+00  1.52254E-01  5.69928E-01  5.68427E+00 -4.99721E-01  9.39360E+02 -3.15321E+00  1.00000E+00 -1.72144-258  0.00000E+00          NaN
  2.50000E-01 -1.52685E+04  3.35808E-02  1.18215E-01  4.09317E-03  1.53183E-02  5.68427E+00 -4.99721E-01  1.03233E+03 -6.06093E+00 -1.00000E+00 -5.92786E-01 -1.32171E+00  1.52254E-01  5.69928E-01  5.68427E+00 -4.99721E-01  9.39360E+02 -3.15321E+00  1.00000E+00 -1.72144-258  0.00000E+00          NaN
  2.50000E-01 -1.42506E+04  3.21856E-02  1.14179E-01  4.09317E-03  1.53183E-02  5.68427E+00 -4.99721E-01  1.03233E+03 -6.06093E+00 -1.00000E+00 -5.36048E-01 -1.15673E+00  1.52254E-01  5.69928E-01  5.68427E+00 -4.99721E-01  9.39360E+02 -3.15321E+00  1.00000E+00 -1.72144-258  0.00000E+00          NaN
  2.50000E-01 -1.32327E+04  3.07904E-02  1.10143E-01  4.09318E-03  1.53183E-02  5.68427E+00 -4.99721E-01  1.03233E+03 -6.06093E+00 -1.00000E+00 -4.79311E-01 -9.91748E-01  1.52254E-01  5.69928E-01  5.68427E+00 -4.99721E-01  9.39360E+02 -3.15321E+00  1.00000E+00 -1.72144-258  0.00000E+00          NaN
  2.50000E-01 -1.22148E+04  2.93951E-02  1.06107E-01  4.09318E-03  1.53183E-02  5.68427E+00 -4.99721E-01  1.03233E+03 -6.06093E+00 -1.00000E+00 -4.22576E-01 -8.26765E-01  1.52254E-01  5.69928E-01  5.68427E+00 -4.99721E-01  9.39360E+02 -3.15321E+00  1.00000E+00 -1.72144-258  0.00000E+00          NaN
  2.50000E-01 -1.11969E+04  2.79996E-02  1.02071E-01  4.09318E-03  1.53183E-02  5.68427E+00 -4.99721E-01  1.03233E+03 -6.06093E+00 -1.00000E+00 -3.65842E-01 -6.61783E-01  1.52255E-01  5.69928E-01  5.68427E+00 -4.99721E-01  9.39360E+02 -3.15321E+00  1.00000E+00 -1.72144-258  0.00000E+00          NaN
  2.50000E-01 -1.01790E+04  2.66041E-02  9.80354E-02  4.09319E-03  1.53183E-02  5.68427E+00 -4.99721E-01  1.03233E+03 -6.06093E+00 -1.00000E+00 -3.09109E-01 -4.96801E-01  1.52255E-01  5.69928E-01  5.68427E+00 -4.99721E-01  9.39360E+02 -3.15321E+00  1.00000E+00 -1.72144-258  0.00000E+00          NaN
  2.50000E-01 -9.16113E+03  2.52085E-02  9.39994E-02  4.09319E-03  1.53183E-02  5.68427E+00 -4.99721E-01  1.03233E+03 -6.06093E+00 -1.00000E+00 -2.52379E-01 -3.31819E-01  1.52255E-01  5.69928E-01  5.68427E+00 -4.99721E-01  9.39360E+02 -3.15321E+00  1.00000E+00 -1.72144-258  0.00000E+00          NaN
  2.50000E-01 -8.14322E+03  2.38127E-02  8.99634E-02  4.09320E-03  1.53183E-02  5.68427E+00 -4.99721E-01  1.03233E+03 -6.06093E+00 -1.00000E+00 -1.95651E-01 -1.66838E-01  1.52255E-01  5.69928E-01  5.68427E+00 -4.99721E-01  9.39360E+02 -3.15321E+00  1.00000E+00 -1.72144-258  0.00000E+00          NaN
  2.50000E-01 -7.12532E+03  2.24169E-02  8.59275E-02  4.09320E-03  1.53183E-02  5.68427E+00 -4.99721E-01  1.03233E+03 -6.06093E+00 -1.00000E+00 -1.38925E-01 -1.85663E-03  1.52256E-01  5.69928E-01  5.68427E+00 -4.99721E-01  9.39360E+02 -3.15321E+00  1.00000E+00 -1.72144-258  0.00000E+00          NaN
  2.50000E-01 -6.10742E+03  2.10210E-02  8.18915E-02  4.09320E-03  1.53183E-02  5.68427E+00 -4.99721E-01  1.03233E+03 -6.06093E+00 -1.00000E+00 -8.22005E-02  1.63124E-01  1.52256E-01  5.69929E-01  5.68427E+00 -4.99721E-01  9.39360E+02 -3.15321E+00  1.00000E+00 -1.72144-258  0.00000E+00          NaN
  2.50000E-01 -5.08951E+03  1.96249E-02  7.78555E-02  4.09321E-03  1.53183E-02  5.68427E+00 -4.99721E-01  1.03233E+03 -6.06093E+00 -1.00000E+00 -2.54766E-02  3.28106E-01  1.52257E-01  5.69929E-01  5.68427E+00 -4.99721E-01  9.39360E+02 -3.15321E+00  1.00000E+00 -1.72144-258  0.00000E+00          NaN
  2.50000E-01 -4.07161E+03  1.82286E-02  7.38195E-02  4.09321E-03  1.53183E-02  5.68427E+00 -4.99721E-01  1.03233E+03 -6.06093E+00 -1.00000E+00  3.12499E-02  4.93087E-01  1.52258E-01  5.69929E-01  5.68427E+00 -4.99721E-01  9.39360E+02 -3.15321E+00  1.00000E+00 -1.72144-258  0.00000E+00          NaN
  2.50000E-01 -3.05371E+03  1.68318E-02  6.97835E-02  4.09321E-03  1.53183E-02  5.68427E+00 -4.99721E-01  1.03233E+03 -6.06093E+00 -1.00000E+00  8.79845E-02  6.58069E-01  1.52259E-01  5.69929E-01  5.68427E+00 -4.99721E-01  9.39360E+02 -3.15321E+00  1.00000E+00 -1.72144-258  0.00000E+00          NaN
  2.50000E-01 -2.03581E+03  1.54337E-02  6.57474E-02  4.09322E-03  1.53183E-02  5.68427E+00 -4.99721E-01  1.03233E+03 -6.06093E+00 -1.00000E+00  1.44735E-01  8.23054E-01  1.52260E-01  5.69929E-01  5.68427E+00 -4.99721E-01  9.39360E+02 -3.15321E+00  1.00000E+00 -1.72144-258  0.00000E+00          NaN
  2.50000E-01 -1.01790E+03  1.40314E-02  6.17113E-02  4.09324E-03  1.53183E-02  5.68427E+00 -4.99721E-01  1.03233E+03 -6.06093E+00 -1.00000E+00  2.01511E-01  9.88041E-01  1.52260E-01  5.69929E-01  5.68427E+00 -4.99721E-01  9.39360E+02 -3.15321E+00  1.00000E+00 -1.72144-258  0.00000E+00          NaN
  2.50000E-01  2.66017E-13  1.26255E-02  5.76751E-02  4.09327E-03  1.53183E-02  5.68427E+00 -4.99721E-01  1.03233E+03 -6.06093E+00 -1.00000E+00  2.58264E-01  1.15303E+00  1.52261E-01  5.69929E-01  5.68427E+00 -4.99721E-01  9.39360E+02 -3.15321E+00  1.00000E+00 -1.72144-258  0.00000E+00          NaN
  2.50000E-01  1.01790E+03  1.12370E-02  5.36393E-02  4.09324E-03  1.53183E-02  5.68427E+00 -4.99721E-01  1.03233E+03 -6.06093E+00 -1.00000E+00  3.15139E-01  1.31802E+00  1.52260E-01  5.69929E-01  5.68427E+00 -4.99721E-01  9.39360E+02 -3.15321E+00  1.00000E+00 -1.72144-258  0.00000E+00          NaN
  2.50000E-01  2.03581E+03  9.84788E-03  4.96034E-02  4.09322E-03  1.53183E-02  5.68427E+00 -4.99721E-01  1.03233E+03 -6.06093E+00 -1.00000E+00  3.71964E-01  1.48302E+00  1.52260E-01  5.69929E-01  5.68427E+00 -4.99721E-01  9.39360E+02 -3.15321E+00  1.00000E+00 -1.72144-258  0.00000E+00          NaN
  2.50000E-01  3.05371E+03  8.45490E-03  4.55675E-02  4.09321E-03  1.53183E-02  5.68427E+00 -4.99721E-01  1.03233E+03 -6.06093E+00 -1.00000E+00  4.28776E-01  1.64801E+00  1.52259E-01  5.69929E-01  5.68427E+00 -4.99721E-01  9.39360E+02 -3.15321E+00  1.00000E+00 -1.72144-258  0.00000E+00          NaN
  2.50000E-01  4.07161E+03  7.06054E-03  4.15316E-02  4.09321E-03  1.53183E-02  5.68427E+00 -4.99721E-01  1.03233E+03 -6.06093E+00 -1.00000E+00  4.85570E-01  1.81300E+00  1.52258E-01  5.69929E-01  5.68427E+00 -4.99721E-01  9.39360E+02 -3.15321E+00  1.00000E+00 -1.72144-258  0.00000E+00          NaN
  2.50000E-01  5.08951E+03  5.66568E-03  3.74956E-02  4.09321E-03  1.53183E-02  5.68427E+00 -4.99721E-01  1.03233E+03 -6.06093E+00 -1.00000E+00  5.42350E-01  1.97798E+00  1.52257E-01  5.69929E-01  5.68427E+00 -4.99721E-01  9.39360E+02 -3.15321E+00  1.00000E+00 -1.72144-258  0.00000E+00          NaN
  2.50000E-01  6.10742E+03  4.27064E-03  3.34597E-02  4.09320E-03  1.53183E-02  5.68427E+00 -4.99721E-01  1.03233E+03 -6.06093E+00 -1.00000E+00  5.99118E-01  2.14297E+00  1.52256E-01  5.69929E-01  5.68427E+00 -4.99721E-01  9.39360E+02 -3.15321E+00  1.00000E+00 -1.72144-258  0.00000E+00          NaN
  2.50000E-01  7.12532E+03  2.87557E-03  2.94238E-02  4.09320E-03  1.53183E-02  5.68427E+00 -4.99721E-01  1.03233E+03 -6.06093E+00 -1.00000E+00  6.55877E-01  2.30795E+00  1.52256E-01  5.69928E-01  5.68427E+00 -4.99721E-01  9.39360E+02 -3.15321E+00  1.00000E+00 -1.72144-258  0.00000E+00          NaN
  2.50000E-01  8.14322E+03  1.48053E-03  2.53879E-02  4.09320E-03  1.53183E-02  5.68427E+00 -4.99721E-01  1.03233E+03 -6.06093E+00 -1.00000E+00  7.12631E-01  2.47294E+00  1.52255E-01  5.69928E-01  5.68427E+00 -4.99721E-01  9.39360E+02 -3.15321E+00  1.00000E+00 -1.72144-258  0.00000E+00          NaN
  2.50000E-01  9.16113E+03  8.55493E-05  2.13519E-02  4.09319E-03  1.53183E-02  5.68427E+00 -4.99721E-01  1.03233E+03 -6.06093E+00 -1.00000E+00  7.69382E-01  2.63792E+00  1.52255E-01  5.69928E-01  5.68427E+00 -4.99721E-01  9.39360E+02 -3.15321E+00  1.00000E+00 -1.72144-258  0.00000E+00          NaN
  2.50000E-01  1.01790E+04 -1.30934E-03  1.73160E-02  4.09319E-03  1.53183E-02  5.68427E+00 -4.99721E-01  1.03233E+03 -6.06093E+00 -1.00000E+00  8.26130E-01  2.80291E+00  1.52255E-01  5.69928E-01  5.68427E+00 -4.99721E-01  9.39360E+02 -3.15321E+00  1.00000E+00 -1.72144-258  0.00000E+00          NaN
  2.50000E-01  1.11969E+04 -2.70411E-03  1.32802E-02  4.09318E-03  1.53183E-02  5.68427E+00 -4.99721E-01  1.03233E+03 -6.06093E+00 -1.00000E+00  8.82877E-01  2.96789E+00  1.52255E-01  5.69928E-01  5.68427E+00 -4.99721E-01  9.39360E+02 -3.15321E+00  1.00000E+00 -1.72144-258  0.00000E+00          NaN
  2.50000E-01  1.22148E+04 -4.09877E-03  9.24428E-03  4.09318E-03  1.53183E-02  5.68427E+00 -4.99721E-01  1.03233E+03 -6.06093E+00 -1.00000E+00  9.39623E-01  3.13287E+00  1.52254E-01  5.69928E-01  5.68427E+00 -4.99721E-01  9.39360E+02 -3.15321E+00  1.00000E+00 -1.72144-258  0.00000E+00          NaN
  2.50000E-01  1.32327E+04 -5.49331E-03  5.20841E-03  4.09318E-03  1.53183E-02  5.68427E+00 -4.99721E-01  1.03233E+03 -6.06093E+00 -1.00000E+00  9.96369E-01  3.29786E+00  1.52254E-01  5.69928E-01  5.68427E+00 -4.99721E-01  9.39360E+02 -3.15321E+00  1.00000E+00 -1.72144-258  0.00000E+00          NaN
  2.50000E-01  1.42506E+04 -6.88771E-03  1.17256E-03  4.09317E-03  1.53183E-02  5.68427E+00 -4.99721E-01  1.03233E+03 -6.06093E+00 -1.00000E+00  1.05311E+00  3.46284E+00  1.52254E-01  5.69928E-01  5.68427E+00 -4.99721E-01  9.39360E+02 -3.15321E+00  1.00000E+00 -1.72144-258  0.00000E+00          NaN
  2.50000E-01  1.52685E+04 -8.28198E-03 -2.86328E-03  4.09317E-03  1.53183E-02  5.68427E+00 -4.99721E-01  1.03233E+03 -6.06093E+00 -1.00000E+00  1.10986E+00  3.62782E+00  1.52254E-01  5.69928E-01  5.68427E+00 -4.99721E-01  9.39360E+02 -3.15321E+00  1.00000E+00 -1.72144-258  0.00000E+00          NaN
  2.50000E-01  1.62864E+04 -9.67610E-03 -6.89910E-03  4.09316E-03  1.53183E-02  5.68427E+00 -4.99721E-01  1.03233E+03 -6.06093E+00 -1.00000E+00  1.16660E+00  3.79281E+00  1.52254E-01  5.69928E-01  5.68427E+00 -4.99721E-01  9.39360E+02 -3.15321E+00  1.00000E+00 -1.72144-258  0.00000E+00          NaN
  2.50000E-01  1.73044E+04 -1.10701E-02 -1.09349E-02  4.09315E-03  1.53183E-02  5.68427E+00 -4.99721E-01  1.03233E+03 -6.06093E+00 -1.00000E+00  1.22335E+00  3.95779E+00  1.52254E-01  5.69928E-01  5.68427E+00 -4.99721E-01  9.39360E+02 -3.15321E+00  1.00000E+00 -1.72144-258  0.00000E+00          NaN
  2.50000E-01  1.83223E+04 -1.24639E-02 -1.49707E-02  4.09315E-03  1.53183E-02  5.68427E+00 -4.99721E-01  1.03233E+03 -6.06093E+00 -1.00000E+00  1.28009E+00  4.12277E+00  1.52254E-01  5.69928E-01  5.68427E+00 -4.99721E-01  9.39360E+02 -3.15321E+00  1.00000E+00 -1.72144-258  0.00000E+00          NaN
  2.50000E-01  1.93402E+04 -1.38576E-02 -1.90065E-02  4.09314E-03  1.53183E-02  5.68427E+00 -4.99721E-01  1.03233E+03 -6.06093E+00 -1.00000E+00  1.33684E+00  4.28776E+00  1.52254E-01  5.69928E-01  5.68427E+00 -4.99721E-01  9.39360E+02 -3.15321E+00  1.00000E+00 -1.72144-258  0.00000E+00          NaN
  2.50000E-01  2.03581E+04 -1.52512E-02 -2.30422E-02  4.09314E-03  1.53183E-02  5.68427E+00 -4.99721E-01  1.03233E+03 -6.06093E+00 -1.00000E+00  1.39358E+00  4.45274E+00  1.52254E-01  5.69928E-01  5.68427E+00 -4.99721E-01  9.39360E+02 -3.15321E+00  1.00000E+00 -1.72144-258  0.00000E+00          NaN
  2.50000E-01  2.13760E+04 -1.66445E-02 -2.70780E-02  4.09313E-03  1.53183E-02  5.68427E+00 -4.99721E-01  1.03233E+03 -6.06093E+00 -1.00000E+00  1.45033E+00  4.61772E+00  1.52254E-01  5.69928E-01  5.68427E+00 -4.99721E-01  9.39360E+02 -3.15321E+00  1.00000E+00 -1.72144-258  0.00000E+00          NaN
  2.50000E-01  2.23939E+04 -1.80378E-02 -3.11137E-02  4.09313E-03  1.53183E-02  5.68427E+00 -4.99721E-01  1.03233E+03 -6.06093E+00 -1.00000E+00  1.50707E+00  4.78271E+00  1.52254E-01  5.69928E-01  5.68427E+00 -4.99721E-01  9.39360E+02 -3.15321E+00  1.00000E+00 -1.72144-258  0.00000E+00          NaN
  2.50000E-01  2.34118E+04 -1.94309E-02 -3.51494E-02  4.09312E-03  1.53183E-02  5.68427E+00 -4.99721E-01  1.03233E+03 -6.06093E+00 -1.00000E+00  1.56381E+00  4.94769E+00  1.52254E-01  5.69928E-01  5.68427E+00 -4.99721E-01  9.39360E+02 -3.15321E+00  1.00000E+00 -1.72144-258  0.00000E+00          NaN
  2.50000E-01  2.44297E+04 -2.08239E-02 -3.91851E-02  4.09311E-03  1.53183E-02  5.68427E+00 -4.99721E-01  1.03233E+03 -6.06093E+00 -1.00000E+00  1.62056E+00  5.11267E+00  1.52254E-01  5.69928E-01  5.68427E+00 -4.99721E-01  9.39360E+02 -3.15321E+00  1.00000E+00 -1.72144-258  0.00000E+00          NaN
  2.50000E-01  2.54476E+04 -2.22167E-02 -4.32208E-02  4.09311E-03  1.53183E-02  5.68427E+00 -4.99721E-01  1.03233E+03 -6.06093E+00 -1.00000E+00  1.67730E+00  5.27766E+00  1.52254E-01  5.69928E-01  5.68427E+00 -4.99721E-01  9.39360E+02 -3.15321E+00  1.00000E+00 -1.72144-258  0.00000E+00          NaN
  2.50000E-01  2.64655E+04 -2.36093E-02 -4.72564E-02  4.09310E-03  1.53183E-02  5.68427E+00 -4.99721E-01  1.03233E+03 -6.06093E+00 -1.00000E+00  1.73405E+00  5.44264E+00  1.52254E-01  5.69928E-01  5.68427E+00 -4.99721E-01  9.39360E+02 -3.15321E+00  1.00000E+00 -1.72144-258  0.00000E+00          NaN
  2.50000E-01  2.74834E+04 -2.50018E-02 -5.12921E-02  4.09309E-03  1.53183E-02  5.68427E+00 -4.99721E-01  1.03233E+03 -6.06093E+00 -1.00000E+00  1.79079E+00  5.60762E+00  1.52254E-01  5.69928E-01  5.68427E+00 -4.99721E-01  9.39360E+02 -3.15321E+00  1.00000E+00 -1.72144-258  0.00000E+00          NaN
  2.50000E-01  2.85013E+04 -2.63942E-02 -5.53277E-02  4.09308E-03  1.53183E-02  5.68427E+00 -4.99721E-01  1.03233E+03 -6.06093E+00 -1.00000E+00  1.84753E+00  5.77261E+00  1.52254E-01  5.69928E-01  5.68427E+00 -4.99721E-01  9.39360E+02 -3.15321E+00  1.00000E+00 -1.72144-258  0.00000E+00          NaN
  2.50000E-01  2.95192E+04 -2.77865E-02 -5.93633E-02  4.09308E-03  1.53183E-02  5.68427E+00 -4.99721E-01  1.03233E+03 -6.06093E+00 -1.00000E+00  1.90428E+00  5.93759E+00  1.52253E-01  5.69928E-01  5.68427E+00 -4.99721E-01  9.39360E+02 -3.15321E+00  1.00000E+00 -1.72144-258  0.00000E+00          NaN
  2.50000E-01  3.05371E+04 -2.91786E-02 -6.33989E-02  4.09307E-03  1.53183E-02  5.68427E+00 -4.99721E-01  1.03233E+03 -6.06093E+00 -1.00000E+00  1.96102E+00  6.10257E+00  1.52253E-01  5.69928E-01  5.68427E+00 -4.99721E-01  9.39360E+02 -3.15321E+00  1.00000E+00 -1.72144-258  0.00000E+00          NaN
  2.50000E-01  3.15550E+04 -3.05705E-02 -6.74345E-02  4.09306E-03  1.53183E-02  5.68427E+00 -4.99721E-01  1.03233E+03 -6.06093E+00 -1.00000E+00  2.01777E+00  6.26756E+00  1.52253E-01  5.69928E-01  5.68427E+00 -4.99721E-01  9.39360E+02 -3.15321E+00  1.00000E+00 -1.72144-258  0.00000E+00          NaN
  2.50000E-01  3.25729E+04 -3.19624E-02 -7.14700E-02  4.09306E-03  1.53183E-02  5.68427E+00 -4.99721E-01  1.03233E+03 -6.06093E+00 -1.00000E+00  2.07451E+00  6.43254E+00  1.52253E-01  5.69928E-01  5.68427E+00 -4.99721E-01  9.39360E+02 -3.15321E+00  1.00000E+00 -1.72144-258  0.00000E+00          NaN
  2.50000E-01  3.35908E+04 -3.33540E-02 -7.55056E-02  4.09305E-03  1.53183E-02  5.68427E+00 -4.99721E-01  1.03233E+03 -6.06093E+00 -1.00000E+00  2.13125E+00  6.59752E+00  1.52253E-01  5.69928E-01  5.68427E+00 -4.99721E-01  9.39360E+02 -3.15321E+00  1.00000E+00 -1.72144-258  0.00000E+00          NaN
  2.50000E-01 -5.08951E+03  1.96249E-02  7.78555E-02  4.09321E-03  1.53183E-02  5.68427E+00 -4.99721E-01  1.03233E+03 -6.06093E+00 -1.00000E+00 -2.54766E-02  3.28106E-01  1.52257E-01  5.69929E-01  5.68427E+00 -4.99721E-01  9.39360E+02 -3.15321E+00  1.00000E+00 -1.72144-258  0.00000E+00          NaN
  2.50000E-01 -4.07161E+03  1.82286E-02  7.38195E-02  4.09321E-03  1.53183E-02  5.68427E+00 -4.99721E-01  1.03233E+03 -6.06093E+00 -1.00000E+00  3.12499E-02  4.93087E-01  1.52258E-01  5.69929E-01  5.68427E+00 -4.99721E-01  9.39360E+02 -3.15321E+00  1.00000E+00 -1.72144-258  0.00000E+00          NaN
  2.50000E-01 -4.58056E+03  1.89268E-02  7.58375E-02  4.09321E-03  1.53183E-02  5.68427E+00 -4.99721E-01  1.03233E+03 -6.06093E+00 -1.00000E+00  2.88605E-03  4.10596E-01  1.52257E-01  5.69929E-01  5.68427E+00 -4.99721E-01  9.39360E+02 -3.15321E+00  1.00000E+00 -1.72144-258  0.00000E+00          NaN
  2.50000E-01 -4.32609E+03  1.85777E-02  7.48285E-02  4.09321E-03  1.53183E-02  5.68427E+00 -4.99721E-01  1.03233E+03 -6.06093E+00 -1.00000E+00  1.70678E-02  4.51842E-01  1.52258E-01  5.69929E-01  5.68427E+00 -4.99721E-01  9.39360E+02 -3.15321E+00  1.00000E+00 -1.72144-258  0.00000E+00          NaN
  2.50000E-01 -4.19885E+03  1.84032E-02  7.43240E-02  4.09321E-03  1.53183E-02  5.68427E+00 -4.99721E-01  1.03233E+03 -6.06093E+00 -1.00000E+00  2.41588E-02  4.72464E-01  1.52258E-01  5.69929E-01  5.68427E+00 -4.99721E-01  9.39360E+02 -3.15321E+00  1.00000E+00 -1.72144-258  0.00000E+00          NaN
  2.50000E-01 -4.26247E+03  1.84904E-02  7.45762E-02  4.09321E-03  1.53183E-02  5.68427E+00 -4.99721E-01  1.03233E+03 -6.06093E+00 -1.00000E+00  2.06133E-02  4.62153E-01  1.52258E-01  5.69929E-01  5.68427E+00 -4.99721E-01  9.39360E+02 -3.15321E+00  1.00000E+00 -1.72144-258  0.00000E+00          NaN
