s E_r[V/m] (\Gamma_b/n_b[m/s]  Q_b/n_b/T_b[m/s] L_1^b[m^2/s] L_2^b[m^2/s]  Z_b n_b[10^{19}m^{-3}] dlnn_b/dr[m^{-1}] T_b[eV] dlnT_b/dr[m^{-1}], b=1,NBB), size(e\varphi_1/T_i) 
  4.50000E-01 -1.94656E+04  2.70670E-02  8.74055E-02  1.84398E-03  6.89157E-03  5.44324E+00 -5.73080E-01  5.94674E+02 -6.29949E+00 -1.00000E+00 -6.65156E-01 -1.51506E+00  8.88838E-02  3.32714E-01  5.44324E+00 -5.73080E-01  6.43797E+02 -5.62451E+00  1.00000E+00  1.06909E+18  0.00000E+00          NaN
  4.50000E-01 -1.86546E+04  2.61873E-02  8.48909E-02  1.84400E-03  6.89158E-03  5.44324E+00 -5.73080E-01  5.94674E+02 -6.29949E+00 -1.00000E+00 -6.26639E-01 -1.40308E+00  8.88838E-02  3.32714E-01  5.44324E+00 -5.73080E-01  6.43797E+02 -5.62451E+00  1.00000E+00  1.06909E+18  0.00000E+00          NaN
  4.50000E-01 -1.78435E+04  2.53072E-02  8.23763E-02  1.84402E-03  6.89158E-03  5.44324E+00 -5.73080E-01  5.94674E+02 -6.29949E+00 -1.00000E+00 -5.88123E-01 -1.29111E+00  8.88838E-02  3.32714E-01  5.44324E+00 -5.73080E-01  6.43797E+02 -5.62451E+00  1.00000E+00  1.06909E+18  0.00000E+00          NaN
  4.50000E-01 -1.70324E+04  2.44268E-02  7.98617E-02  1.84404E-03  6.89158E-03  5.44324E+00 -5.73080E-01  5.94674E+02 -6.29949E+00 -1.00000E+00 -5.49607E-01 -1.17913E+00  8.88839E-02  3.32714E-01  5.44324E+00 -5.73080E-01  6.43797E+02 -5.62451E+00  1.00000E+00  1.06909E+18  0.00000E+00          NaN
  4.50000E-01 -1.62214E+04  2.35460E-02  7.73470E-02  1.84406E-03  6.89158E-03  5.44324E+00 -5.73080E-01  5.94674E+02 -6.29949E+00 -1.00000E+00 -5.11091E-01 -1.06715E+00  8.88839E-02  3.32714E-01  5.44324E+00 -5.73080E-01  6.43797E+02 -5.62451E+00  1.00000E+00  1.06909E+18  0.00000E+00          NaN
  4.50000E-01 -1.54103E+04  2.26647E-02  7.48323E-02  1.84408E-03  6.89159E-03  5.44324E+00 -5.73080E-01  5.94674E+02 -6.29949E+00 -1.00000E+00 -4.72575E-01 -9.55177E-01  8.88839E-02  3.32714E-01  5.44324E+00 -5.73080E-01  6.43797E+02 -5.62451E+00  1.00000E+00  1.06909E+18  0.00000E+00          NaN
  4.50000E-01 -1.45992E+04  2.17831E-02  7.23175E-02  1.84410E-03  6.89159E-03  5.44324E+00 -5.73080E-01  5.94674E+02 -6.29949E+00 -1.00000E+00 -4.34059E-01 -8.43201E-01  8.88840E-02  3.32714E-01  5.44324E+00 -5.73080E-01  6.43797E+02 -5.62451E+00  1.00000E+00  1.06909E+18  0.00000E+00          NaN
  4.50000E-01 -1.37882E+04  2.09010E-02  6.98026E-02  1.84411E-03  6.89159E-03  5.44324E+00 -5.73080E-01  5.94674E+02 -6.29949E+00 -1.00000E+00 -3.95544E-01 -7.31225E-01  8.88840E-02  3.32714E-01  5.44324E+00 -5.73080E-01  6.43797E+02 -5.62451E+00  1.00000E+00  1.06909E+18  0.00000E+00          NaN
  4.50000E-01 -1.29771E+04  2.00184E-02  6.72877E-02  1.84413E-03  6.89159E-03  5.44324E+00 -5.73080E-01  5.94674E+02 -6.29949E+00 -1.00000E+00 -3.57029E-01 -6.19249E-01  8.88841E-02  3.32714E-01  5.44324E+00 -5.73080E-01  6.43797E+02 -5.62451E+00  1.00000E+00  1.06909E+18  0.00000E+00          NaN
  4.50000E-01 -1.21660E+04  1.91354E-02  6.47728E-02  1.84415E-03  6.89160E-03  5.44324E+00 -5.73080E-01  5.94674E+02 -6.29949E+00 -1.00000E+00 -3.18515E-01 -5.07272E-01  8.88842E-02  3.32714E-01  5.44324E+00 -5.73080E-01  6.43797E+02 -5.62451E+00  1.00000E+00  1.06909E+18  0.00000E+00          NaN
  4.50000E-01 -1.13550E+04  1.82520E-02  6.22578E-02  1.84417E-03  6.89160E-03  5.44324E+00 -5.73080E-01  5.94674E+02 -6.29949E+00 -1.00000E+00 -2.80002E-01 -3.95296E-01  8.88842E-02  3.32714E-01  5.44324E+00 -5.73080E-01  6.43797E+02 -5.62451E+00  1.00000E+00  1.06909E+18  0.00000E+00          NaN
  4.50000E-01 -1.05439E+04  1.73680E-02  5.97427E-02  1.84419E-03  6.89160E-03  5.44324E+00 -5.73080E-01  5.94674E+02 -6.29949E+00 -1.00000E+00 -2.41490E-01 -2.83320E-01  8.88843E-02  3.32714E-01  5.44324E+00 -5.73080E-01  6.43797E+02 -5.62451E+00  1.00000E+00  1.06909E+18  0.00000E+00          NaN
  4.50000E-01 -9.73282E+03  1.64836E-02  5.72276E-02  1.84421E-03  6.89160E-03  5.44324E+00 -5.73080E-01  5.94674E+02 -6.29949E+00 -1.00000E+00 -2.02980E-01 -1.71345E-01  8.88844E-02  3.32714E-01  5.44324E+00 -5.73080E-01  6.43797E+02 -5.62451E+00  1.00000E+00  1.06909E+18  0.00000E+00          NaN
  4.50000E-01 -8.92175E+03  1.55987E-02  5.47124E-02  1.84422E-03  6.89161E-03  5.44324E+00 -5.73080E-01  5.94674E+02 -6.29949E+00 -1.00000E+00 -1.64472E-01 -5.93692E-02  8.88846E-02  3.32714E-01  5.44324E+00 -5.73080E-01  6.43797E+02 -5.62451E+00  1.00000E+00  1.06909E+18  0.00000E+00          NaN
  4.50000E-01 -8.11068E+03  1.47133E-02  5.21972E-02  1.84424E-03  6.89161E-03  5.44324E+00 -5.73080E-01  5.94674E+02 -6.29949E+00 -1.00000E+00 -1.25966E-01  5.26060E-02  8.88847E-02  3.32714E-01  5.44324E+00 -5.73080E-01  6.43797E+02 -5.62451E+00  1.00000E+00  1.06909E+18  0.00000E+00          NaN
  4.50000E-01 -7.29962E+03  1.38275E-02  4.96819E-02  1.84426E-03  6.89161E-03  5.44324E+00 -5.73080E-01  5.94674E+02 -6.29949E+00 -1.00000E+00 -8.74645E-02  1.64581E-01  8.88850E-02  3.32714E-01  5.44324E+00 -5.73080E-01  6.43797E+02 -5.62451E+00  1.00000E+00  1.06909E+18  0.00000E+00          NaN
  4.50000E-01 -6.48855E+03  1.29412E-02  4.71666E-02  1.84427E-03  6.89161E-03  5.44324E+00 -5.73080E-01  5.94674E+02 -6.29949E+00 -1.00000E+00 -4.89671E-02  2.76555E-01  8.88852E-02  3.32714E-01  5.44324E+00 -5.73080E-01  6.43797E+02 -5.62451E+00  1.00000E+00  1.06909E+18  0.00000E+00          NaN
  4.50000E-01 -5.67748E+03  1.20545E-02  4.46512E-02  1.84429E-03  6.89161E-03  5.44324E+00 -5.73080E-01  5.94674E+02 -6.29949E+00 -1.00000E+00 -1.04758E-02  3.88529E-01  8.88856E-02  3.32714E-01  5.44324E+00 -5.73080E-01  6.43797E+02 -5.62451E+00  1.00000E+00  1.06909E+18  0.00000E+00          NaN
  4.50000E-01 -4.86641E+03  1.11674E-02  4.21359E-02  1.84430E-03  6.89161E-03  5.44324E+00 -5.73080E-01  5.94674E+02 -6.29949E+00 -1.00000E+00  2.80078E-02  5.00501E-01  8.88861E-02  3.32714E-01  5.44324E+00 -5.73080E-01  6.43797E+02 -5.62451E+00  1.00000E+00  1.06909E+18  0.00000E+00          NaN
  4.50000E-01 -4.05534E+03  1.02800E-02  3.96204E-02  1.84431E-03  6.89162E-03  5.44324E+00 -5.73080E-01  5.94674E+02 -6.29949E+00 -1.00000E+00  6.64819E-02  6.12473E-01  8.88867E-02  3.32714E-01  5.44324E+00 -5.73080E-01  6.43797E+02 -5.62451E+00  1.00000E+00  1.06909E+18  0.00000E+00          NaN
  4.50000E-01 -3.24427E+03  9.39219E-03  3.71050E-02  1.84432E-03  6.89162E-03  5.44324E+00 -5.73080E-01  5.94674E+02 -6.29949E+00 -1.00000E+00  1.04946E-01  7.24443E-01  8.88876E-02  3.32715E-01  5.44324E+00 -5.73080E-01  6.43797E+02 -5.62451E+00  1.00000E+00  1.06909E+18  0.00000E+00          NaN
  4.50000E-01 -2.43321E+03  8.50403E-03  3.45895E-02  1.84433E-03  6.89162E-03  5.44324E+00 -5.73080E-01  5.94674E+02 -6.29949E+00 -1.00000E+00  1.43402E-01  8.36413E-01  8.88887E-02  3.32715E-01  5.44324E+00 -5.73080E-01  6.43797E+02 -5.62451E+00  1.00000E+00  1.06909E+18  0.00000E+00          NaN
  4.50000E-01 -1.62214E+03  7.61518E-03  3.20740E-02  1.84434E-03  6.89162E-03  5.44324E+00 -5.73080E-01  5.94674E+02 -6.29949E+00 -1.00000E+00  1.81864E-01  9.48384E-01  8.88901E-02  3.32715E-01  5.44324E+00 -5.73080E-01  6.43797E+02 -5.62451E+00  1.00000E+00  1.06909E+18  0.00000E+00          NaN
  4.50000E-01 -8.11068E+02  6.72320E-03  2.95584E-02  1.84435E-03  6.89162E-03  5.44324E+00 -5.73080E-01  5.94674E+02 -6.29949E+00 -1.00000E+00  2.20363E-01  1.06036E+00  8.88914E-02  3.32715E-01  5.44324E+00 -5.73080E-01  6.43797E+02 -5.62451E+00  1.00000E+00  1.06909E+18  0.00000E+00          NaN
  4.50000E-01  0.00000E+00  5.81449E-03  2.70424E-02  1.84441E-03  6.89162E-03  5.44324E+00 -5.73080E-01  5.94674E+02 -6.29949E+00 -1.00000E+00  2.58826E-01  1.17234E+00  8.88922E-02  3.32715E-01  5.44324E+00 -5.73080E-01  6.43797E+02 -5.62451E+00  1.00000E+00  1.06909E+18  0.00000E+00          NaN
  4.50000E-01  8.11068E+02  4.94567E-03  2.45274E-02  1.84435E-03  6.89162E-03  5.44324E+00 -5.73080E-01  5.94674E+02 -6.29949E+00 -1.00000E+00  2.97582E-01  1.28433E+00  8.88914E-02  3.32715E-01  5.44324E+00 -5.73080E-01  6.43797E+02 -5.62451E+00  1.00000E+00  1.06909E+18  0.00000E+00          NaN
  4.50000E-01  1.62214E+03  4.06308E-03  2.20121E-02  1.84434E-03  6.89162E-03  5.44324E+00 -5.73080E-01  5.94674E+02 -6.29949E+00 -1.00000E+00  3.36245E-01  1.39633E+00  8.88901E-02  3.32715E-01  5.44324E+00 -5.73080E-01  6.43797E+02 -5.62451E+00  1.00000E+00  1.06909E+18  0.00000E+00          NaN
  4.50000E-01  2.43321E+03  3.17738E-03  1.94967E-02  1.84433E-03  6.89162E-03  5.44324E+00 -5.73080E-01  5.94674E+02 -6.29949E+00 -1.00000E+00  3.74882E-01  1.50832E+00  8.88887E-02  3.32715E-01  5.44324E+00 -5.73080E-01  6.43797E+02 -5.62451E+00  1.00000E+00  1.06909E+18  0.00000E+00          NaN
  4.50000E-01  3.24427E+03  2.29140E-03  1.69814E-02  1.84432E-03  6.89162E-03  5.44324E+00 -5.73080E-01  5.94674E+02 -6.29949E+00 -1.00000E+00  4.13484E-01  1.62030E+00  8.88876E-02  3.32715E-01  5.44324E+00 -5.73080E-01  6.43797E+02 -5.62451E+00  1.00000E+00  1.06909E+18  0.00000E+00          NaN
  4.50000E-01  4.05534E+03  1.40565E-03  1.44661E-02  1.84431E-03  6.89162E-03  5.44324E+00 -5.73080E-01  5.94674E+02 -6.29949E+00 -1.00000E+00  4.52059E-01  1.73228E+00  8.88867E-02  3.32714E-01  5.44324E+00 -5.73080E-01  6.43797E+02 -5.62451E+00  1.00000E+00  1.06909E+18  0.00000E+00          NaN
  4.50000E-01  4.86641E+03  5.20330E-04  1.19509E-02  1.84430E-03  6.89161E-03  5.44324E+00 -5.73080E-01  5.94674E+02 -6.29949E+00 -1.00000E+00  4.90615E-01  1.84427E+00  8.88861E-02  3.32714E-01  5.44324E+00 -5.73080E-01  6.43797E+02 -5.62451E+00  1.00000E+00  1.06909E+18  0.00000E+00          NaN
  4.50000E-01  5.67748E+03 -3.64510E-04  9.43568E-03  1.84429E-03  6.89161E-03  5.44324E+00 -5.73080E-01  5.94674E+02 -6.29949E+00 -1.00000E+00  5.29159E-01  1.95625E+00  8.88856E-02  3.32714E-01  5.44324E+00 -5.73080E-01  6.43797E+02 -5.62451E+00  1.00000E+00  1.06909E+18  0.00000E+00          NaN
  4.50000E-01  6.48855E+03 -1.24883E-03  6.92055E-03  1.84427E-03  6.89161E-03  5.44324E+00 -5.73080E-01  5.94674E+02 -6.29949E+00 -1.00000E+00  5.67695E-01  2.06822E+00  8.88852E-02  3.32714E-01  5.44324E+00 -5.73080E-01  6.43797E+02 -5.62451E+00  1.00000E+00  1.06909E+18  0.00000E+00          NaN
  4.50000E-01  7.29962E+03 -2.13263E-03  4.40547E-03  1.84426E-03  6.89161E-03  5.44324E+00 -5.73080E-01  5.94674E+02 -6.29949E+00 -1.00000E+00  6.06226E-01  2.18020E+00  8.88850E-02  3.32714E-01  5.44324E+00 -5.73080E-01  6.43797E+02 -5.62451E+00  1.00000E+00  1.06909E+18  0.00000E+00          NaN
  4.50000E-01  8.11068E+03 -3.01589E-03  1.89045E-03  1.84424E-03  6.89161E-03  5.44324E+00 -5.73080E-01  5.94674E+02 -6.29949E+00 -1.00000E+00  6.44755E-01  2.29218E+00  8.88847E-02  3.32714E-01  5.44324E+00 -5.73080E-01  6.43797E+02 -5.62451E+00  1.00000E+00  1.06909E+18  0.00000E+00          NaN
  4.50000E-01  8.92175E+03 -3.89862E-03 -6.24501E-04  1.84422E-03  6.89161E-03  5.44324E+00 -5.73080E-01  5.94674E+02 -6.29949E+00 -1.00000E+00  6.83281E-01  2.40416E+00  8.88846E-02  3.32714E-01  5.44324E+00 -5.73080E-01  6.43797E+02 -5.62451E+00  1.00000E+00  1.06909E+18  0.00000E+00          NaN
  4.50000E-01  9.73282E+03 -4.78082E-03 -3.13939E-03  1.84421E-03  6.89160E-03  5.44324E+00 -5.73080E-01  5.94674E+02 -6.29949E+00 -1.00000E+00  7.21806E-01  2.51614E+00  8.88844E-02  3.32714E-01  5.44324E+00 -5.73080E-01  6.43797E+02 -5.62451E+00  1.00000E+00  1.06909E+18  0.00000E+00          NaN
  4.50000E-01  1.05439E+04 -5.66251E-03 -5.65422E-03  1.84419E-03  6.89160E-03  5.44324E+00 -5.73080E-01  5.94674E+02 -6.29949E+00 -1.00000E+00  7.60330E-01  2.62811E+00  8.88843E-02  3.32714E-01  5.44324E+00 -5.73080E-01  6.43797E+02 -5.62451E+00  1.00000E+00  1.06909E+18  0.00000E+00          NaN
  4.50000E-01  1.13550E+04 -6.54369E-03 -8.16899E-03  1.84417E-03  6.89160E-03  5.44324E+00 -5.73080E-01  5.94674E+02 -6.29949E+00 -1.00000E+00  7.98854E-01  2.74009E+00  8.88842E-02  3.32714E-01  5.44324E+00 -5.73080E-01  6.43797E+02 -5.62451E+00  1.00000E+00  1.06909E+18  0.00000E+00          NaN
  4.50000E-01  1.21660E+04 -7.42439E-03 -1.06837E-02  1.84415E-03  6.89160E-03  5.44324E+00 -5.73080E-01  5.94674E+02 -6.29949E+00 -1.00000E+00  8.37376E-01  2.85207E+00  8.88842E-02  3.32714E-01  5.44324E+00 -5.73080E-01  6.43797E+02 -5.62451E+00  1.00000E+00  1.06909E+18  0.00000E+00          NaN
  4.50000E-01  1.29771E+04 -8.30461E-03 -1.31983E-02  1.84413E-03  6.89159E-03  5.44324E+00 -5.73080E-01  5.94674E+02 -6.29949E+00 -1.00000E+00  8.75899E-01  2.96404E+00  8.88841E-02  3.32714E-01  5.44324E+00 -5.73080E-01  6.43797E+02 -5.62451E+00  1.00000E+00  1.06909E+18  0.00000E+00          NaN
  4.50000E-01  1.37882E+04 -9.18438E-03 -1.57129E-02  1.84411E-03  6.89159E-03  5.44324E+00 -5.73080E-01  5.94674E+02 -6.29949E+00 -1.00000E+00  9.14421E-01  3.07602E+00  8.88840E-02  3.32714E-01  5.44324E+00 -5.73080E-01  6.43797E+02 -5.62451E+00  1.00000E+00  1.06909E+18  0.00000E+00          NaN
  4.50000E-01  1.45992E+04 -1.00637E-02 -1.82275E-02  1.84410E-03  6.89159E-03  5.44324E+00 -5.73080E-01  5.94674E+02 -6.29949E+00 -1.00000E+00  9.52942E-01  3.18800E+00  8.88840E-02  3.32714E-01  5.44324E+00 -5.73080E-01  6.43797E+02 -5.62451E+00  1.00000E+00  1.06909E+18  0.00000E+00          NaN
  4.50000E-01  1.54103E+04 -1.09426E-02 -2.07420E-02  1.84408E-03  6.89159E-03  5.44324E+00 -5.73080E-01  5.94674E+02 -6.29949E+00 -1.00000E+00  9.91463E-01  3.29998E+00  8.88839E-02  3.32714E-01  5.44324E+00 -5.73080E-01  6.43797E+02 -5.62451E+00  1.00000E+00  1.06909E+18  0.00000E+00          NaN
  4.50000E-01  1.62214E+04 -1.18212E-02 -2.32564E-02  1.84406E-03  6.89158E-03  5.44324E+00 -5.73080E-01  5.94674E+02 -6.29949E+00 -1.00000E+00  1.02998E+00  3.41195E+00  8.88839E-02  3.32714E-01  5.44324E+00 -5.73080E-01  6.43797E+02 -5.62451E+00  1.00000E+00  1.06909E+18  0.00000E+00          NaN
  4.50000E-01  1.70324E+04 -1.26994E-02 -2.57708E-02  1.84404E-03  6.89158E-03  5.44324E+00 -5.73080E-01  5.94674E+02 -6.29949E+00 -1.00000E+00  1.06851E+00  3.52393E+00  8.88839E-02  3.32714E-01  5.44324E+00 -5.73080E-01  6.43797E+02 -5.62451E+00  1.00000E+00  1.06909E+18  0.00000E+00          NaN
  4.50000E-01  1.78435E+04 -1.35772E-02 -2.82851E-02  1.84402E-03  6.89158E-03  5.44324E+00 -5.73080E-01  5.94674E+02 -6.29949E+00 -1.00000E+00  1.10703E+00  3.63591E+00  8.88838E-02  3.32714E-01  5.44324E+00 -5.73080E-01  6.43797E+02 -5.62451E+00  1.00000E+00  1.06909E+18  0.00000E+00          NaN
  4.50000E-01  1.86546E+04 -1.44547E-02 -3.07994E-02  1.84400E-03  6.89158E-03  5.44324E+00 -5.73080E-01  5.94674E+02 -6.29949E+00 -1.00000E+00  1.14555E+00  3.74788E+00  8.88838E-02  3.32714E-01  5.44324E+00 -5.73080E-01  6.43797E+02 -5.62451E+00  1.00000E+00  1.06909E+18  0.00000E+00          NaN
  4.50000E-01  1.94656E+04 -1.53319E-02 -3.33136E-02  1.84398E-03  6.89157E-03  5.44324E+00 -5.73080E-01  5.94674E+02 -6.29949E+00 -1.00000E+00  1.18407E+00  3.85986E+00  8.88838E-02  3.32714E-01  5.44324E+00 -5.73080E-01  6.43797E+02 -5.62451E+00  1.00000E+00  1.06909E+18  0.00000E+00          NaN
  4.50000E-01  2.02767E+04 -1.62088E-02 -3.58279E-02  1.84396E-03  6.89157E-03  5.44324E+00 -5.73080E-01  5.94674E+02 -6.29949E+00 -1.00000E+00  1.22259E+00  3.97184E+00  8.88837E-02  3.32714E-01  5.44324E+00 -5.73080E-01  6.43797E+02 -5.62451E+00  1.00000E+00  1.06909E+18  0.00000E+00          NaN
  4.50000E-01 -5.67748E+03  1.20545E-02  4.46512E-02  1.84429E-03  6.89161E-03  5.44324E+00 -5.73080E-01  5.94674E+02 -6.29949E+00 -1.00000E+00 -1.04758E-02  3.88529E-01  8.88856E-02  3.32714E-01  5.44324E+00 -5.73080E-01  6.43797E+02 -5.62451E+00  1.00000E+00  1.06909E+18  0.00000E+00          NaN
  4.50000E-01 -4.86641E+03  1.11674E-02  4.21359E-02  1.84430E-03  6.89161E-03  5.44324E+00 -5.73080E-01  5.94674E+02 -6.29949E+00 -1.00000E+00  2.80078E-02  5.00501E-01  8.88861E-02  3.32714E-01  5.44324E+00 -5.73080E-01  6.43797E+02 -5.62451E+00  1.00000E+00  1.06909E+18  0.00000E+00          NaN
  4.50000E-01 -5.27194E+03  1.16110E-02  4.33936E-02  1.84429E-03  6.89161E-03  5.44324E+00 -5.73080E-01  5.94674E+02 -6.29949E+00 -1.00000E+00  8.76707E-03  4.44515E-01  8.88858E-02  3.32714E-01  5.44324E+00 -5.73080E-01  6.43797E+02 -5.62451E+00  1.00000E+00  1.06909E+18  0.00000E+00          NaN
  4.50000E-01 -5.06918E+03  1.13892E-02  4.27647E-02  1.84430E-03  6.89161E-03  5.44324E+00 -5.73080E-01  5.94674E+02 -6.29949E+00 -1.00000E+00  1.83877E-02  4.72508E-01  8.88859E-02  3.32714E-01  5.44324E+00 -5.73080E-01  6.43797E+02 -5.62451E+00  1.00000E+00  1.06909E+18  0.00000E+00          NaN
  4.50000E-01 -5.17056E+03  1.15001E-02  4.30791E-02  1.84429E-03  6.89161E-03  5.44324E+00 -5.73080E-01  5.94674E+02 -6.29949E+00 -1.00000E+00  1.35775E-02  4.58512E-01  8.88859E-02  3.32714E-01  5.44324E+00 -5.73080E-01  6.43797E+02 -5.62451E+00  1.00000E+00  1.06909E+18  0.00000E+00          NaN
  4.50000E-01 -5.22125E+03  1.15556E-02  4.32363E-02  1.84429E-03  6.89161E-03  5.44324E+00 -5.73080E-01  5.94674E+02 -6.29949E+00 -1.00000E+00  1.11723E-02  4.51513E-01  8.88858E-02  3.32714E-01  5.44324E+00 -5.73080E-01  6.43797E+02 -5.62451E+00  1.00000E+00  1.06909E+18  0.00000E+00          NaN
