s \zeta_{Boozer}  \theta_{Boozer}(right-handed)  B[T]  (v_B.\nabla\psi)[A.U.]
  7.50000E-01  0.00000E+00  0.00000E+00  2.30484E+00  0.00000E+00 T
  7.50000E-01  0.00000E+00  1.96350E-01  2.31049E+00 -2.72334E-02 T
  7.50000E-01  0.00000E+00  3.92699E-01  2.33066E+00 -6.01037E-02 T
  7.50000E-01  0.00000E+00  5.89049E-01  2.36431E+00 -8.54017E-02 T
  7.50000E-01  0.00000E+00  7.85398E-01  2.40925E+00 -1.03705E-01 T
  7.50000E-01  0.00000E+00  9.81748E-01  2.45933E+00 -1.03243E-01 T
  7.50000E-01  0.00000E+00  1.17810E+00  2.50712E+00 -9.10299E-02 T
  7.50000E-01  0.00000E+00  1.37445E+00  2.54774E+00 -7.33124E-02 T
  7.50000E-01  0.00000E+00  1.57080E+00  2.58252E+00 -6.70157E-02 T
  7.50000E-01  0.00000E+00  1.76715E+00  2.61672E+00 -6.71990E-02 T
  7.50000E-01  0.00000E+00  1.96350E+00  2.65185E+00 -6.90976E-02 T
  7.50000E-01  0.00000E+00  2.15985E+00  2.68890E+00 -7.17651E-02 T
  7.50000E-01  0.00000E+00  2.35619E+00  2.72643E+00 -6.79337E-02 T
  7.50000E-01  0.00000E+00  2.55254E+00  2.76029E+00 -5.71084E-02 T
  7.50000E-01  0.00000E+00  2.74889E+00  2.78781E+00 -4.34074E-02 T
  7.50000E-01  0.00000E+00  2.94524E+00  2.80684E+00 -2.48055E-02 T
  7.50000E-01  0.00000E+00  3.14159E+00  2.81389E+00  1.17487E-08 T
  7.50000E-01  0.00000E+00  3.33794E+00  2.80684E+00  2.48055E-02 T
  7.50000E-01  0.00000E+00  3.53429E+00  2.78781E+00  4.34074E-02 T
  7.50000E-01  0.00000E+00  3.73064E+00  2.76029E+00  5.71084E-02 T
  7.50000E-01  0.00000E+00  3.92699E+00  2.72643E+00  6.79337E-02 T
  7.50000E-01  0.00000E+00  4.12334E+00  2.68890E+00  7.17651E-02 T
  7.50000E-01  0.00000E+00  4.31969E+00  2.65185E+00  6.90976E-02 T
  7.50000E-01  0.00000E+00  4.51604E+00  2.61672E+00  6.71990E-02 T
  7.50000E-01  0.00000E+00  4.71239E+00  2.58252E+00  6.70157E-02 T
  7.50000E-01  0.00000E+00  4.90874E+00  2.54774E+00  7.33124E-02 T
  7.50000E-01  0.00000E+00  5.10509E+00  2.50712E+00  9.10299E-02 T
  7.50000E-01  0.00000E+00  5.30144E+00  2.45933E+00  1.03243E-01 T
  7.50000E-01  0.00000E+00  5.49779E+00  2.40925E+00  1.03705E-01 T
  7.50000E-01  0.00000E+00  5.69414E+00  2.36431E+00  8.54017E-02 T
  7.50000E-01  0.00000E+00  5.89049E+00  2.33066E+00  6.01037E-02 T
  7.50000E-01  0.00000E+00  6.08684E+00  2.31049E+00  2.72334E-02 T
  7.50000E-01  3.92699E-02  0.00000E+00  2.32551E+00 -1.82991E-02 T
  7.50000E-01  3.92699E-02  1.96350E-01  2.34073E+00 -4.94377E-02 T
  7.50000E-01  3.92699E-02  3.92699E-01  2.37028E+00 -7.58861E-02 T
  7.50000E-01  3.92699E-02  5.89049E-01  2.41001E+00 -9.27772E-02 T
  7.50000E-01  3.92699E-02  7.85398E-01  2.45687E+00 -1.01030E-01 T
  7.50000E-01  3.92699E-02  9.81748E-01  2.50580E+00 -9.88290E-02 T
  7.50000E-01  3.92699E-02  1.17810E+00  2.55269E+00 -8.80910E-02 T
  7.50000E-01  3.92699E-02  1.37445E+00  2.59311E+00 -7.29276E-02 T
  7.50000E-01  3.92699E-02  1.57080E+00  2.62863E+00 -6.68030E-02 T
  7.50000E-01  3.92699E-02  1.76715E+00  2.66228E+00 -6.26878E-02 T
  7.50000E-01  3.92699E-02  1.96350E+00  2.69440E+00 -5.99939E-02 T
  7.50000E-01  3.92699E-02  2.15985E+00  2.72628E+00 -5.98839E-02 T
  7.50000E-01  3.92699E-02  2.35619E+00  2.75773E+00 -5.55618E-02 T
  7.50000E-01  3.92699E-02  2.55254E+00  2.78484E+00 -4.30492E-02 T
  7.50000E-01  3.92699E-02  2.74889E+00  2.80403E+00 -2.62152E-02 T
  7.50000E-01  3.92699E-02  2.94524E+00  2.81235E+00 -2.45004E-03 T
  7.50000E-01  3.92699E-02  3.14159E+00  2.80577E+00  2.59742E-02 T
  7.50000E-01  3.92699E-02  3.33794E+00  2.78529E+00  4.69485E-02 T
  7.50000E-01  3.92699E-02  3.53429E+00  2.75609E+00  5.91185E-02 T
  7.50000E-01  3.92699E-02  3.73064E+00  2.72272E+00  6.38413E-02 T
  7.50000E-01  3.92699E-02  3.92699E+00  2.68863E+00  6.41999E-02 T
  7.50000E-01  3.92699E-02  4.12334E+00  2.65492E+00  6.44780E-02 T
  7.50000E-01  3.92699E-02  4.31969E+00  2.62138E+00  6.48325E-02 T
  7.50000E-01  3.92699E-02  4.51604E+00  2.58824E+00  6.50390E-02 T
  7.50000E-01  3.92699E-02  4.71239E+00  2.55490E+00  6.73984E-02 T
  7.50000E-01  3.92699E-02  4.90874E+00  2.51999E+00  7.37277E-02 T
  7.50000E-01  3.92699E-02  5.10509E+00  2.48137E+00  8.33802E-02 T
  7.50000E-01  3.92699E-02  5.30144E+00  2.43949E+00  8.91796E-02 T
  7.50000E-01  3.92699E-02  5.49779E+00  2.39747E+00  8.49831E-02 T
  7.50000E-01  3.92699E-02  5.69414E+00  2.36186E+00  6.63961E-02 T
  7.50000E-01  3.92699E-02  5.89049E+00  2.33603E+00  4.41870E-02 T
  7.50000E-01  3.92699E-02  6.08684E+00  2.32335E+00  1.02387E-02 T
  7.50000E-01  7.85398E-02  0.00000E+00  2.32095E+00 -2.71016E-02 T
  7.50000E-01  7.85398E-02  1.96350E-01  2.34250E+00 -6.83532E-02 T
  7.50000E-01  7.85398E-02  3.92699E-01  2.38251E+00 -1.00704E-01 T
  7.50000E-01  7.85398E-02  5.89049E-01  2.43411E+00 -1.14986E-01 T
  7.50000E-01  7.85398E-02  7.85398E-01  2.48999E+00 -1.13914E-01 T
  7.50000E-01  7.85398E-02  9.81748E-01  2.54403E+00 -1.03682E-01 T
  7.50000E-01  7.85398E-02  1.17810E+00  2.59219E+00 -8.66026E-02 T
  7.50000E-01  7.85398E-02  1.37445E+00  2.63270E+00 -7.29203E-02 T
  7.50000E-01  7.85398E-02  1.57080E+00  2.66864E+00 -6.54652E-02 T
  7.50000E-01  7.85398E-02  1.76715E+00  2.70128E+00 -5.83965E-02 T
  7.50000E-01  7.85398E-02  1.96350E+00  2.73047E+00 -5.08993E-02 T
  7.50000E-01  7.85398E-02  2.15985E+00  2.75583E+00 -4.35027E-02 T
  7.50000E-01  7.85398E-02  2.35619E+00  2.77752E+00 -3.59395E-02 T
  7.50000E-01  7.85398E-02  2.55254E+00  2.79427E+00 -2.46152E-02 T
  7.50000E-01  7.85398E-02  2.74889E+00  2.80370E+00 -8.67447E-03 T
  7.50000E-01  7.85398E-02  2.94524E+00  2.80212E+00  1.60607E-02 T
  7.50000E-01  7.85398E-02  3.14159E+00  2.78533E+00  4.44544E-02 T
  7.50000E-01  7.85398E-02  3.33794E+00  2.75540E+00  6.36526E-02 T
  7.50000E-01  7.85398E-02  3.53429E+00  2.71847E+00  7.20923E-02 T
  7.50000E-01  7.85398E-02  3.73064E+00  2.68031E+00  7.02344E-02 T
  7.50000E-01  7.85398E-02  3.92699E+00  2.64569E+00  6.20324E-02 T
  7.50000E-01  7.85398E-02  4.12334E+00  2.61481E+00  5.92137E-02 T
  7.50000E-01  7.85398E-02  4.31969E+00  2.58366E+00  6.33182E-02 T
  7.50000E-01  7.85398E-02  4.51604E+00  2.55022E+00  6.99608E-02 T
  7.50000E-01  7.85398E-02  4.71239E+00  2.51325E+00  7.86130E-02 T
  7.50000E-01  7.85398E-02  4.90874E+00  2.47326E+00  8.39525E-02 T
  7.50000E-01  7.85398E-02  5.10509E+00  2.43285E+00  8.25218E-02 T
  7.50000E-01  7.85398E-02  5.30144E+00  2.39533E+00  7.49740E-02 T
  7.50000E-01  7.85398E-02  5.49779E+00  2.36364E+00  5.89198E-02 T
  7.50000E-01  7.85398E-02  5.69414E+00  2.34054E+00  4.30247E-02 T
  7.50000E-01  7.85398E-02  5.89049E+00  2.32333E+00  3.01284E-02 T
  7.50000E-01  7.85398E-02  6.08684E+00  2.31560E+00  2.60326E-03 T
  7.50000E-01  1.17810E-01  0.00000E+00  2.28693E+00 -3.82748E-02 T
  7.50000E-01  1.17810E-01  1.96350E-01  2.31517E+00 -8.81811E-02 T
  7.50000E-01  1.17810E-01  3.92699E-01  2.36542E+00 -1.26165E-01 T
  7.50000E-01  1.17810E-01  5.89049E-01  2.42865E+00 -1.38608E-01 T
  7.50000E-01  1.17810E-01  7.85398E-01  2.49437E+00 -1.30655E-01 T
  7.50000E-01  1.17810E-01  9.81748E-01  2.55443E+00 -1.10104E-01 T
  7.50000E-01  1.17810E-01  1.17810E+00  2.60405E+00 -8.69111E-02 T
  7.50000E-01  1.17810E-01  1.37445E+00  2.64529E+00 -7.50381E-02 T
  7.50000E-01  1.17810E-01  1.57080E+00  2.68275E+00 -6.82678E-02 T
  7.50000E-01  1.17810E-01  1.76715E+00  2.71717E+00 -6.14861E-02 T
  7.50000E-01  1.17810E-01  1.96350E+00  2.74770E+00 -5.12676E-02 T
  7.50000E-01  1.17810E-01  2.15985E+00  2.77133E+00 -3.54062E-02 T
  7.50000E-01  1.17810E-01  2.35619E+00  2.78619E+00 -1.94339E-02 T
  7.50000E-01  1.17810E-01  2.55254E+00  2.79283E+00 -4.73468E-03 T
  7.50000E-01  1.17810E-01  2.74889E+00  2.79090E+00  1.24790E-02 T
  7.50000E-01  1.17810E-01  2.94524E+00  2.77836E+00  3.39826E-02 T
  7.50000E-01  1.17810E-01  3.14159E+00  2.75391E+00  5.53467E-02 T
  7.50000E-01  1.17810E-01  3.33794E+00  2.71987E+00  6.98760E-02 T
  7.50000E-01  1.17810E-01  3.53429E+00  2.68101E+00  7.51877E-02 T
  7.50000E-01  1.17810E-01  3.73064E+00  2.64212E+00  7.25431E-02 T
  7.50000E-01  1.17810E-01  3.92699E+00  2.60639E+00  6.62983E-02 T
  7.50000E-01  1.17810E-01  4.12334E+00  2.57317E+00  6.57218E-02 T
  7.50000E-01  1.17810E-01  4.31969E+00  2.53909E+00  7.05506E-02 T
  7.50000E-01  1.17810E-01  4.51604E+00  2.50224E+00  7.91455E-02 T
  7.50000E-01  1.17810E-01  4.71239E+00  2.46106E+00  8.96552E-02 T
  7.50000E-01  1.17810E-01  4.90874E+00  2.41625E+00  9.64059E-02 T
  7.50000E-01  1.17810E-01  5.10509E+00  2.37132E+00  9.26734E-02 T
  7.50000E-01  1.17810E-01  5.30144E+00  2.33179E+00  7.61437E-02 T
  7.50000E-01  1.17810E-01  5.49779E+00  2.30379E+00  4.57384E-02 T
  7.50000E-01  1.17810E-01  5.69414E+00  2.28837E+00  2.65533E-02 T
  7.50000E-01  1.17810E-01  5.89049E+00  2.27872E+00  1.45164E-02 T
  7.50000E-01  1.17810E-01  6.08684E+00  2.27722E+00 -8.28470E-03 T
  7.50000E-01  1.57080E-01  0.00000E+00  2.31484E+00 -5.71172E-02 T
  7.50000E-01  1.57080E-01  1.96350E-01  2.34959E+00 -9.36746E-02 T
  7.50000E-01  1.57080E-01  3.92699E-01  2.39889E+00 -1.14730E-01 T
  7.50000E-01  1.57080E-01  5.89049E-01  2.45538E+00 -1.19990E-01 T
  7.50000E-01  1.57080E-01  7.85398E-01  2.51252E+00 -1.12686E-01 T
  7.50000E-01  1.57080E-01  9.81748E-01  2.56523E+00 -9.78901E-02 T
  7.50000E-01  1.57080E-01  1.17810E+00  2.61093E+00 -8.30276E-02 T
  7.50000E-01  1.57080E-01  1.37445E+00  2.65169E+00 -7.57222E-02 T
  7.50000E-01  1.57080E-01  1.57080E+00  2.69002E+00 -7.02974E-02 T
  7.50000E-01  1.57080E-01  1.76715E+00  2.72556E+00 -6.27783E-02 T
  7.50000E-01  1.57080E-01  1.96350E+00  2.75592E+00 -4.84651E-02 T
  7.50000E-01  1.57080E-01  2.15985E+00  2.77641E+00 -2.63251E-02 T
  7.50000E-01  1.57080E-01  2.35619E+00  2.78468E+00 -4.38663E-03 T
  7.50000E-01  1.57080E-01  2.55254E+00  2.78135E+00  1.67336E-02 T
  7.50000E-01  1.57080E-01  2.74889E+00  2.76646E+00  3.75244E-02 T
  7.50000E-01  1.57080E-01  2.94524E+00  2.74140E+00  5.42381E-02 T
  7.50000E-01  1.57080E-01  3.14159E+00  2.70933E+00  6.44689E-02 T
  7.50000E-01  1.57080E-01  3.33794E+00  2.67412E+00  6.75032E-02 T
  7.50000E-01  1.57080E-01  3.53429E+00  2.63971E+00  6.35719E-02 T
  7.50000E-01  1.57080E-01  3.73064E+00  2.60844E+00  5.80747E-02 T
  7.50000E-01  1.57080E-01  3.92699E+00  2.57955E+00  5.63919E-02 T
  7.50000E-01  1.57080E-01  4.12334E+00  2.55016E+00  6.11634E-02 T
  7.50000E-01  1.57080E-01  4.31969E+00  2.51804E+00  6.80472E-02 T
  7.50000E-01  1.57080E-01  4.51604E+00  2.48263E+00  7.64567E-02 T
  7.50000E-01  1.57080E-01  4.71239E+00  2.44371E+00  8.40192E-02 T
  7.50000E-01  1.57080E-01  4.90874E+00  2.40277E+00  8.68561E-02 T
  7.50000E-01  1.57080E-01  5.10509E+00  2.36304E+00  8.17541E-02 T
  7.50000E-01  1.57080E-01  5.30144E+00  2.32834E+00  6.62389E-02 T
  7.50000E-01  1.57080E-01  5.49779E+00  2.30469E+00  3.73256E-02 T
  7.50000E-01  1.57080E-01  5.69414E+00  2.29254E+00  1.86722E-02 T
  7.50000E-01  1.57080E-01  5.89049E+00  2.28852E+00 -3.17195E-03 T
  7.50000E-01  1.57080E-01  6.08684E+00  2.29596E+00 -2.87788E-02 T
  7.50000E-01  1.96350E-01  0.00000E+00  2.34993E+00 -7.81172E-02 T
  7.50000E-01  1.96350E-01  1.96350E-01  2.39103E+00 -9.55014E-02 T
  7.50000E-01  1.96350E-01  3.92699E-01  2.43734E+00 -9.85969E-02 T
  7.50000E-01  1.96350E-01  5.89049E-01  2.48464E+00 -9.64094E-02 T
  7.50000E-01  1.96350E-01  7.85398E-01  2.53091E+00 -9.13988E-02 T
  7.50000E-01  1.96350E-01  9.81748E-01  2.57521E+00 -8.50000E-02 T
  7.50000E-01  1.96350E-01  1.17810E+00  2.61675E+00 -7.83904E-02 T
  7.50000E-01  1.96350E-01  1.37445E+00  2.65621E+00 -7.42175E-02 T
  7.50000E-01  1.96350E-01  1.57080E+00  2.69393E+00 -6.89546E-02 T
  7.50000E-01  1.96350E-01  1.76715E+00  2.72822E+00 -5.86081E-02 T
  7.50000E-01  1.96350E-01  1.96350E+00  2.75496E+00 -3.92560E-02 T
  7.50000E-01  1.96350E-01  2.15985E+00  2.76979E+00 -1.54548E-02 T
  7.50000E-01  1.96350E-01  2.35619E+00  2.77183E+00  8.23110E-03 T
  7.50000E-01  1.96350E-01  2.55254E+00  2.76038E+00  3.40420E-02 T
  7.50000E-01  1.96350E-01  2.74889E+00  2.73563E+00  5.67527E-02 T
  7.50000E-01  1.96350E-01  2.94524E+00  2.70072E+00  7.25708E-02 T
  7.50000E-01  1.96350E-01  3.14159E+00  2.66074E+00  7.72656E-02 T
  7.50000E-01  1.96350E-01  3.33794E+00  2.62196E+00  7.07383E-02 T
  7.50000E-01  1.96350E-01  3.53429E+00  2.58883E+00  5.86042E-02 T
  7.50000E-01  1.96350E-01  3.73064E+00  2.56173E+00  4.96524E-02 T
  7.50000E-01  1.96350E-01  3.92699E+00  2.53738E+00  4.94905E-02 T
  7.50000E-01  1.96350E-01  4.12334E+00  2.51084E+00  5.84026E-02 T
  7.50000E-01  1.96350E-01  4.31969E+00  2.47984E+00  6.78353E-02 T
  7.50000E-01  1.96350E-01  4.51604E+00  2.44519E+00  7.48824E-02 T
  7.50000E-01  1.96350E-01  4.71239E+00  2.40890E+00  7.62916E-02 T
  7.50000E-01  1.96350E-01  4.90874E+00  2.37404E+00  7.12020E-02 T
  7.50000E-01  1.96350E-01  5.10509E+00  2.34304E+00  6.21893E-02 T
  7.50000E-01  1.96350E-01  5.30144E+00  2.31795E+00  4.53415E-02 T
  7.50000E-01  1.96350E-01  5.49779E+00  2.30279E+00  2.23014E-02 T
  7.50000E-01  1.96350E-01  5.69414E+00  2.29674E+00  3.71137E-03 T
  7.50000E-01  1.96350E-01  5.89049E+00  2.30156E+00 -2.65481E-02 T
  7.50000E-01  1.96350E-01  6.08684E+00  2.31998E+00 -5.30517E-02 T
  7.50000E-01  2.35619E-01  0.00000E+00  2.33830E+00 -1.00535E-01 T
  7.50000E-01  2.35619E-01  1.96350E-01  2.38767E+00 -1.08600E-01 T
  7.50000E-01  2.35619E-01  3.92699E-01  2.43770E+00 -1.01222E-01 T
  7.50000E-01  2.35619E-01  5.89049E-01  2.48391E+00 -9.02083E-02 T
  7.50000E-01  2.35619E-01  7.85398E-01  2.52623E+00 -8.24945E-02 T
  7.50000E-01  2.35619E-01  9.81748E-01  2.56606E+00 -7.72930E-02 T
  7.50000E-01  2.35619E-01  1.17810E+00  2.60490E+00 -7.64838E-02 T
  7.50000E-01  2.35619E-01  1.37445E+00  2.64437E+00 -7.61875E-02 T
  7.50000E-01  2.35619E-01  1.57080E+00  2.68333E+00 -7.19823E-02 T
  7.50000E-01  2.35619E-01  1.76715E+00  2.71867E+00 -5.91437E-02 T
  7.50000E-01  2.35619E-01  1.96350E+00  2.74394E+00 -3.34523E-02 T
  7.50000E-01  2.35619E-01  2.15985E+00  2.75422E+00 -5.20389E-03 T
  7.50000E-01  2.35619E-01  2.35619E+00  2.75009E+00  2.02974E-02 T
  7.50000E-01  2.35619E-01  2.55254E+00  2.73274E+00  4.34080E-02 T
  7.50000E-01  2.35619E-01  2.74889E+00  2.70441E+00  6.23592E-02 T
  7.50000E-01  2.35619E-01  2.94524E+00  2.66699E+00  7.87590E-02 T
  7.50000E-01  2.35619E-01  3.14159E+00  2.62358E+00  8.64529E-02 T
  7.50000E-01  2.35619E-01  3.33794E+00  2.57988E+00  8.30920E-02 T
  7.50000E-01  2.35619E-01  3.53429E+00  2.54015E+00  7.50392E-02 T
  7.50000E-01  2.35619E-01  3.73064E+00  2.50452E+00  6.94645E-02 T
  7.50000E-01  2.35619E-01  3.92699E+00  2.47093E+00  6.91611E-02 T
  7.50000E-01  2.35619E-01  4.12334E+00  2.43684E+00  7.22695E-02 T
  7.50000E-01  2.35619E-01  4.31969E+00  2.40190E+00  7.50778E-02 T
  7.50000E-01  2.35619E-01  4.51604E+00  2.36597E+00  7.77699E-02 T
  7.50000E-01  2.35619E-01  4.71239E+00  2.33089E+00  7.28516E-02 T
  7.50000E-01  2.35619E-01  4.90874E+00  2.30024E+00  6.12769E-02 T
  7.50000E-01  2.35619E-01  5.10509E+00  2.27603E+00  4.55207E-02 T
  7.50000E-01  2.35619E-01  5.30144E+00  2.26075E+00  2.21084E-02 T
  7.50000E-01  2.35619E-01  5.49779E+00  2.25567E+00  2.82802E-03 T
  7.50000E-01  2.35619E-01  5.69414E+00  2.25782E+00 -1.46537E-02 T
  7.50000E-01  2.35619E-01  5.89049E+00  2.27098E+00 -4.55316E-02 T
  7.50000E-01  2.35619E-01  6.08684E+00  2.29808E+00 -7.47444E-02 T
  7.50000E-01  2.74889E-01  0.00000E+00  2.34902E+00 -9.71758E-02 T
  7.50000E-01  2.74889E-01  1.96350E-01  2.39432E+00 -9.47761E-02 T
  7.50000E-01  2.74889E-01  3.92699E-01  2.43652E+00 -8.26137E-02 T
  7.50000E-01  2.74889E-01  5.89049E-01  2.47385E+00 -7.36776E-02 T
  7.50000E-01  2.74889E-01  7.85398E-01  2.50923E+00 -7.16112E-02 T
  7.50000E-01  2.74889E-01  9.81748E-01  2.54496E+00 -7.32862E-02 T
  7.50000E-01  2.74889E-01  1.17810E+00  2.58333E+00 -7.93089E-02 T
  7.50000E-01  2.74889E-01  1.37445E+00  2.62488E+00 -8.23405E-02 T
  7.50000E-01  2.74889E-01  1.57080E+00  2.66719E+00 -7.90345E-02 T
  7.50000E-01  2.74889E-01  1.76715E+00  2.70499E+00 -6.10184E-02 T
  7.50000E-01  2.74889E-01  1.96350E+00  2.72859E+00 -2.55188E-02 T
  7.50000E-01  2.74889E-01  2.15985E+00  2.73200E+00  1.16688E-02 T
  7.50000E-01  2.74889E-01  2.35619E+00  2.71779E+00  3.96748E-02 T
  7.50000E-01  2.74889E-01  2.55254E+00  2.69180E+00  5.63180E-02 T
  7.50000E-01  2.74889E-01  2.74889E+00  2.65964E+00  6.56242E-02 T
  7.50000E-01  2.74889E-01  2.94524E+00  2.62347E+00  7.36632E-02 T
  7.50000E-01  2.74889E-01  3.14159E+00  2.58425E+00  7.90780E-02 T
  7.50000E-01  2.74889E-01  3.33794E+00  2.54415E+00  7.93929E-02 T
  7.50000E-01  2.74889E-01  3.53429E+00  2.50521E+00  7.78683E-02 T
  7.50000E-01  2.74889E-01  3.73064E+00  2.46739E+00  7.70980E-02 T
  7.50000E-01  2.74889E-01  3.92699E+00  2.43055E+00  7.59120E-02 T
  7.50000E-01  2.74889E-01  4.12334E+00  2.39534E+00  7.24043E-02 T
  7.50000E-01  2.74889E-01  4.31969E+00  2.36209E+00  7.07067E-02 T
  7.50000E-01  2.74889E-01  4.51604E+00  2.32974E+00  6.87049E-02 T
  7.50000E-01  2.74889E-01  4.71239E+00  2.30045E+00  5.91064E-02 T
  7.50000E-01  2.74889E-01  4.90874E+00  2.27678E+00  4.60257E-02 T
  7.50000E-01  2.74889E-01  5.10509E+00  2.25955E+00  3.05510E-02 T
  7.50000E-01  2.74889E-01  5.30144E+00  2.25051E+00  9.88691E-03 T
  7.50000E-01  2.74889E-01  5.49779E+00  2.25011E+00 -7.00014E-03 T
  7.50000E-01  2.74889E-01  5.69414E+00  2.25718E+00 -2.71421E-02 T
  7.50000E-01  2.74889E-01  5.89049E+00  2.27581E+00 -5.68209E-02 T
  7.50000E-01  2.74889E-01  6.08684E+00  2.30738E+00 -8.23593E-02 T
  7.50000E-01  3.14159E-01  0.00000E+00  2.37760E+00 -6.96446E-02 T
  7.50000E-01  3.14159E-01  1.96350E-01  2.40764E+00 -5.80356E-02 T
  7.50000E-01  3.14159E-01  3.92699E-01  2.43319E+00 -5.12568E-02 T
  7.50000E-01  3.14159E-01  5.89049E-01  2.45866E+00 -5.66565E-02 T
  7.50000E-01  3.14159E-01  7.85398E-01  2.48875E+00 -6.73111E-02 T
  7.50000E-01  3.14159E-01  9.81748E-01  2.52446E+00 -7.76996E-02 T
  7.50000E-01  3.14159E-01  1.17810E+00  2.56536E+00 -8.51101E-02 T
  7.50000E-01  3.14159E-01  1.37445E+00  2.60929E+00 -8.67904E-02 T
  7.50000E-01  3.14159E-01  1.57080E+00  2.65264E+00 -7.86235E-02 T
  7.50000E-01  3.14159E-01  1.76715E+00  2.68787E+00 -5.24377E-02 T
  7.50000E-01  3.14159E-01  1.96350E+00  2.70485E+00 -1.01250E-02 T
  7.50000E-01  3.14159E-01  2.15985E+00  2.69858E+00  3.25116E-02 T
  7.50000E-01  3.14159E-01  2.35619E+00  2.67251E+00  6.40914E-02 T
  7.50000E-01  3.14159E-01  2.55254E+00  2.63418E+00  8.03876E-02 T
  7.50000E-01  3.14159E-01  2.74889E+00  2.59177E+00  8.30734E-02 T
  7.50000E-01  3.14159E-01  2.94524E+00  2.55114E+00  7.68964E-02 T
  7.50000E-01  3.14159E-01  3.14159E+00  2.51504E+00  6.82815E-02 T
  7.50000E-01  3.14159E-01  3.33794E+00  2.48362E+00  5.98689E-02 T
  7.50000E-01  3.14159E-01  3.53429E+00  2.45613E+00  5.43060E-02 T
  7.50000E-01  3.14159E-01  3.73064E+00  2.43048E+00  5.32862E-02 T
  7.50000E-01  3.14159E-01  3.92699E+00  2.40479E+00  5.51968E-02 T
  7.50000E-01  3.14159E-01  4.12334E+00  2.37837E+00  5.73139E-02 T
  7.50000E-01  3.14159E-01  4.31969E+00  2.35131E+00  5.88436E-02 T
  7.50000E-01  3.14159E-01  4.51604E+00  2.32479E+00  5.59135E-02 T
  7.50000E-01  3.14159E-01  4.71239E+00  2.30056E+00  5.05672E-02 T
  7.50000E-01  3.14159E-01  4.90874E+00  2.27969E+00  4.11731E-02 T
  7.50000E-01  3.14159E-01  5.10509E+00  2.26476E+00  2.42449E-02 T
  7.50000E-01  3.14159E-01  5.30144E+00  2.25949E+00 -1.45045E-03 T
  7.50000E-01  3.14159E-01  5.49779E+00  2.26586E+00 -2.65763E-02 T
  7.50000E-01  3.14159E-01  5.69414E+00  2.28306E+00 -5.04694E-02 T
  7.50000E-01  3.14159E-01  5.89049E+00  2.31040E+00 -6.88575E-02 T
  7.50000E-01  3.14159E-01  6.08684E+00  2.34369E+00 -7.49118E-02 T
  7.50000E-01  3.53429E-01  0.00000E+00  2.37793E+00 -5.12587E-02 T
  7.50000E-01  3.53429E-01  1.96350E-01  2.39793E+00 -3.57313E-02 T
  7.50000E-01  3.53429E-01  3.92699E-01  2.41370E+00 -3.37005E-02 T
  7.50000E-01  3.53429E-01  5.89049E-01  2.43228E+00 -4.63114E-02 T
  7.50000E-01  3.53429E-01  7.85398E-01  2.45895E+00 -6.50795E-02 T
  7.50000E-01  3.53429E-01  9.81748E-01  2.49498E+00 -8.21034E-02 T
  7.50000E-01  3.53429E-01  1.17810E+00  2.53807E+00 -9.07440E-02 T
  7.50000E-01  3.53429E-01  1.37445E+00  2.58391E+00 -8.97551E-02 T
  7.50000E-01  3.53429E-01  1.57080E+00  2.62676E+00 -7.51270E-02 T
  7.50000E-01  3.53429E-01  1.76715E+00  2.65836E+00 -4.39204E-02 T
  7.50000E-01  3.53429E-01  1.96350E+00  2.67030E+00 -8.16944E-04 T
  7.50000E-01  3.53429E-01  2.15985E+00  2.65952E+00  4.09249E-02 T
  7.50000E-01  3.53429E-01  2.35619E+00  2.62911E+00  7.46296E-02 T
  7.50000E-01  3.53429E-01  2.55254E+00  2.58458E+00  9.73069E-02 T
  7.50000E-01  3.53429E-01  2.74889E+00  2.53300E+00  1.05003E-01 T
  7.50000E-01  3.53429E-01  2.94524E+00  2.48320E+00  9.48238E-02 T
  7.50000E-01  3.53429E-01  3.14159E+00  2.44162E+00  7.67893E-02 T
  7.50000E-01  3.53429E-01  3.33794E+00  2.40945E+00  5.87037E-02 T
  7.50000E-01  3.53429E-01  3.53429E+00  2.38503E+00  4.65082E-02 T
  7.50000E-01  3.53429E-01  3.73064E+00  2.36462E+00  4.19815E-02 T
  7.50000E-01  3.53429E-01  3.92699E+00  2.34544E+00  4.14909E-02 T
  7.50000E-01  3.53429E-01  4.12334E+00  2.32582E+00  4.48399E-02 T
  7.50000E-01  3.53429E-01  4.31969E+00  2.30408E+00  5.06767E-02 T
  7.50000E-01  3.53429E-01  4.51604E+00  2.28041E+00  5.40013E-02 T
  7.50000E-01  3.53429E-01  4.71239E+00  2.25638E+00  5.25786E-02 T
  7.50000E-01  3.53429E-01  4.90874E+00  2.23560E+00  3.92358E-02 T
  7.50000E-01  3.53429E-01  5.10509E+00  2.22413E+00  1.06260E-02 T
  7.50000E-01  3.53429E-01  5.30144E+00  2.22761E+00 -2.64620E-02 T
  7.50000E-01  3.53429E-01  5.49779E+00  2.24626E+00 -5.69783E-02 T
  7.50000E-01  3.53429E-01  5.69414E+00  2.27676E+00 -7.84431E-02 T
  7.50000E-01  3.53429E-01  5.89049E+00  2.31385E+00 -8.28249E-02 T
  7.50000E-01  3.53429E-01  6.08684E+00  2.34950E+00 -7.08640E-02 T
  7.50000E-01  3.92699E-01  0.00000E+00  2.36917E+00 -2.56113E-02 T
  7.50000E-01  3.92699E-01  1.96350E-01  2.37712E+00 -1.13985E-02 T
  7.50000E-01  3.92699E-01  3.92699E-01  2.38267E+00 -1.55861E-02 T
  7.50000E-01  3.92699E-01  5.89049E-01  2.39434E+00 -3.60948E-02 T
  7.50000E-01  3.92699E-01  7.85398E-01  2.41757E+00 -6.24022E-02 T
  7.50000E-01  3.92699E-01  9.81748E-01  2.45322E+00 -8.53974E-02 T
  7.50000E-01  3.92699E-01  1.17810E+00  2.49824E+00 -9.77762E-02 T
  7.50000E-01  3.92699E-01  1.37445E+00  2.54692E+00 -9.60101E-02 T
  7.50000E-01  3.92699E-01  1.57080E+00  2.59095E+00 -7.51468E-02 T
  7.50000E-01  3.92699E-01  1.76715E+00  2.61999E+00 -3.60277E-02 T
  7.50000E-01  3.92699E-01  1.96350E+00  2.62704E+00  7.82416E-03 T
  7.50000E-01  3.92699E-01  2.15985E+00  2.61373E+00  4.19173E-02 T
  7.50000E-01  3.92699E-01  2.35619E+00  2.58585E+00  6.60716E-02 T
  7.50000E-01  3.92699E-01  2.55254E+00  2.54759E+00  8.52180E-02 T
  7.50000E-01  3.92699E-01  2.74889E+00  2.50184E+00  9.72969E-02 T
  7.50000E-01  3.92699E-01  2.94524E+00  2.45434E+00  9.60278E-02 T
  7.50000E-01  3.92699E-01  3.14159E+00  2.41053E+00  8.63566E-02 T
  7.50000E-01  3.92699E-01  3.33794E+00  2.37330E+00  7.18239E-02 T
  7.50000E-01  3.92699E-01  3.53429E+00  2.34328E+00  5.84091E-02 T
  7.50000E-01  3.92699E-01  3.73064E+00  2.31901E+00  4.81051E-02 T
  7.50000E-01  3.92699E-01  3.92699E+00  2.29889E+00  4.14411E-02 T
  7.50000E-01  3.92699E-01  4.12334E+00  2.28065E+00  4.08341E-02 T
  7.50000E-01  3.92699E-01  4.31969E+00  2.26175E+00  4.38556E-02 T
  7.50000E-01  3.92699E-01  4.51604E+00  2.24218E+00  4.39265E-02 T
  7.50000E-01  3.92699E-01  4.71239E+00  2.22379E+00  3.90079E-02 T
  7.50000E-01  3.92699E-01  4.90874E+00  2.20937E+00  2.49085E-02 T
  7.50000E-01  3.92699E-01  5.10509E+00  2.20476E+00 -6.49976E-03 T
  7.50000E-01  3.92699E-01  5.30144E+00  2.21611E+00 -4.51943E-02 T
  7.50000E-01  3.92699E-01  5.49779E+00  2.24288E+00 -7.52538E-02 T
  7.50000E-01  3.92699E-01  5.69414E+00  2.28033E+00 -8.98929E-02 T
  7.50000E-01  3.92699E-01  5.89049E+00  2.31975E+00 -8.07895E-02 T
  7.50000E-01  3.92699E-01  6.08684E+00  2.35107E+00 -5.39428E-02 T
  7.50000E-01  4.31969E-01  0.00000E+00  2.35950E+00  1.12957E-02 T
  7.50000E-01  4.31969E-01  1.96350E-01  2.35352E+00  1.00414E-02 T
  7.50000E-01  4.31969E-01  3.92699E-01  2.35385E+00 -1.44643E-02 T
  7.50000E-01  4.31969E-01  5.89049E-01  2.36810E+00 -4.66523E-02 T
  7.50000E-01  4.31969E-01  7.85398E-01  2.39643E+00 -7.33268E-02 T
  7.50000E-01  4.31969E-01  9.81748E-01  2.43583E+00 -9.06902E-02 T
  7.50000E-01  4.31969E-01  1.17810E+00  2.48104E+00 -9.43080E-02 T
  7.50000E-01  4.31969E-01  1.37445E+00  2.52520E+00 -8.22038E-02 T
  7.50000E-01  4.31969E-01  1.57080E+00  2.55862E+00 -4.78558E-02 T
  7.50000E-01  4.31969E-01  1.76715E+00  2.57038E+00  1.92277E-03 T
  7.50000E-01  4.31969E-01  1.96350E+00  2.55818E+00  4.32461E-02 T
  7.50000E-01  4.31969E-01  2.15985E+00  2.53088E+00  6.23738E-02 T
  7.50000E-01  4.31969E-01  2.35619E+00  2.49924E+00  6.37313E-02 T
  7.50000E-01  4.31969E-01  2.55254E+00  2.46902E+00  6.05377E-02 T
  7.50000E-01  4.31969E-01  2.74889E+00  2.43998E+00  6.03909E-02 T
  7.50000E-01  4.31969E-01  2.94524E+00  2.41097E+00  6.14283E-02 T
  7.50000E-01  4.31969E-01  3.14159E+00  2.38221E+00  6.00611E-02 T
  7.50000E-01  4.31969E-01  3.33794E+00  2.35526E+00  5.56863E-02 T
  7.50000E-01  4.31969E-01  3.53429E+00  2.33072E+00  5.09020E-02 T
  7.50000E-01  4.31969E-01  3.73064E+00  2.30863E+00  4.63478E-02 T
  7.50000E-01  4.31969E-01  3.92699E+00  2.28847E+00  4.30066E-02 T
  7.50000E-01  4.31969E-01  4.12334E+00  2.27003E+00  3.94136E-02 T
  7.50000E-01  4.31969E-01  4.31969E+00  2.25323E+00  3.62828E-02 T
  7.50000E-01  4.31969E-01  4.51604E+00  2.23820E+00  3.11846E-02 T
  7.50000E-01  4.31969E-01  4.71239E+00  2.22674E+00  1.97606E-02 T
  7.50000E-01  4.31969E-01  4.90874E+00  2.22227E+00 -1.07025E-03 T
  7.50000E-01  4.31969E-01  5.10509E+00  2.22895E+00 -3.02235E-02 T
  7.50000E-01  4.31969E-01  5.30144E+00  2.24854E+00 -5.77968E-02 T
  7.50000E-01  4.31969E-01  5.49779E+00  2.27874E+00 -7.59434E-02 T
  7.50000E-01  4.31969E-01  5.69414E+00  2.31379E+00 -7.56831E-02 T
  7.50000E-01  4.31969E-01  5.89049E+00  2.34391E+00 -5.24803E-02 T
  7.50000E-01  4.31969E-01  6.08684E+00  2.35962E+00 -1.49148E-02 T
  7.50000E-01  4.71239E-01  0.00000E+00  2.35738E+00  2.05363E-02 T
  7.50000E-01  4.71239E-01  1.96350E-01  2.35013E+00  5.80427E-03 T
  7.50000E-01  4.71239E-01  3.92699E-01  2.35561E+00 -3.13852E-02 T
  7.50000E-01  4.71239E-01  5.89049E-01  2.37875E+00 -6.58752E-02 T
  7.50000E-01  4.71239E-01  7.85398E-01  2.41476E+00 -8.43040E-02 T
  7.50000E-01  4.71239E-01  9.81748E-01  2.45576E+00 -8.40684E-02 T
  7.50000E-01  4.71239E-01  1.17810E+00  2.49343E+00 -6.91362E-02 T
  7.50000E-01  4.71239E-01  1.37445E+00  2.52112E+00 -4.02167E-02 T
  7.50000E-01  4.71239E-01  1.57080E+00  2.52972E+00  8.30846E-03 T
  7.50000E-01  4.71239E-01  1.76715E+00  2.51212E+00  6.11656E-02 T
  7.50000E-01  4.71239E-01  1.96350E+00  2.47329E+00  9.25590E-02 T
  7.50000E-01  4.71239E-01  2.15985E+00  2.42709E+00  9.51779E-02 T
  7.50000E-01  4.71239E-01  2.35619E+00  2.38584E+00  7.68424E-02 T
  7.50000E-01  4.71239E-01  2.55254E+00  2.35625E+00  5.01142E-02 T
  7.50000E-01  4.71239E-01  2.74889E+00  2.33856E+00  2.83183E-02 T
  7.50000E-01  4.71239E-01  2.94524E+00  2.32826E+00  1.88064E-02 T
  7.50000E-01  4.71239E-01  3.14159E+00  2.31970E+00  2.01983E-02 T
  7.50000E-01  4.71239E-01  3.33794E+00  2.30884E+00  2.80912E-02 T
  7.50000E-01  4.71239E-01  3.53429E+00  2.29445E+00  3.50606E-02 T
  7.50000E-01  4.71239E-01  3.73064E+00  2.27749E+00  4.05270E-02 T
  7.50000E-01  4.71239E-01  3.92699E+00  2.25839E+00  4.46756E-02 T
  7.50000E-01  4.71239E-01  4.12334E+00  2.23860E+00  4.41211E-02 T
  7.50000E-01  4.71239E-01  4.31969E+00  2.22040E+00  3.79318E-02 T
  7.50000E-01  4.71239E-01  4.51604E+00  2.20673E+00  2.31793E-02 T
  7.50000E-01  4.71239E-01  4.71239E+00  2.20192E+00 -2.60223E-03 T
  7.50000E-01  4.71239E-01  4.90874E+00  2.20981E+00 -3.39517E-02 T
  7.50000E-01  4.71239E-01  5.10509E+00  2.23095E+00 -6.18292E-02 T
  7.50000E-01  4.71239E-01  5.30144E+00  2.26265E+00 -7.98262E-02 T
  7.50000E-01  4.71239E-01  5.49779E+00  2.29967E+00 -8.24410E-02 T
  7.50000E-01  4.71239E-01  5.69414E+00  2.33418E+00 -6.62356E-02 T
  7.50000E-01  4.71239E-01  5.89049E+00  2.35770E+00 -3.35244E-02 T
  7.50000E-01  4.71239E-01  6.08684E+00  2.36424E+00  3.97799E-03 T
  7.50000E-01  5.10509E-01  0.00000E+00  2.35401E+00  2.16144E-02 T
  7.50000E-01  5.10509E-01  1.96350E-01  2.34773E+00  1.20618E-03 T
  7.50000E-01  5.10509E-01  3.92699E-01  2.35598E+00 -3.82778E-02 T
  7.50000E-01  5.10509E-01  5.89049E-01  2.38238E+00 -7.24813E-02 T
  7.50000E-01  5.10509E-01  7.85398E-01  2.42057E+00 -8.54411E-02 T
  7.50000E-01  5.10509E-01  9.81748E-01  2.45992E+00 -7.56323E-02 T
  7.50000E-01  5.10509E-01  1.17810E+00  2.49125E+00 -5.12910E-02 T
  7.50000E-01  5.10509E-01  1.37445E+00  2.50778E+00 -1.37995E-02 T
  7.50000E-01  5.10509E-01  1.57080E+00  2.50318E+00  3.31179E-02 T
  7.50000E-01  5.10509E-01  1.76715E+00  2.47609E+00  7.55300E-02 T
  7.50000E-01  5.10509E-01  1.96350E+00  2.43325E+00  9.83027E-02 T
  7.50000E-01  5.10509E-01  2.15985E+00  2.38570E+00  9.95743E-02 T
  7.50000E-01  5.10509E-01  2.35619E+00  2.34245E+00  8.45491E-02 T
  7.50000E-01  5.10509E-01  2.55254E+00  2.30915E+00  6.06003E-02 T
  7.50000E-01  5.10509E-01  2.74889E+00  2.28724E+00  3.73990E-02 T
  7.50000E-01  5.10509E-01  2.94524E+00  2.27414E+00  2.31157E-02 T
  7.50000E-01  5.10509E-01  3.14159E+00  2.26475E+00  2.08269E-02 T
  7.50000E-01  5.10509E-01  3.33794E+00  2.25458E+00  2.54398E-02 T
  7.50000E-01  5.10509E-01  3.53429E+00  2.24223E+00  3.04123E-02 T
  7.50000E-01  5.10509E-01  3.73064E+00  2.22799E+00  3.39451E-02 T
  7.50000E-01  5.10509E-01  3.92699E+00  2.21332E+00  3.23701E-02 T
  7.50000E-01  5.10509E-01  4.12334E+00  2.20043E+00  2.67214E-02 T
  7.50000E-01  5.10509E-01  4.31969E+00  2.19061E+00  1.80993E-02 T
  7.50000E-01  5.10509E-01  4.51604E+00  2.18596E+00  1.71738E-03 T
  7.50000E-01  5.10509E-01  4.71239E+00  2.19085E+00 -2.62809E-02 T
  7.50000E-01  5.10509E-01  4.90874E+00  2.20953E+00 -6.02284E-02 T
  7.50000E-01  5.10509E-01  5.10509E+00  2.24219E+00 -8.66533E-02 T
  7.50000E-01  5.10509E-01  5.30144E+00  2.28290E+00 -9.28006E-02 T
  7.50000E-01  5.10509E-01  5.49779E+00  2.32212E+00 -7.75607E-02 T
  7.50000E-01  5.10509E-01  5.69414E+00  2.35129E+00 -4.78914E-02 T
  7.50000E-01  5.10509E-01  5.89049E+00  2.36523E+00 -1.21390E-02 T
  7.50000E-01  5.10509E-01  6.08684E+00  2.36369E+00  1.59358E-02 T
  7.50000E-01  5.49779E-01  0.00000E+00  2.33405E+00  2.26824E-02 T
  7.50000E-01  5.49779E-01  1.96350E-01  2.33009E+00 -7.18582E-03 T
  7.50000E-01  5.49779E-01  3.92699E-01  2.34169E+00 -4.33205E-02 T
  7.50000E-01  5.49779E-01  5.89049E-01  2.36858E+00 -7.01759E-02 T
  7.50000E-01  5.49779E-01  7.85398E-01  2.40396E+00 -7.73326E-02 T
  7.50000E-01  5.49779E-01  9.81748E-01  2.43843E+00 -6.47278E-02 T
  7.50000E-01  5.49779E-01  1.17810E+00  2.46340E+00 -3.69577E-02 T
  7.50000E-01  5.49779E-01  1.37445E+00  2.47271E+00 -8.04350E-04 T
  7.50000E-01  5.49779E-01  1.57080E+00  2.46413E+00  3.56275E-02 T
  7.50000E-01  5.49779E-01  1.76715E+00  2.43978E+00  6.30857E-02 T
  7.50000E-01  5.49779E-01  1.96350E+00  2.40646E+00  7.45788E-02 T
  7.50000E-01  5.49779E-01  2.15985E+00  2.37089E+00  7.59754E-02 T
  7.50000E-01  5.49779E-01  2.35619E+00  2.33656E+00  7.18584E-02 T
  7.50000E-01  5.49779E-01  2.55254E+00  2.30553E+00  6.35652E-02 T
  7.50000E-01  5.49779E-01  2.74889E+00  2.27967E+00  5.07290E-02 T
  7.50000E-01  5.49779E-01  2.94524E+00  2.25999E+00  3.83395E-02 T
  7.50000E-01  5.49779E-01  3.14159E+00  2.24474E+00  3.15486E-02 T
  7.50000E-01  5.49779E-01  3.33794E+00  2.23165E+00  2.82131E-02 T
  7.50000E-01  5.49779E-01  3.53429E+00  2.22009E+00  2.43222E-02 T
  7.50000E-01  5.49779E-01  3.73064E+00  2.21099E+00  1.67827E-02 T
  7.50000E-01  5.49779E-01  3.92699E+00  2.20590E+00  6.62907E-03 T
  7.50000E-01  5.49779E-01  4.12334E+00  2.20520E+00 -3.60072E-03 T
  7.50000E-01  5.49779E-01  4.31969E+00  2.20962E+00 -1.78707E-02 T
  7.50000E-01  5.49779E-01  4.51604E+00  2.22167E+00 -3.83580E-02 T
  7.50000E-01  5.49779E-01  4.71239E+00  2.24346E+00 -6.08019E-02 T
  7.50000E-01  5.49779E-01  4.90874E+00  2.27450E+00 -7.73874E-02 T
  7.50000E-01  5.49779E-01  5.10509E+00  2.31038E+00 -7.91065E-02 T
  7.50000E-01  5.49779E-01  5.30144E+00  2.34375E+00 -6.44914E-02 T
  7.50000E-01  5.49779E-01  5.49779E+00  2.36738E+00 -3.53907E-02 T
  7.50000E-01  5.49779E-01  5.69414E+00  2.37513E+00  2.32137E-03 T
  7.50000E-01  5.49779E-01  5.89049E+00  2.36645E+00  3.21889E-02 T
  7.50000E-01  5.49779E-01  6.08684E+00  2.34892E+00  3.90645E-02 T
  7.50000E-01  5.89049E-01  0.00000E+00  2.35099E+00  8.71216E-03 T
  7.50000E-01  5.89049E-01  1.96350E-01  2.35474E+00 -2.39907E-02 T
  7.50000E-01  5.89049E-01  3.92699E-01  2.37160E+00 -4.61204E-02 T
  7.50000E-01  5.89049E-01  5.89049E-01  2.39509E+00 -5.16755E-02 T
  7.50000E-01  5.89049E-01  7.85398E-01  2.41801E+00 -4.29434E-02 T
  7.50000E-01  5.89049E-01  9.81748E-01  2.43336E+00 -1.90717E-02 T
  7.50000E-01  5.89049E-01  1.17810E+00  2.43456E+00  1.49358E-02 T
  7.50000E-01  5.89049E-01  1.37445E+00  2.41885E+00  5.07958E-02 T
  7.50000E-01  5.89049E-01  1.57080E+00  2.38762E+00  7.87691E-02 T
  7.50000E-01  5.89049E-01  1.76715E+00  2.34904E+00  8.25036E-02 T
  7.50000E-01  5.89049E-01  1.96350E+00  2.31459E+00  6.64385E-02 T
  7.50000E-01  5.89049E-01  2.15985E+00  2.28882E+00  4.78834E-02 T
  7.50000E-01  5.89049E-01  2.35619E+00  2.27096E+00  3.28554E-02 T
  7.50000E-01  5.89049E-01  2.55254E+00  2.25847E+00  2.44174E-02 T
  7.50000E-01  5.89049E-01  2.74889E+00  2.24844E+00  2.16952E-02 T
  7.50000E-01  5.89049E-01  2.94524E+00  2.23885E+00  2.21156E-02 T
  7.50000E-01  5.89049E-01  3.14159E+00  2.22889E+00  2.34790E-02 T
  7.50000E-01  5.89049E-01  3.33794E+00  2.21809E+00  2.60368E-02 T
  7.50000E-01  5.89049E-01  3.53429E+00  2.20665E+00  2.54584E-02 T
  7.50000E-01  5.89049E-01  3.73064E+00  2.19739E+00  1.57221E-02 T
  7.50000E-01  5.89049E-01  3.92699E+00  2.19427E+00 -2.35043E-03 T
  7.50000E-01  5.89049E-01  4.12334E+00  2.20029E+00 -2.65310E-02 T
  7.50000E-01  5.89049E-01  4.31969E+00  2.21781E+00 -5.43940E-02 T
  7.50000E-01  5.89049E-01  4.51604E+00  2.24749E+00 -8.02735E-02 T
  7.50000E-01  5.89049E-01  4.71239E+00  2.28765E+00 -9.78267E-02 T
  7.50000E-01  5.89049E-01  4.90874E+00  2.33239E+00 -9.53455E-02 T
  7.50000E-01  5.89049E-01  5.10509E+00  2.37165E+00 -7.25134E-02 T
  7.50000E-01  5.89049E-01  5.30144E+00  2.39870E+00 -4.21143E-02 T
  7.50000E-01  5.89049E-01  5.49779E+00  2.41012E+00 -5.28938E-03 T
  7.50000E-01  5.89049E-01  5.69414E+00  2.40389E+00  3.00003E-02 T
  7.50000E-01  5.89049E-01  5.89049E+00  2.38448E+00  4.87984E-02 T
  7.50000E-01  5.89049E-01  6.08684E+00  2.36265E+00  3.98229E-02 T
  7.50000E-01  6.28319E-01  0.00000E+00  2.37787E+00 -2.01785E-09 T
  7.50000E-01  6.28319E-01  1.96350E-01  2.38562E+00 -3.15185E-02 T
  7.50000E-01  6.28319E-01  3.92699E-01  2.40440E+00 -4.39911E-02 T
  7.50000E-01  6.28319E-01  5.89049E-01  2.42342E+00 -3.33112E-02 T
  7.50000E-01  6.28319E-01  7.85398E-01  2.43379E+00 -7.96628E-03 T
  7.50000E-01  6.28319E-01  9.81748E-01  2.42924E+00  2.81066E-02 T
  7.50000E-01  6.28319E-01  1.17810E+00  2.40685E+00  6.61174E-02 T
  7.50000E-01  6.28319E-01  1.37445E+00  2.36722E+00  1.01824E-01 T
  7.50000E-01  6.28319E-01  1.57080E+00  2.31558E+00  1.17240E-01 T
  7.50000E-01  6.28319E-01  1.76715E+00  2.26608E+00  9.79891E-02 T
  7.50000E-01  6.28319E-01  1.96350E+00  2.23036E+00  6.34429E-02 T
  7.50000E-01  6.28319E-01  2.15985E+00  2.20984E+00  3.17046E-02 T
  7.50000E-01  6.28319E-01  2.35619E+00  2.20159E+00  8.05269E-03 T
  7.50000E-01  6.28319E-01  2.55254E+00  2.20145E+00 -5.88897E-03 T
  7.50000E-01  6.28319E-01  2.74889E+00  2.20540E+00 -1.09201E-02 T
  7.50000E-01  6.28319E-01  2.94524E+00  2.20972E+00 -7.86778E-03 T
  7.50000E-01  6.28319E-01  3.14159E+00  2.21153E+00 -8.88267E-09 T
  7.50000E-01  6.28319E-01  3.33794E+00  2.20972E+00  7.86776E-03 T
  7.50000E-01  6.28319E-01  3.53429E+00  2.20540E+00  1.09201E-02 T
  7.50000E-01  6.28319E-01  3.73064E+00  2.20145E+00  5.88895E-03 T
  7.50000E-01  6.28319E-01  3.92699E+00  2.20159E+00 -8.05272E-03 T
  7.50000E-01  6.28319E-01  4.12334E+00  2.20984E+00 -3.17046E-02 T
  7.50000E-01  6.28319E-01  4.31969E+00  2.23036E+00 -6.34429E-02 T
  7.50000E-01  6.28319E-01  4.51604E+00  2.26608E+00 -9.79891E-02 T
  7.50000E-01  6.28319E-01  4.71239E+00  2.31558E+00 -1.17240E-01 T
  7.50000E-01  6.28319E-01  4.90874E+00  2.36722E+00 -1.01824E-01 T
  7.50000E-01  6.28319E-01  5.10509E+00  2.40685E+00 -6.61174E-02 T
  7.50000E-01  6.28319E-01  5.30144E+00  2.42924E+00 -2.81065E-02 T
  7.50000E-01  6.28319E-01  5.49779E+00  2.43379E+00  7.96633E-03 T
  7.50000E-01  6.28319E-01  5.69414E+00  2.42342E+00  3.33113E-02 T
  7.50000E-01  6.28319E-01  5.89049E+00  2.40440E+00  4.39911E-02 T
  7.50000E-01  6.28319E-01  6.08684E+00  2.38562E+00  3.15185E-02 T
  7.50000E-01  6.67588E-01  0.00000E+00  2.35099E+00 -8.71218E-03 T
  7.50000E-01  6.67588E-01  1.96350E-01  2.36265E+00 -3.98230E-02 T
  7.50000E-01  6.67588E-01  3.92699E-01  2.38448E+00 -4.87984E-02 T
  7.50000E-01  6.67588E-01  5.89049E-01  2.40389E+00 -3.00003E-02 T
  7.50000E-01  6.67588E-01  7.85398E-01  2.41012E+00  5.28943E-03 T
  7.50000E-01  6.67588E-01  9.81748E-01  2.39870E+00  4.21144E-02 T
  7.50000E-01  6.67588E-01  1.17810E+00  2.37165E+00  7.25134E-02 T
  7.50000E-01  6.67588E-01  1.37445E+00  2.33239E+00  9.53455E-02 T
  7.50000E-01  6.67588E-01  1.57080E+00  2.28765E+00  9.78267E-02 T
  7.50000E-01  6.67588E-01  1.76715E+00  2.24749E+00  8.02735E-02 T
  7.50000E-01  6.67588E-01  1.96350E+00  2.21781E+00  5.43940E-02 T
  7.50000E-01  6.67588E-01  2.15985E+00  2.20029E+00  2.65309E-02 T
  7.50000E-01  6.67588E-01  2.35619E+00  2.19427E+00  2.35040E-03 T
  7.50000E-01  6.67588E-01  2.55254E+00  2.19739E+00 -1.57221E-02 T
  7.50000E-01  6.67588E-01  2.74889E+00  2.20665E+00 -2.54584E-02 T
  7.50000E-01  6.67588E-01  2.94524E+00  2.21809E+00 -2.60368E-02 T
  7.50000E-01  6.67588E-01  3.14159E+00  2.22889E+00 -2.34791E-02 T
  7.50000E-01  6.67588E-01  3.33794E+00  2.23885E+00 -2.21156E-02 T
  7.50000E-01  6.67588E-01  3.53429E+00  2.24844E+00 -2.16953E-02 T
  7.50000E-01  6.67588E-01  3.73064E+00  2.25847E+00 -2.44175E-02 T
  7.50000E-01  6.67588E-01  3.92699E+00  2.27096E+00 -3.28555E-02 T
  7.50000E-01  6.67588E-01  4.12334E+00  2.28882E+00 -4.78835E-02 T
  7.50000E-01  6.67588E-01  4.31969E+00  2.31459E+00 -6.64385E-02 T
  7.50000E-01  6.67588E-01  4.51604E+00  2.34904E+00 -8.25036E-02 T
  7.50000E-01  6.67588E-01  4.71239E+00  2.38762E+00 -7.87691E-02 T
  7.50000E-01  6.67588E-01  4.90874E+00  2.41885E+00 -5.07957E-02 T
  7.50000E-01  6.67588E-01  5.10509E+00  2.43456E+00 -1.49357E-02 T
  7.50000E-01  6.67588E-01  5.30144E+00  2.43336E+00  1.90718E-02 T
  7.50000E-01  6.67588E-01  5.49779E+00  2.41801E+00  4.29435E-02 T
  7.50000E-01  6.67588E-01  5.69414E+00  2.39509E+00  5.16756E-02 T
  7.50000E-01  6.67588E-01  5.89049E+00  2.37160E+00  4.61204E-02 T
  7.50000E-01  6.67588E-01  6.08684E+00  2.35474E+00  2.39907E-02 T
  7.50000E-01  7.06858E-01  0.00000E+00  2.33405E+00 -2.26824E-02 T
  7.50000E-01  7.06858E-01  1.96350E-01  2.34892E+00 -3.90645E-02 T
  7.50000E-01  7.06858E-01  3.92699E-01  2.36645E+00 -3.21888E-02 T
  7.50000E-01  7.06858E-01  5.89049E-01  2.37513E+00 -2.32130E-03 T
  7.50000E-01  7.06858E-01  7.85398E-01  2.36738E+00  3.53908E-02 T
  7.50000E-01  7.06858E-01  9.81748E-01  2.34375E+00  6.44915E-02 T
  7.50000E-01  7.06858E-01  1.17810E+00  2.31038E+00  7.91065E-02 T
  7.50000E-01  7.06858E-01  1.37445E+00  2.27450E+00  7.73874E-02 T
  7.50000E-01  7.06858E-01  1.57080E+00  2.24346E+00  6.08019E-02 T
  7.50000E-01  7.06858E-01  1.76715E+00  2.22167E+00  3.83580E-02 T
  7.50000E-01  7.06858E-01  1.96350E+00  2.20962E+00  1.78707E-02 T
  7.50000E-01  7.06858E-01  2.15985E+00  2.20520E+00  3.60068E-03 T
  7.50000E-01  7.06858E-01  2.35619E+00  2.20590E+00 -6.62909E-03 T
  7.50000E-01  7.06858E-01  2.55254E+00  2.21099E+00 -1.67827E-02 T
  7.50000E-01  7.06858E-01  2.74889E+00  2.22009E+00 -2.43222E-02 T
  7.50000E-01  7.06858E-01  2.94524E+00  2.23165E+00 -2.82131E-02 T
  7.50000E-01  7.06858E-01  3.14159E+00  2.24474E+00 -3.15486E-02 T
  7.50000E-01  7.06858E-01  3.33794E+00  2.25999E+00 -3.83395E-02 T
  7.50000E-01  7.06858E-01  3.53429E+00  2.27967E+00 -5.07290E-02 T
  7.50000E-01  7.06858E-01  3.73064E+00  2.30553E+00 -6.35652E-02 T
  7.50000E-01  7.06858E-01  3.92699E+00  2.33656E+00 -7.18585E-02 T
  7.50000E-01  7.06858E-01  4.12334E+00  2.37089E+00 -7.59754E-02 T
  7.50000E-01  7.06858E-01  4.31969E+00  2.40646E+00 -7.45788E-02 T
  7.50000E-01  7.06858E-01  4.51604E+00  2.43978E+00 -6.30857E-02 T
  7.50000E-01  7.06858E-01  4.71239E+00  2.46413E+00 -3.56275E-02 T
  7.50000E-01  7.06858E-01  4.90874E+00  2.47271E+00  8.04409E-04 T
  7.50000E-01  7.06858E-01  5.10509E+00  2.46340E+00  3.69578E-02 T
  7.50000E-01  7.06858E-01  5.30144E+00  2.43843E+00  6.47279E-02 T
  7.50000E-01  7.06858E-01  5.49779E+00  2.40396E+00  7.73326E-02 T
  7.50000E-01  7.06858E-01  5.69414E+00  2.36858E+00  7.01759E-02 T
  7.50000E-01  7.06858E-01  5.89049E+00  2.34169E+00  4.33205E-02 T
  7.50000E-01  7.06858E-01  6.08684E+00  2.33009E+00  7.18578E-03 T
  7.50000E-01  7.46128E-01  0.00000E+00  2.35401E+00 -2.16144E-02 T
  7.50000E-01  7.46128E-01  1.96350E-01  2.36369E+00 -1.59358E-02 T
  7.50000E-01  7.46128E-01  3.92699E-01  2.36523E+00  1.21391E-02 T
  7.50000E-01  7.46128E-01  5.89049E-01  2.35129E+00  4.78915E-02 T
  7.50000E-01  7.46128E-01  7.85398E-01  2.32212E+00  7.75607E-02 T
  7.50000E-01  7.46128E-01  9.81748E-01  2.28290E+00  9.28006E-02 T
  7.50000E-01  7.46128E-01  1.17810E+00  2.24219E+00  8.66533E-02 T
  7.50000E-01  7.46128E-01  1.37445E+00  2.20953E+00  6.02284E-02 T
  7.50000E-01  7.46128E-01  1.57080E+00  2.19085E+00  2.62809E-02 T
  7.50000E-01  7.46128E-01  1.76715E+00  2.18596E+00 -1.71743E-03 T
  7.50000E-01  7.46128E-01  1.96350E+00  2.19061E+00 -1.80993E-02 T
  7.50000E-01  7.46128E-01  2.15985E+00  2.20043E+00 -2.67215E-02 T
  7.50000E-01  7.46128E-01  2.35619E+00  2.21332E+00 -3.23701E-02 T
  7.50000E-01  7.46128E-01  2.55254E+00  2.22799E+00 -3.39451E-02 T
  7.50000E-01  7.46128E-01  2.74889E+00  2.24223E+00 -3.04123E-02 T
  7.50000E-01  7.46128E-01  2.94524E+00  2.25458E+00 -2.54398E-02 T
  7.50000E-01  7.46128E-01  3.14159E+00  2.26475E+00 -2.08269E-02 T
  7.50000E-01  7.46128E-01  3.33794E+00  2.27414E+00 -2.31156E-02 T
  7.50000E-01  7.46128E-01  3.53429E+00  2.28724E+00 -3.73990E-02 T
  7.50000E-01  7.46128E-01  3.73064E+00  2.30915E+00 -6.06003E-02 T
  7.50000E-01  7.46128E-01  3.92699E+00  2.34245E+00 -8.45491E-02 T
  7.50000E-01  7.46128E-01  4.12334E+00  2.38570E+00 -9.95743E-02 T
  7.50000E-01  7.46128E-01  4.31969E+00  2.43325E+00 -9.83027E-02 T
  7.50000E-01  7.46128E-01  4.51604E+00  2.47609E+00 -7.55300E-02 T
  7.50000E-01  7.46128E-01  4.71239E+00  2.50318E+00 -3.31179E-02 T
  7.50000E-01  7.46128E-01  4.90874E+00  2.50778E+00  1.37995E-02 T
  7.50000E-01  7.46128E-01  5.10509E+00  2.49125E+00  5.12910E-02 T
  7.50000E-01  7.46128E-01  5.30144E+00  2.45992E+00  7.56323E-02 T
  7.50000E-01  7.46128E-01  5.49779E+00  2.42057E+00  8.54411E-02 T
  7.50000E-01  7.46128E-01  5.69414E+00  2.38238E+00  7.24813E-02 T
  7.50000E-01  7.46128E-01  5.89049E+00  2.35598E+00  3.82778E-02 T
  7.50000E-01  7.46128E-01  6.08684E+00  2.34773E+00 -1.20621E-03 T
  7.50000E-01  7.85398E-01  0.00000E+00  2.35738E+00 -2.05363E-02 T
  7.50000E-01  7.85398E-01  1.96350E-01  2.36424E+00 -3.97796E-03 T
  7.50000E-01  7.85398E-01  3.92699E-01  2.35770E+00  3.35245E-02 T
  7.50000E-01  7.85398E-01  5.89049E-01  2.33418E+00  6.62356E-02 T
  7.50000E-01  7.85398E-01  7.85398E-01  2.29967E+00  8.24410E-02 T
  7.50000E-01  7.85398E-01  9.81748E-01  2.26265E+00  7.98262E-02 T
  7.50000E-01  7.85398E-01  1.17810E+00  2.23095E+00  6.18291E-02 T
  7.50000E-01  7.85398E-01  1.37445E+00  2.20981E+00  3.39517E-02 T
  7.50000E-01  7.85398E-01  1.57080E+00  2.20192E+00  2.60218E-03 T
  7.50000E-01  7.85398E-01  1.76715E+00  2.20673E+00 -2.31794E-02 T
  7.50000E-01  7.85398E-01  1.96350E+00  2.22040E+00 -3.79319E-02 T
  7.50000E-01  7.85398E-01  2.15985E+00  2.23860E+00 -4.41211E-02 T
  7.50000E-01  7.85398E-01  2.35619E+00  2.25839E+00 -4.46756E-02 T
  7.50000E-01  7.85398E-01  2.55254E+00  2.27749E+00 -4.05270E-02 T
  7.50000E-01  7.85398E-01  2.74889E+00  2.29445E+00 -3.50606E-02 T
  7.50000E-01  7.85398E-01  2.94524E+00  2.30884E+00 -2.80912E-02 T
  7.50000E-01  7.85398E-01  3.14159E+00  2.31970E+00 -2.01983E-02 T
  7.50000E-01  7.85398E-01  3.33794E+00  2.32826E+00 -1.88065E-02 T
  7.50000E-01  7.85398E-01  3.53429E+00  2.33856E+00 -2.83184E-02 T
  7.50000E-01  7.85398E-01  3.73064E+00  2.35625E+00 -5.01142E-02 T
  7.50000E-01  7.85398E-01  3.92699E+00  2.38584E+00 -7.68424E-02 T
  7.50000E-01  7.85398E-01  4.12334E+00  2.42709E+00 -9.51779E-02 T
  7.50000E-01  7.85398E-01  4.31969E+00  2.47329E+00 -9.25590E-02 T
  7.50000E-01  7.85398E-01  4.51604E+00  2.51212E+00 -6.11655E-02 T
  7.50000E-01  7.85398E-01  4.71239E+00  2.52972E+00 -8.30837E-03 T
  7.50000E-01  7.85398E-01  4.90874E+00  2.52112E+00  4.02168E-02 T
  7.50000E-01  7.85398E-01  5.10509E+00  2.49343E+00  6.91362E-02 T
  7.50000E-01  7.85398E-01  5.30144E+00  2.45576E+00  8.40684E-02 T
  7.50000E-01  7.85398E-01  5.49779E+00  2.41476E+00  8.43040E-02 T
  7.50000E-01  7.85398E-01  5.69414E+00  2.37875E+00  6.58752E-02 T
  7.50000E-01  7.85398E-01  5.89049E+00  2.35561E+00  3.13851E-02 T
  7.50000E-01  7.85398E-01  6.08684E+00  2.35013E+00 -5.80430E-03 T
  7.50000E-01  8.24668E-01  0.00000E+00  2.35950E+00 -1.12957E-02 T
  7.50000E-01  8.24668E-01  1.96350E-01  2.35962E+00  1.49148E-02 T
  7.50000E-01  8.24668E-01  3.92699E-01  2.34391E+00  5.24804E-02 T
  7.50000E-01  8.24668E-01  5.89049E-01  2.31379E+00  7.56831E-02 T
  7.50000E-01  8.24668E-01  7.85398E-01  2.27874E+00  7.59433E-02 T
  7.50000E-01  8.24668E-01  9.81748E-01  2.24854E+00  5.77967E-02 T
  7.50000E-01  8.24668E-01  1.17810E+00  2.22895E+00  3.02235E-02 T
  7.50000E-01  8.24668E-01  1.37445E+00  2.22227E+00  1.07020E-03 T
  7.50000E-01  8.24668E-01  1.57080E+00  2.22674E+00 -1.97606E-02 T
  7.50000E-01  8.24668E-01  1.76715E+00  2.23820E+00 -3.11846E-02 T
  7.50000E-01  8.24668E-01  1.96350E+00  2.25323E+00 -3.62828E-02 T
  7.50000E-01  8.24668E-01  2.15985E+00  2.27003E+00 -3.94136E-02 T
  7.50000E-01  8.24668E-01  2.35619E+00  2.28847E+00 -4.30066E-02 T
  7.50000E-01  8.24668E-01  2.55254E+00  2.30863E+00 -4.63478E-02 T
  7.50000E-01  8.24668E-01  2.74889E+00  2.33072E+00 -5.09020E-02 T
  7.50000E-01  8.24668E-01  2.94524E+00  2.35526E+00 -5.56864E-02 T
  7.50000E-01  8.24668E-01  3.14159E+00  2.38221E+00 -6.00612E-02 T
  7.50000E-01  8.24668E-01  3.33794E+00  2.41097E+00 -6.14283E-02 T
  7.50000E-01  8.24668E-01  3.53429E+00  2.43998E+00 -6.03909E-02 T
  7.50000E-01  8.24668E-01  3.73064E+00  2.46902E+00 -6.05378E-02 T
  7.50000E-01  8.24668E-01  3.92699E+00  2.49924E+00 -6.37312E-02 T
  7.50000E-01  8.24668E-01  4.12334E+00  2.53088E+00 -6.23738E-02 T
  7.50000E-01  8.24668E-01  4.31969E+00  2.55818E+00 -4.32460E-02 T
  7.50000E-01  8.24668E-01  4.51604E+00  2.57038E+00 -1.92268E-03 T
  7.50000E-01  8.24668E-01  4.71239E+00  2.55862E+00  4.78558E-02 T
  7.50000E-01  8.24668E-01  4.90874E+00  2.52520E+00  8.22038E-02 T
  7.50000E-01  8.24668E-01  5.10509E+00  2.48104E+00  9.43080E-02 T
  7.50000E-01  8.24668E-01  5.30144E+00  2.43583E+00  9.06902E-02 T
  7.50000E-01  8.24668E-01  5.49779E+00  2.39643E+00  7.33267E-02 T
  7.50000E-01  8.24668E-01  5.69414E+00  2.36810E+00  4.66523E-02 T
  7.50000E-01  8.24668E-01  5.89049E+00  2.35385E+00  1.44642E-02 T
  7.50000E-01  8.24668E-01  6.08684E+00  2.35352E+00 -1.00414E-02 T
  7.50000E-01  8.63938E-01  0.00000E+00  2.36917E+00  2.56114E-02 T
  7.50000E-01  8.63938E-01  1.96350E-01  2.35107E+00  5.39428E-02 T
  7.50000E-01  8.63938E-01  3.92699E-01  2.31975E+00  8.07895E-02 T
  7.50000E-01  8.63938E-01  5.89049E-01  2.28033E+00  8.98929E-02 T
  7.50000E-01  8.63938E-01  7.85398E-01  2.24288E+00  7.52538E-02 T
  7.50000E-01  8.63938E-01  9.81748E-01  2.21611E+00  4.51942E-02 T
  7.50000E-01  8.63938E-01  1.17810E+00  2.20476E+00  6.49971E-03 T
  7.50000E-01  8.63938E-01  1.37445E+00  2.20937E+00 -2.49086E-02 T
  7.50000E-01  8.63938E-01  1.57080E+00  2.22379E+00 -3.90079E-02 T
  7.50000E-01  8.63938E-01  1.76715E+00  2.24218E+00 -4.39265E-02 T
  7.50000E-01  8.63938E-01  1.96350E+00  2.26175E+00 -4.38556E-02 T
  7.50000E-01  8.63938E-01  2.15985E+00  2.28065E+00 -4.08341E-02 T
  7.50000E-01  8.63938E-01  2.35619E+00  2.29889E+00 -4.14411E-02 T
  7.50000E-01  8.63938E-01  2.55254E+00  2.31901E+00 -4.81051E-02 T
  7.50000E-01  8.63938E-01  2.74889E+00  2.34328E+00 -5.84091E-02 T
  7.50000E-01  8.63938E-01  2.94524E+00  2.37330E+00 -7.18239E-02 T
  7.50000E-01  8.63938E-01  3.14159E+00  2.41053E+00 -8.63566E-02 T
  7.50000E-01  8.63938E-01  3.33794E+00  2.45434E+00 -9.60278E-02 T
  7.50000E-01  8.63938E-01  3.53429E+00  2.50184E+00 -9.72970E-02 T
  7.50000E-01  8.63938E-01  3.73064E+00  2.54759E+00 -8.52180E-02 T
  7.50000E-01  8.63938E-01  3.92699E+00  2.58585E+00 -6.60716E-02 T
  7.50000E-01  8.63938E-01  4.12334E+00  2.61373E+00 -4.19173E-02 T
  7.50000E-01  8.63938E-01  4.31969E+00  2.62704E+00 -7.82411E-03 T
  7.50000E-01  8.63938E-01  4.51604E+00  2.61999E+00  3.60278E-02 T
  7.50000E-01  8.63938E-01  4.71239E+00  2.59095E+00  7.51469E-02 T
  7.50000E-01  8.63938E-01  4.90874E+00  2.54692E+00  9.60102E-02 T
  7.50000E-01  8.63938E-01  5.10509E+00  2.49824E+00  9.77762E-02 T
  7.50000E-01  8.63938E-01  5.30144E+00  2.45322E+00  8.53974E-02 T
  7.50000E-01  8.63938E-01  5.49779E+00  2.41757E+00  6.24022E-02 T
  7.50000E-01  8.63938E-01  5.69414E+00  2.39434E+00  3.60948E-02 T
  7.50000E-01  8.63938E-01  5.89049E+00  2.38267E+00  1.55861E-02 T
  7.50000E-01  8.63938E-01  6.08684E+00  2.37712E+00  1.13985E-02 T
  7.50000E-01  9.03208E-01  0.00000E+00  2.37793E+00  5.12588E-02 T
  7.50000E-01  9.03208E-01  1.96350E-01  2.34950E+00  7.08640E-02 T
  7.50000E-01  9.03208E-01  3.92699E-01  2.31385E+00  8.28249E-02 T
  7.50000E-01  9.03208E-01  5.89049E-01  2.27676E+00  7.84431E-02 T
  7.50000E-01  9.03208E-01  7.85398E-01  2.24626E+00  5.69782E-02 T
  7.50000E-01  9.03208E-01  9.81748E-01  2.22761E+00  2.64620E-02 T
  7.50000E-01  9.03208E-01  1.17810E+00  2.22413E+00 -1.06260E-02 T
  7.50000E-01  9.03208E-01  1.37445E+00  2.23560E+00 -3.92359E-02 T
  7.50000E-01  9.03208E-01  1.57080E+00  2.25638E+00 -5.25787E-02 T
  7.50000E-01  9.03208E-01  1.76715E+00  2.28041E+00 -5.40013E-02 T
  7.50000E-01  9.03208E-01  1.96350E+00  2.30408E+00 -5.06767E-02 T
  7.50000E-01  9.03208E-01  2.15985E+00  2.32582E+00 -4.48399E-02 T
  7.50000E-01  9.03208E-01  2.35619E+00  2.34544E+00 -4.14909E-02 T
  7.50000E-01  9.03208E-01  2.55254E+00  2.36462E+00 -4.19815E-02 T
  7.50000E-01  9.03208E-01  2.74889E+00  2.38503E+00 -4.65082E-02 T
  7.50000E-01  9.03208E-01  2.94524E+00  2.40945E+00 -5.87037E-02 T
  7.50000E-01  9.03208E-01  3.14159E+00  2.44162E+00 -7.67893E-02 T
  7.50000E-01  9.03208E-01  3.33794E+00  2.48320E+00 -9.48238E-02 T
  7.50000E-01  9.03208E-01  3.53429E+00  2.53300E+00 -1.05003E-01 T
  7.50000E-01  9.03208E-01  3.73064E+00  2.58458E+00 -9.73069E-02 T
  7.50000E-01  9.03208E-01  3.92699E+00  2.62911E+00 -7.46295E-02 T
  7.50000E-01  9.03208E-01  4.12334E+00  2.65952E+00 -4.09249E-02 T
  7.50000E-01  9.03208E-01  4.31969E+00  2.67030E+00  8.16988E-04 T
  7.50000E-01  9.03208E-01  4.51604E+00  2.65836E+00  4.39204E-02 T
  7.50000E-01  9.03208E-01  4.71239E+00  2.62676E+00  7.51270E-02 T
  7.50000E-01  9.03208E-01  4.90874E+00  2.58391E+00  8.97551E-02 T
  7.50000E-01  9.03208E-01  5.10509E+00  2.53807E+00  9.07440E-02 T
  7.50000E-01  9.03208E-01  5.30144E+00  2.49498E+00  8.21034E-02 T
  7.50000E-01  9.03208E-01  5.49779E+00  2.45895E+00  6.50794E-02 T
  7.50000E-01  9.03208E-01  5.69414E+00  2.43228E+00  4.63114E-02 T
  7.50000E-01  9.03208E-01  5.89049E+00  2.41370E+00  3.37006E-02 T
  7.50000E-01  9.03208E-01  6.08684E+00  2.39793E+00  3.57313E-02 T
  7.50000E-01  9.42478E-01  0.00000E+00  2.37760E+00  6.96446E-02 T
  7.50000E-01  9.42478E-01  1.96350E-01  2.34369E+00  7.49118E-02 T
  7.50000E-01  9.42478E-01  3.92699E-01  2.31040E+00  6.88574E-02 T
  7.50000E-01  9.42478E-01  5.89049E-01  2.28306E+00  5.04693E-02 T
  7.50000E-01  9.42478E-01  7.85398E-01  2.26586E+00  2.65762E-02 T
  7.50000E-01  9.42478E-01  9.81748E-01  2.25949E+00  1.45040E-03 T
  7.50000E-01  9.42478E-01  1.17810E+00  2.26476E+00 -2.42449E-02 T
  7.50000E-01  9.42478E-01  1.37445E+00  2.27969E+00 -4.11731E-02 T
  7.50000E-01  9.42478E-01  1.57080E+00  2.30056E+00 -5.05672E-02 T
  7.50000E-01  9.42478E-01  1.76715E+00  2.32479E+00 -5.59135E-02 T
  7.50000E-01  9.42478E-01  1.96350E+00  2.35131E+00 -5.88436E-02 T
  7.50000E-01  9.42478E-01  2.15985E+00  2.37837E+00 -5.73139E-02 T
  7.50000E-01  9.42478E-01  2.35619E+00  2.40479E+00 -5.51968E-02 T
  7.50000E-01  9.42478E-01  2.55254E+00  2.43048E+00 -5.32862E-02 T
  7.50000E-01  9.42478E-01  2.74889E+00  2.45613E+00 -5.43061E-02 T
  7.50000E-01  9.42478E-01  2.94524E+00  2.48362E+00 -5.98689E-02 T
  7.50000E-01  9.42478E-01  3.14159E+00  2.51504E+00 -6.82815E-02 T
  7.50000E-01  9.42478E-01  3.33794E+00  2.55114E+00 -7.68964E-02 T
  7.50000E-01  9.42478E-01  3.53429E+00  2.59177E+00 -8.30734E-02 T
  7.50000E-01  9.42478E-01  3.73064E+00  2.63418E+00 -8.03875E-02 T
  7.50000E-01  9.42478E-01  3.92699E+00  2.67251E+00 -6.40913E-02 T
  7.50000E-01  9.42478E-01  4.12334E+00  2.69858E+00 -3.25116E-02 T
  7.50000E-01  9.42478E-01  4.31969E+00  2.70485E+00  1.01250E-02 T
  7.50000E-01  9.42478E-01  4.51604E+00  2.68787E+00  5.24378E-02 T
  7.50000E-01  9.42478E-01  4.71239E+00  2.65264E+00  7.86235E-02 T
  7.50000E-01  9.42478E-01  4.90874E+00  2.60929E+00  8.67904E-02 T
  7.50000E-01  9.42478E-01  5.10509E+00  2.56536E+00  8.51101E-02 T
  7.50000E-01  9.42478E-01  5.30144E+00  2.52446E+00  7.76996E-02 T
  7.50000E-01  9.42478E-01  5.49779E+00  2.48875E+00  6.73111E-02 T
  7.50000E-01  9.42478E-01  5.69414E+00  2.45866E+00  5.66565E-02 T
  7.50000E-01  9.42478E-01  5.89049E+00  2.43319E+00  5.12568E-02 T
  7.50000E-01  9.42478E-01  6.08684E+00  2.40763E+00  5.80356E-02 T
  7.50000E-01  9.81748E-01  0.00000E+00  2.34902E+00  9.71758E-02 T
  7.50000E-01  9.81748E-01  1.96350E-01  2.30738E+00  8.23593E-02 T
  7.50000E-01  9.81748E-01  3.92699E-01  2.27581E+00  5.68209E-02 T
  7.50000E-01  9.81748E-01  5.89049E-01  2.25718E+00  2.71420E-02 T
  7.50000E-01  9.81748E-01  7.85398E-01  2.25011E+00  7.00012E-03 T
  7.50000E-01  9.81748E-01  9.81748E-01  2.25051E+00 -9.88693E-03 T
  7.50000E-01  9.81748E-01  1.17810E+00  2.25955E+00 -3.05511E-02 T
  7.50000E-01  9.81748E-01  1.37445E+00  2.27678E+00 -4.60257E-02 T
  7.50000E-01  9.81748E-01  1.57080E+00  2.30045E+00 -5.91065E-02 T
  7.50000E-01  9.81748E-01  1.76715E+00  2.32974E+00 -6.87049E-02 T
  7.50000E-01  9.81748E-01  1.96350E+00  2.36209E+00 -7.07067E-02 T
  7.50000E-01  9.81748E-01  2.15985E+00  2.39534E+00 -7.24043E-02 T
  7.50000E-01  9.81748E-01  2.35619E+00  2.43055E+00 -7.59120E-02 T
  7.50000E-01  9.81748E-01  2.55254E+00  2.46739E+00 -7.70981E-02 T
  7.50000E-01  9.81748E-01  2.74889E+00  2.50521E+00 -7.78683E-02 T
  7.50000E-01  9.81748E-01  2.94524E+00  2.54415E+00 -7.93929E-02 T
  7.50000E-01  9.81748E-01  3.14159E+00  2.58425E+00 -7.90780E-02 T
  7.50000E-01  9.81748E-01  3.33794E+00  2.62347E+00 -7.36632E-02 T
  7.50000E-01  9.81748E-01  3.53429E+00  2.65964E+00 -6.56242E-02 T
  7.50000E-01  9.81748E-01  3.73064E+00  2.69180E+00 -5.63180E-02 T
  7.50000E-01  9.81748E-01  3.92699E+00  2.71779E+00 -3.96748E-02 T
  7.50000E-01  9.81748E-01  4.12334E+00  2.73200E+00 -1.16687E-02 T
  7.50000E-01  9.81748E-01  4.31969E+00  2.72859E+00  2.55189E-02 T
  7.50000E-01  9.81748E-01  4.51604E+00  2.70499E+00  6.10184E-02 T
  7.50000E-01  9.81748E-01  4.71239E+00  2.66719E+00  7.90345E-02 T
  7.50000E-01  9.81748E-01  4.90874E+00  2.62488E+00  8.23405E-02 T
  7.50000E-01  9.81748E-01  5.10509E+00  2.58333E+00  7.93089E-02 T
  7.50000E-01  9.81748E-01  5.30144E+00  2.54496E+00  7.32862E-02 T
  7.50000E-01  9.81748E-01  5.49779E+00  2.50923E+00  7.16112E-02 T
  7.50000E-01  9.81748E-01  5.69414E+00  2.47385E+00  7.36776E-02 T
  7.50000E-01  9.81748E-01  5.89049E+00  2.43652E+00  8.26137E-02 T
  7.50000E-01  9.81748E-01  6.08684E+00  2.39432E+00  9.47761E-02 T
  7.50000E-01  1.02102E+00  0.00000E+00  2.33830E+00  1.00535E-01 T
  7.50000E-01  1.02102E+00  1.96350E-01  2.29808E+00  7.47444E-02 T
  7.50000E-01  1.02102E+00  3.92699E-01  2.27098E+00  4.55315E-02 T
  7.50000E-01  1.02102E+00  5.89049E-01  2.25782E+00  1.46536E-02 T
  7.50000E-01  1.02102E+00  7.85398E-01  2.25567E+00 -2.82804E-03 T
  7.50000E-01  1.02102E+00  9.81748E-01  2.26075E+00 -2.21084E-02 T
  7.50000E-01  1.02102E+00  1.17810E+00  2.27603E+00 -4.55207E-02 T
  7.50000E-01  1.02102E+00  1.37445E+00  2.30024E+00 -6.12770E-02 T
  7.50000E-01  1.02102E+00  1.57080E+00  2.33089E+00 -7.28516E-02 T
  7.50000E-01  1.02102E+00  1.76715E+00  2.36597E+00 -7.77699E-02 T
  7.50000E-01  1.02102E+00  1.96350E+00  2.40190E+00 -7.50778E-02 T
  7.50000E-01  1.02102E+00  2.15985E+00  2.43684E+00 -7.22695E-02 T
  7.50000E-01  1.02102E+00  2.35619E+00  2.47093E+00 -6.91611E-02 T
  7.50000E-01  1.02102E+00  2.55254E+00  2.50452E+00 -6.94645E-02 T
  7.50000E-01  1.02102E+00  2.74889E+00  2.54015E+00 -7.50392E-02 T
  7.50000E-01  1.02102E+00  2.94524E+00  2.57988E+00 -8.30920E-02 T
  7.50000E-01  1.02102E+00  3.14159E+00  2.62358E+00 -8.64529E-02 T
  7.50000E-01  1.02102E+00  3.33794E+00  2.66699E+00 -7.87590E-02 T
  7.50000E-01  1.02102E+00  3.53429E+00  2.70441E+00 -6.23592E-02 T
  7.50000E-01  1.02102E+00  3.73064E+00  2.73274E+00 -4.34079E-02 T
  7.50000E-01  1.02102E+00  3.92699E+00  2.75009E+00 -2.02973E-02 T
  7.50000E-01  1.02102E+00  4.12334E+00  2.75422E+00  5.20392E-03 T
  7.50000E-01  1.02102E+00  4.31969E+00  2.74394E+00  3.34524E-02 T
  7.50000E-01  1.02102E+00  4.51604E+00  2.71867E+00  5.91438E-02 T
  7.50000E-01  1.02102E+00  4.71239E+00  2.68333E+00  7.19823E-02 T
  7.50000E-01  1.02102E+00  4.90874E+00  2.64437E+00  7.61875E-02 T
  7.50000E-01  1.02102E+00  5.10509E+00  2.60490E+00  7.64838E-02 T
  7.50000E-01  1.02102E+00  5.30144E+00  2.56606E+00  7.72930E-02 T
  7.50000E-01  1.02102E+00  5.49779E+00  2.52623E+00  8.24945E-02 T
  7.50000E-01  1.02102E+00  5.69414E+00  2.48391E+00  9.02083E-02 T
  7.50000E-01  1.02102E+00  5.89049E+00  2.43770E+00  1.01222E-01 T
  7.50000E-01  1.02102E+00  6.08684E+00  2.38767E+00  1.08600E-01 T
  7.50000E-01  1.06029E+00  0.00000E+00  2.34993E+00  7.81172E-02 T
  7.50000E-01  1.06029E+00  1.96350E-01  2.31998E+00  5.30517E-02 T
  7.50000E-01  1.06029E+00  3.92699E-01  2.30156E+00  2.65480E-02 T
  7.50000E-01  1.06029E+00  5.89049E-01  2.29674E+00 -3.71141E-03 T
  7.50000E-01  1.06029E+00  7.85398E-01  2.30279E+00 -2.23014E-02 T
  7.50000E-01  1.06029E+00  9.81748E-01  2.31795E+00 -4.53416E-02 T
  7.50000E-01  1.06029E+00  1.17810E+00  2.34304E+00 -6.21893E-02 T
  7.50000E-01  1.06029E+00  1.37445E+00  2.37404E+00 -7.12020E-02 T
  7.50000E-01  1.06029E+00  1.57080E+00  2.40890E+00 -7.62916E-02 T
  7.50000E-01  1.06029E+00  1.76715E+00  2.44519E+00 -7.48824E-02 T
  7.50000E-01  1.06029E+00  1.96350E+00  2.47984E+00 -6.78353E-02 T
  7.50000E-01  1.06029E+00  2.15985E+00  2.51084E+00 -5.84026E-02 T
  7.50000E-01  1.06029E+00  2.35619E+00  2.53738E+00 -4.94905E-02 T
  7.50000E-01  1.06029E+00  2.55254E+00  2.56173E+00 -4.96523E-02 T
  7.50000E-01  1.06029E+00  2.74889E+00  2.58883E+00 -5.86042E-02 T
  7.50000E-01  1.06029E+00  2.94524E+00  2.62196E+00 -7.07383E-02 T
  7.50000E-01  1.06029E+00  3.14159E+00  2.66074E+00 -7.72656E-02 T
  7.50000E-01  1.06029E+00  3.33794E+00  2.70072E+00 -7.25707E-02 T
  7.50000E-01  1.06029E+00  3.53429E+00  2.73563E+00 -5.67526E-02 T
  7.50000E-01  1.06029E+00  3.73064E+00  2.76038E+00 -3.40419E-02 T
  7.50000E-01  1.06029E+00  3.92699E+00  2.77183E+00 -8.23107E-03 T
  7.50000E-01  1.06029E+00  4.12334E+00  2.76979E+00  1.54549E-02 T
  7.50000E-01  1.06029E+00  4.31969E+00  2.75496E+00  3.92560E-02 T
  7.50000E-01  1.06029E+00  4.51604E+00  2.72822E+00  5.86082E-02 T
  7.50000E-01  1.06029E+00  4.71239E+00  2.69393E+00  6.89546E-02 T
  7.50000E-01  1.06029E+00  4.90874E+00  2.65621E+00  7.42175E-02 T
  7.50000E-01  1.06029E+00  5.10509E+00  2.61675E+00  7.83904E-02 T
  7.50000E-01  1.06029E+00  5.30144E+00  2.57521E+00  8.50001E-02 T
  7.50000E-01  1.06029E+00  5.49779E+00  2.53091E+00  9.13988E-02 T
  7.50000E-01  1.06029E+00  5.69414E+00  2.48464E+00  9.64094E-02 T
  7.50000E-01  1.06029E+00  5.89049E+00  2.43734E+00  9.85969E-02 T
  7.50000E-01  1.06029E+00  6.08684E+00  2.39103E+00  9.55014E-02 T
  7.50000E-01  1.09956E+00  0.00000E+00  2.31484E+00  5.71172E-02 T
  7.50000E-01  1.09956E+00  1.96350E-01  2.29596E+00  2.87787E-02 T
  7.50000E-01  1.09956E+00  3.92699E-01  2.28852E+00  3.17190E-03 T
  7.50000E-01  1.09956E+00  5.89049E-01  2.29254E+00 -1.86722E-02 T
  7.50000E-01  1.09956E+00  7.85398E-01  2.30469E+00 -3.73256E-02 T
  7.50000E-01  1.09956E+00  9.81748E-01  2.32834E+00 -6.62389E-02 T
  7.50000E-01  1.09956E+00  1.17810E+00  2.36304E+00 -8.17541E-02 T
  7.50000E-01  1.09956E+00  1.37445E+00  2.40277E+00 -8.68561E-02 T
  7.50000E-01  1.09956E+00  1.57080E+00  2.44371E+00 -8.40192E-02 T
  7.50000E-01  1.09956E+00  1.76715E+00  2.48263E+00 -7.64567E-02 T
  7.50000E-01  1.09956E+00  1.96350E+00  2.51804E+00 -6.80472E-02 T
  7.50000E-01  1.09956E+00  2.15985E+00  2.55016E+00 -6.11635E-02 T
  7.50000E-01  1.09956E+00  2.35619E+00  2.57955E+00 -5.63919E-02 T
  7.50000E-01  1.09956E+00  2.55254E+00  2.60844E+00 -5.80747E-02 T
  7.50000E-01  1.09956E+00  2.74889E+00  2.63971E+00 -6.35719E-02 T
  7.50000E-01  1.09956E+00  2.94524E+00  2.67412E+00 -6.75033E-02 T
  7.50000E-01  1.09956E+00  3.14159E+00  2.70933E+00 -6.44688E-02 T
  7.50000E-01  1.09956E+00  3.33794E+00  2.74140E+00 -5.42380E-02 T
  7.50000E-01  1.09956E+00  3.53429E+00  2.76646E+00 -3.75244E-02 T
  7.50000E-01  1.09956E+00  3.73064E+00  2.78135E+00 -1.67335E-02 T
  7.50000E-01  1.09956E+00  3.92699E+00  2.78468E+00  4.38666E-03 T
  7.50000E-01  1.09956E+00  4.12334E+00  2.77641E+00  2.63251E-02 T
  7.50000E-01  1.09956E+00  4.31969E+00  2.75592E+00  4.84651E-02 T
  7.50000E-01  1.09956E+00  4.51604E+00  2.72556E+00  6.27783E-02 T
  7.50000E-01  1.09956E+00  4.71239E+00  2.69002E+00  7.02974E-02 T
  7.50000E-01  1.09956E+00  4.90874E+00  2.65169E+00  7.57222E-02 T
  7.50000E-01  1.09956E+00  5.10509E+00  2.61093E+00  8.30276E-02 T
  7.50000E-01  1.09956E+00  5.30144E+00  2.56523E+00  9.78901E-02 T
  7.50000E-01  1.09956E+00  5.49779E+00  2.51252E+00  1.12686E-01 T
  7.50000E-01  1.09956E+00  5.69414E+00  2.45538E+00  1.19990E-01 T
  7.50000E-01  1.09956E+00  5.89049E+00  2.39889E+00  1.14730E-01 T
  7.50000E-01  1.09956E+00  6.08684E+00  2.34959E+00  9.36746E-02 T
  7.50000E-01  1.13883E+00  0.00000E+00  2.28693E+00  3.82748E-02 T
  7.50000E-01  1.13883E+00  1.96350E-01  2.27722E+00  8.28467E-03 T
  7.50000E-01  1.13883E+00  3.92699E-01  2.27872E+00 -1.45164E-02 T
  7.50000E-01  1.13883E+00  5.89049E-01  2.28837E+00 -2.65533E-02 T
  7.50000E-01  1.13883E+00  7.85398E-01  2.30379E+00 -4.57385E-02 T
  7.50000E-01  1.13883E+00  9.81748E-01  2.33179E+00 -7.61437E-02 T
  7.50000E-01  1.13883E+00  1.17810E+00  2.37132E+00 -9.26734E-02 T
  7.50000E-01  1.13883E+00  1.37445E+00  2.41625E+00 -9.64059E-02 T
  7.50000E-01  1.13883E+00  1.57080E+00  2.46106E+00 -8.96552E-02 T
  7.50000E-01  1.13883E+00  1.76715E+00  2.50224E+00 -7.91455E-02 T
  7.50000E-01  1.13883E+00  1.96350E+00  2.53909E+00 -7.05506E-02 T
  7.50000E-01  1.13883E+00  2.15985E+00  2.57317E+00 -6.57218E-02 T
  7.50000E-01  1.13883E+00  2.35619E+00  2.60639E+00 -6.62983E-02 T
  7.50000E-01  1.13883E+00  2.55254E+00  2.64212E+00 -7.25431E-02 T
  7.50000E-01  1.13883E+00  2.74889E+00  2.68101E+00 -7.51877E-02 T
  7.50000E-01  1.13883E+00  2.94524E+00  2.71987E+00 -6.98760E-02 T
  7.50000E-01  1.13883E+00  3.14159E+00  2.75391E+00 -5.53467E-02 T
  7.50000E-01  1.13883E+00  3.33794E+00  2.77836E+00 -3.39825E-02 T
  7.50000E-01  1.13883E+00  3.53429E+00  2.79090E+00 -1.24789E-02 T
  7.50000E-01  1.13883E+00  3.73064E+00  2.79283E+00  4.73471E-03 T
  7.50000E-01  1.13883E+00  3.92699E+00  2.78619E+00  1.94340E-02 T
  7.50000E-01  1.13883E+00  4.12334E+00  2.77133E+00  3.54062E-02 T
  7.50000E-01  1.13883E+00  4.31969E+00  2.74770E+00  5.12676E-02 T
  7.50000E-01  1.13883E+00  4.51604E+00  2.71717E+00  6.14861E-02 T
  7.50000E-01  1.13883E+00  4.71239E+00  2.68275E+00  6.82678E-02 T
  7.50000E-01  1.13883E+00  4.90874E+00  2.64529E+00  7.50381E-02 T
  7.50000E-01  1.13883E+00  5.10509E+00  2.60405E+00  8.69112E-02 T
  7.50000E-01  1.13883E+00  5.30144E+00  2.55443E+00  1.10104E-01 T
  7.50000E-01  1.13883E+00  5.49779E+00  2.49437E+00  1.30655E-01 T
  7.50000E-01  1.13883E+00  5.69414E+00  2.42865E+00  1.38608E-01 T
  7.50000E-01  1.13883E+00  5.89049E+00  2.36542E+00  1.26165E-01 T
  7.50000E-01  1.13883E+00  6.08684E+00  2.31517E+00  8.81811E-02 T
  7.50000E-01  1.17810E+00  0.00000E+00  2.32095E+00  2.71016E-02 T
  7.50000E-01  1.17810E+00  1.96350E-01  2.31560E+00 -2.60329E-03 T
  7.50000E-01  1.17810E+00  3.92699E-01  2.32333E+00 -3.01285E-02 T
  7.50000E-01  1.17810E+00  5.89049E-01  2.34054E+00 -4.30248E-02 T
  7.50000E-01  1.17810E+00  7.85398E-01  2.36364E+00 -5.89198E-02 T
  7.50000E-01  1.17810E+00  9.81748E-01  2.39533E+00 -7.49740E-02 T
  7.50000E-01  1.17810E+00  1.17810E+00  2.43285E+00 -8.25218E-02 T
  7.50000E-01  1.17810E+00  1.37445E+00  2.47326E+00 -8.39525E-02 T
  7.50000E-01  1.17810E+00  1.57080E+00  2.51325E+00 -7.86130E-02 T
  7.50000E-01  1.17810E+00  1.76715E+00  2.55022E+00 -6.99608E-02 T
  7.50000E-01  1.17810E+00  1.96350E+00  2.58366E+00 -6.33181E-02 T
  7.50000E-01  1.17810E+00  2.15985E+00  2.61481E+00 -5.92136E-02 T
  7.50000E-01  1.17810E+00  2.35619E+00  2.64569E+00 -6.20324E-02 T
  7.50000E-01  1.17810E+00  2.55254E+00  2.68032E+00 -7.02344E-02 T
  7.50000E-01  1.17810E+00  2.74889E+00  2.71847E+00 -7.20923E-02 T
  7.50000E-01  1.17810E+00  2.94524E+00  2.75540E+00 -6.36526E-02 T
  7.50000E-01  1.17810E+00  3.14159E+00  2.78533E+00 -4.44544E-02 T
  7.50000E-01  1.17810E+00  3.33794E+00  2.80212E+00 -1.60606E-02 T
  7.50000E-01  1.17810E+00  3.53429E+00  2.80370E+00  8.67450E-03 T
  7.50000E-01  1.17810E+00  3.73064E+00  2.79427E+00  2.46152E-02 T
  7.50000E-01  1.17810E+00  3.92699E+00  2.77752E+00  3.59395E-02 T
  7.50000E-01  1.17810E+00  4.12334E+00  2.75583E+00  4.35027E-02 T
  7.50000E-01  1.17810E+00  4.31969E+00  2.73047E+00  5.08993E-02 T
  7.50000E-01  1.17810E+00  4.51604E+00  2.70128E+00  5.83965E-02 T
  7.50000E-01  1.17810E+00  4.71239E+00  2.66864E+00  6.54652E-02 T
  7.50000E-01  1.17810E+00  4.90874E+00  2.63270E+00  7.29203E-02 T
  7.50000E-01  1.17810E+00  5.10509E+00  2.59219E+00  8.66026E-02 T
  7.50000E-01  1.17810E+00  5.30144E+00  2.54403E+00  1.03682E-01 T
  7.50000E-01  1.17810E+00  5.49779E+00  2.48999E+00  1.13914E-01 T
  7.50000E-01  1.17810E+00  5.69414E+00  2.43411E+00  1.14986E-01 T
  7.50000E-01  1.17810E+00  5.89049E+00  2.38251E+00  1.00704E-01 T
  7.50000E-01  1.17810E+00  6.08684E+00  2.34250E+00  6.83531E-02 T
  7.50000E-01  1.21737E+00  0.00000E+00  2.32551E+00  1.82991E-02 T
  7.50000E-01  1.21737E+00  1.96350E-01  2.32335E+00 -1.02388E-02 T
  7.50000E-01  1.21737E+00  3.92699E-01  2.33603E+00 -4.41870E-02 T
  7.50000E-01  1.21737E+00  5.89049E-01  2.36186E+00 -6.63961E-02 T
  7.50000E-01  1.21737E+00  7.85398E-01  2.39747E+00 -8.49832E-02 T
  7.50000E-01  1.21737E+00  9.81748E-01  2.43949E+00 -8.91796E-02 T
  7.50000E-01  1.21737E+00  1.17810E+00  2.48137E+00 -8.33802E-02 T
  7.50000E-01  1.21737E+00  1.37445E+00  2.51999E+00 -7.37277E-02 T
  7.50000E-01  1.21737E+00  1.57080E+00  2.55490E+00 -6.73984E-02 T
  7.50000E-01  1.21737E+00  1.76715E+00  2.58824E+00 -6.50390E-02 T
  7.50000E-01  1.21737E+00  1.96350E+00  2.62138E+00 -6.48325E-02 T
  7.50000E-01  1.21737E+00  2.15985E+00  2.65492E+00 -6.44780E-02 T
  7.50000E-01  1.21737E+00  2.35619E+00  2.68863E+00 -6.41999E-02 T
  7.50000E-01  1.21737E+00  2.55254E+00  2.72272E+00 -6.38413E-02 T
  7.50000E-01  1.21737E+00  2.74889E+00  2.75609E+00 -5.91185E-02 T
  7.50000E-01  1.21737E+00  2.94524E+00  2.78529E+00 -4.69484E-02 T
  7.50000E-01  1.21737E+00  3.14159E+00  2.80577E+00 -2.59741E-02 T
  7.50000E-01  1.21737E+00  3.33794E+00  2.81235E+00  2.45008E-03 T
  7.50000E-01  1.21737E+00  3.53429E+00  2.80403E+00  2.62152E-02 T
  7.50000E-01  1.21737E+00  3.73064E+00  2.78484E+00  4.30493E-02 T
  7.50000E-01  1.21737E+00  3.92699E+00  2.75773E+00  5.55619E-02 T
  7.50000E-01  1.21737E+00  4.12334E+00  2.72628E+00  5.98839E-02 T
  7.50000E-01  1.21737E+00  4.31969E+00  2.69440E+00  5.99939E-02 T
  7.50000E-01  1.21737E+00  4.51604E+00  2.66228E+00  6.26878E-02 T
  7.50000E-01  1.21737E+00  4.71239E+00  2.62863E+00  6.68030E-02 T
  7.50000E-01  1.21737E+00  4.90874E+00  2.59311E+00  7.29276E-02 T
  7.50000E-01  1.21737E+00  5.10509E+00  2.55269E+00  8.80910E-02 T
  7.50000E-01  1.21737E+00  5.30144E+00  2.50580E+00  9.88290E-02 T
  7.50000E-01  1.21737E+00  5.49779E+00  2.45687E+00  1.01030E-01 T
  7.50000E-01  1.21737E+00  5.69414E+00  2.41001E+00  9.27772E-02 T
  7.50000E-01  1.21737E+00  5.89049E+00  2.37028E+00  7.58861E-02 T
  7.50000E-01  1.21737E+00  6.08684E+00  2.34073E+00  4.94377E-02 T
