s E_r[V/m] (\Gamma_b/n_b[m/s]  Q_b/n_b/T_b[m/s] L_1^b[m^2/s] L_2^b[m^2/s]  Z_b n_b[10^{19}m^{-3}] dlnn_b/dr[m^{-1}] T_b[eV] dlnT_b/dr[m^{-1}], b=1,NBB), size(e\varphi_1/T_i) 
  8.00000E-01 -1.75184E+04  1.81262E-02  5.08470E-02  4.83829E-04  1.74815E-03  4.58097E+00 -3.15252E+00  2.28101E+02 -1.18964E+01 -1.00000E+00 -3.54357E-01 -8.16512E-01  1.79456E-02  6.72545E-02  4.58097E+00 -3.15252E+00  2.13277E+02 -1.48985E+01  1.00000E+00 -1.46068E-33  0.00000E+00          NaN
  8.00000E-01 -1.68446E+04  1.75516E-02  4.94216E-02  4.83890E-04  1.74817E-03  4.58097E+00 -3.15252E+00  2.28101E+02 -1.18964E+01 -1.00000E+00 -3.35351E-01 -7.59998E-01  1.79476E-02  6.72556E-02  4.58097E+00 -3.15252E+00  2.13277E+02 -1.48985E+01  1.00000E+00 -1.46068E-33  0.00000E+00          NaN
  8.00000E-01 -1.61708E+04  1.69758E-02  4.79958E-02  4.83950E-04  1.74819E-03  4.58097E+00 -3.15252E+00  2.28101E+02 -1.18964E+01 -1.00000E+00 -3.16347E-01 -7.03485E-01  1.79497E-02  6.72566E-02  4.58097E+00 -3.15252E+00  2.13277E+02 -1.48985E+01  1.00000E+00 -1.46068E-33  0.00000E+00          NaN
  8.00000E-01 -1.54971E+04  1.63989E-02  4.65697E-02  4.84009E-04  1.74821E-03  4.58097E+00 -3.15252E+00  2.28101E+02 -1.18964E+01 -1.00000E+00 -2.97347E-01 -6.46974E-01  1.79520E-02  6.72578E-02  4.58097E+00 -3.15252E+00  2.13277E+02 -1.48985E+01  1.00000E+00 -1.46068E-33  0.00000E+00          NaN
  8.00000E-01 -1.48233E+04  1.58207E-02  4.51432E-02  4.84069E-04  1.74822E-03  4.58097E+00 -3.15252E+00  2.28101E+02 -1.18964E+01 -1.00000E+00 -2.78349E-01 -5.90464E-01  1.79545E-02  6.72591E-02  4.58097E+00 -3.15252E+00  2.13277E+02 -1.48985E+01  1.00000E+00 -1.46068E-33  0.00000E+00          NaN
  8.00000E-01 -1.41495E+04  1.52415E-02  4.37163E-02  4.84128E-04  1.74824E-03  4.58097E+00 -3.15252E+00  2.28101E+02 -1.18964E+01 -1.00000E+00 -2.59355E-01 -5.33956E-01  1.79573E-02  6.72605E-02  4.58097E+00 -3.15252E+00  2.13277E+02 -1.48985E+01  1.00000E+00 -1.46068E-33  0.00000E+00          NaN
  8.00000E-01 -1.34757E+04  1.46611E-02  4.22891E-02  4.84187E-04  1.74826E-03  4.58097E+00 -3.15252E+00  2.28101E+02 -1.18964E+01 -1.00000E+00 -2.40363E-01 -4.77450E-01  1.79603E-02  6.72621E-02  4.58097E+00 -3.15252E+00  2.13277E+02 -1.48985E+01  1.00000E+00 -1.46068E-33  0.00000E+00          NaN
  8.00000E-01 -1.28019E+04  1.40795E-02  4.08615E-02  4.84246E-04  1.74828E-03  4.58097E+00 -3.15252E+00  2.28101E+02 -1.18964E+01 -1.00000E+00 -2.21374E-01 -4.20944E-01  1.79636E-02  6.72638E-02  4.58097E+00 -3.15252E+00  2.13277E+02 -1.48985E+01  1.00000E+00 -1.46068E-33  0.00000E+00          NaN
  8.00000E-01 -1.21281E+04  1.34968E-02  3.94336E-02  4.84305E-04  1.74830E-03  4.58097E+00 -3.15252E+00  2.28101E+02 -1.18964E+01 -1.00000E+00 -2.02386E-01 -3.64439E-01  1.79672E-02  6.72656E-02  4.58097E+00 -3.15252E+00  2.13277E+02 -1.48985E+01  1.00000E+00 -1.46068E-33  0.00000E+00          NaN
  8.00000E-01 -1.14543E+04  1.29130E-02  3.80053E-02  4.84364E-04  1.74831E-03  4.58097E+00 -3.15252E+00  2.28101E+02 -1.18964E+01 -1.00000E+00 -1.83399E-01 -3.07933E-01  1.79711E-02  6.72676E-02  4.58097E+00 -3.15252E+00  2.13277E+02 -1.48985E+01  1.00000E+00 -1.46068E-33  0.00000E+00          NaN
  8.00000E-01 -1.07806E+04  1.23280E-02  3.65767E-02  4.84423E-04  1.74833E-03  4.58097E+00 -3.15252E+00  2.28101E+02 -1.18964E+01 -1.00000E+00 -1.64412E-01 -2.51426E-01  1.79754E-02  6.72698E-02  4.58097E+00 -3.15252E+00  2.13277E+02 -1.48985E+01  1.00000E+00 -1.46068E-33  0.00000E+00          NaN
  8.00000E-01 -1.01068E+04  1.17419E-02  3.51477E-02  4.84484E-04  1.74835E-03  4.58097E+00 -3.15252E+00  2.28101E+02 -1.18964E+01 -1.00000E+00 -1.45421E-01 -1.94917E-01  1.79801E-02  6.72722E-02  4.58097E+00 -3.15252E+00  2.13277E+02 -1.48985E+01  1.00000E+00 -1.46068E-33  0.00000E+00          NaN
  8.00000E-01 -9.43299E+03  1.11546E-02  3.37184E-02  4.84545E-04  1.74836E-03  4.58097E+00 -3.15252E+00  2.28101E+02 -1.18964E+01 -1.00000E+00 -1.26426E-01 -1.38404E-01  1.79853E-02  6.72749E-02  4.58097E+00 -3.15252E+00  2.13277E+02 -1.48985E+01  1.00000E+00 -1.46068E-33  0.00000E+00          NaN
  8.00000E-01 -8.75921E+03  1.05660E-02  3.22888E-02  4.84608E-04  1.74838E-03  4.58097E+00 -3.15252E+00  2.28101E+02 -1.18964E+01 -1.00000E+00 -1.07421E-01 -8.18841E-02  1.79910E-02  6.72777E-02  4.58097E+00 -3.15252E+00  2.13277E+02 -1.48985E+01  1.00000E+00 -1.46068E-33  0.00000E+00          NaN
  8.00000E-01 -8.08542E+03  9.97624E-03  3.08589E-02  4.84674E-04  1.74840E-03  4.58097E+00 -3.15252E+00  2.28101E+02 -1.18964E+01 -1.00000E+00 -8.84031E-02 -2.53554E-02  1.79972E-02  6.72809E-02  4.58097E+00 -3.15252E+00  2.13277E+02 -1.48985E+01  1.00000E+00 -1.46068E-33  0.00000E+00          NaN
  8.00000E-01 -7.41164E+03  9.38502E-03  2.94286E-02  4.84742E-04  1.74841E-03  4.58097E+00 -3.15252E+00  2.28101E+02 -1.18964E+01 -1.00000E+00 -6.93669E-02  3.11858E-02  1.80040E-02  6.72843E-02  4.58097E+00 -3.15252E+00  2.13277E+02 -1.48985E+01  1.00000E+00 -1.46068E-33  0.00000E+00          NaN
  8.00000E-01 -6.73785E+03  8.79220E-03  2.79980E-02  4.84816E-04  1.74843E-03  4.58097E+00 -3.15252E+00  2.28101E+02 -1.18964E+01 -1.00000E+00 -5.03059E-02  8.77432E-02  1.80114E-02  6.72880E-02  4.58097E+00 -3.15252E+00  2.13277E+02 -1.48985E+01  1.00000E+00 -1.46068E-33  0.00000E+00          NaN
  8.00000E-01 -6.06407E+03  8.19750E-03  2.65671E-02  4.84894E-04  1.74845E-03  4.58097E+00 -3.15252E+00  2.28101E+02 -1.18964E+01 -1.00000E+00 -3.12133E-02  1.44322E-01  1.80194E-02  6.72919E-02  4.58097E+00 -3.15252E+00  2.13277E+02 -1.48985E+01  1.00000E+00 -1.46068E-33  0.00000E+00          NaN
  8.00000E-01 -5.39028E+03  7.60053E-03  2.51357E-02  4.84981E-04  1.74846E-03  4.58097E+00 -3.15252E+00  2.28101E+02 -1.18964E+01 -1.00000E+00 -1.20821E-02  2.00926E-01  1.80281E-02  6.72961E-02  4.58097E+00 -3.15252E+00  2.13277E+02 -1.48985E+01  1.00000E+00 -1.46068E-33  0.00000E+00          NaN
  8.00000E-01 -4.71650E+03  7.00071E-03  2.37039E-02  4.85076E-04  1.74848E-03  4.58097E+00 -3.15252E+00  2.28101E+02 -1.18964E+01 -1.00000E+00  7.09380E-03  2.57560E-01  1.80374E-02  6.73005E-02  4.58097E+00 -3.15252E+00  2.13277E+02 -1.48985E+01  1.00000E+00 -1.46068E-33  0.00000E+00          NaN
  8.00000E-01 -4.04271E+03  6.39728E-03  2.22716E-02  4.85181E-04  1.74850E-03  4.58097E+00 -3.15252E+00  2.28101E+02 -1.18964E+01 -1.00000E+00  2.63181E-02  3.14229E-01  1.80475E-02  6.73052E-02  4.58097E+00 -3.15252E+00  2.13277E+02 -1.48985E+01  1.00000E+00 -1.46068E-33  0.00000E+00          NaN
  8.00000E-01 -3.36893E+03  5.78933E-03  2.08387E-02  4.85297E-04  1.74852E-03  4.58097E+00 -3.15252E+00  2.28101E+02 -1.18964E+01 -1.00000E+00  4.55913E-02  3.70935E-01  1.80583E-02  6.73099E-02  4.58097E+00 -3.15252E+00  2.13277E+02 -1.48985E+01  1.00000E+00 -1.46068E-33  0.00000E+00          NaN
  8.00000E-01 -2.69514E+03  5.17587E-03  1.94050E-02  4.85421E-04  1.74854E-03  4.58097E+00 -3.15252E+00  2.28101E+02 -1.18964E+01 -1.00000E+00  6.49122E-02  4.27681E-01  1.80702E-02  6.73149E-02  4.58097E+00 -3.15252E+00  2.13277E+02 -1.48985E+01  1.00000E+00 -1.46068E-33  0.00000E+00          NaN
  8.00000E-01 -2.02136E+03  4.55617E-03  1.79706E-02  4.85546E-04  1.74855E-03  4.58097E+00 -3.15252E+00  2.28101E+02 -1.18964E+01 -1.00000E+00  8.42885E-02  4.84469E-01  1.80832E-02  6.73199E-02  4.58097E+00 -3.15252E+00  2.13277E+02 -1.48985E+01  1.00000E+00 -1.46068E-33  0.00000E+00          NaN
  8.00000E-01 -1.34757E+03  3.93024E-03  1.65355E-02  4.85661E-04  1.74857E-03  4.58097E+00 -3.15252E+00  2.28101E+02 -1.18964E+01 -1.00000E+00  1.03758E-01  5.41316E-01  1.80972E-02  6.73248E-02  4.58097E+00 -3.15252E+00  2.13277E+02 -1.48985E+01  1.00000E+00 -1.46068E-33  0.00000E+00          NaN
  8.00000E-01 -6.73785E+02  3.29932E-03  1.51001E-02  4.85748E-04  1.74858E-03  4.58097E+00 -3.15252E+00  2.28101E+02 -1.18964E+01 -1.00000E+00  1.23321E-01  5.98247E-01  1.81108E-02  6.73291E-02  4.58097E+00 -3.15252E+00  2.13277E+02 -1.48985E+01  1.00000E+00 -1.46068E-33  0.00000E+00          NaN
  8.00000E-01  4.28278E-12  2.61473E-03  1.36635E-02  4.85873E-04  1.74859E-03  4.58097E+00 -3.15252E+00  2.28101E+02 -1.18964E+01 -1.00000E+00  1.42126E-01  6.55231E-01  1.81252E-02  6.73321E-02  4.58097E+00 -3.15252E+00  2.13277E+02 -1.48985E+01  1.00000E+00 -1.46068E-33  0.00000E+00          NaN
  8.00000E-01  6.73785E+02  2.05147E-03  1.22304E-02  4.85748E-04  1.74858E-03  4.58097E+00 -3.15252E+00  2.28101E+02 -1.18964E+01 -1.00000E+00  1.64729E-01  7.12679E-01  1.81108E-02  6.73291E-02  4.58097E+00 -3.15252E+00  2.13277E+02 -1.48985E+01  1.00000E+00 -1.46068E-33  0.00000E+00          NaN
  8.00000E-01  1.34757E+03  1.44536E-03  1.07972E-02  4.85661E-04  1.74857E-03  4.58097E+00 -3.15252E+00  2.28101E+02 -1.18964E+01 -1.00000E+00  1.85909E-01  7.70006E-01  1.80972E-02  6.73248E-02  4.58097E+00 -3.15252E+00  2.13277E+02 -1.48985E+01  1.00000E+00 -1.46068E-33  0.00000E+00          NaN
  8.00000E-01  2.02136E+03  8.47323E-04  9.36510E-03  4.85546E-04  1.74855E-03  4.58097E+00 -3.15252E+00  2.28101E+02 -1.18964E+01 -1.00000E+00  2.06672E-01  8.27240E-01  1.80832E-02  6.73199E-02  4.58097E+00 -3.15252E+00  2.13277E+02 -1.48985E+01  1.00000E+00 -1.46068E-33  0.00000E+00          NaN
  8.00000E-01  2.69514E+03  2.55757E-04  7.93395E-03  4.85421E-04  1.74854E-03  4.58097E+00 -3.15252E+00  2.28101E+02 -1.18964E+01 -1.00000E+00  2.27125E-01  8.84379E-01  1.80702E-02  6.73149E-02  4.58097E+00 -3.15252E+00  2.13277E+02 -1.48985E+01  1.00000E+00 -1.46068E-33  0.00000E+00          NaN
  8.00000E-01  3.36893E+03 -3.31276E-04  6.50350E-03  4.85297E-04  1.74852E-03  4.58097E+00 -3.15252E+00  2.28101E+02 -1.18964E+01 -1.00000E+00  2.47335E-01  9.41434E-01  1.80583E-02  6.73099E-02  4.58097E+00 -3.15252E+00  2.13277E+02 -1.48985E+01  1.00000E+00 -1.46068E-33  0.00000E+00          NaN
  8.00000E-01  4.04271E+03 -9.15530E-04  5.07351E-03  4.85181E-04  1.74850E-03  4.58097E+00 -3.15252E+00  2.28101E+02 -1.18964E+01 -1.00000E+00  2.67354E-01  9.98415E-01  1.80475E-02  6.73052E-02  4.58097E+00 -3.15252E+00  2.13277E+02 -1.48985E+01  1.00000E+00 -1.46068E-33  0.00000E+00          NaN
  8.00000E-01  4.71650E+03 -1.49826E-03  3.64385E-03  4.85076E-04  1.74848E-03  4.58097E+00 -3.15252E+00  2.28101E+02 -1.18964E+01 -1.00000E+00  2.87219E-01  1.05533E+00  1.80374E-02  6.73005E-02  4.58097E+00 -3.15252E+00  2.13277E+02 -1.48985E+01  1.00000E+00 -1.46068E-33  0.00000E+00          NaN
  8.00000E-01  5.39028E+03 -2.08024E-03  2.21443E-03  4.84981E-04  1.74846E-03  4.58097E+00 -3.15252E+00  2.28101E+02 -1.18964E+01 -1.00000E+00  3.06956E-01  1.11219E+00  1.80281E-02  6.72961E-02  4.58097E+00 -3.15252E+00  2.13277E+02 -1.48985E+01  1.00000E+00 -1.46068E-33  0.00000E+00          NaN
  8.00000E-01  6.06407E+03 -2.66185E-03  7.85202E-04  4.84894E-04  1.74845E-03  4.58097E+00 -3.15252E+00  2.28101E+02 -1.18964E+01 -1.00000E+00  3.26585E-01  1.16901E+00  1.80194E-02  6.72919E-02  4.58097E+00 -3.15252E+00  2.13277E+02 -1.48985E+01  1.00000E+00 -1.46068E-33  0.00000E+00          NaN
  8.00000E-01  6.73785E+03 -3.24325E-03 -6.43830E-04  4.84816E-04  1.74843E-03  4.58097E+00 -3.15252E+00  2.28101E+02 -1.18964E+01 -1.00000E+00  3.46122E-01  1.22577E+00  1.80114E-02  6.72880E-02  4.58097E+00 -3.15252E+00  2.13277E+02 -1.48985E+01  1.00000E+00 -1.46068E-33  0.00000E+00          NaN
  8.00000E-01  7.41164E+03 -3.82447E-03 -2.07266E-03  4.84742E-04  1.74841E-03  4.58097E+00 -3.15252E+00  2.28101E+02 -1.18964E+01 -1.00000E+00  3.65583E-01  1.28251E+00  1.80040E-02  6.72843E-02  4.58097E+00 -3.15252E+00  2.13277E+02 -1.48985E+01  1.00000E+00 -1.46068E-33  0.00000E+00          NaN
  8.00000E-01  8.08542E+03 -4.40545E-03 -3.50129E-03  4.84674E-04  1.74840E-03  4.58097E+00 -3.15252E+00  2.28101E+02 -1.18964E+01 -1.00000E+00  3.84978E-01  1.33921E+00  1.79972E-02  6.72809E-02  4.58097E+00 -3.15252E+00  2.13277E+02 -1.48985E+01  1.00000E+00 -1.46068E-33  0.00000E+00          NaN
  8.00000E-01  8.75921E+03 -4.98609E-03 -4.92968E-03  4.84608E-04  1.74838E-03  4.58097E+00 -3.15252E+00  2.28101E+02 -1.18964E+01 -1.00000E+00  4.04319E-01  1.39588E+00  1.79910E-02  6.72777E-02  4.58097E+00 -3.15252E+00  2.13277E+02 -1.48985E+01  1.00000E+00 -1.46068E-33  0.00000E+00          NaN
  8.00000E-01  9.43299E+03 -5.56631E-03 -6.35781E-03  4.84545E-04  1.74836E-03  4.58097E+00 -3.15252E+00  2.28101E+02 -1.18964E+01 -1.00000E+00  4.23616E-01  1.45253E+00  1.79853E-02  6.72749E-02  4.58097E+00 -3.15252E+00  2.13277E+02 -1.48985E+01  1.00000E+00 -1.46068E-33  0.00000E+00          NaN
  8.00000E-01  1.01068E+04 -6.14599E-03 -7.78568E-03  4.84484E-04  1.74835E-03  4.58097E+00 -3.15252E+00  2.28101E+02 -1.18964E+01 -1.00000E+00  4.42876E-01  1.50916E+00  1.79801E-02  6.72722E-02  4.58097E+00 -3.15252E+00  2.13277E+02 -1.48985E+01  1.00000E+00 -1.46068E-33  0.00000E+00          NaN
  8.00000E-01  1.07806E+04 -6.72506E-03 -9.21326E-03  4.84423E-04  1.74833E-03  4.58097E+00 -3.15252E+00  2.28101E+02 -1.18964E+01 -1.00000E+00  4.62105E-01  1.56578E+00  1.79754E-02  6.72698E-02  4.58097E+00 -3.15252E+00  2.13277E+02 -1.48985E+01  1.00000E+00 -1.46068E-33  0.00000E+00          NaN
  8.00000E-01  1.14543E+04 -7.30341E-03 -1.06405E-02  4.84364E-04  1.74831E-03  4.58097E+00 -3.15252E+00  2.28101E+02 -1.18964E+01 -1.00000E+00  4.81310E-01  1.62239E+00  1.79711E-02  6.72676E-02  4.58097E+00 -3.15252E+00  2.13277E+02 -1.48985E+01  1.00000E+00 -1.46068E-33  0.00000E+00          NaN
  8.00000E-01  1.21281E+04 -7.88097E-03 -1.20675E-02  4.84305E-04  1.74830E-03  4.58097E+00 -3.15252E+00  2.28101E+02 -1.18964E+01 -1.00000E+00  5.00494E-01  1.67899E+00  1.79672E-02  6.72656E-02  4.58097E+00 -3.15252E+00  2.13277E+02 -1.48985E+01  1.00000E+00 -1.46068E-33  0.00000E+00          NaN
  8.00000E-01  1.28019E+04 -8.45768E-03 -1.34941E-02  4.84246E-04  1.74828E-03  4.58097E+00 -3.15252E+00  2.28101E+02 -1.18964E+01 -1.00000E+00  5.19661E-01  1.73557E+00  1.79636E-02  6.72638E-02  4.58097E+00 -3.15252E+00  2.13277E+02 -1.48985E+01  1.00000E+00 -1.46068E-33  0.00000E+00          NaN
  8.00000E-01  1.34757E+04 -9.03348E-03 -1.49204E-02  4.84187E-04  1.74826E-03  4.58097E+00 -3.15252E+00  2.28101E+02 -1.18964E+01 -1.00000E+00  5.38813E-01  1.79216E+00  1.79603E-02  6.72621E-02  4.58097E+00 -3.15252E+00  2.13277E+02 -1.48985E+01  1.00000E+00 -1.46068E-33  0.00000E+00          NaN
  8.00000E-01  1.41495E+04 -9.60832E-03 -1.63463E-02  4.84128E-04  1.74824E-03  4.58097E+00 -3.15252E+00  2.28101E+02 -1.18964E+01 -1.00000E+00  5.57955E-01  1.84873E+00  1.79573E-02  6.72605E-02  4.58097E+00 -3.15252E+00  2.13277E+02 -1.48985E+01  1.00000E+00 -1.46068E-33  0.00000E+00          NaN
  8.00000E-01  1.48233E+04 -1.01822E-02 -1.77719E-02  4.84069E-04  1.74822E-03  4.58097E+00 -3.15252E+00  2.28101E+02 -1.18964E+01 -1.00000E+00  5.77086E-01  1.90530E+00  1.79545E-02  6.72591E-02  4.58097E+00 -3.15252E+00  2.13277E+02 -1.48985E+01  1.00000E+00 -1.46068E-33  0.00000E+00          NaN
  8.00000E-01  1.54971E+04 -1.07550E-02 -1.91971E-02  4.84009E-04  1.74821E-03  4.58097E+00 -3.15252E+00  2.28101E+02 -1.18964E+01 -1.00000E+00  5.96210E-01  1.96187E+00  1.79520E-02  6.72578E-02  4.58097E+00 -3.15252E+00  2.13277E+02 -1.48985E+01  1.00000E+00 -1.46068E-33  0.00000E+00          NaN
  8.00000E-01 -5.39028E+03  7.60053E-03  2.51357E-02  4.84981E-04  1.74846E-03  4.58097E+00 -3.15252E+00  2.28101E+02 -1.18964E+01 -1.00000E+00 -1.20821E-02  2.00926E-01  1.80281E-02  6.72961E-02  4.58097E+00 -3.15252E+00  2.13277E+02 -1.48985E+01  1.00000E+00 -1.46068E-33  0.00000E+00          NaN
  8.00000E-01 -4.71650E+03  7.00071E-03  2.37039E-02  4.85076E-04  1.74848E-03  4.58097E+00 -3.15252E+00  2.28101E+02 -1.18964E+01 -1.00000E+00  7.09380E-03  2.57560E-01  1.80374E-02  6.73005E-02  4.58097E+00 -3.15252E+00  2.13277E+02 -1.48985E+01  1.00000E+00 -1.46068E-33  0.00000E+00          NaN
  8.00000E-01 -5.05339E+03  7.30102E-03  2.44199E-02  4.85027E-04  1.74847E-03  4.58097E+00 -3.15252E+00  2.28101E+02 -1.18964E+01 -1.00000E+00 -2.50002E-03  2.29239E-01  1.80326E-02  6.72983E-02  4.58097E+00 -3.15252E+00  2.13277E+02 -1.48985E+01  1.00000E+00 -1.46068E-33  0.00000E+00          NaN
  8.00000E-01 -4.88494E+03  7.15097E-03  2.40619E-02  4.85051E-04  1.74847E-03  4.58097E+00 -3.15252E+00  2.28101E+02 -1.18964E+01 -1.00000E+00  2.29539E-03  2.43398E-01  1.80350E-02  6.72994E-02  4.58097E+00 -3.15252E+00  2.13277E+02 -1.48985E+01  1.00000E+00 -1.46068E-33  0.00000E+00          NaN
  8.00000E-01 -4.80072E+03  7.07586E-03  2.38829E-02  4.85063E-04  1.74848E-03  4.58097E+00 -3.15252E+00  2.28101E+02 -1.18964E+01 -1.00000E+00  4.69422E-03  2.50479E-01  1.80362E-02  6.73000E-02  4.58097E+00 -3.15252E+00  2.13277E+02 -1.48985E+01  1.00000E+00 -1.46068E-33  0.00000E+00          NaN
