s E_r[V/m] (\Gamma_b/n_b[m/s]  Q_b/n_b/T_b[m/s] L_1^b[m^2/s] L_2^b[m^2/s]  Z_b n_b[10^{19}m^{-3}] dlnn_b/dr[m^{-1}] T_b[eV] dlnT_b/dr[m^{-1}], b=1,NBB), size(e\varphi_1/T_i) 
  6.50000E-01 -2.04495E+04          NaN          NaN          NaN          NaN  5.08802E+00 -1.55094E+00  3.60335E+02 -8.28491E+00 -1.00000E+00          NaN          NaN          NaN          NaN  5.08802E+00 -1.55094E+00  3.76496E+02 -9.97913E+00  1.00000E+00  6.03977-278  0.00000E+00          NaN
  6.50000E-01 -1.96921E+04          NaN          NaN          NaN          NaN  5.08802E+00 -1.55094E+00  3.60335E+02 -8.28491E+00 -1.00000E+00          NaN          NaN          NaN          NaN  5.08802E+00 -1.55094E+00  3.76496E+02 -9.97913E+00  1.00000E+00  6.03977-278  0.00000E+00          NaN
  6.50000E-01 -1.89347E+04          NaN          NaN          NaN          NaN  5.08802E+00 -1.55094E+00  3.60335E+02 -8.28491E+00 -1.00000E+00          NaN          NaN          NaN          NaN  5.08802E+00 -1.55094E+00  3.76496E+02 -9.97913E+00  1.00000E+00  6.03977-278  0.00000E+00          NaN
  6.50000E-01 -1.81773E+04          NaN          NaN          NaN          NaN  5.08802E+00 -1.55094E+00  3.60335E+02 -8.28491E+00 -1.00000E+00          NaN          NaN          NaN          NaN  5.08802E+00 -1.55094E+00  3.76496E+02 -9.97913E+00  1.00000E+00  6.03977-278  0.00000E+00          NaN
  6.50000E-01 -1.74199E+04          NaN          NaN          NaN          NaN  5.08802E+00 -1.55094E+00  3.60335E+02 -8.28491E+00 -1.00000E+00          NaN          NaN          NaN          NaN  5.08802E+00 -1.55094E+00  3.76496E+02 -9.97913E+00  1.00000E+00  6.03977-278  0.00000E+00          NaN
  6.50000E-01 -1.66626E+04          NaN          NaN          NaN          NaN  5.08802E+00 -1.55094E+00  3.60335E+02 -8.28491E+00 -1.00000E+00          NaN          NaN          NaN          NaN  5.08802E+00 -1.55094E+00  3.76496E+02 -9.97913E+00  1.00000E+00  6.03977-278  0.00000E+00          NaN
  6.50000E-01 -1.59052E+04          NaN          NaN          NaN          NaN  5.08802E+00 -1.55094E+00  3.60335E+02 -8.28491E+00 -1.00000E+00          NaN          NaN          NaN          NaN  5.08802E+00 -1.55094E+00  3.76496E+02 -9.97913E+00  1.00000E+00  6.03977-278  0.00000E+00          NaN
  6.50000E-01 -1.51478E+04          NaN          NaN          NaN          NaN  5.08802E+00 -1.55094E+00  3.60335E+02 -8.28491E+00 -1.00000E+00          NaN          NaN          NaN          NaN  5.08802E+00 -1.55094E+00  3.76496E+02 -9.97913E+00  1.00000E+00  6.03977-278  0.00000E+00          NaN
  6.50000E-01 -1.43904E+04          NaN          NaN          NaN          NaN  5.08802E+00 -1.55094E+00  3.60335E+02 -8.28491E+00 -1.00000E+00          NaN          NaN          NaN          NaN  5.08802E+00 -1.55094E+00  3.76496E+02 -9.97913E+00  1.00000E+00  6.03977-278  0.00000E+00          NaN
  6.50000E-01 -1.36330E+04          NaN          NaN          NaN          NaN  5.08802E+00 -1.55094E+00  3.60335E+02 -8.28491E+00 -1.00000E+00          NaN          NaN          NaN          NaN  5.08802E+00 -1.55094E+00  3.76496E+02 -9.97913E+00  1.00000E+00  6.03977-278  0.00000E+00          NaN
  6.50000E-01 -1.28756E+04          NaN          NaN          NaN          NaN  5.08802E+00 -1.55094E+00  3.60335E+02 -8.28491E+00 -1.00000E+00          NaN          NaN          NaN          NaN  5.08802E+00 -1.55094E+00  3.76496E+02 -9.97913E+00  1.00000E+00  6.03977-278  0.00000E+00          NaN
  6.50000E-01 -1.21182E+04          NaN          NaN          NaN          NaN  5.08802E+00 -1.55094E+00  3.60335E+02 -8.28491E+00 -1.00000E+00          NaN          NaN          NaN          NaN  5.08802E+00 -1.55094E+00  3.76496E+02 -9.97913E+00  1.00000E+00  6.03977-278  0.00000E+00          NaN
  6.50000E-01 -1.13608E+04          NaN          NaN          NaN          NaN  5.08802E+00 -1.55094E+00  3.60335E+02 -8.28491E+00 -1.00000E+00          NaN          NaN          NaN          NaN  5.08802E+00 -1.55094E+00  3.76496E+02 -9.97913E+00  1.00000E+00  6.03977-278  0.00000E+00          NaN
  6.50000E-01 -1.06034E+04          NaN          NaN          NaN          NaN  5.08802E+00 -1.55094E+00  3.60335E+02 -8.28491E+00 -1.00000E+00          NaN          NaN          NaN          NaN  5.08802E+00 -1.55094E+00  3.76496E+02 -9.97913E+00  1.00000E+00  6.03977-278  0.00000E+00          NaN
  6.50000E-01 -9.84605E+03          NaN          NaN          NaN          NaN  5.08802E+00 -1.55094E+00  3.60335E+02 -8.28491E+00 -1.00000E+00          NaN          NaN          NaN          NaN  5.08802E+00 -1.55094E+00  3.76496E+02 -9.97913E+00  1.00000E+00  6.03977-278  0.00000E+00          NaN
  6.50000E-01 -9.08867E+03          NaN          NaN          NaN          NaN  5.08802E+00 -1.55094E+00  3.60335E+02 -8.28491E+00 -1.00000E+00          NaN          NaN          NaN          NaN  5.08802E+00 -1.55094E+00  3.76496E+02 -9.97913E+00  1.00000E+00  6.03977-278  0.00000E+00          NaN
  6.50000E-01 -8.33128E+03          NaN          NaN          NaN          NaN  5.08802E+00 -1.55094E+00  3.60335E+02 -8.28491E+00 -1.00000E+00          NaN          NaN          NaN          NaN  5.08802E+00 -1.55094E+00  3.76496E+02 -9.97913E+00  1.00000E+00  6.03977-278  0.00000E+00          NaN
  6.50000E-01 -7.57389E+03          NaN          NaN          NaN          NaN  5.08802E+00 -1.55094E+00  3.60335E+02 -8.28491E+00 -1.00000E+00          NaN          NaN          NaN          NaN  5.08802E+00 -1.55094E+00  3.76496E+02 -9.97913E+00  1.00000E+00  6.03977-278  0.00000E+00          NaN
  6.50000E-01 -6.81650E+03          NaN          NaN          NaN          NaN  5.08802E+00 -1.55094E+00  3.60335E+02 -8.28491E+00 -1.00000E+00          NaN          NaN          NaN          NaN  5.08802E+00 -1.55094E+00  3.76496E+02 -9.97913E+00  1.00000E+00  6.03977-278  0.00000E+00          NaN
  6.50000E-01 -6.05911E+03          NaN          NaN          NaN          NaN  5.08802E+00 -1.55094E+00  3.60335E+02 -8.28491E+00 -1.00000E+00          NaN          NaN          NaN          NaN  5.08802E+00 -1.55094E+00  3.76496E+02 -9.97913E+00  1.00000E+00  6.03977-278  0.00000E+00          NaN
  6.50000E-01 -5.30172E+03          NaN          NaN          NaN          NaN  5.08802E+00 -1.55094E+00  3.60335E+02 -8.28491E+00 -1.00000E+00          NaN          NaN          NaN          NaN  5.08802E+00 -1.55094E+00  3.76496E+02 -9.97913E+00  1.00000E+00  6.03977-278  0.00000E+00          NaN
  6.50000E-01 -4.54433E+03          NaN          NaN          NaN          NaN  5.08802E+00 -1.55094E+00  3.60335E+02 -8.28491E+00 -1.00000E+00          NaN          NaN          NaN          NaN  5.08802E+00 -1.55094E+00  3.76496E+02 -9.97913E+00  1.00000E+00  6.03977-278  0.00000E+00          NaN
  6.50000E-01 -3.78694E+03          NaN          NaN          NaN          NaN  5.08802E+00 -1.55094E+00  3.60335E+02 -8.28491E+00 -1.00000E+00          NaN          NaN          NaN          NaN  5.08802E+00 -1.55094E+00  3.76496E+02 -9.97913E+00  1.00000E+00  6.03977-278  0.00000E+00          NaN
  6.50000E-01 -3.02956E+03          NaN          NaN          NaN          NaN  5.08802E+00 -1.55094E+00  3.60335E+02 -8.28491E+00 -1.00000E+00          NaN          NaN          NaN          NaN  5.08802E+00 -1.55094E+00  3.76496E+02 -9.97913E+00  1.00000E+00  6.03977-278  0.00000E+00          NaN
  6.50000E-01 -2.27217E+03          NaN          NaN          NaN          NaN  5.08802E+00 -1.55094E+00  3.60335E+02 -8.28491E+00 -1.00000E+00          NaN          NaN          NaN          NaN  5.08802E+00 -1.55094E+00  3.76496E+02 -9.97913E+00  1.00000E+00  6.03977-278  0.00000E+00          NaN
  6.50000E-01 -1.51478E+03          NaN          NaN          NaN          NaN  5.08802E+00 -1.55094E+00  3.60335E+02 -8.28491E+00 -1.00000E+00          NaN          NaN          NaN          NaN  5.08802E+00 -1.55094E+00  3.76496E+02 -9.97913E+00  1.00000E+00  6.03977-278  0.00000E+00          NaN
  6.50000E-01 -7.57389E+02          NaN          NaN          NaN          NaN  5.08802E+00 -1.55094E+00  3.60335E+02 -8.28491E+00 -1.00000E+00          NaN          NaN          NaN          NaN  5.08802E+00 -1.55094E+00  3.76496E+02 -9.97913E+00  1.00000E+00  6.03977-278  0.00000E+00          NaN
  6.50000E-01  1.07235E-12          NaN          NaN          NaN          NaN  5.08802E+00 -1.55094E+00  3.60335E+02 -8.28491E+00 -1.00000E+00          NaN          NaN          NaN          NaN  5.08802E+00 -1.55094E+00  3.76496E+02 -9.97913E+00  1.00000E+00  6.03977-278  0.00000E+00          NaN
  6.50000E-01  7.57389E+02          NaN          NaN          NaN          NaN  5.08802E+00 -1.55094E+00  3.60335E+02 -8.28491E+00 -1.00000E+00          NaN          NaN          NaN          NaN  5.08802E+00 -1.55094E+00  3.76496E+02 -9.97913E+00  1.00000E+00  6.03977-278  0.00000E+00          NaN
  6.50000E-01  1.51478E+03          NaN          NaN          NaN          NaN  5.08802E+00 -1.55094E+00  3.60335E+02 -8.28491E+00 -1.00000E+00          NaN          NaN          NaN          NaN  5.08802E+00 -1.55094E+00  3.76496E+02 -9.97913E+00  1.00000E+00  6.03977-278  0.00000E+00          NaN
  6.50000E-01  2.27217E+03          NaN          NaN          NaN          NaN  5.08802E+00 -1.55094E+00  3.60335E+02 -8.28491E+00 -1.00000E+00          NaN          NaN          NaN          NaN  5.08802E+00 -1.55094E+00  3.76496E+02 -9.97913E+00  1.00000E+00  6.03977-278  0.00000E+00          NaN
  6.50000E-01  3.02956E+03          NaN          NaN          NaN          NaN  5.08802E+00 -1.55094E+00  3.60335E+02 -8.28491E+00 -1.00000E+00          NaN          NaN          NaN          NaN  5.08802E+00 -1.55094E+00  3.76496E+02 -9.97913E+00  1.00000E+00  6.03977-278  0.00000E+00          NaN
  6.50000E-01  3.78694E+03          NaN          NaN          NaN          NaN  5.08802E+00 -1.55094E+00  3.60335E+02 -8.28491E+00 -1.00000E+00          NaN          NaN          NaN          NaN  5.08802E+00 -1.55094E+00  3.76496E+02 -9.97913E+00  1.00000E+00  6.03977-278  0.00000E+00          NaN
  6.50000E-01  4.54433E+03          NaN          NaN          NaN          NaN  5.08802E+00 -1.55094E+00  3.60335E+02 -8.28491E+00 -1.00000E+00          NaN          NaN          NaN          NaN  5.08802E+00 -1.55094E+00  3.76496E+02 -9.97913E+00  1.00000E+00  6.03977-278  0.00000E+00          NaN
  6.50000E-01  5.30172E+03          NaN          NaN          NaN          NaN  5.08802E+00 -1.55094E+00  3.60335E+02 -8.28491E+00 -1.00000E+00          NaN          NaN          NaN          NaN  5.08802E+00 -1.55094E+00  3.76496E+02 -9.97913E+00  1.00000E+00  6.03977-278  0.00000E+00          NaN
  6.50000E-01  6.05911E+03          NaN          NaN          NaN          NaN  5.08802E+00 -1.55094E+00  3.60335E+02 -8.28491E+00 -1.00000E+00          NaN          NaN          NaN          NaN  5.08802E+00 -1.55094E+00  3.76496E+02 -9.97913E+00  1.00000E+00  6.03977-278  0.00000E+00          NaN
  6.50000E-01  6.81650E+03          NaN          NaN          NaN          NaN  5.08802E+00 -1.55094E+00  3.60335E+02 -8.28491E+00 -1.00000E+00          NaN          NaN          NaN          NaN  5.08802E+00 -1.55094E+00  3.76496E+02 -9.97913E+00  1.00000E+00  6.03977-278  0.00000E+00          NaN
  6.50000E-01  7.57389E+03          NaN          NaN          NaN          NaN  5.08802E+00 -1.55094E+00  3.60335E+02 -8.28491E+00 -1.00000E+00          NaN          NaN          NaN          NaN  5.08802E+00 -1.55094E+00  3.76496E+02 -9.97913E+00  1.00000E+00  6.03977-278  0.00000E+00          NaN
  6.50000E-01  8.33128E+03          NaN          NaN          NaN          NaN  5.08802E+00 -1.55094E+00  3.60335E+02 -8.28491E+00 -1.00000E+00          NaN          NaN          NaN          NaN  5.08802E+00 -1.55094E+00  3.76496E+02 -9.97913E+00  1.00000E+00  6.03977-278  0.00000E+00          NaN
  6.50000E-01  9.08867E+03          NaN          NaN          NaN          NaN  5.08802E+00 -1.55094E+00  3.60335E+02 -8.28491E+00 -1.00000E+00          NaN          NaN          NaN          NaN  5.08802E+00 -1.55094E+00  3.76496E+02 -9.97913E+00  1.00000E+00  6.03977-278  0.00000E+00          NaN
  6.50000E-01  9.84605E+03          NaN          NaN          NaN          NaN  5.08802E+00 -1.55094E+00  3.60335E+02 -8.28491E+00 -1.00000E+00          NaN          NaN          NaN          NaN  5.08802E+00 -1.55094E+00  3.76496E+02 -9.97913E+00  1.00000E+00  6.03977-278  0.00000E+00          NaN
  6.50000E-01  1.06034E+04          NaN          NaN          NaN          NaN  5.08802E+00 -1.55094E+00  3.60335E+02 -8.28491E+00 -1.00000E+00          NaN          NaN          NaN          NaN  5.08802E+00 -1.55094E+00  3.76496E+02 -9.97913E+00  1.00000E+00  6.03977-278  0.00000E+00          NaN
  6.50000E-01  1.13608E+04          NaN          NaN          NaN          NaN  5.08802E+00 -1.55094E+00  3.60335E+02 -8.28491E+00 -1.00000E+00          NaN          NaN          NaN          NaN  5.08802E+00 -1.55094E+00  3.76496E+02 -9.97913E+00  1.00000E+00  6.03977-278  0.00000E+00          NaN
  6.50000E-01  1.21182E+04          NaN          NaN          NaN          NaN  5.08802E+00 -1.55094E+00  3.60335E+02 -8.28491E+00 -1.00000E+00          NaN          NaN          NaN          NaN  5.08802E+00 -1.55094E+00  3.76496E+02 -9.97913E+00  1.00000E+00  6.03977-278  0.00000E+00          NaN
  6.50000E-01  1.28756E+04          NaN          NaN          NaN          NaN  5.08802E+00 -1.55094E+00  3.60335E+02 -8.28491E+00 -1.00000E+00          NaN          NaN          NaN          NaN  5.08802E+00 -1.55094E+00  3.76496E+02 -9.97913E+00  1.00000E+00  6.03977-278  0.00000E+00          NaN
  6.50000E-01  1.36330E+04          NaN          NaN          NaN          NaN  5.08802E+00 -1.55094E+00  3.60335E+02 -8.28491E+00 -1.00000E+00          NaN          NaN          NaN          NaN  5.08802E+00 -1.55094E+00  3.76496E+02 -9.97913E+00  1.00000E+00  6.03977-278  0.00000E+00          NaN
  6.50000E-01  1.43904E+04          NaN          NaN          NaN          NaN  5.08802E+00 -1.55094E+00  3.60335E+02 -8.28491E+00 -1.00000E+00          NaN          NaN          NaN          NaN  5.08802E+00 -1.55094E+00  3.76496E+02 -9.97913E+00  1.00000E+00  6.03977-278  0.00000E+00          NaN
  6.50000E-01  1.51478E+04          NaN          NaN          NaN          NaN  5.08802E+00 -1.55094E+00  3.60335E+02 -8.28491E+00 -1.00000E+00          NaN          NaN          NaN          NaN  5.08802E+00 -1.55094E+00  3.76496E+02 -9.97913E+00  1.00000E+00  6.03977-278  0.00000E+00          NaN
  6.50000E-01  1.59052E+04          NaN          NaN          NaN          NaN  5.08802E+00 -1.55094E+00  3.60335E+02 -8.28491E+00 -1.00000E+00          NaN          NaN          NaN          NaN  5.08802E+00 -1.55094E+00  3.76496E+02 -9.97913E+00  1.00000E+00  6.03977-278  0.00000E+00          NaN
  6.50000E-01  1.66626E+04          NaN          NaN          NaN          NaN  5.08802E+00 -1.55094E+00  3.60335E+02 -8.28491E+00 -1.00000E+00          NaN          NaN          NaN          NaN  5.08802E+00 -1.55094E+00  3.76496E+02 -9.97913E+00  1.00000E+00  6.03977-278  0.00000E+00          NaN
