s E_r[V/m] (\Gamma_b/n_b[m/s]  Q_b/n_b/T_b[m/s] L_1^b[m^2/s] L_2^b[m^2/s]  Z_b n_b[10^{19}m^{-3}] dlnn_b/dr[m^{-1}] T_b[eV] dlnT_b/dr[m^{-1}], b=1,NBB), size(e\varphi_1/T_i) 
  8.50000E-01 -1.62711E+04  1.69275E-02  4.49256E-02  3.83623E-04  1.35213E-03  4.35452E+00 -3.88197E+00  1.89761E+02 -1.35736E+01 -1.00000E+00 -2.94412E-01 -6.90663E-01  1.28044E-02  4.81091E-02  4.35452E+00 -3.88197E+00  1.69492E+02 -1.69135E+01  1.00000E+00 -1.40558E+38  0.00000E+00          NaN
  8.50000E-01 -1.56453E+04  1.63892E-02  4.36665E-02  3.83707E-04  1.35216E-03  4.35452E+00 -3.88197E+00  1.89761E+02 -1.35736E+01 -1.00000E+00 -2.79235E-01 -6.44017E-01  1.28107E-02  4.81140E-02  4.35452E+00 -3.88197E+00  1.69492E+02 -1.69135E+01  1.00000E+00 -1.40558E+38  0.00000E+00          NaN
  8.50000E-01 -1.50195E+04  1.58493E-02  4.24068E-02  3.83792E-04  1.35219E-03  4.35452E+00 -3.88197E+00  1.89761E+02 -1.35736E+01 -1.00000E+00 -2.64043E-01 -5.97357E-01  1.28173E-02  4.81191E-02  4.35452E+00 -3.88197E+00  1.69492E+02 -1.69135E+01  1.00000E+00 -1.40558E+38  0.00000E+00          NaN
  8.50000E-01 -1.43937E+04  1.53076E-02  4.11465E-02  3.83877E-04  1.35222E-03  4.35452E+00 -3.88197E+00  1.89761E+02 -1.35736E+01 -1.00000E+00 -2.48833E-01 -5.50683E-01  1.28242E-02  4.81246E-02  4.35452E+00 -3.88197E+00  1.69492E+02 -1.69135E+01  1.00000E+00 -1.40558E+38  0.00000E+00          NaN
  8.50000E-01 -1.37679E+04  1.47642E-02  3.98857E-02  3.83961E-04  1.35225E-03  4.35452E+00 -3.88197E+00  1.89761E+02 -1.35736E+01 -1.00000E+00 -2.33604E-01 -5.03991E-01  1.28316E-02  4.81303E-02  4.35452E+00 -3.88197E+00  1.69492E+02 -1.69135E+01  1.00000E+00 -1.40558E+38  0.00000E+00          NaN
  8.50000E-01 -1.31421E+04  1.42191E-02  3.86243E-02  3.84046E-04  1.35228E-03  4.35452E+00 -3.88197E+00  1.89761E+02 -1.35736E+01 -1.00000E+00 -2.18353E-01 -4.57279E-01  1.28393E-02  4.81363E-02  4.35452E+00 -3.88197E+00  1.69492E+02 -1.69135E+01  1.00000E+00 -1.40558E+38  0.00000E+00          NaN
  8.50000E-01 -1.25162E+04  1.36721E-02  3.73623E-02  3.84130E-04  1.35231E-03  4.35452E+00 -3.88197E+00  1.89761E+02 -1.35736E+01 -1.00000E+00 -2.03076E-01 -4.10545E-01  1.28475E-02  4.81425E-02  4.35452E+00 -3.88197E+00  1.69492E+02 -1.69135E+01  1.00000E+00 -1.40558E+38  0.00000E+00          NaN
  8.50000E-01 -1.18904E+04  1.31234E-02  3.60997E-02  3.84213E-04  1.35234E-03  4.35452E+00 -3.88197E+00  1.89761E+02 -1.35736E+01 -1.00000E+00 -1.87773E-01 -3.63786E-01  1.28561E-02  4.81491E-02  4.35452E+00 -3.88197E+00  1.69492E+02 -1.69135E+01  1.00000E+00 -1.40558E+38  0.00000E+00          NaN
  8.50000E-01 -1.12646E+04  1.25728E-02  3.48366E-02  3.84297E-04  1.35237E-03  4.35452E+00 -3.88197E+00  1.89761E+02 -1.35736E+01 -1.00000E+00 -1.72439E-01 -3.16999E-01  1.28652E-02  4.81560E-02  4.35452E+00 -3.88197E+00  1.69492E+02 -1.69135E+01  1.00000E+00 -1.40558E+38  0.00000E+00          NaN
  8.50000E-01 -1.06388E+04  1.20205E-02  3.35729E-02  3.84379E-04  1.35240E-03  4.35452E+00 -3.88197E+00  1.89761E+02 -1.35736E+01 -1.00000E+00 -1.57072E-01 -2.70182E-01  1.28748E-02  4.81632E-02  4.35452E+00 -3.88197E+00  1.69492E+02 -1.69135E+01  1.00000E+00 -1.40558E+38  0.00000E+00          NaN
  8.50000E-01 -1.00130E+04  1.14663E-02  3.23086E-02  3.84462E-04  1.35243E-03  4.35452E+00 -3.88197E+00  1.89761E+02 -1.35736E+01 -1.00000E+00 -1.41668E-01 -2.23330E-01  1.28849E-02  4.81707E-02  4.35452E+00 -3.88197E+00  1.69492E+02 -1.69135E+01  1.00000E+00 -1.40558E+38  0.00000E+00          NaN
  8.50000E-01 -9.38719E+03  1.09104E-02  3.10438E-02  3.84544E-04  1.35245E-03  4.35452E+00 -3.88197E+00  1.89761E+02 -1.35736E+01 -1.00000E+00 -1.26223E-01 -1.76440E-01  1.28955E-02  4.81786E-02  4.35452E+00 -3.88197E+00  1.69492E+02 -1.69135E+01  1.00000E+00 -1.40558E+38  0.00000E+00          NaN
  8.50000E-01 -8.76137E+03  1.03526E-02  2.97784E-02  3.84626E-04  1.35248E-03  4.35452E+00 -3.88197E+00  1.89761E+02 -1.35736E+01 -1.00000E+00 -1.10734E-01 -1.29508E-01  1.29067E-02  4.81868E-02  4.35452E+00 -3.88197E+00  1.69492E+02 -1.69135E+01  1.00000E+00 -1.40558E+38  0.00000E+00          NaN
  8.50000E-01 -8.13556E+03  9.79309E-03  2.85125E-02  3.84709E-04  1.35251E-03  4.35452E+00 -3.88197E+00  1.89761E+02 -1.35736E+01 -1.00000E+00 -9.51972E-02 -8.25315E-02  1.29185E-02  4.81953E-02  4.35452E+00 -3.88197E+00  1.69492E+02 -1.69135E+01  1.00000E+00 -1.40558E+38  0.00000E+00          NaN
  8.50000E-01 -7.50975E+03  9.23172E-03  2.72460E-02  3.84792E-04  1.35253E-03  4.35452E+00 -3.88197E+00  1.89761E+02 -1.35736E+01 -1.00000E+00 -7.96077E-02 -3.55054E-02  1.29310E-02  4.82041E-02  4.35452E+00 -3.88197E+00  1.69492E+02 -1.69135E+01  1.00000E+00 -1.40558E+38  0.00000E+00          NaN
  8.50000E-01 -6.88394E+03  8.66847E-03  2.59790E-02  3.84876E-04  1.35256E-03  4.35452E+00 -3.88197E+00  1.89761E+02 -1.35736E+01 -1.00000E+00 -6.39608E-02  1.15744E-02  1.29442E-02  4.82133E-02  4.35452E+00 -3.88197E+00  1.69492E+02 -1.69135E+01  1.00000E+00 -1.40558E+38  0.00000E+00          NaN
  8.50000E-01 -6.25812E+03  8.10325E-03  2.47115E-02  3.84963E-04  1.35258E-03  4.35452E+00 -3.88197E+00  1.89761E+02 -1.35736E+01 -1.00000E+00 -4.82503E-02  5.87127E-02  1.29582E-02  4.82228E-02  4.35452E+00 -3.88197E+00  1.69492E+02 -1.69135E+01  1.00000E+00 -1.40558E+38  0.00000E+00          NaN
  8.50000E-01 -5.63231E+03  7.53586E-03  2.34435E-02  3.85055E-04  1.35261E-03  4.35452E+00 -3.88197E+00  1.89761E+02 -1.35736E+01 -1.00000E+00 -3.24690E-02  1.05915E-01  1.29730E-02  4.82326E-02  4.35452E+00 -3.88197E+00  1.69492E+02 -1.69135E+01  1.00000E+00 -1.40558E+38  0.00000E+00          NaN
  8.50000E-01 -5.00650E+03  6.96600E-03  2.21749E-02  3.85152E-04  1.35263E-03  4.35452E+00 -3.88197E+00  1.89761E+02 -1.35736E+01 -1.00000E+00 -1.66078E-02  1.53187E-01  1.29887E-02  4.82427E-02  4.35452E+00 -3.88197E+00  1.69492E+02 -1.69135E+01  1.00000E+00 -1.40558E+38  0.00000E+00          NaN
  8.50000E-01 -4.38069E+03  6.39315E-03  2.09057E-02  3.85259E-04  1.35265E-03  4.35452E+00 -3.88197E+00  1.89761E+02 -1.35736E+01 -1.00000E+00 -6.55632E-04  2.00537E-01  1.30052E-02  4.82530E-02  4.35452E+00 -3.88197E+00  1.69492E+02 -1.69135E+01  1.00000E+00 -1.40558E+38  0.00000E+00          NaN
  8.50000E-01 -3.75487E+03  5.81649E-03  1.96359E-02  3.85378E-04  1.35268E-03  4.35452E+00 -3.88197E+00  1.89761E+02 -1.35736E+01 -1.00000E+00  1.53996E-02  2.47974E-01  1.30226E-02  4.82635E-02  4.35452E+00 -3.88197E+00  1.69492E+02 -1.69135E+01  1.00000E+00 -1.40558E+38  0.00000E+00          NaN
  8.50000E-01 -3.12906E+03  5.23476E-03  1.83654E-02  3.85513E-04  1.35271E-03  4.35452E+00 -3.88197E+00  1.89761E+02 -1.35736E+01 -1.00000E+00  3.15677E-02  2.95505E-01  1.30409E-02  4.82740E-02  4.35452E+00 -3.88197E+00  1.69492E+02 -1.69135E+01  1.00000E+00 -1.40558E+38  0.00000E+00          NaN
  8.50000E-01 -2.50325E+03  4.64627E-03  1.70938E-02  3.85667E-04  1.35273E-03  4.35452E+00 -3.88197E+00  1.89761E+02 -1.35736E+01 -1.00000E+00  4.78491E-02  3.43136E-01  1.30601E-02  4.82844E-02  4.35452E+00 -3.88197E+00  1.69492E+02 -1.69135E+01  1.00000E+00 -1.40558E+38  0.00000E+00          NaN
  8.50000E-01 -1.87744E+03  4.04912E-03  1.58212E-02  3.85837E-04  1.35276E-03  4.35452E+00 -3.88197E+00  1.89761E+02 -1.35736E+01 -1.00000E+00  6.42261E-02  3.90866E-01  1.30804E-02  4.82946E-02  4.35452E+00 -3.88197E+00  1.69492E+02 -1.69135E+01  1.00000E+00 -1.40558E+38  0.00000E+00          NaN
  8.50000E-01 -1.25162E+03  3.44214E-03  1.45474E-02  3.86009E-04  1.35279E-03  4.35452E+00 -3.88197E+00  1.89761E+02 -1.35736E+01 -1.00000E+00  8.06750E-02  4.38689E-01  1.31025E-02  4.83044E-02  4.35452E+00 -3.88197E+00  1.69492E+02 -1.69135E+01  1.00000E+00 -1.40558E+38  0.00000E+00          NaN
  8.50000E-01 -6.25812E+02  2.82647E-03  1.32728E-02  3.86152E-04  1.35281E-03  4.35452E+00 -3.88197E+00  1.89761E+02 -1.35736E+01 -1.00000E+00  9.72481E-02  4.86637E-01  1.31256E-02  4.83133E-02  4.35452E+00 -3.88197E+00  1.69492E+02 -1.69135E+01  1.00000E+00 -1.40558E+38  0.00000E+00          NaN
  8.50000E-01  9.81021E-13  2.14716E-03  1.19969E-02  3.86315E-04  1.35283E-03  4.35452E+00 -3.88197E+00  1.89761E+02 -1.35736E+01 -1.00000E+00  1.12823E-01  5.34711E-01  1.31486E-02  4.83195E-02  4.35452E+00 -3.88197E+00  1.69492E+02 -1.69135E+01  1.00000E+00 -1.40558E+38  0.00000E+00          NaN
  8.50000E-01  6.25812E+02  1.61796E-03  1.07259E-02  3.86152E-04  1.35281E-03  4.35452E+00 -3.88197E+00  1.89761E+02 -1.35736E+01 -1.00000E+00  1.33834E-01  5.83564E-01  1.31256E-02  4.83133E-02  4.35452E+00 -3.88197E+00  1.69492E+02 -1.69135E+01  1.00000E+00 -1.40558E+38  0.00000E+00          NaN
  8.50000E-01  1.25162E+03  1.04294E-03  9.45537E-03  3.86009E-04  1.35279E-03  4.35452E+00 -3.88197E+00  1.89761E+02 -1.35736E+01 -1.00000E+00  1.52767E-01  6.32203E-01  1.31025E-02  4.83044E-02  4.35452E+00 -3.88197E+00  1.69492E+02 -1.69135E+01  1.00000E+00 -1.40558E+38  0.00000E+00          NaN
  8.50000E-01  1.87744E+03  4.78901E-04  8.18652E-03  3.85837E-04  1.35276E-03  4.35452E+00 -3.88197E+00  1.89761E+02 -1.35736E+01 -1.00000E+00  1.71038E-01  6.80646E-01  1.30804E-02  4.82946E-02  4.35452E+00 -3.88197E+00  1.69492E+02 -1.69135E+01  1.00000E+00 -1.40558E+38  0.00000E+00          NaN
  8.50000E-01  2.50325E+03 -7.84820E-05  6.91874E-03  3.85667E-04  1.35273E-03  4.35452E+00 -3.88197E+00  1.89761E+02 -1.35736E+01 -1.00000E+00  1.88824E-01  7.28908E-01  1.30601E-02  4.82844E-02  4.35452E+00 -3.88197E+00  1.69492E+02 -1.69135E+01  1.00000E+00 -1.40558E+38  0.00000E+00          NaN
  8.50000E-01  3.12906E+03 -6.32873E-04  5.65156E-03  3.85513E-04  1.35271E-03  4.35452E+00 -3.88197E+00  1.89761E+02 -1.35736E+01 -1.00000E+00  2.06247E-01  7.77011E-01  1.30409E-02  4.82740E-02  4.35452E+00 -3.88197E+00  1.69492E+02 -1.69135E+01  1.00000E+00 -1.40558E+38  0.00000E+00          NaN
  8.50000E-01  3.75487E+03 -1.18638E-03  4.38473E-03  3.85378E-04  1.35268E-03  4.35452E+00 -3.88197E+00  1.89761E+02 -1.35736E+01 -1.00000E+00  2.23381E-01  8.24972E-01  1.30226E-02  4.82635E-02  4.35452E+00 -3.88197E+00  1.69492E+02 -1.69135E+01  1.00000E+00 -1.40558E+38  0.00000E+00          NaN
  8.50000E-01  4.38069E+03 -1.73987E-03  3.11816E-03  3.85259E-04  1.35265E-03  4.35452E+00 -3.88197E+00  1.89761E+02 -1.35736E+01 -1.00000E+00  2.40274E-01  8.72802E-01  1.30052E-02  4.82530E-02  4.35452E+00 -3.88197E+00  1.69492E+02 -1.69135E+01  1.00000E+00 -1.40558E+38  0.00000E+00          NaN
  8.50000E-01  5.00650E+03 -2.29353E-03  1.85185E-03  3.85152E-04  1.35263E-03  4.35452E+00 -3.88197E+00  1.89761E+02 -1.35736E+01 -1.00000E+00  2.56961E-01  9.20513E-01  1.29887E-02  4.82427E-02  4.35452E+00 -3.88197E+00  1.69492E+02 -1.69135E+01  1.00000E+00 -1.40558E+38  0.00000E+00          NaN
  8.50000E-01  5.63231E+03 -2.84721E-03  5.85827E-04  3.85055E-04  1.35261E-03  4.35452E+00 -3.88197E+00  1.89761E+02 -1.35736E+01 -1.00000E+00  2.73473E-01  9.68116E-01  1.29730E-02  4.82326E-02  4.35452E+00 -3.88197E+00  1.69492E+02 -1.69135E+01  1.00000E+00 -1.40558E+38  0.00000E+00          NaN
  8.50000E-01  6.25812E+03 -3.40067E-03 -6.79860E-04  3.84963E-04  1.35258E-03  4.35452E+00 -3.88197E+00  1.89761E+02 -1.35736E+01 -1.00000E+00  2.89832E-01  1.01562E+00  1.29582E-02  4.82228E-02  4.35452E+00 -3.88197E+00  1.69492E+02 -1.69135E+01  1.00000E+00 -1.40558E+38  0.00000E+00          NaN
  8.50000E-01  6.88394E+03 -3.95363E-03 -1.94516E-03  3.84876E-04  1.35256E-03  4.35452E+00 -3.88197E+00  1.89761E+02 -1.35736E+01 -1.00000E+00  3.06060E-01  1.06304E+00  1.29442E-02  4.82133E-02  4.35452E+00 -3.88197E+00  1.69492E+02 -1.69135E+01  1.00000E+00 -1.40558E+38  0.00000E+00          NaN
  8.50000E-01  7.50975E+03 -4.50586E-03 -3.21004E-03  3.84792E-04  1.35253E-03  4.35452E+00 -3.88197E+00  1.89761E+02 -1.35736E+01 -1.00000E+00  3.22171E-01  1.11038E+00  1.29310E-02  4.82041E-02  4.35452E+00 -3.88197E+00  1.69492E+02 -1.69135E+01  1.00000E+00 -1.40558E+38  0.00000E+00          NaN
  8.50000E-01  8.13556E+03 -5.05712E-03 -4.47446E-03  3.84709E-04  1.35251E-03  4.35452E+00 -3.88197E+00  1.89761E+02 -1.35736E+01 -1.00000E+00  3.38181E-01  1.15764E+00  1.29185E-02  4.81953E-02  4.35452E+00 -3.88197E+00  1.69492E+02 -1.69135E+01  1.00000E+00 -1.40558E+38  0.00000E+00          NaN
  8.50000E-01  8.76137E+03 -5.60725E-03 -5.73838E-03  3.84626E-04  1.35248E-03  4.35452E+00 -3.88197E+00  1.89761E+02 -1.35736E+01 -1.00000E+00  3.54099E-01  1.20484E+00  1.29067E-02  4.81868E-02  4.35452E+00 -3.88197E+00  1.69492E+02 -1.69135E+01  1.00000E+00 -1.40558E+38  0.00000E+00          NaN
  8.50000E-01  9.38719E+03 -6.15609E-03 -7.00178E-03  3.84544E-04  1.35245E-03  4.35452E+00 -3.88197E+00  1.89761E+02 -1.35736E+01 -1.00000E+00  3.69937E-01  1.25198E+00  1.28955E-02  4.81786E-02  4.35452E+00 -3.88197E+00  1.69492E+02 -1.69135E+01  1.00000E+00 -1.40558E+38  0.00000E+00          NaN
  8.50000E-01  1.00130E+04 -6.70353E-03 -8.26464E-03  3.84462E-04  1.35243E-03  4.35452E+00 -3.88197E+00  1.89761E+02 -1.35736E+01 -1.00000E+00  3.85701E-01  1.29906E+00  1.28849E-02  4.81707E-02  4.35452E+00 -3.88197E+00  1.69492E+02 -1.69135E+01  1.00000E+00 -1.40558E+38  0.00000E+00          NaN
  8.50000E-01  1.06388E+04 -7.24947E-03 -9.52695E-03  3.84379E-04  1.35240E-03  4.35452E+00 -3.88197E+00  1.89761E+02 -1.35736E+01 -1.00000E+00  4.01400E-01  1.34609E+00  1.28748E-02  4.81632E-02  4.35452E+00 -3.88197E+00  1.69492E+02 -1.69135E+01  1.00000E+00 -1.40558E+38  0.00000E+00          NaN
  8.50000E-01  1.12646E+04 -7.79385E-03 -1.07887E-02  3.84297E-04  1.35237E-03  4.35452E+00 -3.88197E+00  1.89761E+02 -1.35736E+01 -1.00000E+00  4.17040E-01  1.39307E+00  1.28652E-02  4.81560E-02  4.35452E+00 -3.88197E+00  1.69492E+02 -1.69135E+01  1.00000E+00 -1.40558E+38  0.00000E+00          NaN
  8.50000E-01  1.18904E+04 -8.33661E-03 -1.20499E-02  3.84213E-04  1.35234E-03  4.35452E+00 -3.88197E+00  1.89761E+02 -1.35736E+01 -1.00000E+00  4.32627E-01  1.44002E+00  1.28561E-02  4.81491E-02  4.35452E+00 -3.88197E+00  1.69492E+02 -1.69135E+01  1.00000E+00 -1.40558E+38  0.00000E+00          NaN
  8.50000E-01  1.25162E+04 -8.87774E-03 -1.33104E-02  3.84130E-04  1.35231E-03  4.35452E+00 -3.88197E+00  1.89761E+02 -1.35736E+01 -1.00000E+00  4.48166E-01  1.48692E+00  1.28475E-02  4.81425E-02  4.35452E+00 -3.88197E+00  1.69492E+02 -1.69135E+01  1.00000E+00 -1.40558E+38  0.00000E+00          NaN
  8.50000E-01  1.31421E+04 -9.41720E-03 -1.45705E-02  3.84046E-04  1.35228E-03  4.35452E+00 -3.88197E+00  1.89761E+02 -1.35736E+01 -1.00000E+00  4.63661E-01  1.53380E+00  1.28393E-02  4.81363E-02  4.35452E+00 -3.88197E+00  1.69492E+02 -1.69135E+01  1.00000E+00 -1.40558E+38  0.00000E+00          NaN
  8.50000E-01  1.37679E+04 -9.95499E-03 -1.58299E-02  3.83961E-04  1.35225E-03  4.35452E+00 -3.88197E+00  1.89761E+02 -1.35736E+01 -1.00000E+00  4.79118E-01  1.58064E+00  1.28316E-02  4.81303E-02  4.35452E+00 -3.88197E+00  1.69492E+02 -1.69135E+01  1.00000E+00 -1.40558E+38  0.00000E+00          NaN
  8.50000E-01  1.43937E+04 -1.04911E-02 -1.70887E-02  3.83877E-04  1.35222E-03  4.35452E+00 -3.88197E+00  1.89761E+02 -1.35736E+01 -1.00000E+00  4.94541E-01  1.62745E+00  1.28242E-02  4.81246E-02  4.35452E+00 -3.88197E+00  1.69492E+02 -1.69135E+01  1.00000E+00 -1.40558E+38  0.00000E+00          NaN
  8.50000E-01 -4.38069E+03  6.39315E-03  2.09057E-02  3.85259E-04  1.35265E-03  4.35452E+00 -3.88197E+00  1.89761E+02 -1.35736E+01 -1.00000E+00 -6.55632E-04  2.00537E-01  1.30052E-02  4.82530E-02  4.35452E+00 -3.88197E+00  1.69492E+02 -1.69135E+01  1.00000E+00 -1.40558E+38  0.00000E+00          NaN
  8.50000E-01 -3.75487E+03  5.81649E-03  1.96359E-02  3.85378E-04  1.35268E-03  4.35452E+00 -3.88197E+00  1.89761E+02 -1.35736E+01 -1.00000E+00  1.53996E-02  2.47974E-01  1.30226E-02  4.82635E-02  4.35452E+00 -3.88197E+00  1.69492E+02 -1.69135E+01  1.00000E+00 -1.40558E+38  0.00000E+00          NaN
  8.50000E-01 -4.06778E+03  6.10536E-03  2.02709E-02  3.85316E-04  1.35267E-03  4.35452E+00 -3.88197E+00  1.89761E+02 -1.35736E+01 -1.00000E+00  7.35836E-03  2.24244E-01  1.30138E-02  4.82582E-02  4.35452E+00 -3.88197E+00  1.69492E+02 -1.69135E+01  1.00000E+00 -1.40558E+38  0.00000E+00          NaN
  8.50000E-01 -4.22423E+03  6.24939E-03  2.05884E-02  3.85287E-04  1.35266E-03  4.35452E+00 -3.88197E+00  1.89761E+02 -1.35736E+01 -1.00000E+00  3.34805E-03  2.12388E-01  1.30095E-02  4.82556E-02  4.35452E+00 -3.88197E+00  1.69492E+02 -1.69135E+01  1.00000E+00 -1.40558E+38  0.00000E+00          NaN
  8.50000E-01 -4.14601E+03  6.17741E-03  2.04296E-02  3.85301E-04  1.35266E-03  4.35452E+00 -3.88197E+00  1.89761E+02 -1.35736E+01 -1.00000E+00  5.35236E-03  2.18316E-01  1.30116E-02  4.82569E-02  4.35452E+00 -3.88197E+00  1.69492E+02 -1.69135E+01  1.00000E+00 -1.40558E+38  0.00000E+00          NaN
