s \zeta_{Boozer}  \theta_{Boozer}(right-handed)  B[T]  (v_B.\nabla\psi)[A.U.]
  5.50000E-01  0.00000E+00  0.00000E+00  2.32755E+00  0.00000E+00 F
  5.50000E-01  0.00000E+00  1.96350E-01  2.33274E+00 -2.38747E-02 F
  5.50000E-01  0.00000E+00  3.92699E-01  2.35004E+00 -5.05053E-02 F
  5.50000E-01  0.00000E+00  5.89049E-01  2.37800E+00 -6.87631E-02 F
  5.50000E-01  0.00000E+00  7.85398E-01  2.41371E+00 -8.21944E-02 F
  5.50000E-01  0.00000E+00  9.81748E-01  2.45455E+00 -8.69157E-02 F
  5.50000E-01  0.00000E+00  1.17810E+00  2.49602E+00 -8.24745E-02 F
  5.50000E-01  0.00000E+00  1.37445E+00  2.53448E+00 -7.31086E-02 F
  5.50000E-01  0.00000E+00  1.57080E+00  2.56937E+00 -6.71869E-02 F
  5.50000E-01  0.00000E+00  1.76715E+00  2.60278E+00 -6.43659E-02 F
  5.50000E-01  0.00000E+00  1.96350E+00  2.63501E+00 -6.09846E-02 F
  5.50000E-01  0.00000E+00  2.15985E+00  2.66578E+00 -5.69620E-02 F
  5.50000E-01  0.00000E+00  2.35619E+00  2.69419E+00 -5.07211E-02 F
  5.50000E-01  0.00000E+00  2.55254E+00  2.71914E+00 -4.28250E-02 F
  5.50000E-01  0.00000E+00  2.74889E+00  2.73939E+00 -3.22416E-02 F
  5.50000E-01  0.00000E+00  2.94524E+00  2.75323E+00 -1.84289E-02 F
  5.50000E-01  0.00000E+00  3.14159E+00  2.75839E+00  8.81243E-09 F
  5.50000E-01  0.00000E+00  3.33794E+00  2.75323E+00  1.84289E-02 F
  5.50000E-01  0.00000E+00  3.53429E+00  2.73939E+00  3.22416E-02 F
  5.50000E-01  0.00000E+00  3.73064E+00  2.71914E+00  4.28250E-02 F
  5.50000E-01  0.00000E+00  3.92699E+00  2.69419E+00  5.07211E-02 F
  5.50000E-01  0.00000E+00  4.12334E+00  2.66578E+00  5.69620E-02 F
  5.50000E-01  0.00000E+00  4.31969E+00  2.63501E+00  6.09846E-02 F
  5.50000E-01  0.00000E+00  4.51604E+00  2.60278E+00  6.43659E-02 F
  5.50000E-01  0.00000E+00  4.71239E+00  2.56937E+00  6.71869E-02 F
  5.50000E-01  0.00000E+00  4.90874E+00  2.53448E+00  7.31086E-02 F
  5.50000E-01  0.00000E+00  5.10509E+00  2.49602E+00  8.24745E-02 F
  5.50000E-01  0.00000E+00  5.30144E+00  2.45455E+00  8.69157E-02 F
  5.50000E-01  0.00000E+00  5.49779E+00  2.41371E+00  8.21944E-02 F
  5.50000E-01  0.00000E+00  5.69414E+00  2.37800E+00  6.87631E-02 F
  5.50000E-01  0.00000E+00  5.89049E+00  2.35004E+00  5.05053E-02 F
  5.50000E-01  0.00000E+00  6.08684E+00  2.33274E+00  2.38746E-02 F
  5.50000E-01  3.92699E-02  0.00000E+00  2.34339E+00 -1.57312E-02 F
  5.50000E-01  3.92699E-02  1.96350E-01  2.35613E+00 -4.02354E-02 F
  5.50000E-01  3.92699E-02  3.92699E-01  2.38053E+00 -6.32061E-02 F
  5.50000E-01  3.92699E-02  5.89049E-01  2.41366E+00 -7.63061E-02 F
  5.50000E-01  3.92699E-02  7.85398E-01  2.45214E+00 -8.39428E-02 F
  5.50000E-01  3.92699E-02  9.81748E-01  2.49348E+00 -8.51797E-02 F
  5.50000E-01  3.92699E-02  1.17810E+00  2.53439E+00 -7.94810E-02 F
  5.50000E-01  3.92699E-02  1.37445E+00  2.57191E+00 -7.03550E-02 F
  5.50000E-01  3.92699E-02  1.57080E+00  2.60609E+00 -6.47326E-02 F
  5.50000E-01  3.92699E-02  1.76715E+00  2.63823E+00 -5.99633E-02 F
  5.50000E-01  3.92699E-02  1.96350E+00  2.66811E+00 -5.47484E-02 F
  5.50000E-01  3.92699E-02  2.15985E+00  2.69535E+00 -4.83260E-02 F
  5.50000E-01  3.92699E-02  2.35619E+00  2.71895E+00 -4.03680E-02 F
  5.50000E-01  3.92699E-02  2.55254E+00  2.73816E+00 -3.08559E-02 F
  5.50000E-01  3.92699E-02  2.74889E+00  2.75148E+00 -1.80145E-02 F
  5.50000E-01  3.92699E-02  2.94524E+00  2.75693E+00 -1.39792E-03 F
  5.50000E-01  3.92699E-02  3.14159E+00  2.75227E+00  1.88545E-02 F
  5.50000E-01  3.92699E-02  3.33794E+00  2.73720E+00  3.59023E-02 F
  5.50000E-01  3.92699E-02  3.53429E+00  2.71499E+00  4.61269E-02 F
  5.50000E-01  3.92699E-02  3.73064E+00  2.68894E+00  5.13526E-02 F
  5.50000E-01  3.92699E-02  3.92699E+00  2.66127E+00  5.38803E-02 F
  5.50000E-01  3.92699E-02  4.12334E+00  2.63258E+00  5.65626E-02 F
  5.50000E-01  3.92699E-02  4.31969E+00  2.60282E+00  5.92530E-02 F
  5.50000E-01  3.92699E-02  4.51604E+00  2.57202E+00  6.18827E-02 F
  5.50000E-01  3.92699E-02  4.71239E+00  2.54044E+00  6.41361E-02 F
  5.50000E-01  3.92699E-02  4.90874E+00  2.50754E+00  6.91094E-02 F
  5.50000E-01  3.92699E-02  5.10509E+00  2.47249E+00  7.37927E-02 F
  5.50000E-01  3.92699E-02  5.30144E+00  2.43645E+00  7.49957E-02 F
  5.50000E-01  3.92699E-02  5.49779E+00  2.40210E+00  6.77511E-02 F
  5.50000E-01  3.92699E-02  5.69414E+00  2.37359E+00  5.36912E-02 F
  5.50000E-01  3.92699E-02  5.89049E+00  2.35232E+00  3.64876E-02 F
  5.50000E-01  3.92699E-02  6.08684E+00  2.34161E+00  9.06499E-03 F
  5.50000E-01  7.85398E-02  0.00000E+00  2.33822E+00 -2.33172E-02 F
  5.50000E-01  7.85398E-02  1.96350E-01  2.35584E+00 -5.42590E-02 F
  5.50000E-01  7.85398E-02  3.92699E-01  2.38784E+00 -8.07012E-02 F
  5.50000E-01  7.85398E-02  5.89049E-01  2.42928E+00 -9.26863E-02 F
  5.50000E-01  7.85398E-02  7.85398E-01  2.47502E+00 -9.60513E-02 F
  5.50000E-01  7.85398E-02  9.81748E-01  2.52129E+00 -9.12168E-02 F
  5.50000E-01  7.85398E-02  1.17810E+00  2.56413E+00 -7.97531E-02 F
  5.50000E-01  7.85398E-02  1.37445E+00  2.60164E+00 -6.89621E-02 F
  5.50000E-01  7.85398E-02  1.57080E+00  2.63523E+00 -6.18928E-02 F
  5.50000E-01  7.85398E-02  1.76715E+00  2.66548E+00 -5.42189E-02 F
  5.50000E-01  7.85398E-02  1.96350E+00  2.69190E+00 -4.61074E-02 F
  5.50000E-01  7.85398E-02  2.15985E+00  2.71384E+00 -3.62730E-02 F
  5.50000E-01  7.85398E-02  2.35619E+00  2.73056E+00 -2.65111E-02 F
  5.50000E-01  7.85398E-02  2.55254E+00  2.74232E+00 -1.70876E-02 F
  5.50000E-01  7.85398E-02  2.74889E+00  2.74847E+00 -5.05108E-03 F
  5.50000E-01  7.85398E-02  2.94524E+00  2.74678E+00  1.23631E-02 F
  5.50000E-01  7.85398E-02  3.14159E+00  2.73449E+00  3.31645E-02 F
  5.50000E-01  7.85398E-02  3.33794E+00  2.71221E+00  4.88012E-02 F
  5.50000E-01  7.85398E-02  3.53429E+00  2.68392E+00  5.69063E-02 F
  5.50000E-01  7.85398E-02  3.73064E+00  2.65333E+00  5.89455E-02 F
  5.50000E-01  7.85398E-02  3.92699E+00  2.62305E+00  5.79499E-02 F
  5.50000E-01  7.85398E-02  4.12334E+00  2.59334E+00  5.84949E-02 F
  5.50000E-01  7.85398E-02  4.31969E+00  2.56309E+00  6.12894E-02 F
  5.50000E-01  7.85398E-02  4.51604E+00  2.53160E+00  6.45090E-02 F
  5.50000E-01  7.85398E-02  4.71239E+00  2.49899E+00  6.77516E-02 F
  5.50000E-01  7.85398E-02  4.90874E+00  2.46517E+00  7.04714E-02 F
  5.50000E-01  7.85398E-02  5.10509E+00  2.43165E+00  6.81855E-02 F
  5.50000E-01  7.85398E-02  5.30144E+00  2.40056E+00  6.20481E-02 F
  5.50000E-01  7.85398E-02  5.49779E+00  2.37434E+00  4.88343E-02 F
  5.50000E-01  7.85398E-02  5.69414E+00  2.35457E+00  3.76117E-02 F
  5.50000E-01  7.85398E-02  5.89049E+00  2.33959E+00  2.53727E-02 F
  5.50000E-01  7.85398E-02  6.08684E+00  2.33324E+00  1.38966E-03 F
  5.50000E-01  1.17810E-01  0.00000E+00  2.30977E+00 -3.34572E-02 F
  5.50000E-01  1.17810E-01  1.96350E-01  2.33295E+00 -6.93890E-02 F
  5.50000E-01  1.17810E-01  3.92699E-01  2.37233E+00 -9.80646E-02 F
  5.50000E-01  1.17810E-01  5.89049E-01  2.42172E+00 -1.09519E-01 F
  5.50000E-01  1.17810E-01  7.85398E-01  2.47476E+00 -1.09401E-01 F
  5.50000E-01  1.17810E-01  9.81748E-01  2.52629E+00 -9.89434E-02 F
  5.50000E-01  1.17810E-01  1.17810E+00  2.57189E+00 -8.32588E-02 F
  5.50000E-01  1.17810E-01  1.37445E+00  2.61106E+00 -7.17846E-02 F
  5.50000E-01  1.17810E-01  1.57080E+00  2.64601E+00 -6.36232E-02 F
  5.50000E-01  1.17810E-01  1.76715E+00  2.67684E+00 -5.40818E-02 F
  5.50000E-01  1.17810E-01  1.96350E+00  2.70243E+00 -4.22479E-02 F
  5.50000E-01  1.17810E-01  2.15985E+00  2.72100E+00 -2.72622E-02 F
  5.50000E-01  1.17810E-01  2.35619E+00  2.73179E+00 -1.35905E-02 F
  5.50000E-01  1.17810E-01  2.55254E+00  2.73599E+00 -2.20856E-03 F
  5.50000E-01  1.17810E-01  2.74889E+00  2.73400E+00  1.00809E-02 F
  5.50000E-01  1.17810E-01  2.94524E+00  2.72447E+00  2.61184E-02 F
  5.50000E-01  1.17810E-01  3.14159E+00  2.70587E+00  4.32670E-02 F
  5.50000E-01  1.17810E-01  3.33794E+00  2.67949E+00  5.54302E-02 F
  5.50000E-01  1.17810E-01  3.53429E+00  2.64871E+00  6.12572E-02 F
  5.50000E-01  1.17810E-01  3.73064E+00  2.61669E+00  6.20568E-02 F
  5.50000E-01  1.17810E-01  3.92699E+00  2.58513E+00  6.17408E-02 F
  5.50000E-01  1.17810E-01  4.12334E+00  2.55369E+00  6.31892E-02 F
  5.50000E-01  1.17810E-01  4.31969E+00  2.52145E+00  6.65433E-02 F
  5.50000E-01  1.17810E-01  4.51604E+00  2.48759E+00  7.13415E-02 F
  5.50000E-01  1.17810E-01  4.71239E+00  2.45177E+00  7.62044E-02 F
  5.50000E-01  1.17810E-01  4.90874E+00  2.41487E+00  7.72063E-02 F
  5.50000E-01  1.17810E-01  5.10509E+00  2.37947E+00  7.23343E-02 F
  5.50000E-01  1.17810E-01  5.30144E+00  2.34843E+00  5.94300E-02 F
  5.50000E-01  1.17810E-01  5.49779E+00  2.32600E+00  3.85195E-02 F
  5.50000E-01  1.17810E-01  5.69414E+00  2.31144E+00  2.72985E-02 F
  5.50000E-01  1.17810E-01  5.89049E+00  2.30162E+00  1.37329E-02 F
  5.50000E-01  1.17810E-01  6.08684E+00  2.30051E+00 -8.92003E-03 F
  5.50000E-01  1.57080E-01  0.00000E+00  2.33066E+00 -4.76994E-02 F
  5.50000E-01  1.57080E-01  1.96350E-01  2.35902E+00 -7.51461E-02 F
  5.50000E-01  1.57080E-01  3.92699E-01  2.39869E+00 -9.23747E-02 F
  5.50000E-01  1.57080E-01  5.89049E-01  2.44446E+00 -9.88790E-02 F
  5.50000E-01  1.57080E-01  7.85398E-01  2.49242E+00 -9.76631E-02 F
  5.50000E-01  1.57080E-01  9.81748E-01  2.53874E+00 -8.88935E-02 F
  5.50000E-01  1.57080E-01  1.17810E+00  2.58058E+00 -7.78745E-02 F
  5.50000E-01  1.57080E-01  1.37445E+00  2.61819E+00 -6.99909E-02 F
  5.50000E-01  1.57080E-01  1.57080E+00  2.65251E+00 -6.23588E-02 F
  5.50000E-01  1.57080E-01  1.76715E+00  2.68272E+00 -5.25205E-02 F
  5.50000E-01  1.57080E-01  1.96350E+00  2.70690E+00 -3.77929E-02 F
  5.50000E-01  1.57080E-01  2.15985E+00  2.72199E+00 -1.86185E-02 F
  5.50000E-01  1.57080E-01  2.35619E+00  2.72710E+00 -1.06224E-03 F
  5.50000E-01  1.57080E-01  2.55254E+00  2.72358E+00  1.39780E-02 F
  5.50000E-01  1.57080E-01  2.74889E+00  2.71227E+00  2.84061E-02 F
  5.50000E-01  1.57080E-01  2.94524E+00  2.69347E+00  4.21690E-02 F
  5.50000E-01  1.57080E-01  3.14159E+00  2.66829E+00  5.26706E-02 F
  5.50000E-01  1.57080E-01  3.33794E+00  2.63933E+00  5.75368E-02 F
  5.50000E-01  1.57080E-01  3.53429E+00  2.60958E+00  5.71861E-02 F
  5.50000E-01  1.57080E-01  3.73064E+00  2.58113E+00  5.45652E-02 F
  5.50000E-01  1.57080E-01  3.92699E+00  2.55373E+00  5.48341E-02 F
  5.50000E-01  1.57080E-01  4.12334E+00  2.52562E+00  5.81383E-02 F
  5.50000E-01  1.57080E-01  4.31969E+00  2.49599E+00  6.21664E-02 F
  5.50000E-01  1.57080E-01  4.51604E+00  2.46459E+00  6.68640E-02 F
  5.50000E-01  1.57080E-01  4.71239E+00  2.43150E+00  7.02603E-02 F
  5.50000E-01  1.57080E-01  4.90874E+00  2.39828E+00  6.91482E-02 F
  5.50000E-01  1.57080E-01  5.10509E+00  2.36682E+00  6.46227E-02 F
  5.50000E-01  1.57080E-01  5.30144E+00  2.33972E+00  5.03212E-02 F
  5.50000E-01  1.57080E-01  5.49779E+00  2.32159E+00  2.97863E-02 F
  5.50000E-01  1.57080E-01  5.69414E+00  2.31105E+00  1.70400E-02 F
  5.50000E-01  1.57080E-01  5.89049E+00  2.30745E+00 -3.12979E-03 F
  5.50000E-01  1.57080E-01  6.08684E+00  2.31421E+00 -2.56894E-02 F
  5.50000E-01  1.96350E-01  0.00000E+00  2.35681E+00 -6.41448E-02 F
  5.50000E-01  1.96350E-01  1.96350E-01  2.39079E+00 -7.98698E-02 F
  5.50000E-01  1.96350E-01  3.92699E-01  2.43003E+00 -8.45797E-02 F
  5.50000E-01  1.96350E-01  5.89049E-01  2.47092E+00 -8.50304E-02 F
  5.50000E-01  1.96350E-01  7.85398E-01  2.51201E+00 -8.23258E-02 F
  5.50000E-01  1.96350E-01  9.81748E-01  2.55152E+00 -7.62646E-02 F
  5.50000E-01  1.96350E-01  1.17810E+00  2.58837E+00 -7.00827E-02 F
  5.50000E-01  1.96350E-01  1.37445E+00  2.62297E+00 -6.50925E-02 F
  5.50000E-01  1.96350E-01  1.57080E+00  2.65501E+00 -5.80999E-02 F
  5.50000E-01  1.96350E-01  1.76715E+00  2.68287E+00 -4.73909E-02 F
  5.50000E-01  1.96350E-01  1.96350E+00  2.70370E+00 -3.02470E-02 F
  5.50000E-01  1.96350E-01  2.15985E+00  2.71427E+00 -9.49584E-03 F
  5.50000E-01  1.96350E-01  2.35619E+00  2.71413E+00  9.60552E-03 F
  5.50000E-01  1.96350E-01  2.55254E+00  2.70438E+00  2.68566E-02 F
  5.50000E-01  1.96350E-01  2.74889E+00  2.68588E+00  4.27773E-02 F
  5.50000E-01  1.96350E-01  2.94524E+00  2.65983E+00  5.58088E-02 F
  5.50000E-01  1.96350E-01  3.14159E+00  2.62866E+00  6.29773E-02 F
  5.50000E-01  1.96350E-01  3.33794E+00  2.59620E+00  6.24012E-02 F
  5.50000E-01  1.96350E-01  3.53429E+00  2.56586E+00  5.69322E-02 F
  5.50000E-01  1.96350E-01  3.73064E+00  2.53874E+00  5.18730E-02 F
  5.50000E-01  1.96350E-01  3.92699E+00  2.51328E+00  5.16547E-02 F
  5.50000E-01  1.96350E-01  4.12334E+00  2.48716E+00  5.50947E-02 F
  5.50000E-01  1.96350E-01  4.31969E+00  2.45937E+00  5.93453E-02 F
  5.50000E-01  1.96350E-01  4.51604E+00  2.43007E+00  6.22801E-02 F
  5.50000E-01  1.96350E-01  4.71239E+00  2.40054E+00  6.15031E-02 F
  5.50000E-01  1.96350E-01  4.90874E+00  2.37269E+00  5.69789E-02 F
  5.50000E-01  1.96350E-01  5.10509E+00  2.34778E+00  4.96294E-02 F
  5.50000E-01  1.96350E-01  5.30144E+00  2.32828E+00  3.38780E-02 F
  5.50000E-01  1.96350E-01  5.49779E+00  2.31683E+00  1.74535E-02 F
  5.50000E-01  1.96350E-01  5.69414E+00  2.31200E+00  2.57290E-03 F
  5.50000E-01  1.96350E-01  5.89049E+00  2.31628E+00 -2.24570E-02 F
  5.50000E-01  1.96350E-01  6.08684E+00  2.33186E+00 -4.45416E-02 F
  5.50000E-01  2.35619E-01  0.00000E+00  2.34530E+00 -8.10966E-02 F
  5.50000E-01  2.35619E-01  1.96350E-01  2.38564E+00 -9.02466E-02 F
  5.50000E-01  2.35619E-01  3.92699E-01  2.42810E+00 -8.83007E-02 F
  5.50000E-01  2.35619E-01  5.89049E-01  2.46925E+00 -8.26634E-02 F
  5.50000E-01  2.35619E-01  7.85398E-01  2.50822E+00 -7.69553E-02 F
  5.50000E-01  2.35619E-01  9.81748E-01  2.54510E+00 -7.17886E-02 F
  5.50000E-01  2.35619E-01  1.17810E+00  2.58015E+00 -6.78286E-02 F
  5.50000E-01  2.35619E-01  1.37445E+00  2.61387E+00 -6.41585E-02 F
  5.50000E-01  2.35619E-01  1.57080E+00  2.64545E+00 -5.74643E-02 F
  5.50000E-01  2.35619E-01  1.76715E+00  2.67247E+00 -4.46720E-02 F
  5.50000E-01  2.35619E-01  1.96350E+00  2.69079E+00 -2.38949E-02 F
  5.50000E-01  2.35619E-01  2.15985E+00  2.69729E+00 -9.96045E-04 F
  5.50000E-01  2.35619E-01  2.35619E+00  2.69253E+00  1.82979E-02 F
  5.50000E-01  2.35619E-01  2.55254E+00  2.67853E+00  3.45007E-02 F
  5.50000E-01  2.35619E-01  2.74889E+00  2.65655E+00  4.91320E-02 F
  5.50000E-01  2.35619E-01  2.94524E+00  2.62768E+00  6.17492E-02 F
  5.50000E-01  2.35619E-01  3.14159E+00  2.59366E+00  6.98936E-02 F
  5.50000E-01  2.35619E-01  3.33794E+00  2.55782E+00  7.06399E-02 F
  5.50000E-01  2.35619E-01  3.53429E+00  2.52347E+00  6.68226E-02 F
  5.50000E-01  2.35619E-01  3.73064E+00  2.49141E+00  6.38917E-02 F
  5.50000E-01  2.35619E-01  3.92699E+00  2.46052E+00  6.33660E-02 F
  5.50000E-01  2.35619E-01  4.12334E+00  2.43013E+00  6.33210E-02 F
  5.50000E-01  2.35619E-01  4.31969E+00  2.39989E+00  6.44020E-02 F
  5.50000E-01  2.35619E-01  4.51604E+00  2.36966E+00  6.40565E-02 F
  5.50000E-01  2.35619E-01  4.71239E+00  2.34103E+00  5.89875E-02 F
  5.50000E-01  2.35619E-01  4.90874E+00  2.31591E+00  5.04560E-02 F
  5.50000E-01  2.35619E-01  5.10509E+00  2.29571E+00  3.76222E-02 F
  5.50000E-01  2.35619E-01  5.30144E+00  2.28296E+00  1.88410E-02 F
  5.50000E-01  2.35619E-01  5.49779E+00  2.27799E+00  4.50374E-03 F
  5.50000E-01  2.35619E-01  5.69414E+00  2.27916E+00 -1.15856E-02 F
  5.50000E-01  2.35619E-01  5.89049E+00  2.29003E+00 -3.75288E-02 F
  5.50000E-01  2.35619E-01  6.08684E+00  2.31253E+00 -6.13037E-02 F
  5.50000E-01  2.74889E-01  0.00000E+00  2.35235E+00 -7.95495E-02 F
  5.50000E-01  2.74889E-01  1.96350E-01  2.39010E+00 -8.11024E-02 F
  5.50000E-01  2.74889E-01  3.92699E-01  2.42752E+00 -7.65727E-02 F
  5.50000E-01  2.74889E-01  5.89049E-01  2.46291E+00 -7.11258E-02 F
  5.50000E-01  2.74889E-01  7.85398E-01  2.49683E+00 -6.87269E-02 F
  5.50000E-01  2.74889E-01  9.81748E-01  2.53056E+00 -6.81190E-02 F
  5.50000E-01  2.74889E-01  1.17810E+00  2.56463E+00 -6.80954E-02 F
  5.50000E-01  2.74889E-01  1.37445E+00  2.59881E+00 -6.61236E-02 F
  5.50000E-01  2.74889E-01  1.57080E+00  2.63122E+00 -5.89420E-02 F
  5.50000E-01  2.74889E-01  1.76715E+00  2.65800E+00 -4.23140E-02 F
  5.50000E-01  2.74889E-01  1.96350E+00  2.67351E+00 -1.58277E-02 F
  5.50000E-01  2.74889E-01  2.15985E+00  2.67441E+00  1.16320E-02 F
  5.50000E-01  2.74889E-01  2.35619E+00  2.66268E+00  3.16528E-02 F
  5.50000E-01  2.74889E-01  2.55254E+00  2.64262E+00  4.45691E-02 F
  5.50000E-01  2.74889E-01  2.74889E+00  2.61706E+00  5.40380E-02 F
  5.50000E-01  2.74889E-01  2.94524E+00  2.58741E+00  6.17690E-02 F
  5.50000E-01  2.74889E-01  3.14159E+00  2.55474E+00  6.70562E-02 F
  5.50000E-01  2.74889E-01  3.33794E+00  2.52085E+00  6.83495E-02 F
  5.50000E-01  2.74889E-01  3.53429E+00  2.48747E+00  6.72416E-02 F
  5.50000E-01  2.74889E-01  3.73064E+00  2.45515E+00  6.60817E-02 F
  5.50000E-01  2.74889E-01  3.92699E+00  2.42378E+00  6.46951E-02 F
  5.50000E-01  2.74889E-01  4.12334E+00  2.39374E+00  6.23380E-02 F
  5.50000E-01  2.74889E-01  4.31969E+00  2.36505E+00  6.05134E-02 F
  5.50000E-01  2.74889E-01  4.51604E+00  2.33782E+00  5.68849E-02 F
  5.50000E-01  2.74889E-01  4.71239E+00  2.31336E+00  4.96484E-02 F
  5.50000E-01  2.74889E-01  4.90874E+00  2.29311E+00  3.94937E-02 F
  5.50000E-01  2.74889E-01  5.10509E+00  2.27831E+00  2.55959E-02 F
  5.50000E-01  2.74889E-01  5.30144E+00  2.27073E+00  8.44512E-03 F
  5.50000E-01  2.74889E-01  5.49779E+00  2.27020E+00 -5.66472E-03 F
  5.50000E-01  2.74889E-01  5.69414E+00  2.27637E+00 -2.34501E-02 F
  5.50000E-01  2.74889E-01  5.89049E+00  2.29216E+00 -4.70542E-02 F
  5.50000E-01  2.74889E-01  6.08684E+00  2.31827E+00 -6.73363E-02 F
  5.50000E-01  3.14159E-01  0.00000E+00  2.37524E+00 -6.26585E-02 F
  5.50000E-01  3.14159E-01  1.96350E-01  2.40350E+00 -5.78494E-02 F
  5.50000E-01  3.14159E-01  3.92699E-01  2.43003E+00 -5.43853E-02 F
  5.50000E-01  3.14159E-01  5.89049E-01  2.45612E+00 -5.54226E-02 F
  5.50000E-01  3.14159E-01  7.85398E-01  2.48431E+00 -6.11538E-02 F
  5.50000E-01  3.14159E-01  9.81748E-01  2.51565E+00 -6.61519E-02 F
  5.50000E-01  3.14159E-01  1.17810E+00  2.54924E+00 -6.83481E-02 F
  5.50000E-01  3.14159E-01  1.37445E+00  2.58329E+00 -6.58816E-02 F
  5.50000E-01  3.14159E-01  1.57080E+00  2.61488E+00 -5.63432E-02 F
  5.50000E-01  3.14159E-01  1.76715E+00  2.63901E+00 -3.51192E-02 F
  5.50000E-01  3.14159E-01  1.96350E+00  2.64946E+00 -4.19302E-03 F
  5.50000E-01  3.14159E-01  2.15985E+00  2.64338E+00  2.66237E-02 F
  5.50000E-01  3.14159E-01  2.35619E+00  2.62349E+00  4.85278E-02 F
  5.50000E-01  3.14159E-01  2.55254E+00  2.59510E+00  6.09948E-02 F
  5.50000E-01  3.14159E-01  2.74889E+00  2.56257E+00  6.64778E-02 F
  5.50000E-01  3.14159E-01  2.94524E+00  2.52908E+00  6.67674E-02 F
  5.50000E-01  3.14159E-01  3.14159E+00  2.49697E+00  6.27611E-02 F
  5.50000E-01  3.14159E-01  3.33794E+00  2.46776E+00  5.72254E-02 F
  5.50000E-01  3.14159E-01  3.53429E+00  2.44119E+00  5.33728E-02 F
  5.50000E-01  3.14159E-01  3.73064E+00  2.41633E+00  5.11154E-02 F
  5.50000E-01  3.14159E-01  3.92699E+00  2.39248E+00  5.01020E-02 F
  5.50000E-01  3.14159E-01  4.12334E+00  2.36902E+00  5.04428E-02 F
  5.50000E-01  3.14159E-01  4.31969E+00  2.34568E+00  4.99498E-02 F
  5.50000E-01  3.14159E-01  4.51604E+00  2.32348E+00  4.65333E-02 F
  5.50000E-01  3.14159E-01  4.71239E+00  2.30354E+00  4.07241E-02 F
  5.50000E-01  3.14159E-01  4.90874E+00  2.28723E+00  3.08718E-02 F
  5.50000E-01  3.14159E-01  5.10509E+00  2.27662E+00  1.54478E-02 F
  5.50000E-01  3.14159E-01  5.30144E+00  2.27410E+00 -4.35443E-03 F
  5.50000E-01  3.14159E-01  5.49779E+00  2.28027E+00 -2.29519E-02 F
  5.50000E-01  3.14159E-01  5.69414E+00  2.29470E+00 -4.14077E-02 F
  5.50000E-01  3.14159E-01  5.89049E+00  2.31729E+00 -5.72916E-02 F
  5.50000E-01  3.14159E-01  6.08684E+00  2.34553E+00 -6.44257E-02 F
  5.50000E-01  3.53429E-01  0.00000E+00  2.37528E+00 -5.11169E-02 F
  5.50000E-01  3.53429E-01  1.96350E-01  2.39697E+00 -4.23412E-02 F
  5.50000E-01  3.53429E-01  3.92699E-01  2.41601E+00 -3.95238E-02 F
  5.50000E-01  3.53429E-01  5.89049E-01  2.43603E+00 -4.61009E-02 F
  5.50000E-01  3.53429E-01  7.85398E-01  2.46092E+00 -5.74193E-02 F
  5.50000E-01  3.53429E-01  9.81748E-01  2.49108E+00 -6.59219E-02 F
  5.50000E-01  3.53429E-01  1.17810E+00  2.52456E+00 -6.89733E-02 F
  5.50000E-01  3.53429E-01  1.37445E+00  2.55836E+00 -6.53832E-02 F
  5.50000E-01  3.53429E-01  1.57080E+00  2.58879E+00 -5.31936E-02 F
  5.50000E-01  3.53429E-01  1.76715E+00  2.61023E+00 -2.88982E-02 F
  5.50000E-01  3.53429E-01  1.96350E+00  2.61698E+00  3.13317E-03 F
  5.50000E-01  3.53429E-01  2.15985E+00  2.60736E+00  3.33148E-02 F
  5.50000E-01  3.53429E-01  2.35619E+00  2.58429E+00  5.60438E-02 F
  5.50000E-01  3.53429E-01  2.55254E+00  2.55165E+00  7.22482E-02 F
  5.50000E-01  3.53429E-01  2.74889E+00  2.51347E+00  7.96356E-02 F
  5.50000E-01  3.53429E-01  2.94524E+00  2.47464E+00  7.75239E-02 F
  5.50000E-01  3.53429E-01  3.14159E+00  2.43920E+00  6.86172E-02 F
  5.50000E-01  3.53429E-01  3.33794E+00  2.40909E+00  5.81061E-02 F
  5.50000E-01  3.53429E-01  3.53429E+00  2.38382E+00  4.97519E-02 F
  5.50000E-01  3.53429E-01  3.73064E+00  2.36208E+00  4.39748E-02 F
  5.50000E-01  3.53429E-01  3.92699E+00  2.34257E+00  4.10774E-02 F
  5.50000E-01  3.53429E-01  4.12334E+00  2.32371E+00  4.18132E-02 F
  5.50000E-01  3.53429E-01  4.31969E+00  2.30427E+00  4.35628E-02 F
  5.50000E-01  3.53429E-01  4.51604E+00  2.28460E+00  4.32817E-02 F
  5.50000E-01  3.53429E-01  4.71239E+00  2.26613E+00  3.82795E-02 F
  5.50000E-01  3.53429E-01  4.90874E+00  2.25164E+00  2.56914E-02 F
  5.50000E-01  3.53429E-01  5.10509E+00  2.24471E+00  4.17812E-03 F
  5.50000E-01  3.53429E-01  5.30144E+00  2.24876E+00 -2.24817E-02 F
  5.50000E-01  3.53429E-01  5.49779E+00  2.26389E+00 -4.47469E-02 F
  5.50000E-01  3.53429E-01  5.69414E+00  2.28784E+00 -6.15414E-02 F
  5.50000E-01  3.53429E-01  5.89049E+00  2.31790E+00 -6.92651E-02 F
  5.50000E-01  3.53429E-01  6.08684E+00  2.34874E+00 -6.33264E-02 F
  5.50000E-01  3.92699E-01  0.00000E+00  2.36765E+00 -3.42393E-02 F
  5.50000E-01  3.92699E-01  1.96350E-01  2.38101E+00 -2.45399E-02 F
  5.50000E-01  3.92699E-01  3.92699E-01  2.39225E+00 -2.56272E-02 F
  5.50000E-01  3.92699E-01  5.89049E-01  2.40707E+00 -3.86908E-02 F
  5.50000E-01  3.92699E-01  7.85398E-01  2.42927E+00 -5.44938E-02 F
  5.50000E-01  3.92699E-01  9.81748E-01  2.45849E+00 -6.63111E-02 F
  5.50000E-01  3.92699E-01  1.17810E+00  2.49206E+00 -7.03176E-02 F
  5.50000E-01  3.92699E-01  1.37445E+00  2.52583E+00 -6.52640E-02 F
  5.50000E-01  3.92699E-01  1.57080E+00  2.55493E+00 -4.92843E-02 F
  5.50000E-01  3.92699E-01  1.76715E+00  2.57321E+00 -2.18726E-02 F
  5.50000E-01  3.92699E-01  1.96350E+00  2.57628E+00  9.47916E-03 F
  5.50000E-01  3.92699E-01  2.15985E+00  2.56477E+00  3.45272E-02 F
  5.50000E-01  3.92699E-01  2.35619E+00  2.54290E+00  5.19773E-02 F
  5.50000E-01  3.92699E-01  2.55254E+00  2.51342E+00  6.61268E-02 F
  5.50000E-01  3.92699E-01  2.74889E+00  2.47870E+00  7.43675E-02 F
  5.50000E-01  3.92699E-01  2.94524E+00  2.44217E+00  7.58023E-02 F
  5.50000E-01  3.92699E-01  3.14159E+00  2.40696E+00  7.12948E-02 F
  5.50000E-01  3.92699E-01  3.33794E+00  2.37528E+00  6.32861E-02 F
  5.50000E-01  3.92699E-01  3.53429E+00  2.34808E+00  5.39809E-02 F
  5.50000E-01  3.92699E-01  3.73064E+00  2.32524E+00  4.60476E-02 F
  5.50000E-01  3.92699E-01  3.92699E+00  2.30557E+00  4.09837E-02 F
  5.50000E-01  3.92699E-01  4.12334E+00  2.28768E+00  3.87485E-02 F
  5.50000E-01  3.92699E-01  4.31969E+00  2.27054E+00  3.79585E-02 F
  5.50000E-01  3.92699E-01  4.51604E+00  2.25394E+00  3.62535E-02 F
  5.50000E-01  3.92699E-01  4.71239E+00  2.23928E+00  2.89756E-02 F
  5.50000E-01  3.92699E-01  4.90874E+00  2.22956E+00  1.40219E-02 F
  5.50000E-01  3.92699E-01  5.10509E+00  2.22829E+00 -9.59591E-03 F
  5.50000E-01  3.92699E-01  5.30144E+00  2.23848E+00 -3.64435E-02 F
  5.50000E-01  3.92699E-01  5.49779E+00  2.25945E+00 -5.72904E-02 F
  5.50000E-01  3.92699E-01  5.69414E+00  2.28823E+00 -6.99324E-02 F
  5.50000E-01  3.92699E-01  5.89049E+00  2.32013E+00 -6.81475E-02 F
  5.50000E-01  3.92699E-01  6.08684E+00  2.34796E+00 -5.17810E-02 F
  5.50000E-01  4.31969E-01  0.00000E+00  2.36374E+00 -1.02640E-02 F
  5.50000E-01  4.31969E-01  1.96350E-01  2.36729E+00 -7.55508E-03 F
  5.50000E-01  4.31969E-01  3.92699E-01  2.37308E+00 -1.95337E-02 F
  5.50000E-01  4.31969E-01  5.89049E-01  2.38679E+00 -3.94055E-02 F
  5.50000E-01  4.31969E-01  7.85398E-01  2.40957E+00 -5.63318E-02 F
  5.50000E-01  4.31969E-01  9.81748E-01  2.43892E+00 -6.53319E-02 F
  5.50000E-01  4.31969E-01  1.17810E+00  2.47043E+00 -6.37466E-02 F
  5.50000E-01  4.31969E-01  1.37445E+00  2.49917E+00 -5.22771E-02 F
  5.50000E-01  4.31969E-01  1.57080E+00  2.51954E+00 -2.81942E-02 F
  5.50000E-01  4.31969E-01  1.76715E+00  2.52555E+00  4.33036E-03 F
  5.50000E-01  4.31969E-01  1.96350E+00  2.51595E+00  3.27148E-02 F
  5.50000E-01  4.31969E-01  2.15985E+00  2.49558E+00  4.77393E-02 F
  5.50000E-01  4.31969E-01  2.35619E+00  2.47090E+00  5.24417E-02 F
  5.50000E-01  4.31969E-01  2.55254E+00  2.44538E+00  5.28428E-02 F
  5.50000E-01  4.31969E-01  2.74889E+00  2.42029E+00  5.24276E-02 F
  5.50000E-01  4.31969E-01  2.94524E+00  2.39540E+00  5.27060E-02 F
  5.50000E-01  4.31969E-01  3.14159E+00  2.37100E+00  5.13394E-02 F
  5.50000E-01  4.31969E-01  3.33794E+00  2.34771E+00  4.90603E-02 F
  5.50000E-01  4.31969E-01  3.53429E+00  2.32600E+00  4.53141E-02 F
  5.50000E-01  4.31969E-01  3.73064E+00  2.30636E+00  4.11549E-02 F
  5.50000E-01  4.31969E-01  3.92699E+00  2.28859E+00  3.77393E-02 F
  5.50000E-01  4.31969E-01  4.12334E+00  2.27247E+00  3.40826E-02 F
  5.50000E-01  4.31969E-01  4.31969E+00  2.25829E+00  2.95921E-02 F
  5.50000E-01  4.31969E-01  4.51604E+00  2.24640E+00  2.36040E-02 F
  5.50000E-01  4.31969E-01  4.71239E+00  2.23830E+00  1.20775E-02 F
  5.50000E-01  4.31969E-01  4.90874E+00  2.23667E+00 -5.54091E-03 F
  5.50000E-01  4.31969E-01  5.10509E+00  2.24377E+00 -2.70126E-02 F
  5.50000E-01  4.31969E-01  5.30144E+00  2.26018E+00 -4.62952E-02 F
  5.50000E-01  4.31969E-01  5.49779E+00  2.28398E+00 -5.92244E-02 F
  5.50000E-01  4.31969E-01  5.69414E+00  2.31187E+00 -6.21349E-02 F
  5.50000E-01  4.31969E-01  5.89049E+00  2.33791E+00 -4.93544E-02 F
  5.50000E-01  4.31969E-01  6.08684E+00  2.35558E+00 -2.69643E-02 F
  5.50000E-01  4.71239E-01  0.00000E+00  2.36368E+00 -2.39575E-03 F
  5.50000E-01  4.71239E-01  1.96350E-01  2.36536E+00 -7.59086E-03 F
  5.50000E-01  4.71239E-01  3.92699E-01  2.37283E+00 -2.59374E-02 F
  5.50000E-01  4.71239E-01  5.89049E-01  2.38983E+00 -4.59662E-02 F
  5.50000E-01  4.71239E-01  7.85398E-01  2.41465E+00 -5.73895E-02 F
  5.50000E-01  4.71239E-01  9.81748E-01  2.44222E+00 -5.60175E-02 F
  5.50000E-01  4.71239E-01  1.17810E+00  2.46654E+00 -4.35181E-02 F
  5.50000E-01  4.71239E-01  1.37445E+00  2.48302E+00 -2.26497E-02 F
  5.50000E-01  4.71239E-01  1.57080E+00  2.48682E+00  8.49454E-03 F
  5.50000E-01  4.71239E-01  1.76715E+00  2.47440E+00  4.16798E-02 F
  5.50000E-01  4.71239E-01  1.96350E+00  2.44824E+00  6.38987E-02 F
  5.50000E-01  4.71239E-01  2.15985E+00  2.41584E+00  6.91146E-02 F
  5.50000E-01  4.71239E-01  2.35619E+00  2.38466E+00  6.15559E-02 F
  5.50000E-01  4.71239E-01  2.55254E+00  2.35923E+00  4.71584E-02 F
  5.50000E-01  4.71239E-01  2.74889E+00  2.34062E+00  3.44266E-02 F
  5.50000E-01  4.71239E-01  2.94524E+00  2.32668E+00  2.72601E-02 F
  5.50000E-01  4.71239E-01  3.14159E+00  2.31485E+00  2.56821E-02 F
  5.50000E-01  4.71239E-01  3.33794E+00  2.30264E+00  2.84756E-02 F
  5.50000E-01  4.71239E-01  3.53429E+00  2.28915E+00  3.12404E-02 F
  5.50000E-01  4.71239E-01  3.73064E+00  2.27463E+00  3.34682E-02 F
  5.50000E-01  4.71239E-01  3.92699E+00  2.25952E+00  3.39593E-02 F
  5.50000E-01  4.71239E-01  4.12334E+00  2.24496E+00  3.13251E-02 F
  5.50000E-01  4.71239E-01  4.31969E+00  2.23242E+00  2.50963E-02 F
  5.50000E-01  4.71239E-01  4.51604E+00  2.22372E+00  1.34799E-02 F
  5.50000E-01  4.71239E-01  4.71239E+00  2.22169E+00 -5.21600E-03 F
  5.50000E-01  4.71239E-01  4.90874E+00  2.22885E+00 -2.77486E-02 F
  5.50000E-01  4.71239E-01  5.10509E+00  2.24577E+00 -4.84034E-02 F
  5.50000E-01  4.71239E-01  5.30144E+00  2.27041E+00 -6.12285E-02 F
  5.50000E-01  4.71239E-01  5.49779E+00  2.29904E+00 -6.47535E-02 F
  5.50000E-01  4.71239E-01  5.69414E+00  2.32709E+00 -5.65917E-02 F
  5.50000E-01  4.71239E-01  5.89049E+00  2.34886E+00 -3.67710E-02 F
  5.50000E-01  4.71239E-01  6.08684E+00  2.36047E+00 -1.41377E-02 F
  5.50000E-01  5.10509E-01  0.00000E+00  2.36073E+00  1.08800E-03 F
  5.50000E-01  5.10509E-01  1.96350E-01  2.36219E+00 -9.60221E-03 F
  5.50000E-01  5.10509E-01  3.92699E-01  2.37125E+00 -3.03434E-02 F
  5.50000E-01  5.10509E-01  5.89049E-01  2.39025E+00 -4.94611E-02 F
  5.50000E-01  5.10509E-01  7.85398E-01  2.41567E+00 -5.57145E-02 F
  5.50000E-01  5.10509E-01  9.81748E-01  2.44070E+00 -4.71127E-02 F
  5.50000E-01  5.10509E-01  1.17810E+00  2.45935E+00 -2.94510E-02 F
  5.50000E-01  5.10509E-01  1.37445E+00  2.46803E+00 -5.09434E-03 F
  5.50000E-01  5.10509E-01  1.57080E+00  2.46324E+00  2.52993E-02 F
  5.50000E-01  5.10509E-01  1.76715E+00  2.44401E+00  5.33574E-02 F
  5.50000E-01  5.10509E-01  1.96350E+00  2.41391E+00  7.04868E-02 F
  5.50000E-01  5.10509E-01  2.15985E+00  2.37958E+00  7.32674E-02 F
  5.50000E-01  5.10509E-01  2.35619E+00  2.34702E+00  6.57298E-02 F
  5.50000E-01  5.10509E-01  2.55254E+00  2.31975E+00  5.29028E-02 F
  5.50000E-01  5.10509E-01  2.74889E+00  2.29882E+00  3.95896E-02 F
  5.50000E-01  5.10509E-01  2.94524E+00  2.28361E+00  2.88671E-02 F
  5.50000E-01  5.10509E-01  3.14159E+00  2.27174E+00  2.54945E-02 F
  5.50000E-01  5.10509E-01  3.33794E+00  2.26029E+00  2.60396E-02 F
  5.50000E-01  5.10509E-01  3.53429E+00  2.24865E+00  2.66276E-02 F
  5.50000E-01  5.10509E-01  3.73064E+00  2.23687E+00  2.64460E-02 F
  5.50000E-01  5.10509E-01  3.92699E+00  2.22594E+00  2.29300E-02 F
  5.50000E-01  5.10509E-01  4.12334E+00  2.21704E+00  1.76952E-02 F
  5.50000E-01  5.10509E-01  4.31969E+00  2.21087E+00  9.94647E-03 F
  5.50000E-01  5.10509E-01  4.51604E+00  2.20935E+00 -4.18768E-03 F
  5.50000E-01  5.10509E-01  4.71239E+00  2.21545E+00 -2.46794E-02 F
  5.50000E-01  5.10509E-01  4.90874E+00  2.23117E+00 -4.71197E-02 F
  5.50000E-01  5.10509E-01  5.10509E+00  2.25602E+00 -6.40657E-02 F
  5.50000E-01  5.10509E-01  5.30144E+00  2.28621E+00 -6.92306E-02 F
  5.50000E-01  5.10509E-01  5.49779E+00  2.31629E+00 -6.18748E-02 F
  5.50000E-01  5.10509E-01  5.69414E+00  2.34077E+00 -4.38247E-02 F
  5.50000E-01  5.10509E-01  5.89049E+00  2.35576E+00 -2.10712E-02 F
  5.50000E-01  5.10509E-01  6.08684E+00  2.36092E+00 -2.93432E-03 F
  5.50000E-01  5.49779E-01  0.00000E+00  2.35050E+00  8.41077E-03 F
  5.50000E-01  5.49779E-01  1.96350E-01  2.35050E+00 -9.55944E-03 F
  5.50000E-01  5.49779E-01  3.92699E-01  2.35996E+00 -3.12934E-02 F
  5.50000E-01  5.49779E-01  5.89049E-01  2.37855E+00 -4.66856E-02 F
  5.50000E-01  5.49779E-01  7.85398E-01  2.40146E+00 -4.85204E-02 F
  5.50000E-01  5.49779E-01  9.81748E-01  2.42214E+00 -3.69869E-02 F
  5.50000E-01  5.49779E-01  1.17810E+00  2.43548E+00 -1.82564E-02 F
  5.50000E-01  5.49779E-01  1.37445E+00  2.43888E+00  4.77772E-03 F
  5.50000E-01  5.49779E-01  1.57080E+00  2.43061E+00  2.95417E-02 F
  5.50000E-01  5.49779E-01  1.76715E+00  2.41156E+00  4.92404E-02 F
  5.50000E-01  5.49779E-01  1.96350E+00  2.38559E+00  5.93750E-02 F
  5.50000E-01  5.49779E-01  2.15985E+00  2.35731E+00  6.10351E-02 F
  5.50000E-01  5.49779E-01  2.35619E+00  2.32983E+00  5.77289E-02 F
  5.50000E-01  5.49779E-01  2.55254E+00  2.30488E+00  5.16057E-02 F
  5.50000E-01  5.49779E-01  2.74889E+00  2.28345E+00  4.30951E-02 F
  5.50000E-01  5.49779E-01  2.94524E+00  2.26631E+00  3.41413E-02 F
  5.50000E-01  5.49779E-01  3.14159E+00  2.25241E+00  2.90073E-02 F
  5.50000E-01  5.49779E-01  3.33794E+00  2.24058E+00  2.45451E-02 F
  5.50000E-01  5.49779E-01  3.53429E+00  2.23082E+00  1.98195E-02 F
  5.50000E-01  5.49779E-01  3.73064E+00  2.22360E+00  1.25126E-02 F
  5.50000E-01  5.49779E-01  3.92699E+00  2.22019E+00  3.15063E-03 F
  5.50000E-01  5.49779E-01  4.12334E+00  2.22081E+00 -6.15466E-03 F
  5.50000E-01  5.49779E-01  4.31969E+00  2.22597E+00 -1.80900E-02 F
  5.50000E-01  5.49779E-01  4.51604E+00  2.23708E+00 -3.29474E-02 F
  5.50000E-01  5.49779E-01  4.71239E+00  2.25504E+00 -4.82836E-02 F
  5.50000E-01  5.49779E-01  4.90874E+00  2.27931E+00 -5.95315E-02 F
  5.50000E-01  5.49779E-01  5.10509E+00  2.30688E+00 -6.11574E-02 F
  5.50000E-01  5.49779E-01  5.30144E+00  2.33319E+00 -5.27540E-02 F
  5.50000E-01  5.49779E-01  5.49779E+00  2.35363E+00 -3.45056E-02 F
  5.50000E-01  5.49779E-01  5.69414E+00  2.36404E+00 -1.02213E-02 F
  5.50000E-01  5.49779E-01  5.89049E+00  2.36374E+00  9.98955E-03 F
  5.50000E-01  5.49779E-01  6.08684E+00  2.35685E+00  1.69711E-02 F
  5.50000E-01  5.89049E-01  0.00000E+00  2.36541E+00  5.92472E-03 F
  5.50000E-01  5.89049E-01  1.96350E-01  2.36700E+00 -1.27915E-02 F
  5.50000E-01  5.89049E-01  3.92699E-01  2.37669E+00 -2.73507E-02 F
  5.50000E-01  5.89049E-01  5.89049E-01  2.39080E+00 -3.10187E-02 F
  5.50000E-01  5.89049E-01  7.85398E-01  2.40402E+00 -2.32177E-02 F
  5.50000E-01  5.89049E-01  9.81748E-01  2.41097E+00 -4.81470E-03 F
  5.50000E-01  5.89049E-01  1.17810E+00  2.40795E+00  1.77316E-02 F
  5.50000E-01  5.89049E-01  1.37445E+00  2.39427E+00  4.00539E-02 F
  5.50000E-01  5.89049E-01  1.57080E+00  2.37115E+00  5.72155E-02 F
  5.50000E-01  5.89049E-01  1.76715E+00  2.34306E+00  6.17651E-02 F
  5.50000E-01  5.89049E-01  1.96350E+00  2.31614E+00  5.46165E-02 F
  5.50000E-01  5.89049E-01  2.15985E+00  2.29387E+00  4.37014E-02 F
  5.50000E-01  5.89049E-01  2.35619E+00  2.27663E+00  3.34650E-02 F
  5.50000E-01  5.89049E-01  2.55254E+00  2.26345E+00  2.63137E-02 F
  5.50000E-01  5.89049E-01  2.74889E+00  2.25289E+00  2.15332E-02 F
  5.50000E-01  5.89049E-01  2.94524E+00  2.24404E+00  1.91479E-02 F
  5.50000E-01  5.89049E-01  3.14159E+00  2.23566E+00  1.89982E-02 F
  5.50000E-01  5.89049E-01  3.33794E+00  2.22743E+00  1.84383E-02 F
  5.50000E-01  5.89049E-01  3.53429E+00  2.21990E+00  1.51502E-02 F
  5.50000E-01  5.89049E-01  3.73064E+00  2.21528E+00  5.04774E-03 F
  5.50000E-01  5.89049E-01  3.92699E+00  2.21596E+00 -8.46775E-03 F
  5.50000E-01  5.89049E-01  4.12334E+00  2.22311E+00 -2.50343E-02 F
  5.50000E-01  5.89049E-01  4.31969E+00  2.23821E+00 -4.39277E-02 F
  5.50000E-01  5.89049E-01  4.51604E+00  2.26148E+00 -6.08474E-02 F
  5.50000E-01  5.89049E-01  4.71239E+00  2.29153E+00 -7.21427E-02 F
  5.50000E-01  5.89049E-01  4.90874E+00  2.32458E+00 -7.12645E-02 F
  5.50000E-01  5.89049E-01  5.10509E+00  2.35458E+00 -5.78994E-02 F
  5.50000E-01  5.89049E-01  5.30144E+00  2.37723E+00 -3.88966E-02 F
  5.50000E-01  5.89049E-01  5.49779E+00  2.38995E+00 -1.46728E-02 F
  5.50000E-01  5.89049E-01  5.69414E+00  2.39097E+00  9.35330E-03 F
  5.50000E-01  5.89049E-01  5.89049E+00  2.38283E+00  2.30541E-02 F
  5.50000E-01  5.89049E-01  6.08684E+00  2.37194E+00  2.08360E-02 F
  5.50000E-01  6.28319E-01  0.00000E+00  2.38414E+00 -2.43453E-09 F
  5.50000E-01  6.28319E-01  1.96350E-01  2.38804E+00 -1.59011E-02 F
  5.50000E-01  6.28319E-01  3.92699E-01  2.39756E+00 -2.23238E-02 F
  5.50000E-01  6.28319E-01  5.89049E-01  2.40683E+00 -1.48322E-02 F
  5.50000E-01  6.28319E-01  7.85398E-01  2.40982E+00  3.75194E-03 F
  5.50000E-01  6.28319E-01  9.81748E-01  2.40228E+00  2.85127E-02 F
  5.50000E-01  6.28319E-01  1.17810E+00  2.38316E+00  5.25158E-02 F
  5.50000E-01  6.28319E-01  1.37445E+00  2.35374E+00  7.29392E-02 F
  5.50000E-01  6.28319E-01  1.57080E+00  2.31772E+00  8.12583E-02 F
  5.50000E-01  6.28319E-01  1.76715E+00  2.28252E+00  7.20787E-02 F
  5.50000E-01  6.28319E-01  1.96350E+00  2.25445E+00  5.32828E-02 F
  5.50000E-01  6.28319E-01  2.15985E+00  2.23539E+00  3.33713E-02 F
  5.50000E-01  6.28319E-01  2.35619E+00  2.22464E+00  1.66384E-02 F
  5.50000E-01  6.28319E-01  2.55254E+00  2.21999E+00  5.42387E-03 F
  5.50000E-01  6.28319E-01  2.74889E+00  2.21935E+00 -1.71374E-03 F
  5.50000E-01  6.28319E-01  2.94524E+00  2.22055E+00 -2.71540E-03 F
  5.50000E-01  6.28319E-01  3.14159E+00  2.22118E+00 -8.61244E-09 F
  5.50000E-01  6.28319E-01  3.33794E+00  2.22055E+00  2.71538E-03 F
  5.50000E-01  6.28319E-01  3.53429E+00  2.21935E+00  1.71372E-03 F
  5.50000E-01  6.28319E-01  3.73064E+00  2.21999E+00 -5.42389E-03 F
  5.50000E-01  6.28319E-01  3.92699E+00  2.22464E+00 -1.66384E-02 F
  5.50000E-01  6.28319E-01  4.12334E+00  2.23539E+00 -3.33713E-02 F
  5.50000E-01  6.28319E-01  4.31969E+00  2.25445E+00 -5.32828E-02 F
  5.50000E-01  6.28319E-01  4.51604E+00  2.28252E+00 -7.20788E-02 F
  5.50000E-01  6.28319E-01  4.71239E+00  2.31772E+00 -8.12583E-02 F
  5.50000E-01  6.28319E-01  4.90874E+00  2.35374E+00 -7.29392E-02 F
  5.50000E-01  6.28319E-01  5.10509E+00  2.38316E+00 -5.25157E-02 F
  5.50000E-01  6.28319E-01  5.30144E+00  2.40228E+00 -2.85126E-02 F
  5.50000E-01  6.28319E-01  5.49779E+00  2.40982E+00 -3.75190E-03 F
  5.50000E-01  6.28319E-01  5.69414E+00  2.40683E+00  1.48322E-02 F
  5.50000E-01  6.28319E-01  5.89049E+00  2.39756E+00  2.23238E-02 F
  5.50000E-01  6.28319E-01  6.08684E+00  2.38804E+00  1.59011E-02 F
  5.50000E-01  6.67588E-01  0.00000E+00  2.36541E+00 -5.92472E-03 F
  5.50000E-01  6.67588E-01  1.96350E-01  2.37194E+00 -2.08360E-02 F
  5.50000E-01  6.67588E-01  3.92699E-01  2.38283E+00 -2.30541E-02 F
  5.50000E-01  6.67588E-01  5.89049E-01  2.39097E+00 -9.35327E-03 F
  5.50000E-01  6.67588E-01  7.85398E-01  2.38995E+00  1.46728E-02 F
  5.50000E-01  6.67588E-01  9.81748E-01  2.37723E+00  3.88966E-02 F
  5.50000E-01  6.67588E-01  1.17810E+00  2.35458E+00  5.78994E-02 F
  5.50000E-01  6.67588E-01  1.37445E+00  2.32458E+00  7.12645E-02 F
  5.50000E-01  6.67588E-01  1.57080E+00  2.29153E+00  7.21426E-02 F
  5.50000E-01  6.67588E-01  1.76715E+00  2.26148E+00  6.08474E-02 F
  5.50000E-01  6.67588E-01  1.96350E+00  2.23821E+00  4.39277E-02 F
  5.50000E-01  6.67588E-01  2.15985E+00  2.22311E+00  2.50343E-02 F
  5.50000E-01  6.67588E-01  2.35619E+00  2.21596E+00  8.46773E-03 F
  5.50000E-01  6.67588E-01  2.55254E+00  2.21528E+00 -5.04776E-03 F
  5.50000E-01  6.67588E-01  2.74889E+00  2.21990E+00 -1.51502E-02 F
  5.50000E-01  6.67588E-01  2.94524E+00  2.22743E+00 -1.84383E-02 F
  5.50000E-01  6.67588E-01  3.14159E+00  2.23566E+00 -1.89983E-02 F
  5.50000E-01  6.67588E-01  3.33794E+00  2.24404E+00 -1.91479E-02 F
  5.50000E-01  6.67588E-01  3.53429E+00  2.25289E+00 -2.15332E-02 F
  5.50000E-01  6.67588E-01  3.73064E+00  2.26345E+00 -2.63138E-02 F
  5.50000E-01  6.67588E-01  3.92699E+00  2.27663E+00 -3.34651E-02 F
  5.50000E-01  6.67588E-01  4.12334E+00  2.29387E+00 -4.37014E-02 F
  5.50000E-01  6.67588E-01  4.31969E+00  2.31615E+00 -5.46165E-02 F
  5.50000E-01  6.67588E-01  4.51604E+00  2.34306E+00 -6.17651E-02 F
  5.50000E-01  6.67588E-01  4.71239E+00  2.37115E+00 -5.72154E-02 F
  5.50000E-01  6.67588E-01  4.90874E+00  2.39427E+00 -4.00538E-02 F
  5.50000E-01  6.67588E-01  5.10509E+00  2.40795E+00 -1.77315E-02 F
  5.50000E-01  6.67588E-01  5.30144E+00  2.41097E+00  4.81476E-03 F
  5.50000E-01  6.67588E-01  5.49779E+00  2.40402E+00  2.32178E-02 F
  5.50000E-01  6.67588E-01  5.69414E+00  2.39080E+00  3.10187E-02 F
  5.50000E-01  6.67588E-01  5.89049E+00  2.37669E+00  2.73507E-02 F
  5.50000E-01  6.67588E-01  6.08684E+00  2.36700E+00  1.27915E-02 F
  5.50000E-01  7.06858E-01  0.00000E+00  2.35050E+00 -8.41077E-03 F
  5.50000E-01  7.06858E-01  1.96350E-01  2.35685E+00 -1.69711E-02 F
  5.50000E-01  7.06858E-01  3.92699E-01  2.36374E+00 -9.98951E-03 F
  5.50000E-01  7.06858E-01  5.89049E-01  2.36404E+00  1.02213E-02 F
  5.50000E-01  7.06858E-01  7.85398E-01  2.35363E+00  3.45056E-02 F
  5.50000E-01  7.06858E-01  9.81748E-01  2.33319E+00  5.27540E-02 F
  5.50000E-01  7.06858E-01  1.17810E+00  2.30688E+00  6.11574E-02 F
  5.50000E-01  7.06858E-01  1.37445E+00  2.27931E+00  5.95315E-02 F
  5.50000E-01  7.06858E-01  1.57080E+00  2.25504E+00  4.82835E-02 F
  5.50000E-01  7.06858E-01  1.76715E+00  2.23708E+00  3.29473E-02 F
  5.50000E-01  7.06858E-01  1.96350E+00  2.22597E+00  1.80900E-02 F
  5.50000E-01  7.06858E-01  2.15985E+00  2.22081E+00  6.15464E-03 F
  5.50000E-01  7.06858E-01  2.35619E+00  2.22019E+00 -3.15066E-03 F
  5.50000E-01  7.06858E-01  2.55254E+00  2.22360E+00 -1.25126E-02 F
  5.50000E-01  7.06858E-01  2.74889E+00  2.23082E+00 -1.98195E-02 F
  5.50000E-01  7.06858E-01  2.94524E+00  2.24058E+00 -2.45451E-02 F
  5.50000E-01  7.06858E-01  3.14159E+00  2.25241E+00 -2.90073E-02 F
  5.50000E-01  7.06858E-01  3.33794E+00  2.26631E+00 -3.41414E-02 F
  5.50000E-01  7.06858E-01  3.53429E+00  2.28345E+00 -4.30952E-02 F
  5.50000E-01  7.06858E-01  3.73064E+00  2.30488E+00 -5.16058E-02 F
  5.50000E-01  7.06858E-01  3.92699E+00  2.32983E+00 -5.77289E-02 F
  5.50000E-01  7.06858E-01  4.12334E+00  2.35731E+00 -6.10351E-02 F
  5.50000E-01  7.06858E-01  4.31969E+00  2.38559E+00 -5.93750E-02 F
  5.50000E-01  7.06858E-01  4.51604E+00  2.41156E+00 -4.92404E-02 F
  5.50000E-01  7.06858E-01  4.71239E+00  2.43061E+00 -2.95416E-02 F
  5.50000E-01  7.06858E-01  4.90874E+00  2.43888E+00 -4.77768E-03 F
  5.50000E-01  7.06858E-01  5.10509E+00  2.43548E+00  1.82565E-02 F
  5.50000E-01  7.06858E-01  5.30144E+00  2.42214E+00  3.69869E-02 F
  5.50000E-01  7.06858E-01  5.49779E+00  2.40146E+00  4.85204E-02 F
  5.50000E-01  7.06858E-01  5.69414E+00  2.37855E+00  4.66856E-02 F
  5.50000E-01  7.06858E-01  5.89049E+00  2.35996E+00  3.12934E-02 F
  5.50000E-01  7.06858E-01  6.08684E+00  2.35050E+00  9.55942E-03 F
  5.50000E-01  7.46128E-01  0.00000E+00  2.36073E+00 -1.08799E-03 F
  5.50000E-01  7.46128E-01  1.96350E-01  2.36092E+00  2.93435E-03 F
  5.50000E-01  7.46128E-01  3.92699E-01  2.35576E+00  2.10712E-02 F
  5.50000E-01  7.46128E-01  5.89049E-01  2.34077E+00  4.38248E-02 F
  5.50000E-01  7.46128E-01  7.85398E-01  2.31629E+00  6.18748E-02 F
  5.50000E-01  7.46128E-01  9.81748E-01  2.28621E+00  6.92306E-02 F
  5.50000E-01  7.46128E-01  1.17810E+00  2.25602E+00  6.40657E-02 F
  5.50000E-01  7.46128E-01  1.37445E+00  2.23117E+00  4.71196E-02 F
  5.50000E-01  7.46128E-01  1.57080E+00  2.21545E+00  2.46794E-02 F
  5.50000E-01  7.46128E-01  1.76715E+00  2.20935E+00  4.18764E-03 F
  5.50000E-01  7.46128E-01  1.96350E+00  2.21087E+00 -9.94650E-03 F
  5.50000E-01  7.46128E-01  2.15985E+00  2.21704E+00 -1.76952E-02 F
  5.50000E-01  7.46128E-01  2.35619E+00  2.22594E+00 -2.29300E-02 F
  5.50000E-01  7.46128E-01  2.55254E+00  2.23687E+00 -2.64460E-02 F
  5.50000E-01  7.46128E-01  2.74889E+00  2.24865E+00 -2.66276E-02 F
  5.50000E-01  7.46128E-01  2.94524E+00  2.26029E+00 -2.60396E-02 F
  5.50000E-01  7.46128E-01  3.14159E+00  2.27174E+00 -2.54945E-02 F
  5.50000E-01  7.46128E-01  3.33794E+00  2.28361E+00 -2.88671E-02 F
  5.50000E-01  7.46128E-01  3.53429E+00  2.29882E+00 -3.95896E-02 F
  5.50000E-01  7.46128E-01  3.73064E+00  2.31975E+00 -5.29028E-02 F
  5.50000E-01  7.46128E-01  3.92699E+00  2.34702E+00 -6.57298E-02 F
  5.50000E-01  7.46128E-01  4.12334E+00  2.37958E+00 -7.32674E-02 F
  5.50000E-01  7.46128E-01  4.31969E+00  2.41391E+00 -7.04868E-02 F
  5.50000E-01  7.46128E-01  4.51604E+00  2.44401E+00 -5.33573E-02 F
  5.50000E-01  7.46128E-01  4.71239E+00  2.46324E+00 -2.52992E-02 F
  5.50000E-01  7.46128E-01  4.90874E+00  2.46803E+00  5.09437E-03 F
  5.50000E-01  7.46128E-01  5.10509E+00  2.45935E+00  2.94510E-02 F
  5.50000E-01  7.46128E-01  5.30144E+00  2.44070E+00  4.71127E-02 F
  5.50000E-01  7.46128E-01  5.49779E+00  2.41567E+00  5.57145E-02 F
  5.50000E-01  7.46128E-01  5.69414E+00  2.39025E+00  4.94611E-02 F
  5.50000E-01  7.46128E-01  5.89049E+00  2.37125E+00  3.03434E-02 F
  5.50000E-01  7.46128E-01  6.08684E+00  2.36219E+00  9.60219E-03 F
  5.50000E-01  7.85398E-01  0.00000E+00  2.36368E+00  2.39575E-03 F
  5.50000E-01  7.85398E-01  1.96350E-01  2.36047E+00  1.41377E-02 F
  5.50000E-01  7.85398E-01  3.92699E-01  2.34886E+00  3.67710E-02 F
  5.50000E-01  7.85398E-01  5.89049E-01  2.32709E+00  5.65917E-02 F
  5.50000E-01  7.85398E-01  7.85398E-01  2.29904E+00  6.47535E-02 F
  5.50000E-01  7.85398E-01  9.81748E-01  2.27041E+00  6.12285E-02 F
  5.50000E-01  7.85398E-01  1.17810E+00  2.24577E+00  4.84034E-02 F
  5.50000E-01  7.85398E-01  1.37445E+00  2.22885E+00  2.77486E-02 F
  5.50000E-01  7.85398E-01  1.57080E+00  2.22169E+00  5.21597E-03 F
  5.50000E-01  7.85398E-01  1.76715E+00  2.22372E+00 -1.34799E-02 F
  5.50000E-01  7.85398E-01  1.96350E+00  2.23242E+00 -2.50963E-02 F
  5.50000E-01  7.85398E-01  2.15985E+00  2.24496E+00 -3.13251E-02 F
  5.50000E-01  7.85398E-01  2.35619E+00  2.25952E+00 -3.39593E-02 F
  5.50000E-01  7.85398E-01  2.55254E+00  2.27463E+00 -3.34682E-02 F
  5.50000E-01  7.85398E-01  2.74889E+00  2.28915E+00 -3.12404E-02 F
  5.50000E-01  7.85398E-01  2.94524E+00  2.30264E+00 -2.84756E-02 F
  5.50000E-01  7.85398E-01  3.14159E+00  2.31485E+00 -2.56821E-02 F
  5.50000E-01  7.85398E-01  3.33794E+00  2.32668E+00 -2.72601E-02 F
  5.50000E-01  7.85398E-01  3.53429E+00  2.34062E+00 -3.44266E-02 F
  5.50000E-01  7.85398E-01  3.73064E+00  2.35923E+00 -4.71584E-02 F
  5.50000E-01  7.85398E-01  3.92699E+00  2.38466E+00 -6.15559E-02 F
  5.50000E-01  7.85398E-01  4.12334E+00  2.41584E+00 -6.91146E-02 F
  5.50000E-01  7.85398E-01  4.31969E+00  2.44824E+00 -6.38987E-02 F
  5.50000E-01  7.85398E-01  4.51604E+00  2.47440E+00 -4.16797E-02 F
  5.50000E-01  7.85398E-01  4.71239E+00  2.48682E+00 -8.49449E-03 F
  5.50000E-01  7.85398E-01  4.90874E+00  2.48302E+00  2.26498E-02 F
  5.50000E-01  7.85398E-01  5.10509E+00  2.46654E+00  4.35182E-02 F
  5.50000E-01  7.85398E-01  5.30144E+00  2.44222E+00  5.60175E-02 F
  5.50000E-01  7.85398E-01  5.49779E+00  2.41465E+00  5.73895E-02 F
  5.50000E-01  7.85398E-01  5.69414E+00  2.38983E+00  4.59662E-02 F
  5.50000E-01  7.85398E-01  5.89049E+00  2.37283E+00  2.59373E-02 F
  5.50000E-01  7.85398E-01  6.08684E+00  2.36536E+00  7.59084E-03 F
  5.50000E-01  8.24668E-01  0.00000E+00  2.36374E+00  1.02641E-02 F
  5.50000E-01  8.24668E-01  1.96350E-01  2.35558E+00  2.69644E-02 F
  5.50000E-01  8.24668E-01  3.92699E-01  2.33791E+00  4.93544E-02 F
  5.50000E-01  8.24668E-01  5.89049E-01  2.31187E+00  6.21349E-02 F
  5.50000E-01  8.24668E-01  7.85398E-01  2.28398E+00  5.92244E-02 F
  5.50000E-01  8.24668E-01  9.81748E-01  2.26018E+00  4.62952E-02 F
  5.50000E-01  8.24668E-01  1.17810E+00  2.24377E+00  2.70125E-02 F
  5.50000E-01  8.24668E-01  1.37445E+00  2.23667E+00  5.54087E-03 F
  5.50000E-01  8.24668E-01  1.57080E+00  2.23830E+00 -1.20776E-02 F
  5.50000E-01  8.24668E-01  1.76715E+00  2.24640E+00 -2.36040E-02 F
  5.50000E-01  8.24668E-01  1.96350E+00  2.25829E+00 -2.95921E-02 F
  5.50000E-01  8.24668E-01  2.15985E+00  2.27247E+00 -3.40826E-02 F
  5.50000E-01  8.24668E-01  2.35619E+00  2.28859E+00 -3.77393E-02 F
  5.50000E-01  8.24668E-01  2.55254E+00  2.30636E+00 -4.11549E-02 F
  5.50000E-01  8.24668E-01  2.74889E+00  2.32600E+00 -4.53142E-02 F
  5.50000E-01  8.24668E-01  2.94524E+00  2.34771E+00 -4.90603E-02 F
  5.50000E-01  8.24668E-01  3.14159E+00  2.37100E+00 -5.13394E-02 F
  5.50000E-01  8.24668E-01  3.33794E+00  2.39540E+00 -5.27060E-02 F
  5.50000E-01  8.24668E-01  3.53429E+00  2.42029E+00 -5.24276E-02 F
  5.50000E-01  8.24668E-01  3.73064E+00  2.44538E+00 -5.28428E-02 F
  5.50000E-01  8.24668E-01  3.92699E+00  2.47090E+00 -5.24417E-02 F
  5.50000E-01  8.24668E-01  4.12334E+00  2.49558E+00 -4.77393E-02 F
  5.50000E-01  8.24668E-01  4.31969E+00  2.51595E+00 -3.27147E-02 F
  5.50000E-01  8.24668E-01  4.51604E+00  2.52555E+00 -4.33029E-03 F
  5.50000E-01  8.24668E-01  4.71239E+00  2.51954E+00  2.81943E-02 F
  5.50000E-01  8.24668E-01  4.90874E+00  2.49917E+00  5.22771E-02 F
  5.50000E-01  8.24668E-01  5.10509E+00  2.47043E+00  6.37466E-02 F
  5.50000E-01  8.24668E-01  5.30144E+00  2.43892E+00  6.53319E-02 F
  5.50000E-01  8.24668E-01  5.49779E+00  2.40957E+00  5.63317E-02 F
  5.50000E-01  8.24668E-01  5.69414E+00  2.38679E+00  3.94054E-02 F
  5.50000E-01  8.24668E-01  5.89049E+00  2.37308E+00  1.95337E-02 F
  5.50000E-01  8.24668E-01  6.08684E+00  2.36729E+00  7.55508E-03 F
  5.50000E-01  8.63938E-01  0.00000E+00  2.36765E+00  3.42393E-02 F
  5.50000E-01  8.63938E-01  1.96350E-01  2.34796E+00  5.17810E-02 F
  5.50000E-01  8.63938E-01  3.92699E-01  2.32013E+00  6.81475E-02 F
  5.50000E-01  8.63938E-01  5.89049E-01  2.28823E+00  6.99323E-02 F
  5.50000E-01  8.63938E-01  7.85398E-01  2.25945E+00  5.72904E-02 F
  5.50000E-01  8.63938E-01  9.81748E-01  2.23848E+00  3.64435E-02 F
  5.50000E-01  8.63938E-01  1.17810E+00  2.22829E+00  9.59587E-03 F
  5.50000E-01  8.63938E-01  1.37445E+00  2.22956E+00 -1.40219E-02 F
  5.50000E-01  8.63938E-01  1.57080E+00  2.23928E+00 -2.89756E-02 F
  5.50000E-01  8.63938E-01  1.76715E+00  2.25394E+00 -3.62535E-02 F
  5.50000E-01  8.63938E-01  1.96350E+00  2.27054E+00 -3.79585E-02 F
  5.50000E-01  8.63938E-01  2.15985E+00  2.28768E+00 -3.87485E-02 F
  5.50000E-01  8.63938E-01  2.35619E+00  2.30557E+00 -4.09837E-02 F
  5.50000E-01  8.63938E-01  2.55254E+00  2.32524E+00 -4.60476E-02 F
  5.50000E-01  8.63938E-01  2.74889E+00  2.34808E+00 -5.39809E-02 F
  5.50000E-01  8.63938E-01  2.94524E+00  2.37528E+00 -6.32861E-02 F
  5.50000E-01  8.63938E-01  3.14159E+00  2.40696E+00 -7.12948E-02 F
  5.50000E-01  8.63938E-01  3.33794E+00  2.44217E+00 -7.58023E-02 F
  5.50000E-01  8.63938E-01  3.53429E+00  2.47870E+00 -7.43675E-02 F
  5.50000E-01  8.63938E-01  3.73064E+00  2.51342E+00 -6.61268E-02 F
  5.50000E-01  8.63938E-01  3.92699E+00  2.54290E+00 -5.19772E-02 F
  5.50000E-01  8.63938E-01  4.12334E+00  2.56477E+00 -3.45271E-02 F
  5.50000E-01  8.63938E-01  4.31969E+00  2.57628E+00 -9.47912E-03 F
  5.50000E-01  8.63938E-01  4.51604E+00  2.57321E+00  2.18726E-02 F
  5.50000E-01  8.63938E-01  4.71239E+00  2.55493E+00  4.92843E-02 F
  5.50000E-01  8.63938E-01  4.90874E+00  2.52583E+00  6.52640E-02 F
  5.50000E-01  8.63938E-01  5.10509E+00  2.49206E+00  7.03176E-02 F
  5.50000E-01  8.63938E-01  5.30144E+00  2.45849E+00  6.63111E-02 F
  5.50000E-01  8.63938E-01  5.49779E+00  2.42927E+00  5.44937E-02 F
  5.50000E-01  8.63938E-01  5.69414E+00  2.40707E+00  3.86907E-02 F
  5.50000E-01  8.63938E-01  5.89049E+00  2.39225E+00  2.56272E-02 F
  5.50000E-01  8.63938E-01  6.08684E+00  2.38101E+00  2.45399E-02 F
  5.50000E-01  9.03208E-01  0.00000E+00  2.37528E+00  5.11169E-02 F
  5.50000E-01  9.03208E-01  1.96350E-01  2.34874E+00  6.33264E-02 F
  5.50000E-01  9.03208E-01  3.92699E-01  2.31790E+00  6.92651E-02 F
  5.50000E-01  9.03208E-01  5.89049E-01  2.28784E+00  6.15414E-02 F
  5.50000E-01  9.03208E-01  7.85398E-01  2.26389E+00  4.47468E-02 F
  5.50000E-01  9.03208E-01  9.81748E-01  2.24876E+00  2.24816E-02 F
  5.50000E-01  9.03208E-01  1.17810E+00  2.24471E+00 -4.17815E-03 F
  5.50000E-01  9.03208E-01  1.37445E+00  2.25164E+00 -2.56915E-02 F
  5.50000E-01  9.03208E-01  1.57080E+00  2.26613E+00 -3.82795E-02 F
  5.50000E-01  9.03208E-01  1.76715E+00  2.28460E+00 -4.32817E-02 F
  5.50000E-01  9.03208E-01  1.96350E+00  2.30427E+00 -4.35628E-02 F
  5.50000E-01  9.03208E-01  2.15985E+00  2.32371E+00 -4.18132E-02 F
  5.50000E-01  9.03208E-01  2.35619E+00  2.34257E+00 -4.10774E-02 F
  5.50000E-01  9.03208E-01  2.55254E+00  2.36208E+00 -4.39748E-02 F
  5.50000E-01  9.03208E-01  2.74889E+00  2.38382E+00 -4.97520E-02 F
  5.50000E-01  9.03208E-01  2.94524E+00  2.40909E+00 -5.81061E-02 F
  5.50000E-01  9.03208E-01  3.14159E+00  2.43920E+00 -6.86172E-02 F
  5.50000E-01  9.03208E-01  3.33794E+00  2.47464E+00 -7.75239E-02 F
  5.50000E-01  9.03208E-01  3.53429E+00  2.51347E+00 -7.96356E-02 F
  5.50000E-01  9.03208E-01  3.73064E+00  2.55165E+00 -7.22482E-02 F
  5.50000E-01  9.03208E-01  3.92699E+00  2.58429E+00 -5.60438E-02 F
  5.50000E-01  9.03208E-01  4.12334E+00  2.60736E+00 -3.33148E-02 F
  5.50000E-01  9.03208E-01  4.31969E+00  2.61698E+00 -3.13313E-03 F
  5.50000E-01  9.03208E-01  4.51604E+00  2.61023E+00  2.88982E-02 F
  5.50000E-01  9.03208E-01  4.71239E+00  2.58879E+00  5.31936E-02 F
  5.50000E-01  9.03208E-01  4.90874E+00  2.55836E+00  6.53832E-02 F
  5.50000E-01  9.03208E-01  5.10509E+00  2.52456E+00  6.89733E-02 F
  5.50000E-01  9.03208E-01  5.30144E+00  2.49108E+00  6.59219E-02 F
  5.50000E-01  9.03208E-01  5.49779E+00  2.46092E+00  5.74193E-02 F
  5.50000E-01  9.03208E-01  5.69414E+00  2.43603E+00  4.61009E-02 F
  5.50000E-01  9.03208E-01  5.89049E+00  2.41601E+00  3.95238E-02 F
  5.50000E-01  9.03208E-01  6.08684E+00  2.39697E+00  4.23412E-02 F
  5.50000E-01  9.42478E-01  0.00000E+00  2.37524E+00  6.26585E-02 F
  5.50000E-01  9.42478E-01  1.96350E-01  2.34553E+00  6.44257E-02 F
  5.50000E-01  9.42478E-01  3.92699E-01  2.31729E+00  5.72916E-02 F
  5.50000E-01  9.42478E-01  5.89049E-01  2.29470E+00  4.14077E-02 F
  5.50000E-01  9.42478E-01  7.85398E-01  2.28027E+00  2.29518E-02 F
  5.50000E-01  9.42478E-01  9.81748E-01  2.27410E+00  4.35440E-03 F
  5.50000E-01  9.42478E-01  1.17810E+00  2.27662E+00 -1.54478E-02 F
  5.50000E-01  9.42478E-01  1.37445E+00  2.28723E+00 -3.08718E-02 F
  5.50000E-01  9.42478E-01  1.57080E+00  2.30354E+00 -4.07242E-02 F
  5.50000E-01  9.42478E-01  1.76715E+00  2.32348E+00 -4.65333E-02 F
  5.50000E-01  9.42478E-01  1.96350E+00  2.34568E+00 -4.99498E-02 F
  5.50000E-01  9.42478E-01  2.15985E+00  2.36902E+00 -5.04428E-02 F
  5.50000E-01  9.42478E-01  2.35619E+00  2.39248E+00 -5.01020E-02 F
  5.50000E-01  9.42478E-01  2.55254E+00  2.41633E+00 -5.11154E-02 F
  5.50000E-01  9.42478E-01  2.74889E+00  2.44119E+00 -5.33728E-02 F
  5.50000E-01  9.42478E-01  2.94524E+00  2.46776E+00 -5.72254E-02 F
  5.50000E-01  9.42478E-01  3.14159E+00  2.49697E+00 -6.27611E-02 F
  5.50000E-01  9.42478E-01  3.33794E+00  2.52908E+00 -6.67674E-02 F
  5.50000E-01  9.42478E-01  3.53429E+00  2.56257E+00 -6.64778E-02 F
  5.50000E-01  9.42478E-01  3.73064E+00  2.59510E+00 -6.09948E-02 F
  5.50000E-01  9.42478E-01  3.92699E+00  2.62349E+00 -4.85278E-02 F
  5.50000E-01  9.42478E-01  4.12334E+00  2.64338E+00 -2.66237E-02 F
  5.50000E-01  9.42478E-01  4.31969E+00  2.64946E+00  4.19306E-03 F
  5.50000E-01  9.42478E-01  4.51604E+00  2.63901E+00  3.51192E-02 F
  5.50000E-01  9.42478E-01  4.71239E+00  2.61488E+00  5.63432E-02 F
  5.50000E-01  9.42478E-01  4.90874E+00  2.58329E+00  6.58816E-02 F
  5.50000E-01  9.42478E-01  5.10509E+00  2.54924E+00  6.83481E-02 F
  5.50000E-01  9.42478E-01  5.30144E+00  2.51565E+00  6.61519E-02 F
  5.50000E-01  9.42478E-01  5.49779E+00  2.48431E+00  6.11538E-02 F
  5.50000E-01  9.42478E-01  5.69414E+00  2.45612E+00  5.54226E-02 F
  5.50000E-01  9.42478E-01  5.89049E+00  2.43003E+00  5.43854E-02 F
  5.50000E-01  9.42478E-01  6.08684E+00  2.40350E+00  5.78494E-02 F
  5.50000E-01  9.81748E-01  0.00000E+00  2.35235E+00  7.95495E-02 F
  5.50000E-01  9.81748E-01  1.96350E-01  2.31827E+00  6.73363E-02 F
  5.50000E-01  9.81748E-01  3.92699E-01  2.29216E+00  4.70541E-02 F
  5.50000E-01  9.81748E-01  5.89049E-01  2.27637E+00  2.34501E-02 F
  5.50000E-01  9.81748E-01  7.85398E-01  2.27020E+00  5.66470E-03 F
  5.50000E-01  9.81748E-01  9.81748E-01  2.27073E+00 -8.44514E-03 F
  5.50000E-01  9.81748E-01  1.17810E+00  2.27831E+00 -2.55959E-02 F
  5.50000E-01  9.81748E-01  1.37445E+00  2.29311E+00 -3.94937E-02 F
  5.50000E-01  9.81748E-01  1.57080E+00  2.31336E+00 -4.96484E-02 F
  5.50000E-01  9.81748E-01  1.76715E+00  2.33782E+00 -5.68849E-02 F
  5.50000E-01  9.81748E-01  1.96350E+00  2.36505E+00 -6.05134E-02 F
  5.50000E-01  9.81748E-01  2.15985E+00  2.39374E+00 -6.23380E-02 F
  5.50000E-01  9.81748E-01  2.35619E+00  2.42378E+00 -6.46951E-02 F
  5.50000E-01  9.81748E-01  2.55254E+00  2.45515E+00 -6.60817E-02 F
  5.50000E-01  9.81748E-01  2.74889E+00  2.48747E+00 -6.72416E-02 F
  5.50000E-01  9.81748E-01  2.94524E+00  2.52085E+00 -6.83495E-02 F
  5.50000E-01  9.81748E-01  3.14159E+00  2.55474E+00 -6.70562E-02 F
  5.50000E-01  9.81748E-01  3.33794E+00  2.58741E+00 -6.17690E-02 F
  5.50000E-01  9.81748E-01  3.53429E+00  2.61706E+00 -5.40380E-02 F
  5.50000E-01  9.81748E-01  3.73064E+00  2.64262E+00 -4.45691E-02 F
  5.50000E-01  9.81748E-01  3.92699E+00  2.66268E+00 -3.16527E-02 F
  5.50000E-01  9.81748E-01  4.12334E+00  2.67441E+00 -1.16320E-02 F
  5.50000E-01  9.81748E-01  4.31969E+00  2.67351E+00  1.58277E-02 F
  5.50000E-01  9.81748E-01  4.51604E+00  2.65800E+00  4.23140E-02 F
  5.50000E-01  9.81748E-01  4.71239E+00  2.63122E+00  5.89420E-02 F
  5.50000E-01  9.81748E-01  4.90874E+00  2.59881E+00  6.61236E-02 F
  5.50000E-01  9.81748E-01  5.10509E+00  2.56463E+00  6.80954E-02 F
  5.50000E-01  9.81748E-01  5.30144E+00  2.53056E+00  6.81190E-02 F
  5.50000E-01  9.81748E-01  5.49779E+00  2.49683E+00  6.87269E-02 F
  5.50000E-01  9.81748E-01  5.69414E+00  2.46291E+00  7.11259E-02 F
  5.50000E-01  9.81748E-01  5.89049E+00  2.42752E+00  7.65727E-02 F
  5.50000E-01  9.81748E-01  6.08684E+00  2.39010E+00  8.11025E-02 F
  5.50000E-01  1.02102E+00  0.00000E+00  2.34530E+00  8.10966E-02 F
  5.50000E-01  1.02102E+00  1.96350E-01  2.31253E+00  6.13037E-02 F
  5.50000E-01  1.02102E+00  3.92699E-01  2.29003E+00  3.75288E-02 F
  5.50000E-01  1.02102E+00  5.89049E-01  2.27916E+00  1.15855E-02 F
  5.50000E-01  1.02102E+00  7.85398E-01  2.27799E+00 -4.50376E-03 F
  5.50000E-01  1.02102E+00  9.81748E-01  2.28296E+00 -1.88410E-02 F
  5.50000E-01  1.02102E+00  1.17810E+00  2.29571E+00 -3.76222E-02 F
  5.50000E-01  1.02102E+00  1.37445E+00  2.31591E+00 -5.04561E-02 F
  5.50000E-01  1.02102E+00  1.57080E+00  2.34103E+00 -5.89875E-02 F
  5.50000E-01  1.02102E+00  1.76715E+00  2.36966E+00 -6.40565E-02 F
  5.50000E-01  1.02102E+00  1.96350E+00  2.39989E+00 -6.44020E-02 F
  5.50000E-01  1.02102E+00  2.15985E+00  2.43013E+00 -6.33210E-02 F
  5.50000E-01  1.02102E+00  2.35619E+00  2.46052E+00 -6.33660E-02 F
  5.50000E-01  1.02102E+00  2.55254E+00  2.49141E+00 -6.38917E-02 F
  5.50000E-01  1.02102E+00  2.74889E+00  2.52347E+00 -6.68226E-02 F
  5.50000E-01  1.02102E+00  2.94524E+00  2.55782E+00 -7.06399E-02 F
  5.50000E-01  1.02102E+00  3.14159E+00  2.59366E+00 -6.98936E-02 F
  5.50000E-01  1.02102E+00  3.33794E+00  2.62768E+00 -6.17492E-02 F
  5.50000E-01  1.02102E+00  3.53429E+00  2.65655E+00 -4.91320E-02 F
  5.50000E-01  1.02102E+00  3.73064E+00  2.67853E+00 -3.45007E-02 F
  5.50000E-01  1.02102E+00  3.92699E+00  2.69253E+00 -1.82979E-02 F
  5.50000E-01  1.02102E+00  4.12334E+00  2.69729E+00  9.96073E-04 F
  5.50000E-01  1.02102E+00  4.31969E+00  2.69079E+00  2.38949E-02 F
  5.50000E-01  1.02102E+00  4.51604E+00  2.67247E+00  4.46720E-02 F
  5.50000E-01  1.02102E+00  4.71239E+00  2.64545E+00  5.74643E-02 F
  5.50000E-01  1.02102E+00  4.90874E+00  2.61387E+00  6.41585E-02 F
  5.50000E-01  1.02102E+00  5.10509E+00  2.58015E+00  6.78286E-02 F
  5.50000E-01  1.02102E+00  5.30144E+00  2.54510E+00  7.17886E-02 F
  5.50000E-01  1.02102E+00  5.49779E+00  2.50822E+00  7.69553E-02 F
  5.50000E-01  1.02102E+00  5.69414E+00  2.46925E+00  8.26634E-02 F
  5.50000E-01  1.02102E+00  5.89049E+00  2.42810E+00  8.83007E-02 F
  5.50000E-01  1.02102E+00  6.08684E+00  2.38564E+00  9.02466E-02 F
  5.50000E-01  1.06029E+00  0.00000E+00  2.35681E+00  6.41448E-02 F
  5.50000E-01  1.06029E+00  1.96350E-01  2.33186E+00  4.45415E-02 F
  5.50000E-01  1.06029E+00  3.92699E-01  2.31628E+00  2.24570E-02 F
  5.50000E-01  1.06029E+00  5.89049E-01  2.31200E+00 -2.57293E-03 F
  5.50000E-01  1.06029E+00  7.85398E-01  2.31683E+00 -1.74535E-02 F
  5.50000E-01  1.06029E+00  9.81748E-01  2.32828E+00 -3.38780E-02 F
  5.50000E-01  1.06029E+00  1.17810E+00  2.34778E+00 -4.96294E-02 F
  5.50000E-01  1.06029E+00  1.37445E+00  2.37269E+00 -5.69789E-02 F
  5.50000E-01  1.06029E+00  1.57080E+00  2.40054E+00 -6.15031E-02 F
  5.50000E-01  1.06029E+00  1.76715E+00  2.43007E+00 -6.22801E-02 F
  5.50000E-01  1.06029E+00  1.96350E+00  2.45937E+00 -5.93452E-02 F
  5.50000E-01  1.06029E+00  2.15985E+00  2.48716E+00 -5.50947E-02 F
  5.50000E-01  1.06029E+00  2.35619E+00  2.51328E+00 -5.16547E-02 F
  5.50000E-01  1.06029E+00  2.55254E+00  2.53874E+00 -5.18730E-02 F
  5.50000E-01  1.06029E+00  2.74889E+00  2.56586E+00 -5.69322E-02 F
  5.50000E-01  1.06029E+00  2.94524E+00  2.59620E+00 -6.24012E-02 F
  5.50000E-01  1.06029E+00  3.14159E+00  2.62866E+00 -6.29773E-02 F
  5.50000E-01  1.06029E+00  3.33794E+00  2.65983E+00 -5.58087E-02 F
  5.50000E-01  1.06029E+00  3.53429E+00  2.68588E+00 -4.27772E-02 F
  5.50000E-01  1.06029E+00  3.73064E+00  2.70438E+00 -2.68566E-02 F
  5.50000E-01  1.06029E+00  3.92699E+00  2.71413E+00 -9.60550E-03 F
  5.50000E-01  1.06029E+00  4.12334E+00  2.71427E+00  9.49586E-03 F
  5.50000E-01  1.06029E+00  4.31969E+00  2.70370E+00  3.02470E-02 F
  5.50000E-01  1.06029E+00  4.51604E+00  2.68287E+00  4.73909E-02 F
  5.50000E-01  1.06029E+00  4.71239E+00  2.65501E+00  5.81000E-02 F
  5.50000E-01  1.06029E+00  4.90874E+00  2.62297E+00  6.50925E-02 F
  5.50000E-01  1.06029E+00  5.10509E+00  2.58837E+00  7.00827E-02 F
  5.50000E-01  1.06029E+00  5.30144E+00  2.55152E+00  7.62646E-02 F
  5.50000E-01  1.06029E+00  5.49779E+00  2.51201E+00  8.23258E-02 F
  5.50000E-01  1.06029E+00  5.69414E+00  2.47092E+00  8.50304E-02 F
  5.50000E-01  1.06029E+00  5.89049E+00  2.43003E+00  8.45797E-02 F
  5.50000E-01  1.06029E+00  6.08684E+00  2.39079E+00  7.98698E-02 F
  5.50000E-01  1.09956E+00  0.00000E+00  2.33066E+00  4.76994E-02 F
  5.50000E-01  1.09956E+00  1.96350E-01  2.31421E+00  2.56893E-02 F
  5.50000E-01  1.09956E+00  3.92699E-01  2.30745E+00  3.12975E-03 F
  5.50000E-01  1.09956E+00  5.89049E-01  2.31105E+00 -1.70401E-02 F
  5.50000E-01  1.09956E+00  7.85398E-01  2.32159E+00 -2.97863E-02 F
  5.50000E-01  1.09956E+00  9.81748E-01  2.33972E+00 -5.03212E-02 F
  5.50000E-01  1.09956E+00  1.17810E+00  2.36682E+00 -6.46227E-02 F
  5.50000E-01  1.09956E+00  1.37445E+00  2.39828E+00 -6.91483E-02 F
  5.50000E-01  1.09956E+00  1.57080E+00  2.43150E+00 -7.02603E-02 F
  5.50000E-01  1.09956E+00  1.76715E+00  2.46459E+00 -6.68640E-02 F
  5.50000E-01  1.09956E+00  1.96350E+00  2.49599E+00 -6.21664E-02 F
  5.50000E-01  1.09956E+00  2.15985E+00  2.52562E+00 -5.81383E-02 F
  5.50000E-01  1.09956E+00  2.35619E+00  2.55373E+00 -5.48341E-02 F
  5.50000E-01  1.09956E+00  2.55254E+00  2.58113E+00 -5.45652E-02 F
  5.50000E-01  1.09956E+00  2.74889E+00  2.60958E+00 -5.71861E-02 F
  5.50000E-01  1.09956E+00  2.94524E+00  2.63933E+00 -5.75368E-02 F
  5.50000E-01  1.09956E+00  3.14159E+00  2.66829E+00 -5.26706E-02 F
  5.50000E-01  1.09956E+00  3.33794E+00  2.69347E+00 -4.21690E-02 F
  5.50000E-01  1.09956E+00  3.53429E+00  2.71227E+00 -2.84061E-02 F
  5.50000E-01  1.09956E+00  3.73064E+00  2.72358E+00 -1.39779E-02 F
  5.50000E-01  1.09956E+00  3.92699E+00  2.72710E+00  1.06227E-03 F
  5.50000E-01  1.09956E+00  4.12334E+00  2.72199E+00  1.86186E-02 F
  5.50000E-01  1.09956E+00  4.31969E+00  2.70690E+00  3.77929E-02 F
  5.50000E-01  1.09956E+00  4.51604E+00  2.68272E+00  5.25205E-02 F
  5.50000E-01  1.09956E+00  4.71239E+00  2.65251E+00  6.23588E-02 F
  5.50000E-01  1.09956E+00  4.90874E+00  2.61819E+00  6.99909E-02 F
  5.50000E-01  1.09956E+00  5.10509E+00  2.58058E+00  7.78746E-02 F
  5.50000E-01  1.09956E+00  5.30144E+00  2.53874E+00  8.88935E-02 F
  5.50000E-01  1.09956E+00  5.49779E+00  2.49242E+00  9.76631E-02 F
  5.50000E-01  1.09956E+00  5.69414E+00  2.44446E+00  9.88790E-02 F
  5.50000E-01  1.09956E+00  5.89049E+00  2.39869E+00  9.23747E-02 F
  5.50000E-01  1.09956E+00  6.08684E+00  2.35902E+00  7.51461E-02 F
  5.50000E-01  1.13883E+00  0.00000E+00  2.30977E+00  3.34572E-02 F
  5.50000E-01  1.13883E+00  1.96350E-01  2.30051E+00  8.92000E-03 F
  5.50000E-01  1.13883E+00  3.92699E-01  2.30162E+00 -1.37330E-02 F
  5.50000E-01  1.13883E+00  5.89049E-01  2.31144E+00 -2.72985E-02 F
  5.50000E-01  1.13883E+00  7.85398E-01  2.32600E+00 -3.85196E-02 F
  5.50000E-01  1.13883E+00  9.81748E-01  2.34843E+00 -5.94300E-02 F
  5.50000E-01  1.13883E+00  1.17810E+00  2.37947E+00 -7.23343E-02 F
  5.50000E-01  1.13883E+00  1.37445E+00  2.41487E+00 -7.72063E-02 F
  5.50000E-01  1.13883E+00  1.57080E+00  2.45177E+00 -7.62044E-02 F
  5.50000E-01  1.13883E+00  1.76715E+00  2.48759E+00 -7.13415E-02 F
  5.50000E-01  1.13883E+00  1.96350E+00  2.52145E+00 -6.65433E-02 F
  5.50000E-01  1.13883E+00  2.15985E+00  2.55369E+00 -6.31892E-02 F
  5.50000E-01  1.13883E+00  2.35619E+00  2.58513E+00 -6.17408E-02 F
  5.50000E-01  1.13883E+00  2.55254E+00  2.61669E+00 -6.20568E-02 F
  5.50000E-01  1.13883E+00  2.74889E+00  2.64871E+00 -6.12572E-02 F
  5.50000E-01  1.13883E+00  2.94524E+00  2.67949E+00 -5.54301E-02 F
  5.50000E-01  1.13883E+00  3.14159E+00  2.70587E+00 -4.32670E-02 F
  5.50000E-01  1.13883E+00  3.33794E+00  2.72447E+00 -2.61184E-02 F
  5.50000E-01  1.13883E+00  3.53429E+00  2.73400E+00 -1.00809E-02 F
  5.50000E-01  1.13883E+00  3.73064E+00  2.73599E+00  2.20858E-03 F
  5.50000E-01  1.13883E+00  3.92699E+00  2.73179E+00  1.35905E-02 F
  5.50000E-01  1.13883E+00  4.12334E+00  2.72100E+00  2.72622E-02 F
  5.50000E-01  1.13883E+00  4.31969E+00  2.70243E+00  4.22479E-02 F
  5.50000E-01  1.13883E+00  4.51604E+00  2.67684E+00  5.40818E-02 F
  5.50000E-01  1.13883E+00  4.71239E+00  2.64601E+00  6.36232E-02 F
  5.50000E-01  1.13883E+00  4.90874E+00  2.61106E+00  7.17846E-02 F
  5.50000E-01  1.13883E+00  5.10509E+00  2.57189E+00  8.32588E-02 F
  5.50000E-01  1.13883E+00  5.30144E+00  2.52629E+00  9.89434E-02 F
  5.50000E-01  1.13883E+00  5.49779E+00  2.47476E+00  1.09401E-01 F
  5.50000E-01  1.13883E+00  5.69414E+00  2.42172E+00  1.09519E-01 F
  5.50000E-01  1.13883E+00  5.89049E+00  2.37233E+00  9.80645E-02 F
  5.50000E-01  1.13883E+00  6.08684E+00  2.33295E+00  6.93890E-02 F
  5.50000E-01  1.17810E+00  0.00000E+00  2.33822E+00  2.33172E-02 F
  5.50000E-01  1.17810E+00  1.96350E-01  2.33324E+00 -1.38969E-03 F
  5.50000E-01  1.17810E+00  3.92699E-01  2.33959E+00 -2.53728E-02 F
  5.50000E-01  1.17810E+00  5.89049E-01  2.35457E+00 -3.76117E-02 F
  5.50000E-01  1.17810E+00  7.85398E-01  2.37434E+00 -4.88344E-02 F
  5.50000E-01  1.17810E+00  9.81748E-01  2.40056E+00 -6.20481E-02 F
  5.50000E-01  1.17810E+00  1.17810E+00  2.43165E+00 -6.81855E-02 F
  5.50000E-01  1.17810E+00  1.37445E+00  2.46517E+00 -7.04714E-02 F
  5.50000E-01  1.17810E+00  1.57080E+00  2.49899E+00 -6.77516E-02 F
  5.50000E-01  1.17810E+00  1.76715E+00  2.53160E+00 -6.45090E-02 F
  5.50000E-01  1.17810E+00  1.96350E+00  2.56309E+00 -6.12894E-02 F
  5.50000E-01  1.17810E+00  2.15985E+00  2.59334E+00 -5.84949E-02 F
  5.50000E-01  1.17810E+00  2.35619E+00  2.62305E+00 -5.79499E-02 F
  5.50000E-01  1.17810E+00  2.55254E+00  2.65333E+00 -5.89454E-02 F
  5.50000E-01  1.17810E+00  2.74889E+00  2.68392E+00 -5.69063E-02 F
  5.50000E-01  1.17810E+00  2.94524E+00  2.71221E+00 -4.88012E-02 F
  5.50000E-01  1.17810E+00  3.14159E+00  2.73449E+00 -3.31645E-02 F
  5.50000E-01  1.17810E+00  3.33794E+00  2.74678E+00 -1.23631E-02 F
  5.50000E-01  1.17810E+00  3.53429E+00  2.74847E+00  5.05110E-03 F
  5.50000E-01  1.17810E+00  3.73064E+00  2.74232E+00  1.70877E-02 F
  5.50000E-01  1.17810E+00  3.92699E+00  2.73056E+00  2.65111E-02 F
  5.50000E-01  1.17810E+00  4.12334E+00  2.71384E+00  3.62730E-02 F
  5.50000E-01  1.17810E+00  4.31969E+00  2.69190E+00  4.61074E-02 F
  5.50000E-01  1.17810E+00  4.51604E+00  2.66548E+00  5.42189E-02 F
  5.50000E-01  1.17810E+00  4.71239E+00  2.63523E+00  6.18928E-02 F
  5.50000E-01  1.17810E+00  4.90874E+00  2.60164E+00  6.89621E-02 F
  5.50000E-01  1.17810E+00  5.10509E+00  2.56413E+00  7.97531E-02 F
  5.50000E-01  1.17810E+00  5.30144E+00  2.52129E+00  9.12168E-02 F
  5.50000E-01  1.17810E+00  5.49779E+00  2.47502E+00  9.60513E-02 F
  5.50000E-01  1.17810E+00  5.69414E+00  2.42928E+00  9.26863E-02 F
  5.50000E-01  1.17810E+00  5.89049E+00  2.38784E+00  8.07011E-02 F
  5.50000E-01  1.17810E+00  6.08684E+00  2.35584E+00  5.42589E-02 F
  5.50000E-01  1.21737E+00  0.00000E+00  2.34339E+00  1.57312E-02 F
  5.50000E-01  1.21737E+00  1.96350E-01  2.34161E+00 -9.06502E-03 F
  5.50000E-01  1.21737E+00  3.92699E-01  2.35232E+00 -3.64877E-02 F
  5.50000E-01  1.21737E+00  5.89049E-01  2.37359E+00 -5.36913E-02 F
  5.50000E-01  1.21737E+00  7.85398E-01  2.40210E+00 -6.77511E-02 F
  5.50000E-01  1.21737E+00  9.81748E-01  2.43645E+00 -7.49958E-02 F
  5.50000E-01  1.21737E+00  1.17810E+00  2.47249E+00 -7.37927E-02 F
  5.50000E-01  1.21737E+00  1.37445E+00  2.50754E+00 -6.91094E-02 F
  5.50000E-01  1.21737E+00  1.57080E+00  2.54044E+00 -6.41361E-02 F
  5.50000E-01  1.21737E+00  1.76715E+00  2.57202E+00 -6.18827E-02 F
  5.50000E-01  1.21737E+00  1.96350E+00  2.60282E+00 -5.92530E-02 F
  5.50000E-01  1.21737E+00  2.15985E+00  2.63258E+00 -5.65626E-02 F
  5.50000E-01  1.21737E+00  2.35619E+00  2.66127E+00 -5.38803E-02 F
  5.50000E-01  1.21737E+00  2.55254E+00  2.68894E+00 -5.13526E-02 F
  5.50000E-01  1.21737E+00  2.74889E+00  2.71499E+00 -4.61269E-02 F
  5.50000E-01  1.21737E+00  2.94524E+00  2.73720E+00 -3.59023E-02 F
  5.50000E-01  1.21737E+00  3.14159E+00  2.75227E+00 -1.88545E-02 F
  5.50000E-01  1.21737E+00  3.33794E+00  2.75693E+00  1.39795E-03 F
  5.50000E-01  1.21737E+00  3.53429E+00  2.75148E+00  1.80145E-02 F
  5.50000E-01  1.21737E+00  3.73064E+00  2.73816E+00  3.08559E-02 F
  5.50000E-01  1.21737E+00  3.92699E+00  2.71895E+00  4.03680E-02 F
  5.50000E-01  1.21737E+00  4.12334E+00  2.69535E+00  4.83260E-02 F
  5.50000E-01  1.21737E+00  4.31969E+00  2.66811E+00  5.47484E-02 F
  5.50000E-01  1.21737E+00  4.51604E+00  2.63823E+00  5.99634E-02 F
  5.50000E-01  1.21737E+00  4.71239E+00  2.60609E+00  6.47327E-02 F
  5.50000E-01  1.21737E+00  4.90874E+00  2.57191E+00  7.03550E-02 F
  5.50000E-01  1.21737E+00  5.10509E+00  2.53439E+00  7.94810E-02 F
  5.50000E-01  1.21737E+00  5.30144E+00  2.49348E+00  8.51797E-02 F
  5.50000E-01  1.21737E+00  5.49779E+00  2.45214E+00  8.39428E-02 F
  5.50000E-01  1.21737E+00  5.69414E+00  2.41366E+00  7.63061E-02 F
  5.50000E-01  1.21737E+00  5.89049E+00  2.38053E+00  6.32061E-02 F
  5.50000E-01  1.21737E+00  6.08684E+00  2.35613E+00  4.02353E-02 F
