s E_r[V/m] (\Gamma_b/n_b[m/s]  Q_b/n_b/T_b[m/s] L_1^b[m^2/s] L_2^b[m^2/s]  Z_b n_b[10^{19}m^{-3}] dlnn_b/dr[m^{-1}] T_b[eV] dlnT_b/dr[m^{-1}], b=1,NBB), size(e\varphi_1/T_i) 
  1.00000E-01 -1.32482E+04  5.74053E-02  2.52065E-01  1.08769E-02  4.77686E-02  6.00683E+00 -6.05858E-01  1.81067E+03 -5.27424E+00 -1.00000E+00 -5.58454E-01 -1.27941E+00  1.82968E-01  6.06694E-01  6.00683E+00 -6.05858E-01  1.19516E+03 -1.92006E+00  1.00000E+00 -6.13150E-10  0.00000E+00          NaN
  1.00000E-01 -1.19234E+04  5.53855E-02  2.47417E-01  1.09639E-02  4.84080E-02  6.00683E+00 -6.05858E-01  1.81067E+03 -5.27424E+00 -1.00000E+00 -4.82988E-01 -1.07661E+00  1.83054E-01  6.07230E-01  6.00683E+00 -6.05858E-01  1.19516E+03 -1.92006E+00  1.00000E+00 -6.13150E-10  0.00000E+00          NaN
  1.00000E-01 -1.05986E+04  5.33396E-02  2.42592E-01  1.10493E-02  4.90377E-02  6.00683E+00 -6.05858E-01  1.81067E+03 -5.27424E+00 -1.00000E+00 -4.07489E-01 -8.73597E-01  1.83166E-01  6.07933E-01  6.00683E+00 -6.05858E-01  1.19516E+03 -1.92006E+00  1.00000E+00 -6.13150E-10  0.00000E+00          NaN
  1.00000E-01 -9.27376E+03  5.12650E-02  2.37569E-01  1.11325E-02  4.96526E-02  6.00683E+00 -6.05858E-01  1.81067E+03 -5.27424E+00 -1.00000E+00 -3.31940E-01 -6.70257E-01  1.83318E-01  6.08886E-01  6.00683E+00 -6.05858E-01  1.19516E+03 -1.92006E+00  1.00000E+00 -6.13150E-10  0.00000E+00          NaN
  1.00000E-01 -7.94894E+03  4.91587E-02  2.32325E-01  1.12127E-02  5.02470E-02  6.00683E+00 -6.05858E-01  1.81067E+03 -5.27424E+00 -1.00000E+00 -2.56307E-01 -4.66384E-01  1.83534E-01  6.10236E-01  6.00683E+00 -6.05858E-01  1.19516E+03 -1.92006E+00  1.00000E+00 -6.13150E-10  0.00000E+00          NaN
  1.00000E-01 -6.62412E+03  4.70178E-02  2.26836E-01  1.12891E-02  5.08146E-02  6.00683E+00 -6.05858E-01  1.81067E+03 -5.27424E+00 -1.00000E+00 -1.80527E-01 -2.61580E-01  1.83857E-01  6.12258E-01  6.00683E+00 -6.05858E-01  1.19516E+03 -1.92006E+00  1.00000E+00 -6.13150E-10  0.00000E+00          NaN
  1.00000E-01 -5.29929E+03  4.48394E-02  2.21078E-01  1.13609E-02  5.13486E-02  6.00683E+00 -6.05858E-01  1.81067E+03 -5.27424E+00 -1.00000E+00 -1.04461E-01 -5.49931E-02  1.84381E-01  6.15538E-01  6.00683E+00 -6.05858E-01  1.19516E+03 -1.92006E+00  1.00000E+00 -6.13150E-10  0.00000E+00          NaN
  1.00000E-01 -3.97447E+03  4.26200E-02  2.15026E-01  1.14270E-02  5.18413E-02  6.00683E+00 -6.05858E-01  1.81067E+03 -5.27424E+00 -1.00000E+00 -2.77641E-02  1.55522E-01  1.85334E-01  6.21512E-01  6.00683E+00 -6.05858E-01  1.19516E+03 -1.92006E+00  1.00000E+00 -6.13150E-10  0.00000E+00          NaN
  1.00000E-01 -2.64965E+03  4.03560E-02  2.08655E-01  1.14864E-02  5.22844E-02  6.00683E+00 -6.05858E-01  1.81067E+03 -5.27424E+00 -1.00000E+00  5.06492E-02  3.76716E-01  1.87423E-01  6.34601E-01  6.00683E+00 -6.05858E-01  1.19516E+03 -1.92006E+00  1.00000E+00 -6.13150E-10  0.00000E+00          NaN
  1.00000E-01 -1.32482E+03  3.80434E-02  2.01936E-01  1.15379E-02  5.26680E-02  6.00683E+00 -6.05858E-01  1.81067E+03 -5.27424E+00 -1.00000E+00  1.46428E-01  7.18215E-01  2.01113E-01  7.28376E-01  6.00683E+00 -6.05858E-01  1.19516E+03 -1.92006E+00  1.00000E+00 -6.13150E-10  0.00000E+00          NaN
  1.00000E-01  0.00000E+00  3.58403E-02  1.95888E-01  1.16186E-02  5.32339E-02  6.00683E+00 -6.05858E-01  1.81067E+03 -5.27424E+00 -1.00000E+00  2.70917E-01  1.28012E+00  2.29736E-01  9.38822E-01  6.00683E+00 -6.05858E-01  1.19516E+03 -1.92006E+00  1.00000E+00 -6.13150E-10  0.00000E+00          NaN
  1.00000E-01  1.32482E+03  3.31780E-02  1.86522E-01  1.15902E-02  5.30264E-02  6.00683E+00 -6.05858E-01  1.81067E+03 -5.27424E+00 -1.00000E+00  2.86649E-01  1.04421E+00  1.91491E-01  6.60105E-01  6.00683E+00 -6.05858E-01  1.19516E+03 -1.92006E+00  1.00000E+00 -6.13150E-10  0.00000E+00          NaN
  1.00000E-01  2.64965E+03  3.04783E-02  1.76848E-01  1.15506E-02  5.27342E-02  6.00683E+00 -6.05858E-01  1.81067E+03 -5.27424E+00 -1.00000E+00  3.54764E-01  1.20049E+00  1.86817E-01  6.30805E-01  6.00683E+00 -6.05858E-01  1.19516E+03 -1.92006E+00  1.00000E+00 -6.13150E-10  0.00000E+00          NaN
  1.00000E-01  3.97447E+03  2.77456E-02  1.66923E-01  1.15008E-02  5.23653E-02  6.00683E+00 -6.05858E-01  1.81067E+03 -5.27424E+00 -1.00000E+00  4.27329E-01  1.38478E+00  1.85075E-01  6.19887E-01  6.00683E+00 -6.05858E-01  1.19516E+03 -1.92006E+00  1.00000E+00 -6.13150E-10  0.00000E+00          NaN
  1.00000E-01  5.29929E+03  2.49880E-02  1.56812E-01  1.14423E-02  5.19300E-02  6.00683E+00 -6.05858E-01  1.81067E+03 -5.27424E+00 -1.00000E+00  5.01334E-01  1.57821E+00  1.84249E-01  6.14713E-01  6.00683E+00 -6.05858E-01  1.19516E+03 -1.92006E+00  1.00000E+00 -6.13150E-10  0.00000E+00          NaN
  1.00000E-01  6.62412E+03  2.22137E-02  1.46573E-01  1.13763E-02  5.14389E-02  6.00683E+00 -6.05858E-01  1.81067E+03 -5.27424E+00 -1.00000E+00  5.75920E-01  1.77536E+00  1.83785E-01  6.11808E-01  6.00683E+00 -6.05858E-01  1.19516E+03 -1.92006E+00  1.00000E+00 -6.13150E-10  0.00000E+00          NaN
  1.00000E-01  7.94894E+03  1.94300E-02  1.36261E-01  1.13040E-02  5.09018E-02  6.00683E+00 -6.05858E-01  1.81067E+03 -5.27424E+00 -1.00000E+00  6.50786E-01  1.97431E+00  1.83494E-01  6.09986E-01  6.00683E+00 -6.05858E-01  1.19516E+03 -1.92006E+00  1.00000E+00 -6.13150E-10  0.00000E+00          NaN
  1.00000E-01  9.27376E+03  1.66430E-02  1.25924E-01  1.12267E-02  5.03277E-02  6.00683E+00 -6.05858E-01  1.81067E+03 -5.27424E+00 -1.00000E+00  7.25809E-01  2.17427E+00  1.83297E-01  6.08754E-01  6.00683E+00 -6.05858E-01  1.19516E+03 -1.92006E+00  1.00000E+00 -6.13150E-10  0.00000E+00          NaN
  1.00000E-01  1.05986E+04  1.38581E-02  1.15601E-01  1.11453E-02  4.97248E-02  6.00683E+00 -6.05858E-01  1.81067E+03 -5.27424E+00 -1.00000E+00  8.00928E-01  2.37484E+00  1.83157E-01  6.07875E-01  6.00683E+00 -6.05858E-01  1.19516E+03 -1.92006E+00  1.00000E+00 -6.13150E-10  0.00000E+00          NaN
  1.00000E-01  1.19234E+04  1.10799E-02  1.05327E-01  1.10607E-02  4.91003E-02  6.00683E+00 -6.05858E-01  1.81067E+03 -5.27424E+00 -1.00000E+00  8.76109E-01  2.57580E+00  1.83052E-01  6.07222E-01  6.00683E+00 -6.05858E-01  1.19516E+03 -1.92006E+00  1.00000E+00 -6.13150E-10  0.00000E+00          NaN
  1.00000E-01  1.32482E+04  8.31212E-03  9.51296E-02  1.09739E-02  4.84605E-02  6.00683E+00 -6.05858E-01  1.81067E+03 -5.27424E+00 -1.00000E+00  9.51333E-01  2.77704E+00  1.82972E-01  6.06720E-01  6.00683E+00 -6.05858E-01  1.19516E+03 -1.92006E+00  1.00000E+00 -6.13150E-10  0.00000E+00          NaN
  1.00000E-01  1.45731E+04  5.55788E-03  8.50329E-02  1.08854E-02  4.78111E-02  6.00683E+00 -6.05858E-01  1.81067E+03 -5.27424E+00 -1.00000E+00  1.02659E+00  2.97848E+00  1.82909E-01  6.06324E-01  6.00683E+00 -6.05858E-01  1.19516E+03 -1.92006E+00  1.00000E+00 -6.13150E-10  0.00000E+00          NaN
  1.00000E-01  1.58979E+04  2.81978E-03  7.50558E-02  1.07960E-02  4.71568E-02  6.00683E+00 -6.05858E-01  1.81067E+03 -5.27424E+00 -1.00000E+00  1.10187E+00  3.18006E+00  1.82858E-01  6.06006E-01  6.00683E+00 -6.05858E-01  1.19516E+03 -1.92006E+00  1.00000E+00 -6.13150E-10  0.00000E+00          NaN
  1.00000E-01  1.72227E+04  9.98349E-05  6.52128E-02  1.07062E-02  4.65019E-02  6.00683E+00 -6.05858E-01  1.81067E+03 -5.27424E+00 -1.00000E+00  1.17716E+00  3.38175E+00  1.82816E-01  6.05746E-01  6.00683E+00 -6.05858E-01  1.19516E+03 -1.92006E+00  1.00000E+00 -6.13150E-10  0.00000E+00          NaN
  1.00000E-01  1.85475E+04 -3.59641E-03  4.59434E-02  1.03276E-02  4.30740E-02  6.00683E+00 -6.05858E-01  1.81067E+03 -5.27424E+00 -1.00000E+00  1.25247E+00  3.58353E+00  1.82782E-01  6.05529E-01  6.00683E+00 -6.05858E-01  1.19516E+03 -1.92006E+00  1.00000E+00 -6.13150E-10  0.00000E+00          NaN
  1.00000E-01  1.98723E+04 -6.21149E-03  3.70165E-02  1.02509E-02  4.25482E-02  6.00683E+00 -6.05858E-01  1.81067E+03 -5.27424E+00 -1.00000E+00  1.32779E+00  3.78537E+00  1.82753E-01  6.05347E-01  6.00683E+00 -6.05858E-01  1.19516E+03 -1.92006E+00  1.00000E+00 -6.13150E-10  0.00000E+00          NaN
  1.00000E-01  2.11972E+04 -8.80849E-03  2.82133E-02  1.01745E-02  4.20257E-02  6.00683E+00 -6.05858E-01  1.81067E+03 -5.27424E+00 -1.00000E+00  1.40312E+00  3.98727E+00  1.82728E-01  6.05192E-01  6.00683E+00 -6.05858E-01  1.19516E+03 -1.92006E+00  1.00000E+00 -6.13150E-10  0.00000E+00          NaN
  1.00000E-01  2.25220E+04 -1.13868E-02  1.95376E-02  1.00986E-02  4.15083E-02  6.00683E+00 -6.05858E-01  1.81067E+03 -5.27424E+00 -1.00000E+00  1.47846E+00  4.18921E+00  1.82706E-01  6.05058E-01  6.00683E+00 -6.05858E-01  1.19516E+03 -1.92006E+00  1.00000E+00 -6.13150E-10  0.00000E+00          NaN
  1.00000E-01  2.38468E+04 -1.39461E-02  1.09917E-02  1.00236E-02  4.09974E-02  6.00683E+00 -6.05858E-01  1.81067E+03 -5.27424E+00 -1.00000E+00  1.55380E+00  4.39119E+00  1.82688E-01  6.04942E-01  6.00683E+00 -6.05858E-01  1.19516E+03 -1.92006E+00  1.00000E+00 -6.13150E-10  0.00000E+00          NaN
  1.00000E-01  2.51716E+04 -1.64862E-02  2.57641E-03  9.94946E-03  4.04945E-02  6.00683E+00 -6.05858E-01  1.81067E+03 -5.27424E+00 -1.00000E+00  1.62915E+00  4.59320E+00  1.82672E-01  6.04840E-01  6.00683E+00 -6.05858E-01  1.19516E+03 -1.92006E+00  1.00000E+00 -6.13150E-10  0.00000E+00          NaN
  1.00000E-01  2.64965E+04 -1.90070E-02 -5.70836E-03  9.87652E-03  4.00005E-02  6.00683E+00 -6.05858E-01  1.81067E+03 -5.27424E+00 -1.00000E+00  1.70450E+00  4.79523E+00  1.82657E-01  6.04751E-01  6.00683E+00 -6.05858E-01  1.19516E+03 -1.92006E+00  1.00000E+00 -6.13150E-10  0.00000E+00          NaN
  1.00000E-01  2.78213E+04 -2.15087E-02 -1.38637E-02  9.80485E-03  3.95164E-02  6.00683E+00 -6.05858E-01  1.81067E+03 -5.27424E+00 -1.00000E+00  1.77985E+00  4.99728E+00  1.82645E-01  6.04671E-01  6.00683E+00 -6.05858E-01  1.19516E+03 -1.92006E+00  1.00000E+00 -6.13150E-10  0.00000E+00          NaN
  1.00000E-01  2.91461E+04 -2.39914E-02 -2.18913E-02  9.73457E-03  3.90427E-02  6.00683E+00 -6.05858E-01  1.81067E+03 -5.27424E+00 -1.00000E+00  1.85521E+00  5.19936E+00  1.82633E-01  6.04600E-01  6.00683E+00 -6.05858E-01  1.19516E+03 -1.92006E+00  1.00000E+00 -6.13150E-10  0.00000E+00          NaN
  1.00000E-01  3.04709E+04 -2.64555E-02 -2.97937E-02  9.66575E-03  3.85799E-02  6.00683E+00 -6.05858E-01  1.81067E+03 -5.27424E+00 -1.00000E+00  1.93057E+00  5.40145E+00  1.82623E-01  6.04537E-01  6.00683E+00 -6.05858E-01  1.19516E+03 -1.92006E+00  1.00000E+00 -6.13150E-10  0.00000E+00          NaN
  1.00000E-01  3.17958E+04 -2.89014E-02 -3.75738E-02  9.59848E-03  3.81285E-02  6.00683E+00 -6.05858E-01  1.81067E+03 -5.27424E+00 -1.00000E+00  2.00593E+00  5.60355E+00  1.82614E-01  6.04480E-01  6.00683E+00 -6.05858E-01  1.19516E+03 -1.92006E+00  1.00000E+00 -6.13150E-10  0.00000E+00          NaN
  1.00000E-01  3.31206E+04 -3.13294E-02 -4.52347E-02  9.53278E-03  3.76887E-02  6.00683E+00 -6.05858E-01  1.81067E+03 -5.27424E+00 -1.00000E+00  2.08130E+00  5.80567E+00  1.82606E-01  6.04428E-01  6.00683E+00 -6.05858E-01  1.19516E+03 -1.92006E+00  1.00000E+00 -6.13150E-10  0.00000E+00          NaN
  1.00000E-01  3.44454E+04 -3.37401E-02 -5.27801E-02  9.46870E-03  3.72606E-02  6.00683E+00 -6.05858E-01  1.81067E+03 -5.27424E+00 -1.00000E+00  2.15666E+00  6.00779E+00  1.82598E-01  6.04381E-01  6.00683E+00 -6.05858E-01  1.19516E+03 -1.92006E+00  1.00000E+00 -6.13150E-10  0.00000E+00          NaN
  1.00000E-01  3.57702E+04 -3.61339E-02 -6.02137E-02  9.40625E-03  3.68444E-02  6.00683E+00 -6.05858E-01  1.81067E+03 -5.27424E+00 -1.00000E+00  2.23203E+00  6.20993E+00  1.82591E-01  6.04338E-01  6.00683E+00 -6.05858E-01  1.19516E+03 -1.92006E+00  1.00000E+00 -6.13150E-10  0.00000E+00          NaN
  1.00000E-01  3.70951E+04 -3.85115E-02 -6.75395E-02  9.34545E-03  3.64399E-02  6.00683E+00 -6.05858E-01  1.81067E+03 -5.27424E+00 -1.00000E+00  2.30740E+00  6.41208E+00  1.82585E-01  6.04299E-01  6.00683E+00 -6.05858E-01  1.19516E+03 -1.92006E+00  1.00000E+00 -6.13150E-10  0.00000E+00          NaN
  1.00000E-01  3.84199E+04 -4.08734E-02 -7.47613E-02  9.28629E-03  3.60472E-02  6.00683E+00 -6.05858E-01  1.81067E+03 -5.27424E+00 -1.00000E+00  2.38277E+00  6.61423E+00  1.82579E-01  6.04263E-01  6.00683E+00 -6.05858E-01  1.19516E+03 -1.92006E+00  1.00000E+00 -6.13150E-10  0.00000E+00          NaN
  1.00000E-01  3.97447E+04 -4.32201E-02 -8.18831E-02  9.22877E-03  3.56661E-02  6.00683E+00 -6.05858E-01  1.81067E+03 -5.27424E+00 -1.00000E+00  2.45814E+00  6.81639E+00  1.82574E-01  6.04230E-01  6.00683E+00 -6.05858E-01  1.19516E+03 -1.92006E+00  1.00000E+00 -6.13150E-10  0.00000E+00          NaN
  1.00000E-01  4.10695E+04 -4.55522E-02 -8.89091E-02  9.17287E-03  3.52964E-02  6.00683E+00 -6.05858E-01  1.81067E+03 -5.27424E+00 -1.00000E+00  2.53351E+00  7.01855E+00  1.82569E-01  6.04199E-01  6.00683E+00 -6.05858E-01  1.19516E+03 -1.92006E+00  1.00000E+00 -6.13150E-10  0.00000E+00          NaN
  1.00000E-01  4.23943E+04 -4.78703E-02 -9.58432E-02  9.11858E-03  3.49380E-02  6.00683E+00 -6.05858E-01  1.81067E+03 -5.27424E+00 -1.00000E+00  2.60888E+00  7.22072E+00  1.82565E-01  6.04171E-01  6.00683E+00 -6.05858E-01  1.19516E+03 -1.92006E+00  1.00000E+00 -6.13150E-10  0.00000E+00          NaN
  1.00000E-01  4.37192E+04 -5.01749E-02 -1.02689E-01  9.06586E-03  3.45905E-02  6.00683E+00 -6.05858E-01  1.81067E+03 -5.27424E+00 -1.00000E+00  2.68425E+00  7.42290E+00  1.82560E-01  6.04144E-01  6.00683E+00 -6.05858E-01  1.19516E+03 -1.92006E+00  1.00000E+00 -6.13150E-10  0.00000E+00          NaN
  1.00000E-01  4.50440E+04 -5.24667E-02 -1.09451E-01  9.01468E-03  3.42539E-02  6.00683E+00 -6.05858E-01  1.81067E+03 -5.27424E+00 -1.00000E+00  2.75962E+00  7.62508E+00  1.82556E-01  6.04120E-01  6.00683E+00 -6.05858E-01  1.19516E+03 -1.92006E+00  1.00000E+00 -6.13150E-10  0.00000E+00          NaN
  1.00000E-01  4.63688E+04 -5.50828E-02 -1.18966E-01  8.71799E-03  3.18489E-02  6.00683E+00 -6.05858E-01  1.81067E+03 -5.27424E+00 -1.00000E+00  2.83500E+00  7.82727E+00  1.82553E-01  6.04097E-01  6.00683E+00 -6.05858E-01  1.19516E+03 -1.92006E+00  1.00000E+00 -6.13150E-10  0.00000E+00          NaN
  1.00000E-01  4.76936E+04 -5.73194E-02 -1.25310E-01  8.67725E-03  3.15956E-02  6.00683E+00 -6.05858E-01  1.81067E+03 -5.27424E+00 -1.00000E+00  2.91037E+00  8.02945E+00  1.82549E-01  6.04076E-01  6.00683E+00 -6.05858E-01  1.19516E+03 -1.92006E+00  1.00000E+00 -6.13150E-10  0.00000E+00          NaN
  1.00000E-01  4.90185E+04 -5.95464E-02 -1.31595E-01  8.63763E-03  3.13496E-02  6.00683E+00 -6.05858E-01  1.81067E+03 -5.27424E+00 -1.00000E+00  2.98575E+00  8.23165E+00  1.82546E-01  6.04056E-01  6.00683E+00 -6.05858E-01  1.19516E+03 -1.92006E+00  1.00000E+00 -6.13150E-10  0.00000E+00          NaN
  1.00000E-01  5.03433E+04 -6.17641E-02 -1.37823E-01  8.59911E-03  3.11105E-02  6.00683E+00 -6.05858E-01  1.81067E+03 -5.27424E+00 -1.00000E+00  3.06112E+00  8.43384E+00  1.82543E-01  6.04037E-01  6.00683E+00 -6.05858E-01  1.19516E+03 -1.92006E+00  1.00000E+00 -6.13150E-10  0.00000E+00          NaN
  1.00000E-01  5.16681E+04 -6.39730E-02 -1.43997E-01  8.56165E-03  3.08783E-02  6.00683E+00 -6.05858E-01  1.81067E+03 -5.27424E+00 -1.00000E+00  3.13650E+00  8.63604E+00  1.82540E-01  6.04020E-01  6.00683E+00 -6.05858E-01  1.19516E+03 -1.92006E+00  1.00000E+00 -6.13150E-10  0.00000E+00          NaN
  1.00000E-01 -3.97447E+03  4.26200E-02  2.15026E-01  1.14270E-02  5.18413E-02  6.00683E+00 -6.05858E-01  1.81067E+03 -5.27424E+00 -1.00000E+00 -2.77641E-02  1.55522E-01  1.85334E-01  6.21512E-01  6.00683E+00 -6.05858E-01  1.19516E+03 -1.92006E+00  1.00000E+00 -6.13150E-10  0.00000E+00          NaN
  1.00000E-01 -2.64965E+03  4.03560E-02  2.08655E-01  1.14864E-02  5.22844E-02  6.00683E+00 -6.05858E-01  1.81067E+03 -5.27424E+00 -1.00000E+00  5.06492E-02  3.76716E-01  1.87423E-01  6.34601E-01  6.00683E+00 -6.05858E-01  1.19516E+03 -1.92006E+00  1.00000E+00 -6.13150E-10  0.00000E+00          NaN
  1.00000E-01 -3.31206E+03  4.14938E-02  2.11882E-01  1.14576E-02  5.20696E-02  6.00683E+00 -6.05858E-01  1.81067E+03 -5.27424E+00 -1.00000E+00  1.10924E-02  2.63937E-01  1.86149E-01  6.26620E-01  6.00683E+00 -6.05858E-01  1.19516E+03 -1.92006E+00  1.00000E+00 -6.13150E-10  0.00000E+00          NaN
  1.00000E-01 -2.98085E+03  4.09264E-02  2.10279E-01  1.14723E-02  5.21788E-02  6.00683E+00 -6.05858E-01  1.81067E+03 -5.27424E+00 -1.00000E+00  3.07538E-02  3.19597E-01  1.86710E-01  6.30134E-01  6.00683E+00 -6.05858E-01  1.19516E+03 -1.92006E+00  1.00000E+00 -6.13150E-10  0.00000E+00          NaN
  1.00000E-01 -2.81525E+03  4.06416E-02  2.09470E-01  1.14794E-02  5.22320E-02  6.00683E+00 -6.05858E-01  1.81067E+03 -5.27424E+00 -1.00000E+00  4.06672E-02  3.47943E-01  1.87044E-01  6.32228E-01  6.00683E+00 -6.05858E-01  1.19516E+03 -1.92006E+00  1.00000E+00 -6.13150E-10  0.00000E+00          NaN
  1.00000E-01 -2.89805E+03  4.07841E-02  2.09875E-01  1.14758E-02  5.22055E-02  6.00683E+00 -6.05858E-01  1.81067E+03 -5.27424E+00 -1.00000E+00  3.57027E-02  3.33721E-01  1.86872E-01  6.31149E-01  6.00683E+00 -6.05858E-01  1.19516E+03 -1.92006E+00  1.00000E+00 -6.13150E-10  0.00000E+00          NaN
