s E_r[V/m] (\Gamma_b/n_b[m/s]  Q_b/n_b/T_b[m/s] L_1^b[m^2/s] L_2^b[m^2/s]  Z_b n_b[10^{19}m^{-3}] dlnn_b/dr[m^{-1}] T_b[eV] dlnT_b/dr[m^{-1}], b=1,NBB), size(e\varphi_1/T_i) 
  4.00000E-01 -1.84667E+04  2.80327E-02  9.21659E-02  2.20984E-03  8.26227E-03  5.50121E+00 -4.89623E-01  6.74276E+02 -6.17722E+00 -1.00000E+00 -6.57666E-01 -1.49158E+00  1.03370E-01  3.86942E-01  5.50121E+00 -4.89623E-01  7.15310E+02 -4.85780E+00  1.00000E+00  1.57928E+21  0.00000E+00          NaN
  4.00000E-01 -1.76273E+04  2.70731E-02  8.94152E-02  2.20986E-03  8.26228E-03  5.50121E+00 -4.89623E-01  6.74276E+02 -6.17722E+00 -1.00000E+00 -6.15944E-01 -1.37028E+00  1.03370E-01  3.86942E-01  5.50121E+00 -4.89623E-01  7.15310E+02 -4.85780E+00  1.00000E+00  1.57928E+21  0.00000E+00          NaN
  4.00000E-01 -1.67880E+04  2.61132E-02  8.66644E-02  2.20987E-03  8.26228E-03  5.50121E+00 -4.89623E-01  6.74276E+02 -6.17722E+00 -1.00000E+00 -5.74222E-01 -1.24898E+00  1.03370E-01  3.86942E-01  5.50121E+00 -4.89623E-01  7.15310E+02 -4.85780E+00  1.00000E+00  1.57928E+21  0.00000E+00          NaN
  4.00000E-01 -1.59486E+04  2.51530E-02  8.39136E-02  2.20989E-03  8.26228E-03  5.50121E+00 -4.89623E-01  6.74276E+02 -6.17722E+00 -1.00000E+00 -5.32501E-01 -1.12768E+00  1.03370E-01  3.86942E-01  5.50121E+00 -4.89623E-01  7.15310E+02 -4.85780E+00  1.00000E+00  1.57928E+21  0.00000E+00          NaN
  4.00000E-01 -1.51092E+04  2.41924E-02  8.11627E-02  2.20990E-03  8.26228E-03  5.50121E+00 -4.89623E-01  6.74276E+02 -6.17722E+00 -1.00000E+00 -4.90780E-01 -1.00638E+00  1.03371E-01  3.86942E-01  5.50121E+00 -4.89623E-01  7.15310E+02 -4.85780E+00  1.00000E+00  1.57928E+21  0.00000E+00          NaN
  4.00000E-01 -1.42698E+04  2.32315E-02  7.84119E-02  2.20992E-03  8.26228E-03  5.50121E+00 -4.89623E-01  6.74276E+02 -6.17722E+00 -1.00000E+00 -4.49059E-01 -8.85078E-01  1.03371E-01  3.86942E-01  5.50121E+00 -4.89623E-01  7.15310E+02 -4.85780E+00  1.00000E+00  1.57928E+21  0.00000E+00          NaN
  4.00000E-01 -1.34304E+04  2.22702E-02  7.56609E-02  2.20993E-03  8.26229E-03  5.50121E+00 -4.89623E-01  6.74276E+02 -6.17722E+00 -1.00000E+00 -4.07340E-01 -7.63777E-01  1.03371E-01  3.86942E-01  5.50121E+00 -4.89623E-01  7.15310E+02 -4.85780E+00  1.00000E+00  1.57928E+21  0.00000E+00          NaN
  4.00000E-01 -1.25910E+04  2.13086E-02  7.29100E-02  2.20995E-03  8.26229E-03  5.50121E+00 -4.89623E-01  6.74276E+02 -6.17722E+00 -1.00000E+00 -3.65621E-01 -6.42476E-01  1.03371E-01  3.86942E-01  5.50121E+00 -4.89623E-01  7.15310E+02 -4.85780E+00  1.00000E+00  1.57928E+21  0.00000E+00          NaN
  4.00000E-01 -1.17516E+04  2.03467E-02  7.01590E-02  2.20996E-03  8.26229E-03  5.50121E+00 -4.89623E-01  6.74276E+02 -6.17722E+00 -1.00000E+00 -3.23903E-01 -5.21175E-01  1.03371E-01  3.86942E-01  5.50121E+00 -4.89623E-01  7.15310E+02 -4.85780E+00  1.00000E+00  1.57928E+21  0.00000E+00          NaN
  4.00000E-01 -1.09122E+04  1.93844E-02  6.74079E-02  2.20997E-03  8.26229E-03  5.50121E+00 -4.89623E-01  6.74276E+02 -6.17722E+00 -1.00000E+00 -2.82187E-01 -3.99874E-01  1.03371E-01  3.86942E-01  5.50121E+00 -4.89623E-01  7.15310E+02 -4.85780E+00  1.00000E+00  1.57928E+21  0.00000E+00          NaN
  4.00000E-01 -1.00728E+04  1.84218E-02  6.46569E-02  2.20999E-03  8.26229E-03  5.50121E+00 -4.89623E-01  6.74276E+02 -6.17722E+00 -1.00000E+00 -2.40472E-01 -2.78574E-01  1.03371E-01  3.86942E-01  5.50121E+00 -4.89623E-01  7.15310E+02 -4.85780E+00  1.00000E+00  1.57928E+21  0.00000E+00          NaN
  4.00000E-01 -9.23337E+03  1.74588E-02  6.19058E-02  2.21000E-03  8.26229E-03  5.50121E+00 -4.89623E-01  6.74276E+02 -6.17722E+00 -1.00000E+00 -1.98759E-01 -1.57273E-01  1.03371E-01  3.86942E-01  5.50121E+00 -4.89623E-01  7.15310E+02 -4.85780E+00  1.00000E+00  1.57928E+21  0.00000E+00          NaN
  4.00000E-01 -8.39398E+03  1.64955E-02  5.91546E-02  2.21001E-03  8.26230E-03  5.50121E+00 -4.89623E-01  6.74276E+02 -6.17722E+00 -1.00000E+00 -1.57049E-01 -3.59733E-02  1.03371E-01  3.86942E-01  5.50121E+00 -4.89623E-01  7.15310E+02 -4.85780E+00  1.00000E+00  1.57928E+21  0.00000E+00          NaN
  4.00000E-01 -7.55458E+03  1.55319E-02  5.64034E-02  2.21002E-03  8.26230E-03  5.50121E+00 -4.89623E-01  6.74276E+02 -6.17722E+00 -1.00000E+00 -1.15342E-01  8.53263E-02  1.03372E-01  3.86942E-01  5.50121E+00 -4.89623E-01  7.15310E+02 -4.85780E+00  1.00000E+00  1.57928E+21  0.00000E+00          NaN
  4.00000E-01 -6.71518E+03  1.45680E-02  5.36522E-02  2.21003E-03  8.26230E-03  5.50121E+00 -4.89623E-01  6.74276E+02 -6.17722E+00 -1.00000E+00 -7.36392E-02  2.06625E-01  1.03372E-01  3.86942E-01  5.50121E+00 -4.89623E-01  7.15310E+02 -4.85780E+00  1.00000E+00  1.57928E+21  0.00000E+00          NaN
  4.00000E-01 -5.87578E+03  1.36039E-02  5.09010E-02  2.21004E-03  8.26230E-03  5.50121E+00 -4.89623E-01  6.74276E+02 -6.17722E+00 -1.00000E+00 -3.19414E-02  3.27924E-01  1.03372E-01  3.86942E-01  5.50121E+00 -4.89623E-01  7.15310E+02 -4.85780E+00  1.00000E+00  1.57928E+21  0.00000E+00          NaN
  4.00000E-01 -5.03639E+03  1.26394E-02  4.81498E-02  2.21005E-03  8.26230E-03  5.50121E+00 -4.89623E-01  6.74276E+02 -6.17722E+00 -1.00000E+00  9.75058E-03  4.49222E-01  1.03373E-01  3.86942E-01  5.50121E+00 -4.89623E-01  7.15310E+02 -4.85780E+00  1.00000E+00  1.57928E+21  0.00000E+00          NaN
  4.00000E-01 -4.19699E+03  1.16748E-02  4.53985E-02  2.21006E-03  8.26230E-03  5.50121E+00 -4.89623E-01  6.74276E+02 -6.17722E+00 -1.00000E+00  5.14364E-02  5.70519E-01  1.03374E-01  3.86942E-01  5.50121E+00 -4.89623E-01  7.15310E+02 -4.85780E+00  1.00000E+00  1.57928E+21  0.00000E+00          NaN
  4.00000E-01 -3.35759E+03  1.07098E-02  4.26472E-02  2.21007E-03  8.26230E-03  5.50121E+00 -4.89623E-01  6.74276E+02 -6.17722E+00 -1.00000E+00  9.31174E-02  6.91816E-01  1.03374E-01  3.86942E-01  5.50121E+00 -4.89623E-01  7.15310E+02 -4.85780E+00  1.00000E+00  1.57928E+21  0.00000E+00          NaN
  4.00000E-01 -2.51819E+03  9.74458E-03  3.98959E-02  2.21007E-03  8.26230E-03  5.50121E+00 -4.89623E-01  6.74276E+02 -6.17722E+00 -1.00000E+00  1.34799E-01  8.13113E-01  1.03375E-01  3.86942E-01  5.50121E+00 -4.89623E-01  7.15310E+02 -4.85780E+00  1.00000E+00  1.57928E+21  0.00000E+00          NaN
  4.00000E-01 -1.67880E+03  8.77851E-03  3.71445E-02  2.21008E-03  8.26231E-03  5.50121E+00 -4.89623E-01  6.74276E+02 -6.17722E+00 -1.00000E+00  1.76494E-01  9.34411E-01  1.03377E-01  3.86943E-01  5.50121E+00 -4.89623E-01  7.15310E+02 -4.85780E+00  1.00000E+00  1.57928E+21  0.00000E+00          NaN
  4.00000E-01 -8.39398E+02  7.80877E-03  3.43931E-02  2.21010E-03  8.26231E-03  5.50121E+00 -4.89623E-01  6.74276E+02 -6.17722E+00 -1.00000E+00  2.18224E-01  1.05571E+00  1.03378E-01  3.86943E-01  5.50121E+00 -4.89623E-01  7.15310E+02 -4.85780E+00  1.00000E+00  1.57928E+21  0.00000E+00          NaN
  4.00000E-01  0.00000E+00  6.82595E-03  3.16414E-02  2.21014E-03  8.26231E-03  5.50121E+00 -4.89623E-01  6.74276E+02 -6.17722E+00 -1.00000E+00  2.59916E-01  1.17702E+00  1.03378E-01  3.86943E-01  5.50121E+00 -4.89623E-01  7.15310E+02 -4.85780E+00  1.00000E+00  1.57928E+21  0.00000E+00          NaN
  4.00000E-01  8.39398E+02  5.87698E-03  2.88905E-02  2.21010E-03  8.26231E-03  5.50121E+00 -4.89623E-01  6.74276E+02 -6.17722E+00 -1.00000E+00  3.01838E-01  1.29834E+00  1.03378E-01  3.86943E-01  5.50121E+00 -4.89623E-01  7.15310E+02 -4.85780E+00  1.00000E+00  1.57928E+21  0.00000E+00          NaN
  4.00000E-01  1.67880E+03  4.91804E-03  2.61393E-02  2.21008E-03  8.26231E-03  5.50121E+00 -4.89623E-01  6.74276E+02 -6.17722E+00 -1.00000E+00  3.43680E-01  1.41965E+00  1.03377E-01  3.86943E-01  5.50121E+00 -4.89623E-01  7.15310E+02 -4.85780E+00  1.00000E+00  1.57928E+21  0.00000E+00          NaN
  4.00000E-01  2.51819E+03  3.95538E-03  2.33881E-02  2.21007E-03  8.26230E-03  5.50121E+00 -4.89623E-01  6.74276E+02 -6.17722E+00 -1.00000E+00  3.85505E-01  1.54096E+00  1.03375E-01  3.86942E-01  5.50121E+00 -4.89623E-01  7.15310E+02 -4.85780E+00  1.00000E+00  1.57928E+21  0.00000E+00          NaN
  4.00000E-01  3.35759E+03  2.99208E-03  2.06369E-02  2.21007E-03  8.26230E-03  5.50121E+00 -4.89623E-01  6.74276E+02 -6.17722E+00 -1.00000E+00  4.27303E-01  1.66227E+00  1.03374E-01  3.86942E-01  5.50121E+00 -4.89623E-01  7.15310E+02 -4.85780E+00  1.00000E+00  1.57928E+21  0.00000E+00          NaN
  4.00000E-01  4.19699E+03  2.02879E-03  1.78858E-02  2.21006E-03  8.26230E-03  5.50121E+00 -4.89623E-01  6.74276E+02 -6.17722E+00 -1.00000E+00  4.69080E-01  1.78358E+00  1.03374E-01  3.86942E-01  5.50121E+00 -4.89623E-01  7.15310E+02 -4.85780E+00  1.00000E+00  1.57928E+21  0.00000E+00          NaN
  4.00000E-01  5.03639E+03  1.06571E-03  1.51346E-02  2.21005E-03  8.26230E-03  5.50121E+00 -4.89623E-01  6.74276E+02 -6.17722E+00 -1.00000E+00  5.10839E-01  1.90489E+00  1.03373E-01  3.86942E-01  5.50121E+00 -4.89623E-01  7.15310E+02 -4.85780E+00  1.00000E+00  1.57928E+21  0.00000E+00          NaN
  4.00000E-01  5.87578E+03  1.02920E-04  1.23835E-02  2.21004E-03  8.26230E-03  5.50121E+00 -4.89623E-01  6.74276E+02 -6.17722E+00 -1.00000E+00  5.52588E-01  2.02619E+00  1.03372E-01  3.86942E-01  5.50121E+00 -4.89623E-01  7.15310E+02 -4.85780E+00  1.00000E+00  1.57928E+21  0.00000E+00          NaN
  4.00000E-01  6.71518E+03 -8.59531E-04  9.63243E-03  2.21003E-03  8.26230E-03  5.50121E+00 -4.89623E-01  6.74276E+02 -6.17722E+00 -1.00000E+00  5.94329E-01  2.14749E+00  1.03372E-01  3.86942E-01  5.50121E+00 -4.89623E-01  7.15310E+02 -4.85780E+00  1.00000E+00  1.57928E+21  0.00000E+00          NaN
  4.00000E-01  7.55458E+03 -1.82162E-03  6.88140E-03  2.21002E-03  8.26230E-03  5.50121E+00 -4.89623E-01  6.74276E+02 -6.17722E+00 -1.00000E+00  6.36065E-01  2.26880E+00  1.03372E-01  3.86942E-01  5.50121E+00 -4.89623E-01  7.15310E+02 -4.85780E+00  1.00000E+00  1.57928E+21  0.00000E+00          NaN
  4.00000E-01  8.39398E+03 -2.78334E-03  4.13040E-03  2.21001E-03  8.26230E-03  5.50121E+00 -4.89623E-01  6.74276E+02 -6.17722E+00 -1.00000E+00  6.77798E-01  2.39010E+00  1.03371E-01  3.86942E-01  5.50121E+00 -4.89623E-01  7.15310E+02 -4.85780E+00  1.00000E+00  1.57928E+21  0.00000E+00          NaN
  4.00000E-01  9.23337E+03 -3.74468E-03  1.37944E-03  2.21000E-03  8.26229E-03  5.50121E+00 -4.89623E-01  6.74276E+02 -6.17722E+00 -1.00000E+00  7.19530E-01  2.51140E+00  1.03371E-01  3.86942E-01  5.50121E+00 -4.89623E-01  7.15310E+02 -4.85780E+00  1.00000E+00  1.57928E+21  0.00000E+00          NaN
  4.00000E-01  1.00728E+04 -4.70563E-03 -1.37147E-03  2.20999E-03  8.26229E-03  5.50121E+00 -4.89623E-01  6.74276E+02 -6.17722E+00 -1.00000E+00  7.61259E-01  2.63270E+00  1.03371E-01  3.86942E-01  5.50121E+00 -4.89623E-01  7.15310E+02 -4.85780E+00  1.00000E+00  1.57928E+21  0.00000E+00          NaN
  4.00000E-01  1.09122E+04 -5.66620E-03 -4.12234E-03  2.20997E-03  8.26229E-03  5.50121E+00 -4.89623E-01  6.74276E+02 -6.17722E+00 -1.00000E+00  8.02988E-01  2.75401E+00  1.03371E-01  3.86942E-01  5.50121E+00 -4.89623E-01  7.15310E+02 -4.85780E+00  1.00000E+00  1.57928E+21  0.00000E+00          NaN
  4.00000E-01  1.17516E+04 -6.62640E-03 -6.87316E-03  2.20996E-03  8.26229E-03  5.50121E+00 -4.89623E-01  6.74276E+02 -6.17722E+00 -1.00000E+00  8.44716E-01  2.87531E+00  1.03371E-01  3.86942E-01  5.50121E+00 -4.89623E-01  7.15310E+02 -4.85780E+00  1.00000E+00  1.57928E+21  0.00000E+00          NaN
  4.00000E-01  1.25910E+04 -7.58622E-03 -9.62394E-03  2.20995E-03  8.26229E-03  5.50121E+00 -4.89623E-01  6.74276E+02 -6.17722E+00 -1.00000E+00  8.86444E-01  2.99661E+00  1.03371E-01  3.86942E-01  5.50121E+00 -4.89623E-01  7.15310E+02 -4.85780E+00  1.00000E+00  1.57928E+21  0.00000E+00          NaN
  4.00000E-01  1.34304E+04 -8.54567E-03 -1.23747E-02  2.20993E-03  8.26229E-03  5.50121E+00 -4.89623E-01  6.74276E+02 -6.17722E+00 -1.00000E+00  9.28171E-01  3.11791E+00  1.03371E-01  3.86942E-01  5.50121E+00 -4.89623E-01  7.15310E+02 -4.85780E+00  1.00000E+00  1.57928E+21  0.00000E+00          NaN
  4.00000E-01  1.42698E+04 -9.50475E-03 -1.51254E-02  2.20992E-03  8.26228E-03  5.50121E+00 -4.89623E-01  6.74276E+02 -6.17722E+00 -1.00000E+00  9.69898E-01  3.23921E+00  1.03371E-01  3.86942E-01  5.50121E+00 -4.89623E-01  7.15310E+02 -4.85780E+00  1.00000E+00  1.57928E+21  0.00000E+00          NaN
  4.00000E-01  1.51092E+04 -1.04635E-02 -1.78760E-02  2.20990E-03  8.26228E-03  5.50121E+00 -4.89623E-01  6.74276E+02 -6.17722E+00 -1.00000E+00  1.01162E+00  3.36052E+00  1.03371E-01  3.86942E-01  5.50121E+00 -4.89623E-01  7.15310E+02 -4.85780E+00  1.00000E+00  1.57928E+21  0.00000E+00          NaN
  4.00000E-01  1.59486E+04 -1.14219E-02 -2.06266E-02  2.20989E-03  8.26228E-03  5.50121E+00 -4.89623E-01  6.74276E+02 -6.17722E+00 -1.00000E+00  1.05335E+00  3.48182E+00  1.03370E-01  3.86942E-01  5.50121E+00 -4.89623E-01  7.15310E+02 -4.85780E+00  1.00000E+00  1.57928E+21  0.00000E+00          NaN
  4.00000E-01  1.67880E+04 -1.23799E-02 -2.33772E-02  2.20987E-03  8.26228E-03  5.50121E+00 -4.89623E-01  6.74276E+02 -6.17722E+00 -1.00000E+00  1.09508E+00  3.60312E+00  1.03370E-01  3.86942E-01  5.50121E+00 -4.89623E-01  7.15310E+02 -4.85780E+00  1.00000E+00  1.57928E+21  0.00000E+00          NaN
  4.00000E-01  1.76273E+04 -1.33377E-02 -2.61277E-02  2.20986E-03  8.26228E-03  5.50121E+00 -4.89623E-01  6.74276E+02 -6.17722E+00 -1.00000E+00  1.13680E+00  3.72442E+00  1.03370E-01  3.86942E-01  5.50121E+00 -4.89623E-01  7.15310E+02 -4.85780E+00  1.00000E+00  1.57928E+21  0.00000E+00          NaN
  4.00000E-01  1.84667E+04 -1.42951E-02 -2.88782E-02  2.20984E-03  8.26227E-03  5.50121E+00 -4.89623E-01  6.74276E+02 -6.17722E+00 -1.00000E+00  1.17853E+00  3.84572E+00  1.03370E-01  3.86942E-01  5.50121E+00 -4.89623E-01  7.15310E+02 -4.85780E+00  1.00000E+00  1.57928E+21  0.00000E+00          NaN
  4.00000E-01  1.93061E+04 -1.52523E-02 -3.16286E-02  2.20983E-03  8.26227E-03  5.50121E+00 -4.89623E-01  6.74276E+02 -6.17722E+00 -1.00000E+00  1.22025E+00  3.96703E+00  1.03370E-01  3.86942E-01  5.50121E+00 -4.89623E-01  7.15310E+02 -4.85780E+00  1.00000E+00  1.57928E+21  0.00000E+00          NaN
  4.00000E-01  2.01455E+04 -1.62091E-02 -3.43790E-02  2.20981E-03  8.26227E-03  5.50121E+00 -4.89623E-01  6.74276E+02 -6.17722E+00 -1.00000E+00  1.26198E+00  4.08833E+00  1.03370E-01  3.86942E-01  5.50121E+00 -4.89623E-01  7.15310E+02 -4.85780E+00  1.00000E+00  1.57928E+21  0.00000E+00          NaN
  4.00000E-01  2.09849E+04 -1.71657E-02 -3.71294E-02  2.20980E-03  8.26227E-03  5.50121E+00 -4.89623E-01  6.74276E+02 -6.17722E+00 -1.00000E+00  1.30371E+00  4.20963E+00  1.03370E-01  3.86942E-01  5.50121E+00 -4.89623E-01  7.15310E+02 -4.85780E+00  1.00000E+00  1.57928E+21  0.00000E+00          NaN
  4.00000E-01  2.18243E+04 -1.81221E-02 -3.98797E-02  2.20978E-03  8.26227E-03  5.50121E+00 -4.89623E-01  6.74276E+02 -6.17722E+00 -1.00000E+00  1.34543E+00  4.33093E+00  1.03370E-01  3.86942E-01  5.50121E+00 -4.89623E-01  7.15310E+02 -4.85780E+00  1.00000E+00  1.57928E+21  0.00000E+00          NaN
  4.00000E-01  2.26637E+04 -1.90781E-02 -4.26300E-02  2.20977E-03  8.26226E-03  5.50121E+00 -4.89623E-01  6.74276E+02 -6.17722E+00 -1.00000E+00  1.38716E+00  4.45223E+00  1.03370E-01  3.86942E-01  5.50121E+00 -4.89623E-01  7.15310E+02 -4.85780E+00  1.00000E+00  1.57928E+21  0.00000E+00          NaN
  4.00000E-01 -5.03639E+03  1.26394E-02  4.81498E-02  2.21005E-03  8.26230E-03  5.50121E+00 -4.89623E-01  6.74276E+02 -6.17722E+00 -1.00000E+00  9.75058E-03  4.49222E-01  1.03373E-01  3.86942E-01  5.50121E+00 -4.89623E-01  7.15310E+02 -4.85780E+00  1.00000E+00  1.57928E+21  0.00000E+00          NaN
  4.00000E-01 -4.19699E+03  1.16748E-02  4.53985E-02  2.21006E-03  8.26230E-03  5.50121E+00 -4.89623E-01  6.74276E+02 -6.17722E+00 -1.00000E+00  5.14364E-02  5.70519E-01  1.03374E-01  3.86942E-01  5.50121E+00 -4.89623E-01  7.15310E+02 -4.85780E+00  1.00000E+00  1.57928E+21  0.00000E+00          NaN
  4.00000E-01 -4.61669E+03  1.21571E-02  4.67741E-02  2.21005E-03  8.26230E-03  5.50121E+00 -4.89623E-01  6.74276E+02 -6.17722E+00 -1.00000E+00  3.05942E-02  5.09871E-01  1.03373E-01  3.86942E-01  5.50121E+00 -4.89623E-01  7.15310E+02 -4.85780E+00  1.00000E+00  1.57928E+21  0.00000E+00          NaN
  4.00000E-01 -4.82654E+03  1.23983E-02  4.74619E-02  2.21005E-03  8.26230E-03  5.50121E+00 -4.89623E-01  6.74276E+02 -6.17722E+00 -1.00000E+00  2.01726E-02  4.79546E-01  1.03373E-01  3.86942E-01  5.50121E+00 -4.89623E-01  7.15310E+02 -4.85780E+00  1.00000E+00  1.57928E+21  0.00000E+00          NaN
  4.00000E-01 -4.93146E+03  1.25189E-02  4.78058E-02  2.21005E-03  8.26230E-03  5.50121E+00 -4.89623E-01  6.74276E+02 -6.17722E+00 -1.00000E+00  1.49616E-02  4.64384E-01  1.03373E-01  3.86942E-01  5.50121E+00 -4.89623E-01  7.15310E+02 -4.85780E+00  1.00000E+00  1.57928E+21  0.00000E+00          NaN
  4.00000E-01 -4.98392E+03  1.25792E-02  4.79778E-02  2.21005E-03  8.26230E-03  5.50121E+00 -4.89623E-01  6.74276E+02 -6.17722E+00 -1.00000E+00  1.23561E-02  4.56803E-01  1.03373E-01  3.86942E-01  5.50121E+00 -4.89623E-01  7.15310E+02 -4.85780E+00  1.00000E+00  1.57928E+21  0.00000E+00          NaN
