Welcome to Extrae 4.0.1
Extrae: Parsing the configuration file (./extrae.xml) begins
Extrae: Dynamic memory instrumentation is disabled.
Extrae: Basic I/O memory instrumentation is disabled.
Extrae: System calls instrumentation is disabled.
Extrae: Parsing the configuration file (./extrae.xml) has ended
Extrae: Application has been linked or preloaded with Extrae, BUT EXTRAE_ON is NOT enabled!
