{
  "popMetrics": [
    {
      "name": "MPI Execution",
      "elapsedTime": 88931543213,
      "parallelEfficiency": 0.00,
      "communicationEfficiency": 0.00,
      "loadBalance": 0.76,
      "lbIn": 0.76,
      "lbOut": 1.00
    },
    {
      "name": "MPI Execution",
      "elapsedTime": 88931543213,
      "parallelEfficiency": 0.00,
      "communicationEfficiency": 0.00,
      "loadBalance": 0.76,
      "lbIn": 0.76,
      "lbOut": 1.00
    }
  ]
}
