S 736512111742368
S 736512116682004
S 736512167234849
B 0 "400000-51c000 0 /gpfs/projects/bsc99/bsc99206/KNOSOS/knosos/Sources/knosos.x"
B 0 "7f225b50e000-7f225f7e9000 0 /gpfs/apps/MN4/INTEL/2018.4.057/compilers_and_libraries_2018.5.274/linux/mkl/lib/intel64_lin/libmkl_avx512.so"
B 0 "7f2275f78000-7f2275f82000 0 /usr/lib64/libnuma.so.1"
B 0 "7f2299330000-7f229939e000 0 /usr/lib64/libpcre.so.1.2.7"
B 0 "7f229959f000-7f22995c2000 0 /lib64/libselinux.so.1"
B 0 "7f22997c5000-7f22997c8000 0 /lib64/libkeyutils.so.1.5"
B 0 "7f22999c9000-7f22999cc000 0 /usr/lib64/libXau.so.6.0.0"
B 0 "7f2299bcd000-7f2299be9000 0 /usr/lib64/libsasl2.so.3.0.0"
B 0 "7f2299dea000-7f2299dfe000 0 /lib64/libresolv-2.22.so"
B 0 "7f229a001000-7f229a00d000 0 /usr/lib64/libkrb5support.so.0.1"
B 0 "7f229a20e000-7f229a211000 0 /usr/lib64/libcom_err.so.2.1"
B 0 "7f229a412000-7f229a43f000 0 /usr/lib64/libk5crypto.so.3.1"
B 0 "7f229a642000-7f229a704000 0 /usr/lib64/libkrb5.so.3.3"
B 0 "7f229a913000-7f229a932000 0 /usr/lib64/libxcb.so.1.1.0"
B 0 "7f229ab33000-7f229ab7d000 0 /usr/lib64/libldap-2.4.so.2.10.4"
B 0 "7f229ad80000-7f229ad8e000 0 /usr/lib64/liblber-2.4.so.2.10.4"
B 0 "7f229af8f000-7f229afd5000 0 /usr/lib64/libgssapi_krb5.so.2.2"
B 0 "7f229b1d8000-7f229b405000 0 /lib64/libcrypto.so.1.0.0"
B 0 "7f229b632000-7f229b693000 0 /lib64/libssl.so.1.0.0"
B 0 "7f229b89e000-7f229b8c8000 0 /usr/lib64/libssh2.so.1.0.1"
B 0 "7f229baca000-7f229bafc000 0 /usr/lib64/libidn.so.11.6.11"
B 0 "7f229bcfe000-7f229bd3c000 0 /usr/lib64/libquadmath.so.0.0.0"
B 0 "7f229bf3e000-7f229bfa9000 0 /gpfs/apps/MN4/INTEL/2018.4.057/compilers_and_libraries_2018.5.274/linux/compiler/lib/intel64_lin/libirc.so"
B 0 "7f229c1ac000-7f229c327000 0 /usr/lib64/libstdc++.so.6.0.24"
B 0 "7f229c535000-7f229c66d000 0 /usr/lib64/libX11.so.6.3.0"
B 0 "7f229c873000-7f229e829000 0 /gpfs/apps/MN4/INTEL/2018.4.057/compilers_and_libraries_2018.5.274/linux/mkl/lib/intel64_lin/libmkl_intel_thread.so"
B 0 "7f229ec9e000-7f229edff000 0 /gpfs/apps/MN4/INTEL/2018.4.057/compilers_and_libraries_2018.5.274/linux/compiler/lib/intel64_lin/libirng.so"
B 0 "7f229f012000-7f229f07f000 0 /usr/lib64/libcurl.so.4.3.0"
B 0 "7f229f283000-7f229f298000 0 /lib64/libz.so.1.2.8"
B 0 "7f229f499000-7f229f4ae000 0 /gpfs/apps/MN4/SZIP/2.1.1/INTEL/lib/libsz.so.2.0.0"
B 0 "7f229f6b8000-7f229fa86000 0 /gpfs/apps/MN4/HDF5/1.8.19/INTEL/IMPI/lib/libhdf5.so.10.3.0"
B 0 "7f229fc94000-7f229fcb9000 0 /gpfs/apps/MN4/HDF5/1.8.19/INTEL/IMPI/lib/libhdf5_hl.so.10.2.0"
B 0 "7f229febc000-7f229fff0000 0 /gpfs/apps/MN4/BSCTOOLS/deps/binutils/2.38/lib/libbfd-2.38.so"
B 0 "7f22a0208000-7f22a0375000 0 /gpfs/apps/MN4/BSCTOOLS/deps/papi/6.0.0/lib/libpfm.so.4.10.1"
B 0 "7f22a066b000-7f22a06bc000 0 /gpfs/apps/MN4/BSCTOOLS/deps/papi/6.0.0/lib/libpapi.so.6.0.0.0"
B 0 "7f22a08cc000-7f22a08f1000 0 /usr/lib64/liblzma.so.5.0.5"
B 0 "7f22a0af2000-7f22a0c48000 0 /gpfs/apps/MN4/BSCTOOLS/deps/libxml/2.9.12/lib/libxml2.so.2.9.12"
B 0 "7f22a0e53000-7f22a0e60000 0 /gpfs/apps/MN4/BSCTOOLS/deps/libunwind/1.6.2/lib/libunwind.so.8.0.1"
B 0 "7f22a106b000-7f22a1081000 0 /lib64/libgcc_s.so.1"
B 0 "7f22a1282000-7f22a141b000 0 /lib64/libc-2.22.so"
B 0 "7f22a1625000-7f22a1690000 0 /gpfs/apps/MN4/INTEL/2018.4.057/compilers_and_libraries_2018.5.274/linux/compiler/lib/intel64_lin/libintlc.so.5"
B 0 "7f22a1893000-7f22a1a3b000 0 /gpfs/apps/MN4/INTEL/2018.4.057/compilers_and_libraries_2018.5.274/linux/compiler/lib/intel64_lin/libiomp5.so"
B 0 "7f22a1c76000-7f22a1d72000 0 /lib64/libm-2.22.so"
B 0 "7f22a1f73000-7f22a35fe000 0 /gpfs/apps/MN4/INTEL/2018.4.057/compilers_and_libraries_2018.5.274/linux/compiler/lib/intel64_lin/libsvml.so"
B 0 "7f22a3881000-7f22a3bb7000 0 /gpfs/apps/MN4/INTEL/2018.4.057/compilers_and_libraries_2018.5.274/linux/compiler/lib/intel64_lin/libimf.so"
B 0 "7f22a3e14000-7f22a3f50000 0 /gpfs/apps/MN4/INTEL/2018.4.057/compilers_and_libraries_2018.5.274/linux/compiler/lib/intel64_lin/libifcoremt.so.5"
B 0 "7f22a41a8000-7f22a41ce000 0 /gpfs/apps/MN4/INTEL/2018.4.057/compilers_and_libraries_2018.5.274/linux/compiler/lib/intel64_lin/libifport.so.5"
B 0 "7f22a43d4000-7f22a43ec000 0 /lib64/libpthread-2.22.so"
B 0 "7f22a45f1000-7f22a45f8000 0 /lib64/librt-2.22.so"
B 0 "7f22a47f9000-7f22a47fb000 0 /lib64/libdl-2.22.so"
B 0 "7f22a49fd000-7f22a50b1000 0 /gpfs/apps/MN4/INTEL/2018.1.038/compilers_and_libraries_2018.1.163/linux/mpi/intel64/lib/release_mt/libmpi.so.12.0"
B 0 "7f22a5682000-7f22a5800000 0 /gpfs/apps/MN4/INTEL/2018.1.038/compilers_and_libraries_2018.1.163/linux/mpi/intel64/lib/libmpifort.so.12.0"
B 0 "7f22a5a2b000-7f22a5a6c000 0 /gpfs/apps/MN4/INTEL/2018.4.057/compilers_and_libraries_2018.5.274/linux/mkl/lib/intel64_lin/libmkl_blacs_intelmpi_lp64.so"
B 0 "7f22a5c6d000-7f22a9a71000 0 /gpfs/apps/MN4/INTEL/2018.4.057/compilers_and_libraries_2018.5.274/linux/mkl/lib/intel64_lin/libmkl_core.so"
B 0 "7f22a9cba000-7f22aaf66000 0 /gpfs/apps/MN4/INTEL/2018.4.057/compilers_and_libraries_2018.5.274/linux/mkl/lib/intel64_lin/libmkl_sequential.so"
B 0 "7f22ab17f000-7f22ab7f8000 0 /gpfs/apps/MN4/INTEL/2018.4.057/compilers_and_libraries_2018.5.274/linux/mkl/lib/intel64_lin/libmkl_scalapack_lp64.so"
B 0 "7f22aba80000-7f22ac377000 0 /gpfs/apps/MN4/INTEL/2018.4.057/compilers_and_libraries_2018.5.274/linux/mkl/lib/intel64_lin/libmkl_intel_lp64.so"
B 0 "7f22ac590000-7f22ae202000 0 /gpfs/projects/bsc99/bsc99206/KNOSOS/petsc-3.16.1_tuned/build/lib/libpetsc.so.3.16.1"
B 0 "7f22ae6c5000-7f22ae97d000 0 /gpfs/apps/MN4/NETCDF/4.4.1.1/INTEL/IMPI/lib/libnetcdf.so.11.0.4"
B 0 "7f22b1c2d000-7f22b1ce1000 0 /gpfs/apps/MN4/NETCDF/4.4.1.1/INTEL/IMPI/lib/libnetcdff.so.6.1.1"
B 0 "7f22b20bc000-7f22b21cf000 0 /gpfs/apps/MN4/BSCTOOLS/extrae/4.0.1/impi_2018_1/lib/libmpitracef-4.0.1.so"
B 0 "7f22b2d60000-7f22b2d81000 0 /lib64/ld-2.22.so"
