S 689498538929124
S 689498539453866
S 689498589053162
B 0 "400000-51c000 0 /gpfs/projects/bsc99/bsc99206/KNOSOS/knosos/Sources/knosos.x"
B 0 "7fc36f14b000-7fc373426000 0 /gpfs/apps/MN4/INTEL/2018.4.057/compilers_and_libraries_2018.5.274/linux/mkl/lib/intel64_lin/libmkl_avx512.so"
B 0 "7fc385938000-7fc385942000 0 /usr/lib64/libnuma.so.1"
B 0 "7fc3a8cf0000-7fc3a8d5e000 0 /usr/lib64/libpcre.so.1.2.7"
B 0 "7fc3a8f5f000-7fc3a8f82000 0 /lib64/libselinux.so.1"
B 0 "7fc3a9185000-7fc3a9188000 0 /lib64/libkeyutils.so.1.5"
B 0 "7fc3a9389000-7fc3a938c000 0 /usr/lib64/libXau.so.6.0.0"
B 0 "7fc3a958d000-7fc3a95a9000 0 /usr/lib64/libsasl2.so.3.0.0"
B 0 "7fc3a97aa000-7fc3a97be000 0 /lib64/libresolv-2.22.so"
B 0 "7fc3a99c1000-7fc3a99cd000 0 /usr/lib64/libkrb5support.so.0.1"
B 0 "7fc3a9bce000-7fc3a9bd1000 0 /usr/lib64/libcom_err.so.2.1"
B 0 "7fc3a9dd2000-7fc3a9dff000 0 /usr/lib64/libk5crypto.so.3.1"
B 0 "7fc3aa002000-7fc3aa0c4000 0 /usr/lib64/libkrb5.so.3.3"
B 0 "7fc3aa2d3000-7fc3aa2f2000 0 /usr/lib64/libxcb.so.1.1.0"
B 0 "7fc3aa4f3000-7fc3aa53d000 0 /usr/lib64/libldap-2.4.so.2.10.4"
B 0 "7fc3aa740000-7fc3aa74e000 0 /usr/lib64/liblber-2.4.so.2.10.4"
B 0 "7fc3aa94f000-7fc3aa995000 0 /usr/lib64/libgssapi_krb5.so.2.2"
B 0 "7fc3aab98000-7fc3aadc5000 0 /lib64/libcrypto.so.1.0.0"
B 0 "7fc3aaff2000-7fc3ab053000 0 /lib64/libssl.so.1.0.0"
B 0 "7fc3ab25e000-7fc3ab288000 0 /usr/lib64/libssh2.so.1.0.1"
B 0 "7fc3ab48a000-7fc3ab4bc000 0 /usr/lib64/libidn.so.11.6.11"
B 0 "7fc3ab6be000-7fc3ab6fc000 0 /usr/lib64/libquadmath.so.0.0.0"
B 0 "7fc3ab8fe000-7fc3ab969000 0 /gpfs/apps/MN4/INTEL/2018.4.057/compilers_and_libraries_2018.5.274/linux/compiler/lib/intel64_lin/libirc.so"
B 0 "7fc3abb6c000-7fc3abce7000 0 /usr/lib64/libstdc++.so.6.0.24"
B 0 "7fc3abef5000-7fc3ac02d000 0 /usr/lib64/libX11.so.6.3.0"
B 0 "7fc3ac233000-7fc3ae1e9000 0 /gpfs/apps/MN4/INTEL/2018.4.057/compilers_and_libraries_2018.5.274/linux/mkl/lib/intel64_lin/libmkl_intel_thread.so"
B 0 "7fc3ae65e000-7fc3ae7bf000 0 /gpfs/apps/MN4/INTEL/2018.4.057/compilers_and_libraries_2018.5.274/linux/compiler/lib/intel64_lin/libirng.so"
B 0 "7fc3ae9d2000-7fc3aea3f000 0 /usr/lib64/libcurl.so.4.3.0"
B 0 "7fc3aec43000-7fc3aec58000 0 /lib64/libz.so.1.2.8"
B 0 "7fc3aee59000-7fc3aee6e000 0 /gpfs/apps/MN4/SZIP/2.1.1/INTEL/lib/libsz.so.2.0.0"
B 0 "7fc3af078000-7fc3af446000 0 /gpfs/apps/MN4/HDF5/1.8.19/INTEL/IMPI/lib/libhdf5.so.10.3.0"
B 0 "7fc3af654000-7fc3af679000 0 /gpfs/apps/MN4/HDF5/1.8.19/INTEL/IMPI/lib/libhdf5_hl.so.10.2.0"
B 0 "7fc3af87c000-7fc3af9b0000 0 /gpfs/apps/MN4/BSCTOOLS/deps/binutils/2.38/lib/libbfd-2.38.so"
B 0 "7fc3afbc8000-7fc3afd35000 0 /gpfs/apps/MN4/BSCTOOLS/deps/papi/6.0.0/lib/libpfm.so.4.10.1"
B 0 "7fc3b002b000-7fc3b007c000 0 /gpfs/apps/MN4/BSCTOOLS/deps/papi/6.0.0/lib/libpapi.so.6.0.0.0"
B 0 "7fc3b028c000-7fc3b02b1000 0 /usr/lib64/liblzma.so.5.0.5"
B 0 "7fc3b04b2000-7fc3b0608000 0 /gpfs/apps/MN4/BSCTOOLS/deps/libxml/2.9.12/lib/libxml2.so.2.9.12"
B 0 "7fc3b0813000-7fc3b0820000 0 /gpfs/apps/MN4/BSCTOOLS/deps/libunwind/1.6.2/lib/libunwind.so.8.0.1"
B 0 "7fc3b0a2b000-7fc3b0a41000 0 /lib64/libgcc_s.so.1"
B 0 "7fc3b0c42000-7fc3b0ddb000 0 /lib64/libc-2.22.so"
B 0 "7fc3b0fe5000-7fc3b1050000 0 /gpfs/apps/MN4/INTEL/2018.4.057/compilers_and_libraries_2018.5.274/linux/compiler/lib/intel64_lin/libintlc.so.5"
B 0 "7fc3b1253000-7fc3b13fb000 0 /gpfs/apps/MN4/INTEL/2018.4.057/compilers_and_libraries_2018.5.274/linux/compiler/lib/intel64_lin/libiomp5.so"
B 0 "7fc3b1636000-7fc3b1732000 0 /lib64/libm-2.22.so"
B 0 "7fc3b1933000-7fc3b2fbe000 0 /gpfs/apps/MN4/INTEL/2018.4.057/compilers_and_libraries_2018.5.274/linux/compiler/lib/intel64_lin/libsvml.so"
B 0 "7fc3b3241000-7fc3b3577000 0 /gpfs/apps/MN4/INTEL/2018.4.057/compilers_and_libraries_2018.5.274/linux/compiler/lib/intel64_lin/libimf.so"
B 0 "7fc3b37d4000-7fc3b3910000 0 /gpfs/apps/MN4/INTEL/2018.4.057/compilers_and_libraries_2018.5.274/linux/compiler/lib/intel64_lin/libifcoremt.so.5"
B 0 "7fc3b3b68000-7fc3b3b8e000 0 /gpfs/apps/MN4/INTEL/2018.4.057/compilers_and_libraries_2018.5.274/linux/compiler/lib/intel64_lin/libifport.so.5"
B 0 "7fc3b3d94000-7fc3b3dac000 0 /lib64/libpthread-2.22.so"
B 0 "7fc3b3fb1000-7fc3b3fb8000 0 /lib64/librt-2.22.so"
B 0 "7fc3b41b9000-7fc3b41bb000 0 /lib64/libdl-2.22.so"
B 0 "7fc3b43bd000-7fc3b4a71000 0 /gpfs/apps/MN4/INTEL/2018.1.038/compilers_and_libraries_2018.1.163/linux/mpi/intel64/lib/release_mt/libmpi.so.12.0"
B 0 "7fc3b5042000-7fc3b51c0000 0 /gpfs/apps/MN4/INTEL/2018.1.038/compilers_and_libraries_2018.1.163/linux/mpi/intel64/lib/libmpifort.so.12.0"
B 0 "7fc3b53eb000-7fc3b542c000 0 /gpfs/apps/MN4/INTEL/2018.4.057/compilers_and_libraries_2018.5.274/linux/mkl/lib/intel64_lin/libmkl_blacs_intelmpi_lp64.so"
B 0 "7fc3b562d000-7fc3b9431000 0 /gpfs/apps/MN4/INTEL/2018.4.057/compilers_and_libraries_2018.5.274/linux/mkl/lib/intel64_lin/libmkl_core.so"
B 0 "7fc3b967a000-7fc3ba926000 0 /gpfs/apps/MN4/INTEL/2018.4.057/compilers_and_libraries_2018.5.274/linux/mkl/lib/intel64_lin/libmkl_sequential.so"
B 0 "7fc3bab3f000-7fc3bb1b8000 0 /gpfs/apps/MN4/INTEL/2018.4.057/compilers_and_libraries_2018.5.274/linux/mkl/lib/intel64_lin/libmkl_scalapack_lp64.so"
B 0 "7fc3bb440000-7fc3bbd37000 0 /gpfs/apps/MN4/INTEL/2018.4.057/compilers_and_libraries_2018.5.274/linux/mkl/lib/intel64_lin/libmkl_intel_lp64.so"
B 0 "7fc3bbf50000-7fc3bdbc2000 0 /gpfs/projects/bsc99/bsc99206/KNOSOS/petsc-3.16.1_tuned/build/lib/libpetsc.so.3.16.1"
B 0 "7fc3be085000-7fc3be33d000 0 /gpfs/apps/MN4/NETCDF/4.4.1.1/INTEL/IMPI/lib/libnetcdf.so.11.0.4"
B 0 "7fc3c15ed000-7fc3c16a1000 0 /gpfs/apps/MN4/NETCDF/4.4.1.1/INTEL/IMPI/lib/libnetcdff.so.6.1.1"
B 0 "7fc3c1a7c000-7fc3c1b8f000 0 /gpfs/apps/MN4/BSCTOOLS/extrae/4.0.1/impi_2018_1/lib/libmpitracef-4.0.1.so"
B 0 "7fc3c2720000-7fc3c2741000 0 /lib64/ld-2.22.so"
