S 736512112788199
S 736512119238829
S 736512167234939
B 0 "400000-51c000 0 /gpfs/projects/bsc99/bsc99206/KNOSOS/knosos/Sources/knosos.x"
B 0 "7f79a36b7000-7f79a7992000 0 /gpfs/apps/MN4/INTEL/2018.4.057/compilers_and_libraries_2018.5.274/linux/mkl/lib/intel64_lin/libmkl_avx512.so"
B 0 "7f79be121000-7f79be12b000 0 /usr/lib64/libnuma.so.1"
B 0 "7f79e14d9000-7f79e1547000 0 /usr/lib64/libpcre.so.1.2.7"
B 0 "7f79e1748000-7f79e176b000 0 /lib64/libselinux.so.1"
B 0 "7f79e196e000-7f79e1971000 0 /lib64/libkeyutils.so.1.5"
B 0 "7f79e1b72000-7f79e1b75000 0 /usr/lib64/libXau.so.6.0.0"
B 0 "7f79e1d76000-7f79e1d92000 0 /usr/lib64/libsasl2.so.3.0.0"
B 0 "7f79e1f93000-7f79e1fa7000 0 /lib64/libresolv-2.22.so"
B 0 "7f79e21aa000-7f79e21b6000 0 /usr/lib64/libkrb5support.so.0.1"
B 0 "7f79e23b7000-7f79e23ba000 0 /usr/lib64/libcom_err.so.2.1"
B 0 "7f79e25bb000-7f79e25e8000 0 /usr/lib64/libk5crypto.so.3.1"
B 0 "7f79e27eb000-7f79e28ad000 0 /usr/lib64/libkrb5.so.3.3"
B 0 "7f79e2abc000-7f79e2adb000 0 /usr/lib64/libxcb.so.1.1.0"
B 0 "7f79e2cdc000-7f79e2d26000 0 /usr/lib64/libldap-2.4.so.2.10.4"
B 0 "7f79e2f29000-7f79e2f37000 0 /usr/lib64/liblber-2.4.so.2.10.4"
B 0 "7f79e3138000-7f79e317e000 0 /usr/lib64/libgssapi_krb5.so.2.2"
B 0 "7f79e3381000-7f79e35ae000 0 /lib64/libcrypto.so.1.0.0"
B 0 "7f79e37db000-7f79e383c000 0 /lib64/libssl.so.1.0.0"
B 0 "7f79e3a47000-7f79e3a71000 0 /usr/lib64/libssh2.so.1.0.1"
B 0 "7f79e3c73000-7f79e3ca5000 0 /usr/lib64/libidn.so.11.6.11"
B 0 "7f79e3ea7000-7f79e3ee5000 0 /usr/lib64/libquadmath.so.0.0.0"
B 0 "7f79e40e7000-7f79e4152000 0 /gpfs/apps/MN4/INTEL/2018.4.057/compilers_and_libraries_2018.5.274/linux/compiler/lib/intel64_lin/libirc.so"
B 0 "7f79e4355000-7f79e44d0000 0 /usr/lib64/libstdc++.so.6.0.24"
B 0 "7f79e46de000-7f79e4816000 0 /usr/lib64/libX11.so.6.3.0"
B 0 "7f79e4a1c000-7f79e69d2000 0 /gpfs/apps/MN4/INTEL/2018.4.057/compilers_and_libraries_2018.5.274/linux/mkl/lib/intel64_lin/libmkl_intel_thread.so"
B 0 "7f79e6e47000-7f79e6fa8000 0 /gpfs/apps/MN4/INTEL/2018.4.057/compilers_and_libraries_2018.5.274/linux/compiler/lib/intel64_lin/libirng.so"
B 0 "7f79e71bb000-7f79e7228000 0 /usr/lib64/libcurl.so.4.3.0"
B 0 "7f79e742c000-7f79e7441000 0 /lib64/libz.so.1.2.8"
B 0 "7f79e7642000-7f79e7657000 0 /gpfs/apps/MN4/SZIP/2.1.1/INTEL/lib/libsz.so.2.0.0"
B 0 "7f79e7861000-7f79e7c2f000 0 /gpfs/apps/MN4/HDF5/1.8.19/INTEL/IMPI/lib/libhdf5.so.10.3.0"
B 0 "7f79e7e3d000-7f79e7e62000 0 /gpfs/apps/MN4/HDF5/1.8.19/INTEL/IMPI/lib/libhdf5_hl.so.10.2.0"
B 0 "7f79e8065000-7f79e8199000 0 /gpfs/apps/MN4/BSCTOOLS/deps/binutils/2.38/lib/libbfd-2.38.so"
B 0 "7f79e83b1000-7f79e851e000 0 /gpfs/apps/MN4/BSCTOOLS/deps/papi/6.0.0/lib/libpfm.so.4.10.1"
B 0 "7f79e8814000-7f79e8865000 0 /gpfs/apps/MN4/BSCTOOLS/deps/papi/6.0.0/lib/libpapi.so.6.0.0.0"
B 0 "7f79e8a75000-7f79e8a9a000 0 /usr/lib64/liblzma.so.5.0.5"
B 0 "7f79e8c9b000-7f79e8df1000 0 /gpfs/apps/MN4/BSCTOOLS/deps/libxml/2.9.12/lib/libxml2.so.2.9.12"
B 0 "7f79e8ffc000-7f79e9009000 0 /gpfs/apps/MN4/BSCTOOLS/deps/libunwind/1.6.2/lib/libunwind.so.8.0.1"
B 0 "7f79e9214000-7f79e922a000 0 /lib64/libgcc_s.so.1"
B 0 "7f79e942b000-7f79e95c4000 0 /lib64/libc-2.22.so"
B 0 "7f79e97ce000-7f79e9839000 0 /gpfs/apps/MN4/INTEL/2018.4.057/compilers_and_libraries_2018.5.274/linux/compiler/lib/intel64_lin/libintlc.so.5"
B 0 "7f79e9a3c000-7f79e9be4000 0 /gpfs/apps/MN4/INTEL/2018.4.057/compilers_and_libraries_2018.5.274/linux/compiler/lib/intel64_lin/libiomp5.so"
B 0 "7f79e9e1f000-7f79e9f1b000 0 /lib64/libm-2.22.so"
B 0 "7f79ea11c000-7f79eb7a7000 0 /gpfs/apps/MN4/INTEL/2018.4.057/compilers_and_libraries_2018.5.274/linux/compiler/lib/intel64_lin/libsvml.so"
B 0 "7f79eba2a000-7f79ebd60000 0 /gpfs/apps/MN4/INTEL/2018.4.057/compilers_and_libraries_2018.5.274/linux/compiler/lib/intel64_lin/libimf.so"
B 0 "7f79ebfbd000-7f79ec0f9000 0 /gpfs/apps/MN4/INTEL/2018.4.057/compilers_and_libraries_2018.5.274/linux/compiler/lib/intel64_lin/libifcoremt.so.5"
B 0 "7f79ec351000-7f79ec377000 0 /gpfs/apps/MN4/INTEL/2018.4.057/compilers_and_libraries_2018.5.274/linux/compiler/lib/intel64_lin/libifport.so.5"
B 0 "7f79ec57d000-7f79ec595000 0 /lib64/libpthread-2.22.so"
B 0 "7f79ec79a000-7f79ec7a1000 0 /lib64/librt-2.22.so"
B 0 "7f79ec9a2000-7f79ec9a4000 0 /lib64/libdl-2.22.so"
B 0 "7f79ecba6000-7f79ed25a000 0 /gpfs/apps/MN4/INTEL/2018.1.038/compilers_and_libraries_2018.1.163/linux/mpi/intel64/lib/release_mt/libmpi.so.12.0"
B 0 "7f79ed82b000-7f79ed9a9000 0 /gpfs/apps/MN4/INTEL/2018.1.038/compilers_and_libraries_2018.1.163/linux/mpi/intel64/lib/libmpifort.so.12.0"
B 0 "7f79edbd4000-7f79edc15000 0 /gpfs/apps/MN4/INTEL/2018.4.057/compilers_and_libraries_2018.5.274/linux/mkl/lib/intel64_lin/libmkl_blacs_intelmpi_lp64.so"
B 0 "7f79ede16000-7f79f1c1a000 0 /gpfs/apps/MN4/INTEL/2018.4.057/compilers_and_libraries_2018.5.274/linux/mkl/lib/intel64_lin/libmkl_core.so"
B 0 "7f79f1e63000-7f79f310f000 0 /gpfs/apps/MN4/INTEL/2018.4.057/compilers_and_libraries_2018.5.274/linux/mkl/lib/intel64_lin/libmkl_sequential.so"
B 0 "7f79f3328000-7f79f39a1000 0 /gpfs/apps/MN4/INTEL/2018.4.057/compilers_and_libraries_2018.5.274/linux/mkl/lib/intel64_lin/libmkl_scalapack_lp64.so"
B 0 "7f79f3c29000-7f79f4520000 0 /gpfs/apps/MN4/INTEL/2018.4.057/compilers_and_libraries_2018.5.274/linux/mkl/lib/intel64_lin/libmkl_intel_lp64.so"
B 0 "7f79f4739000-7f79f63ab000 0 /gpfs/projects/bsc99/bsc99206/KNOSOS/petsc-3.16.1_tuned/build/lib/libpetsc.so.3.16.1"
B 0 "7f79f686e000-7f79f6b26000 0 /gpfs/apps/MN4/NETCDF/4.4.1.1/INTEL/IMPI/lib/libnetcdf.so.11.0.4"
B 0 "7f79f9dd6000-7f79f9e8a000 0 /gpfs/apps/MN4/NETCDF/4.4.1.1/INTEL/IMPI/lib/libnetcdff.so.6.1.1"
B 0 "7f79fa265000-7f79fa378000 0 /gpfs/apps/MN4/BSCTOOLS/extrae/4.0.1/impi_2018_1/lib/libmpitracef-4.0.1.so"
B 0 "7f79faf09000-7f79faf2a000 0 /lib64/ld-2.22.so"
