S 689498536852075
S 689498539115494
S 689498589053105
B 0 "400000-51c000 0 /gpfs/projects/bsc99/bsc99206/KNOSOS/knosos/Sources/knosos.x"
B 0 "7f9a48ec6000-7f9a4d1a1000 0 /gpfs/apps/MN4/INTEL/2018.4.057/compilers_and_libraries_2018.5.274/linux/mkl/lib/intel64_lin/libmkl_avx512.so"
B 0 "7f9a5f6b3000-7f9a5f6bd000 0 /usr/lib64/libnuma.so.1"
B 0 "7f9a82a6b000-7f9a82ad9000 0 /usr/lib64/libpcre.so.1.2.7"
B 0 "7f9a82cda000-7f9a82cfd000 0 /lib64/libselinux.so.1"
B 0 "7f9a82f00000-7f9a82f03000 0 /lib64/libkeyutils.so.1.5"
B 0 "7f9a83104000-7f9a83107000 0 /usr/lib64/libXau.so.6.0.0"
B 0 "7f9a83308000-7f9a83324000 0 /usr/lib64/libsasl2.so.3.0.0"
B 0 "7f9a83525000-7f9a83539000 0 /lib64/libresolv-2.22.so"
B 0 "7f9a8373c000-7f9a83748000 0 /usr/lib64/libkrb5support.so.0.1"
B 0 "7f9a83949000-7f9a8394c000 0 /usr/lib64/libcom_err.so.2.1"
B 0 "7f9a83b4d000-7f9a83b7a000 0 /usr/lib64/libk5crypto.so.3.1"
B 0 "7f9a83d7d000-7f9a83e3f000 0 /usr/lib64/libkrb5.so.3.3"
B 0 "7f9a8404e000-7f9a8406d000 0 /usr/lib64/libxcb.so.1.1.0"
B 0 "7f9a8426e000-7f9a842b8000 0 /usr/lib64/libldap-2.4.so.2.10.4"
B 0 "7f9a844bb000-7f9a844c9000 0 /usr/lib64/liblber-2.4.so.2.10.4"
B 0 "7f9a846ca000-7f9a84710000 0 /usr/lib64/libgssapi_krb5.so.2.2"
B 0 "7f9a84913000-7f9a84b40000 0 /lib64/libcrypto.so.1.0.0"
B 0 "7f9a84d6d000-7f9a84dce000 0 /lib64/libssl.so.1.0.0"
B 0 "7f9a84fd9000-7f9a85003000 0 /usr/lib64/libssh2.so.1.0.1"
B 0 "7f9a85205000-7f9a85237000 0 /usr/lib64/libidn.so.11.6.11"
B 0 "7f9a85439000-7f9a85477000 0 /usr/lib64/libquadmath.so.0.0.0"
B 0 "7f9a85679000-7f9a856e4000 0 /gpfs/apps/MN4/INTEL/2018.4.057/compilers_and_libraries_2018.5.274/linux/compiler/lib/intel64_lin/libirc.so"
B 0 "7f9a858e7000-7f9a85a62000 0 /usr/lib64/libstdc++.so.6.0.24"
B 0 "7f9a85c70000-7f9a85da8000 0 /usr/lib64/libX11.so.6.3.0"
B 0 "7f9a85fae000-7f9a87f64000 0 /gpfs/apps/MN4/INTEL/2018.4.057/compilers_and_libraries_2018.5.274/linux/mkl/lib/intel64_lin/libmkl_intel_thread.so"
B 0 "7f9a883d9000-7f9a8853a000 0 /gpfs/apps/MN4/INTEL/2018.4.057/compilers_and_libraries_2018.5.274/linux/compiler/lib/intel64_lin/libirng.so"
B 0 "7f9a8874d000-7f9a887ba000 0 /usr/lib64/libcurl.so.4.3.0"
B 0 "7f9a889be000-7f9a889d3000 0 /lib64/libz.so.1.2.8"
B 0 "7f9a88bd4000-7f9a88be9000 0 /gpfs/apps/MN4/SZIP/2.1.1/INTEL/lib/libsz.so.2.0.0"
B 0 "7f9a88df3000-7f9a891c1000 0 /gpfs/apps/MN4/HDF5/1.8.19/INTEL/IMPI/lib/libhdf5.so.10.3.0"
B 0 "7f9a893cf000-7f9a893f4000 0 /gpfs/apps/MN4/HDF5/1.8.19/INTEL/IMPI/lib/libhdf5_hl.so.10.2.0"
B 0 "7f9a895f7000-7f9a8972b000 0 /gpfs/apps/MN4/BSCTOOLS/deps/binutils/2.38/lib/libbfd-2.38.so"
B 0 "7f9a89943000-7f9a89ab0000 0 /gpfs/apps/MN4/BSCTOOLS/deps/papi/6.0.0/lib/libpfm.so.4.10.1"
B 0 "7f9a89da6000-7f9a89df7000 0 /gpfs/apps/MN4/BSCTOOLS/deps/papi/6.0.0/lib/libpapi.so.6.0.0.0"
B 0 "7f9a8a007000-7f9a8a02c000 0 /usr/lib64/liblzma.so.5.0.5"
B 0 "7f9a8a22d000-7f9a8a383000 0 /gpfs/apps/MN4/BSCTOOLS/deps/libxml/2.9.12/lib/libxml2.so.2.9.12"
B 0 "7f9a8a58e000-7f9a8a59b000 0 /gpfs/apps/MN4/BSCTOOLS/deps/libunwind/1.6.2/lib/libunwind.so.8.0.1"
B 0 "7f9a8a7a6000-7f9a8a7bc000 0 /lib64/libgcc_s.so.1"
B 0 "7f9a8a9bd000-7f9a8ab56000 0 /lib64/libc-2.22.so"
B 0 "7f9a8ad60000-7f9a8adcb000 0 /gpfs/apps/MN4/INTEL/2018.4.057/compilers_and_libraries_2018.5.274/linux/compiler/lib/intel64_lin/libintlc.so.5"
B 0 "7f9a8afce000-7f9a8b176000 0 /gpfs/apps/MN4/INTEL/2018.4.057/compilers_and_libraries_2018.5.274/linux/compiler/lib/intel64_lin/libiomp5.so"
B 0 "7f9a8b3b1000-7f9a8b4ad000 0 /lib64/libm-2.22.so"
B 0 "7f9a8b6ae000-7f9a8cd39000 0 /gpfs/apps/MN4/INTEL/2018.4.057/compilers_and_libraries_2018.5.274/linux/compiler/lib/intel64_lin/libsvml.so"
B 0 "7f9a8cfbc000-7f9a8d2f2000 0 /gpfs/apps/MN4/INTEL/2018.4.057/compilers_and_libraries_2018.5.274/linux/compiler/lib/intel64_lin/libimf.so"
B 0 "7f9a8d54f000-7f9a8d68b000 0 /gpfs/apps/MN4/INTEL/2018.4.057/compilers_and_libraries_2018.5.274/linux/compiler/lib/intel64_lin/libifcoremt.so.5"
B 0 "7f9a8d8e3000-7f9a8d909000 0 /gpfs/apps/MN4/INTEL/2018.4.057/compilers_and_libraries_2018.5.274/linux/compiler/lib/intel64_lin/libifport.so.5"
B 0 "7f9a8db0f000-7f9a8db27000 0 /lib64/libpthread-2.22.so"
B 0 "7f9a8dd2c000-7f9a8dd33000 0 /lib64/librt-2.22.so"
B 0 "7f9a8df34000-7f9a8df36000 0 /lib64/libdl-2.22.so"
B 0 "7f9a8e138000-7f9a8e7ec000 0 /gpfs/apps/MN4/INTEL/2018.1.038/compilers_and_libraries_2018.1.163/linux/mpi/intel64/lib/release_mt/libmpi.so.12.0"
B 0 "7f9a8edbd000-7f9a8ef3b000 0 /gpfs/apps/MN4/INTEL/2018.1.038/compilers_and_libraries_2018.1.163/linux/mpi/intel64/lib/libmpifort.so.12.0"
B 0 "7f9a8f166000-7f9a8f1a7000 0 /gpfs/apps/MN4/INTEL/2018.4.057/compilers_and_libraries_2018.5.274/linux/mkl/lib/intel64_lin/libmkl_blacs_intelmpi_lp64.so"
B 0 "7f9a8f3a8000-7f9a931ac000 0 /gpfs/apps/MN4/INTEL/2018.4.057/compilers_and_libraries_2018.5.274/linux/mkl/lib/intel64_lin/libmkl_core.so"
B 0 "7f9a933f5000-7f9a946a1000 0 /gpfs/apps/MN4/INTEL/2018.4.057/compilers_and_libraries_2018.5.274/linux/mkl/lib/intel64_lin/libmkl_sequential.so"
B 0 "7f9a948ba000-7f9a94f33000 0 /gpfs/apps/MN4/INTEL/2018.4.057/compilers_and_libraries_2018.5.274/linux/mkl/lib/intel64_lin/libmkl_scalapack_lp64.so"
B 0 "7f9a951bb000-7f9a95ab2000 0 /gpfs/apps/MN4/INTEL/2018.4.057/compilers_and_libraries_2018.5.274/linux/mkl/lib/intel64_lin/libmkl_intel_lp64.so"
B 0 "7f9a95ccb000-7f9a9793d000 0 /gpfs/projects/bsc99/bsc99206/KNOSOS/petsc-3.16.1_tuned/build/lib/libpetsc.so.3.16.1"
B 0 "7f9a97e00000-7f9a980b8000 0 /gpfs/apps/MN4/NETCDF/4.4.1.1/INTEL/IMPI/lib/libnetcdf.so.11.0.4"
B 0 "7f9a9b368000-7f9a9b41c000 0 /gpfs/apps/MN4/NETCDF/4.4.1.1/INTEL/IMPI/lib/libnetcdff.so.6.1.1"
B 0 "7f9a9b7f7000-7f9a9b90a000 0 /gpfs/apps/MN4/BSCTOOLS/extrae/4.0.1/impi_2018_1/lib/libmpitracef-4.0.1.so"
B 0 "7f9a9c49b000-7f9a9c4bc000 0 /lib64/ld-2.22.so"
