S 689498541912690
S 689498542815975
S 689498589053526
B 0 "400000-51c000 0 /gpfs/projects/bsc99/bsc99206/KNOSOS/knosos/Sources/knosos.x"
B 0 "7f45b5d8f000-7f45ba06a000 0 /gpfs/apps/MN4/INTEL/2018.4.057/compilers_and_libraries_2018.5.274/linux/mkl/lib/intel64_lin/libmkl_avx512.so"
B 0 "7f45cc57c000-7f45cc586000 0 /usr/lib64/libnuma.so.1"
B 0 "7f45ef934000-7f45ef9a2000 0 /usr/lib64/libpcre.so.1.2.7"
B 0 "7f45efba3000-7f45efbc6000 0 /lib64/libselinux.so.1"
B 0 "7f45efdc9000-7f45efdcc000 0 /lib64/libkeyutils.so.1.5"
B 0 "7f45effcd000-7f45effd0000 0 /usr/lib64/libXau.so.6.0.0"
B 0 "7f45f01d1000-7f45f01ed000 0 /usr/lib64/libsasl2.so.3.0.0"
B 0 "7f45f03ee000-7f45f0402000 0 /lib64/libresolv-2.22.so"
B 0 "7f45f0605000-7f45f0611000 0 /usr/lib64/libkrb5support.so.0.1"
B 0 "7f45f0812000-7f45f0815000 0 /usr/lib64/libcom_err.so.2.1"
B 0 "7f45f0a16000-7f45f0a43000 0 /usr/lib64/libk5crypto.so.3.1"
B 0 "7f45f0c46000-7f45f0d08000 0 /usr/lib64/libkrb5.so.3.3"
B 0 "7f45f0f17000-7f45f0f36000 0 /usr/lib64/libxcb.so.1.1.0"
B 0 "7f45f1137000-7f45f1181000 0 /usr/lib64/libldap-2.4.so.2.10.4"
B 0 "7f45f1384000-7f45f1392000 0 /usr/lib64/liblber-2.4.so.2.10.4"
B 0 "7f45f1593000-7f45f15d9000 0 /usr/lib64/libgssapi_krb5.so.2.2"
B 0 "7f45f17dc000-7f45f1a09000 0 /lib64/libcrypto.so.1.0.0"
B 0 "7f45f1c36000-7f45f1c97000 0 /lib64/libssl.so.1.0.0"
B 0 "7f45f1ea2000-7f45f1ecc000 0 /usr/lib64/libssh2.so.1.0.1"
B 0 "7f45f20ce000-7f45f2100000 0 /usr/lib64/libidn.so.11.6.11"
B 0 "7f45f2302000-7f45f2340000 0 /usr/lib64/libquadmath.so.0.0.0"
B 0 "7f45f2542000-7f45f25ad000 0 /gpfs/apps/MN4/INTEL/2018.4.057/compilers_and_libraries_2018.5.274/linux/compiler/lib/intel64_lin/libirc.so"
B 0 "7f45f27b0000-7f45f292b000 0 /usr/lib64/libstdc++.so.6.0.24"
B 0 "7f45f2b39000-7f45f2c71000 0 /usr/lib64/libX11.so.6.3.0"
B 0 "7f45f2e77000-7f45f4e2d000 0 /gpfs/apps/MN4/INTEL/2018.4.057/compilers_and_libraries_2018.5.274/linux/mkl/lib/intel64_lin/libmkl_intel_thread.so"
B 0 "7f45f52a2000-7f45f5403000 0 /gpfs/apps/MN4/INTEL/2018.4.057/compilers_and_libraries_2018.5.274/linux/compiler/lib/intel64_lin/libirng.so"
B 0 "7f45f5616000-7f45f5683000 0 /usr/lib64/libcurl.so.4.3.0"
B 0 "7f45f5887000-7f45f589c000 0 /lib64/libz.so.1.2.8"
B 0 "7f45f5a9d000-7f45f5ab2000 0 /gpfs/apps/MN4/SZIP/2.1.1/INTEL/lib/libsz.so.2.0.0"
B 0 "7f45f5cbc000-7f45f608a000 0 /gpfs/apps/MN4/HDF5/1.8.19/INTEL/IMPI/lib/libhdf5.so.10.3.0"
B 0 "7f45f6298000-7f45f62bd000 0 /gpfs/apps/MN4/HDF5/1.8.19/INTEL/IMPI/lib/libhdf5_hl.so.10.2.0"
B 0 "7f45f64c0000-7f45f65f4000 0 /gpfs/apps/MN4/BSCTOOLS/deps/binutils/2.38/lib/libbfd-2.38.so"
B 0 "7f45f680c000-7f45f6979000 0 /gpfs/apps/MN4/BSCTOOLS/deps/papi/6.0.0/lib/libpfm.so.4.10.1"
B 0 "7f45f6c6f000-7f45f6cc0000 0 /gpfs/apps/MN4/BSCTOOLS/deps/papi/6.0.0/lib/libpapi.so.6.0.0.0"
B 0 "7f45f6ed0000-7f45f6ef5000 0 /usr/lib64/liblzma.so.5.0.5"
B 0 "7f45f70f6000-7f45f724c000 0 /gpfs/apps/MN4/BSCTOOLS/deps/libxml/2.9.12/lib/libxml2.so.2.9.12"
B 0 "7f45f7457000-7f45f7464000 0 /gpfs/apps/MN4/BSCTOOLS/deps/libunwind/1.6.2/lib/libunwind.so.8.0.1"
B 0 "7f45f766f000-7f45f7685000 0 /lib64/libgcc_s.so.1"
B 0 "7f45f7886000-7f45f7a1f000 0 /lib64/libc-2.22.so"
B 0 "7f45f7c29000-7f45f7c94000 0 /gpfs/apps/MN4/INTEL/2018.4.057/compilers_and_libraries_2018.5.274/linux/compiler/lib/intel64_lin/libintlc.so.5"
B 0 "7f45f7e97000-7f45f803f000 0 /gpfs/apps/MN4/INTEL/2018.4.057/compilers_and_libraries_2018.5.274/linux/compiler/lib/intel64_lin/libiomp5.so"
B 0 "7f45f827a000-7f45f8376000 0 /lib64/libm-2.22.so"
B 0 "7f45f8577000-7f45f9c02000 0 /gpfs/apps/MN4/INTEL/2018.4.057/compilers_and_libraries_2018.5.274/linux/compiler/lib/intel64_lin/libsvml.so"
B 0 "7f45f9e85000-7f45fa1bb000 0 /gpfs/apps/MN4/INTEL/2018.4.057/compilers_and_libraries_2018.5.274/linux/compiler/lib/intel64_lin/libimf.so"
B 0 "7f45fa418000-7f45fa554000 0 /gpfs/apps/MN4/INTEL/2018.4.057/compilers_and_libraries_2018.5.274/linux/compiler/lib/intel64_lin/libifcoremt.so.5"
B 0 "7f45fa7ac000-7f45fa7d2000 0 /gpfs/apps/MN4/INTEL/2018.4.057/compilers_and_libraries_2018.5.274/linux/compiler/lib/intel64_lin/libifport.so.5"
B 0 "7f45fa9d8000-7f45fa9f0000 0 /lib64/libpthread-2.22.so"
B 0 "7f45fabf5000-7f45fabfc000 0 /lib64/librt-2.22.so"
B 0 "7f45fadfd000-7f45fadff000 0 /lib64/libdl-2.22.so"
B 0 "7f45fb001000-7f45fb6b5000 0 /gpfs/apps/MN4/INTEL/2018.1.038/compilers_and_libraries_2018.1.163/linux/mpi/intel64/lib/release_mt/libmpi.so.12.0"
B 0 "7f45fbc86000-7f45fbe04000 0 /gpfs/apps/MN4/INTEL/2018.1.038/compilers_and_libraries_2018.1.163/linux/mpi/intel64/lib/libmpifort.so.12.0"
B 0 "7f45fc02f000-7f45fc070000 0 /gpfs/apps/MN4/INTEL/2018.4.057/compilers_and_libraries_2018.5.274/linux/mkl/lib/intel64_lin/libmkl_blacs_intelmpi_lp64.so"
B 0 "7f45fc271000-7f4600075000 0 /gpfs/apps/MN4/INTEL/2018.4.057/compilers_and_libraries_2018.5.274/linux/mkl/lib/intel64_lin/libmkl_core.so"
B 0 "7f46002be000-7f460156a000 0 /gpfs/apps/MN4/INTEL/2018.4.057/compilers_and_libraries_2018.5.274/linux/mkl/lib/intel64_lin/libmkl_sequential.so"
B 0 "7f4601783000-7f4601dfc000 0 /gpfs/apps/MN4/INTEL/2018.4.057/compilers_and_libraries_2018.5.274/linux/mkl/lib/intel64_lin/libmkl_scalapack_lp64.so"
B 0 "7f4602084000-7f460297b000 0 /gpfs/apps/MN4/INTEL/2018.4.057/compilers_and_libraries_2018.5.274/linux/mkl/lib/intel64_lin/libmkl_intel_lp64.so"
B 0 "7f4602b94000-7f4604806000 0 /gpfs/projects/bsc99/bsc99206/KNOSOS/petsc-3.16.1_tuned/build/lib/libpetsc.so.3.16.1"
B 0 "7f4604cc9000-7f4604f81000 0 /gpfs/apps/MN4/NETCDF/4.4.1.1/INTEL/IMPI/lib/libnetcdf.so.11.0.4"
B 0 "7f4608231000-7f46082e5000 0 /gpfs/apps/MN4/NETCDF/4.4.1.1/INTEL/IMPI/lib/libnetcdff.so.6.1.1"
B 0 "7f46086c0000-7f46087d3000 0 /gpfs/apps/MN4/BSCTOOLS/extrae/4.0.1/impi_2018_1/lib/libmpitracef-4.0.1.so"
B 0 "7f4609364000-7f4609385000 0 /lib64/ld-2.22.so"
