s \zeta_{Boozer}  \theta_{Boozer}(right-handed)  B[T]  (v_B.\nabla\psi)[A.U.]
  3.00000E-01  0.00000E+00  0.00000E+00  2.36267E+00  0.00000E+00 T
  3.00000E-01  0.00000E+00  1.96350E-01  2.36642E+00 -1.67140E-02 T
  3.00000E-01  0.00000E+00  3.92699E-01  2.37851E+00 -3.47766E-02 T
  3.00000E-01  0.00000E+00  5.89049E-01  2.39795E+00 -4.70247E-02 T
  3.00000E-01  0.00000E+00  7.85398E-01  2.42226E+00 -5.54556E-02 T
  3.00000E-01  0.00000E+00  9.81748E-01  2.45033E+00 -6.11071E-02 T
  3.00000E-01  0.00000E+00  1.17810E+00  2.48022E+00 -6.16600E-02 T
  3.00000E-01  0.00000E+00  1.37445E+00  2.50999E+00 -5.96892E-02 T
  3.00000E-01  0.00000E+00  1.57080E+00  2.53888E+00 -5.67566E-02 T
  3.00000E-01  0.00000E+00  1.76715E+00  2.56648E+00 -5.32612E-02 T
  3.00000E-01  0.00000E+00  1.96350E+00  2.59232E+00 -4.84583E-02 T
  3.00000E-01  0.00000E+00  2.15985E+00  2.61547E+00 -4.18954E-02 T
  3.00000E-01  0.00000E+00  2.35619E+00  2.63524E+00 -3.48486E-02 T
  3.00000E-01  0.00000E+00  2.55254E+00  2.65158E+00 -2.81620E-02 T
  3.00000E-01  0.00000E+00  2.74889E+00  2.66450E+00 -2.11300E-02 T
  3.00000E-01  0.00000E+00  2.94524E+00  2.67323E+00 -1.16955E-02 T
  3.00000E-01  0.00000E+00  3.14159E+00  2.67636E+00  5.39379E-09 T
  3.00000E-01  0.00000E+00  3.33794E+00  2.67323E+00  1.16955E-02 T
  3.00000E-01  0.00000E+00  3.53429E+00  2.66450E+00  2.11300E-02 T
  3.00000E-01  0.00000E+00  3.73064E+00  2.65158E+00  2.81621E-02 T
  3.00000E-01  0.00000E+00  3.92699E+00  2.63524E+00  3.48486E-02 T
  3.00000E-01  0.00000E+00  4.12334E+00  2.61547E+00  4.18954E-02 T
  3.00000E-01  0.00000E+00  4.31969E+00  2.59232E+00  4.84583E-02 T
  3.00000E-01  0.00000E+00  4.51604E+00  2.56648E+00  5.32612E-02 T
  3.00000E-01  0.00000E+00  4.71239E+00  2.53888E+00  5.67566E-02 T
  3.00000E-01  0.00000E+00  4.90874E+00  2.50999E+00  5.96892E-02 T
  3.00000E-01  0.00000E+00  5.10509E+00  2.48022E+00  6.16600E-02 T
  3.00000E-01  0.00000E+00  5.30144E+00  2.45033E+00  6.11071E-02 T
  3.00000E-01  0.00000E+00  5.49779E+00  2.42226E+00  5.54556E-02 T
  3.00000E-01  0.00000E+00  5.69414E+00  2.39795E+00  4.70247E-02 T
  3.00000E-01  0.00000E+00  5.89049E+00  2.37851E+00  3.47766E-02 T
  3.00000E-01  0.00000E+00  6.08684E+00  2.36642E+00  1.67140E-02 T
  3.00000E-01  3.92699E-02  0.00000E+00  2.37259E+00 -1.02242E-02 T
  3.00000E-01  3.92699E-02  1.96350E-01  2.38122E+00 -2.72565E-02 T
  3.00000E-01  3.92699E-02  3.92699E-01  2.39798E+00 -4.32587E-02 T
  3.00000E-01  3.92699E-02  5.89049E-01  2.42093E+00 -5.28748E-02 T
  3.00000E-01  3.92699E-02  7.85398E-01  2.44783E+00 -5.92798E-02 T
  3.00000E-01  3.92699E-02  9.81748E-01  2.47734E+00 -6.19657E-02 T
  3.00000E-01  3.92699E-02  1.17810E+00  2.50743E+00 -6.05656E-02 T
  3.00000E-01  3.92699E-02  1.37445E+00  2.53672E+00 -5.75829E-02 T
  3.00000E-01  3.92699E-02  1.57080E+00  2.56467E+00 -5.39781E-02 T
  3.00000E-01  3.92699E-02  1.76715E+00  2.59096E+00 -4.96501E-02 T
  3.00000E-01  3.92699E-02  1.96350E+00  2.61481E+00 -4.33254E-02 T
  3.00000E-01  3.92699E-02  2.15985E+00  2.63513E+00 -3.53769E-02 T
  3.00000E-01  3.92699E-02  2.35619E+00  2.65134E+00 -2.71414E-02 T
  3.00000E-01  3.92699E-02  2.55254E+00  2.66348E+00 -1.94627E-02 T
  3.00000E-01  3.92699E-02  2.74889E+00  2.67161E+00 -1.12942E-02 T
  3.00000E-01  3.92699E-02  2.94524E+00  2.67486E+00 -6.43261E-04 T
  3.00000E-01  3.92699E-02  3.14159E+00  2.67201E+00  1.15343E-02 T
  3.00000E-01  3.92699E-02  3.33794E+00  2.66297E+00  2.25782E-02 T
  3.00000E-01  3.92699E-02  3.53429E+00  2.64901E+00  3.03390E-02 T
  3.00000E-01  3.92699E-02  3.73064E+00  2.63191E+00  3.53758E-02 T
  3.00000E-01  3.92699E-02  3.92699E+00  2.61255E+00  3.98774E-02 T
  3.00000E-01  3.92699E-02  4.12334E+00  2.59095E+00  4.46934E-02 T
  3.00000E-01  3.92699E-02  4.31969E+00  2.56719E+00  4.89253E-02 T
  3.00000E-01  3.92699E-02  4.51604E+00  2.54191E+00  5.16487E-02 T
  3.00000E-01  3.92699E-02  4.71239E+00  2.51575E+00  5.36683E-02 T
  3.00000E-01  3.92699E-02  4.90874E+00  2.48903E+00  5.49175E-02 T
  3.00000E-01  3.92699E-02  5.10509E+00  2.46221E+00  5.52566E-02 T
  3.00000E-01  3.92699E-02  5.30144E+00  2.43607E+00  5.26224E-02 T
  3.00000E-01  3.92699E-02  5.49779E+00  2.41259E+00  4.56245E-02 T
  3.00000E-01  3.92699E-02  5.69414E+00  2.39296E+00  3.72752E-02 T
  3.00000E-01  3.92699E-02  5.89049E+00  2.37835E+00  2.38435E-02 T
  3.00000E-01  3.92699E-02  6.08684E+00  2.37146E+00  5.70012E-03 T
  3.00000E-01  7.85398E-02  0.00000E+00  2.36634E+00 -1.63898E-02 T
  3.00000E-01  7.85398E-02  1.96350E-01  2.37841E+00 -3.58002E-02 T
  3.00000E-01  7.85398E-02  3.92699E-01  2.39938E+00 -5.24693E-02 T
  3.00000E-01  7.85398E-02  5.89049E-01  2.42679E+00 -6.23065E-02 T
  3.00000E-01  7.85398E-02  7.85398E-01  2.45805E+00 -6.71954E-02 T
  3.00000E-01  7.85398E-02  9.81748E-01  2.49075E+00 -6.65620E-02 T
  3.00000E-01  7.85398E-02  1.17810E+00  2.52256E+00 -6.23705E-02 T
  3.00000E-01  7.85398E-02  1.37445E+00  2.55234E+00 -5.70839E-02 T
  3.00000E-01  7.85398E-02  1.57080E+00  2.57974E+00 -5.16774E-02 T
  3.00000E-01  7.85398E-02  1.76715E+00  2.60451E+00 -4.53186E-02 T
  3.00000E-01  7.85398E-02  1.96350E+00  2.62570E+00 -3.69434E-02 T
  3.00000E-01  7.85398E-02  2.15985E+00  2.64241E+00 -2.76660E-02 T
  3.00000E-01  7.85398E-02  2.35619E+00  2.65445E+00 -1.88083E-02 T
  3.00000E-01  7.85398E-02  2.55254E+00  2.66224E+00 -1.11655E-02 T
  3.00000E-01  7.85398E-02  2.74889E+00  2.66600E+00 -2.84055E-03 T
  3.00000E-01  7.85398E-02  2.94524E+00  2.66471E+00  8.16973E-03 T
  3.00000E-01  7.85398E-02  3.14159E+00  2.65724E+00  2.03990E-02 T
  3.00000E-01  7.85398E-02  3.33794E+00  2.64375E+00  3.09172E-02 T
  3.00000E-01  7.85398E-02  3.53429E+00  2.62583E+00  3.77615E-02 T
  3.00000E-01  7.85398E-02  3.73064E+00  2.60531E+00  4.18339E-02 T
  3.00000E-01  7.85398E-02  3.92699E+00  2.58316E+00  4.51508E-02 T
  3.00000E-01  7.85398E-02  4.12334E+00  2.55950E+00  4.85458E-02 T
  3.00000E-01  7.85398E-02  4.31969E+00  2.53454E+00  5.10531E-02 T
  3.00000E-01  7.85398E-02  4.51604E+00  2.50888E+00  5.24634E-02 T
  3.00000E-01  7.85398E-02  4.71239E+00  2.48297E+00  5.30757E-02 T
  3.00000E-01  7.85398E-02  4.90874E+00  2.45742E+00  5.20156E-02 T
  3.00000E-01  7.85398E-02  5.10509E+00  2.43297E+00  4.95082E-02 T
  3.00000E-01  7.85398E-02  5.30144E+00  2.41067E+00  4.35873E-02 T
  3.00000E-01  7.85398E-02  5.49779E+00  2.39199E+00  3.57987E-02 T
  3.00000E-01  7.85398E-02  5.69414E+00  2.37684E+00  2.86052E-02 T
  3.00000E-01  7.85398E-02  5.89049E+00  2.36619E+00  1.59499E-02 T
  3.00000E-01  7.85398E-02  6.08684E+00  2.36256E+00 -2.37860E-04 T
  3.00000E-01  1.17810E-01  0.00000E+00  2.34362E+00 -2.46660E-02 T
  3.00000E-01  1.17810E-01  1.96350E-01  2.35977E+00 -4.53013E-02 T
  3.00000E-01  1.17810E-01  3.92699E-01  2.38500E+00 -6.18945E-02 T
  3.00000E-01  1.17810E-01  5.89049E-01  2.41676E+00 -7.18372E-02 T
  3.00000E-01  1.17810E-01  7.85398E-01  2.45219E+00 -7.52238E-02 T
  3.00000E-01  1.17810E-01  9.81748E-01  2.48818E+00 -7.23544E-02 T
  3.00000E-01  1.17810E-01  1.17810E+00  2.52233E+00 -6.61810E-02 T
  3.00000E-01  1.17810E-01  1.37445E+00  2.55354E+00 -5.90625E-02 T
  3.00000E-01  1.17810E-01  1.57080E+00  2.58155E+00 -5.20063E-02 T
  3.00000E-01  1.17810E-01  1.76715E+00  2.60596E+00 -4.34691E-02 T
  3.00000E-01  1.17810E-01  1.96350E+00  2.62563E+00 -3.28893E-02 T
  3.00000E-01  1.17810E-01  2.15985E+00  2.63970E+00 -2.15389E-02 T
  3.00000E-01  1.17810E-01  2.35619E+00  2.64809E+00 -1.10824E-02 T
  3.00000E-01  1.17810E-01  2.55254E+00  2.65158E+00 -2.56930E-03 T
  3.00000E-01  1.17810E-01  2.74889E+00  2.65069E+00  6.28274E-03 T
  3.00000E-01  1.17810E-01  2.94524E+00  2.64469E+00  1.70644E-02 T
  3.00000E-01  1.17810E-01  3.14159E+00  2.63293E+00  2.81949E-02 T
  3.00000E-01  1.17810E-01  3.33794E+00  2.61596E+00  3.71027E-02 T
  3.00000E-01  1.17810E-01  3.53429E+00  2.59543E+00  4.26514E-02 T
  3.00000E-01  1.17810E-01  3.73064E+00  2.57287E+00  4.60591E-02 T
  3.00000E-01  1.17810E-01  3.92699E+00  2.54897E+00  4.90729E-02 T
  3.00000E-01  1.17810E-01  4.12334E+00  2.52375E+00  5.21276E-02 T
  3.00000E-01  1.17810E-01  4.31969E+00  2.49748E+00  5.42694E-02 T
  3.00000E-01  1.17810E-01  4.51604E+00  2.47061E+00  5.58679E-02 T
  3.00000E-01  1.17810E-01  4.71239E+00  2.44351E+00  5.60581E-02 T
  3.00000E-01  1.17810E-01  4.90874E+00  2.41723E+00  5.36926E-02 T
  3.00000E-01  1.17810E-01  5.10509E+00  2.39290E+00  4.87398E-02 T
  3.00000E-01  1.17810E-01  5.30144E+00  2.37211E+00  3.95741E-02 T
  3.00000E-01  1.17810E-01  5.49779E+00  2.35597E+00  3.04427E-02 T
  3.00000E-01  1.17810E-01  5.69414E+00  2.34377E+00  2.19469E-02 T
  3.00000E-01  1.17810E-01  5.89049E+00  2.33664E+00  8.23371E-03 T
  3.00000E-01  1.17810E-01  6.08684E+00  2.33644E+00 -7.30493E-03 T
  3.00000E-01  1.57080E-01  0.00000E+00  2.35520E+00 -3.42876E-02 T
  3.00000E-01  1.57080E-01  1.96350E-01  2.37496E+00 -5.03530E-02 T
  3.00000E-01  1.57080E-01  3.92699E-01  2.40149E+00 -6.19347E-02 T
  3.00000E-01  1.57080E-01  5.89049E-01  2.43265E+00 -6.85439E-02 T
  3.00000E-01  1.57080E-01  7.85398E-01  2.46612E+00 -6.97536E-02 T
  3.00000E-01  1.57080E-01  9.81748E-01  2.49950E+00 -6.66323E-02 T
  3.00000E-01  1.57080E-01  1.17810E+00  2.53112E+00 -6.11532E-02 T
  3.00000E-01  1.57080E-01  1.37445E+00  2.56014E+00 -5.50039E-02 T
  3.00000E-01  1.57080E-01  1.57080E+00  2.58632E+00 -4.83724E-02 T
  3.00000E-01  1.57080E-01  1.76715E+00  2.60878E+00 -3.91829E-02 T
  3.00000E-01  1.57080E-01  1.96350E+00  2.62596E+00 -2.73144E-02 T
  3.00000E-01  1.57080E-01  2.15985E+00  2.63666E+00 -1.40210E-02 T
  3.00000E-01  1.57080E-01  2.35619E+00  2.64065E+00 -1.81314E-03 T
  3.00000E-01  1.57080E-01  2.55254E+00  2.63898E+00  7.99648E-03 T
  3.00000E-01  1.57080E-01  2.74889E+00  2.63242E+00  1.74439E-02 T
  3.00000E-01  1.57080E-01  2.94524E+00  2.62088E+00  2.72809E-02 T
  3.00000E-01  1.57080E-01  3.14159E+00  2.60459E+00  3.58313E-02 T
  3.00000E-01  1.57080E-01  3.33794E+00  2.58481E+00  4.12303E-02 T
  3.00000E-01  1.57080E-01  3.53429E+00  2.56327E+00  4.36494E-02 T
  3.00000E-01  1.57080E-01  3.73064E+00  2.54108E+00  4.48881E-02 T
  3.00000E-01  1.57080E-01  3.92699E+00  2.51838E+00  4.66576E-02 T
  3.00000E-01  1.57080E-01  4.12334E+00  2.49488E+00  4.87363E-02 T
  3.00000E-01  1.57080E-01  4.31969E+00  2.47075E+00  5.02315E-02 T
  3.00000E-01  1.57080E-01  4.51604E+00  2.44617E+00  5.14628E-02 T
  3.00000E-01  1.57080E-01  4.71239E+00  2.42164E+00  5.07432E-02 T
  3.00000E-01  1.57080E-01  4.90874E+00  2.39826E+00  4.77736E-02 T
  3.00000E-01  1.57080E-01  5.10509E+00  2.37708E+00  4.18071E-02 T
  3.00000E-01  1.57080E-01  5.30144E+00  2.35991E+00  3.17046E-02 T
  3.00000E-01  1.57080E-01  5.49779E+00  2.34753E+00  2.21609E-02 T
  3.00000E-01  1.57080E-01  5.69414E+00  2.33966E+00  1.12351E-02 T
  3.00000E-01  1.57080E-01  5.89049E+00  2.33791E+00 -3.89576E-03 T
  3.00000E-01  1.57080E-01  6.08684E+00  2.34311E+00 -1.85711E-02 T
  3.00000E-01  1.96350E-01  0.00000E+00  2.37002E+00 -4.45505E-02 T
  3.00000E-01  1.96350E-01  1.96350E-01  2.39358E+00 -5.54217E-02 T
  3.00000E-01  1.96350E-01  3.92699E-01  2.42140E+00 -6.15861E-02 T
  3.00000E-01  1.96350E-01  5.89049E-01  2.45153E+00 -6.37123E-02 T
  3.00000E-01  1.96350E-01  7.85398E-01  2.48215E+00 -6.22578E-02 T
  3.00000E-01  1.96350E-01  9.81748E-01  2.51189E+00 -5.87936E-02 T
  3.00000E-01  1.96350E-01  1.17810E+00  2.53990E+00 -5.40104E-02 T
  3.00000E-01  1.96350E-01  1.37445E+00  2.56570E+00 -4.89176E-02 T
  3.00000E-01  1.96350E-01  1.57080E+00  2.58896E+00 -4.25603E-02 T
  3.00000E-01  1.96350E-01  1.76715E+00  2.60837E+00 -3.29893E-02 T
  3.00000E-01  1.96350E-01  1.96350E+00  2.62220E+00 -2.04187E-02 T
  3.00000E-01  1.96350E-01  2.15985E+00  2.62908E+00 -6.26698E-03 T
  3.00000E-01  1.96350E-01  2.35619E+00  2.62893E+00  6.41884E-03 T
  3.00000E-01  1.96350E-01  2.55254E+00  2.62287E+00  1.68440E-02 T
  3.00000E-01  1.96350E-01  2.74889E+00  2.61167E+00  2.67588E-02 T
  3.00000E-01  1.96350E-01  2.94524E+00  2.59554E+00  3.61190E-02 T
  3.00000E-01  1.96350E-01  3.14159E+00  2.57532E+00  4.29465E-02 T
  3.00000E-01  1.96350E-01  3.33794E+00  2.55280E+00  4.58886E-02 T
  3.00000E-01  1.96350E-01  3.53429E+00  2.52980E+00  4.59803E-02 T
  3.00000E-01  1.96350E-01  3.73064E+00  2.50724E+00  4.53346E-02 T
  3.00000E-01  1.96350E-01  3.92699E+00  2.48499E+00  4.56363E-02 T
  3.00000E-01  1.96350E-01  4.12334E+00  2.46266E+00  4.62430E-02 T
  3.00000E-01  1.96350E-01  4.31969E+00  2.44031E+00  4.66267E-02 T
  3.00000E-01  1.96350E-01  4.51604E+00  2.41805E+00  4.64071E-02 T
  3.00000E-01  1.96350E-01  4.71239E+00  2.39666E+00  4.37197E-02 T
  3.00000E-01  1.96350E-01  4.90874E+00  2.37714E+00  3.93162E-02 T
  3.00000E-01  1.96350E-01  5.10509E+00  2.36042E+00  3.18508E-02 T
  3.00000E-01  1.96350E-01  5.30144E+00  2.34806E+00  2.15538E-02 T
  3.00000E-01  1.96350E-01  5.49779E+00  2.34036E+00  1.19042E-02 T
  3.00000E-01  1.96350E-01  5.69414E+00  2.33763E+00 -8.62870E-04 T
  3.00000E-01  1.96350E-01  5.89049E+00  2.34161E+00 -1.64588E-02 T
  3.00000E-01  1.96350E-01  6.08684E+00  2.35253E+00 -3.07416E-02 T
  3.00000E-01  2.35619E-01  0.00000E+00  2.35776E+00 -5.45692E-02 T
  3.00000E-01  2.35619E-01  1.96350E-01  2.38528E+00 -6.26694E-02 T
  3.00000E-01  2.35619E-01  3.92699E-01  2.41570E+00 -6.56473E-02 T
  3.00000E-01  2.35619E-01  5.89049E-01  2.44689E+00 -6.43990E-02 T
  3.00000E-01  2.35619E-01  7.85398E-01  2.47720E+00 -6.08458E-02 T
  3.00000E-01  2.35619E-01  9.81748E-01  2.50595E+00 -5.65654E-02 T
  3.00000E-01  2.35619E-01  1.17810E+00  2.53273E+00 -5.16571E-02 T
  3.00000E-01  2.35619E-01  1.37445E+00  2.55730E+00 -4.65668E-02 T
  3.00000E-01  2.35619E-01  1.57080E+00  2.57912E+00 -3.94419E-02 T
  3.00000E-01  2.35619E-01  1.76715E+00  2.59661E+00 -2.88144E-02 T
  3.00000E-01  2.35619E-01  1.96350E+00  2.60793E+00 -1.50753E-02 T
  3.00000E-01  2.35619E-01  2.15985E+00  2.61184E+00 -3.24209E-04 T
  3.00000E-01  2.35619E-01  2.35619E+00  2.60867E+00  1.22037E-02 T
  3.00000E-01  2.35619E-01  2.55254E+00  2.59974E+00  2.24888E-02 T
  3.00000E-01  2.35619E-01  2.74889E+00  2.58581E+00  3.22117E-02 T
  3.00000E-01  2.35619E-01  2.94524E+00  2.56716E+00  4.12745E-02 T
  3.00000E-01  2.35619E-01  3.14159E+00  2.54467E+00  4.78159E-02 T
  3.00000E-01  2.35619E-01  3.33794E+00  2.51999E+00  5.08932E-02 T
  3.00000E-01  2.35619E-01  3.53429E+00  2.49474E+00  5.13524E-02 T
  3.00000E-01  2.35619E-01  3.73064E+00  2.46986E+00  5.07493E-02 T
  3.00000E-01  2.35619E-01  3.92699E+00  2.44547E+00  5.03460E-02 T
  3.00000E-01  2.35619E-01  4.12334E+00  2.42157E+00  4.96351E-02 T
  3.00000E-01  2.35619E-01  4.31969E+00  2.39828E+00  4.87853E-02 T
  3.00000E-01  2.35619E-01  4.51604E+00  2.37582E+00  4.65873E-02 T
  3.00000E-01  2.35619E-01  4.71239E+00  2.35525E+00  4.16331E-02 T
  3.00000E-01  2.35619E-01  4.90874E+00  2.33752E+00  3.49797E-02 T
  3.00000E-01  2.35619E-01  5.10509E+00  2.32363E+00  2.51892E-02 T
  3.00000E-01  2.35619E-01  5.30144E+00  2.31468E+00  1.42948E-02 T
  3.00000E-01  2.35619E-01  5.49779E+00  2.31050E+00  3.84386E-03 T
  3.00000E-01  2.35619E-01  5.69414E+00  2.31179E+00 -1.02337E-02 T
  3.00000E-01  2.35619E-01  5.89049E+00  2.32008E+00 -2.61442E-02 T
  3.00000E-01  2.35619E-01  6.08684E+00  2.33553E+00 -4.13300E-02 T
  3.00000E-01  2.74889E-01  0.00000E+00  2.35920E+00 -5.48950E-02 T
  3.00000E-01  2.74889E-01  1.96350E-01  2.38600E+00 -5.94966E-02 T
  3.00000E-01  2.74889E-01  3.92699E-01  2.41439E+00 -6.03677E-02 T
  3.00000E-01  2.74889E-01  5.89049E-01  2.44276E+00 -5.83375E-02 T
  3.00000E-01  2.74889E-01  7.85398E-01  2.47025E+00 -5.56491E-02 T
  3.00000E-01  2.74889E-01  9.81748E-01  2.49669E+00 -5.26717E-02 T
  3.00000E-01  2.74889E-01  1.17810E+00  2.52177E+00 -4.90669E-02 T
  3.00000E-01  2.74889E-01  1.37445E+00  2.54511E+00 -4.44592E-02 T
  3.00000E-01  2.74889E-01  1.57080E+00  2.56562E+00 -3.65747E-02 T
  3.00000E-01  2.74889E-01  1.76715E+00  2.58120E+00 -2.43709E-02 T
  3.00000E-01  2.74889E-01  1.96350E+00  2.58967E+00 -8.64659E-03 T
  3.00000E-01  2.74889E-01  2.15985E+00  2.58995E+00  7.19251E-03 T
  3.00000E-01  2.74889E-01  2.35619E+00  2.58295E+00  1.97349E-02 T
  3.00000E-01  2.74889E-01  2.55254E+00  2.57049E+00  2.91557E-02 T
  3.00000E-01  2.74889E-01  2.74889E+00  2.55379E+00  3.70853E-02 T
  3.00000E-01  2.74889E-01  2.94524E+00  2.53350E+00  4.38993E-02 T
  3.00000E-01  2.74889E-01  3.14159E+00  2.51052E+00  4.84805E-02 T
  3.00000E-01  2.74889E-01  3.33794E+00  2.48612E+00  5.06605E-02 T
  3.00000E-01  2.74889E-01  3.53429E+00  2.46138E+00  5.09320E-02 T
  3.00000E-01  2.74889E-01  3.73064E+00  2.43704E+00  5.02097E-02 T
  3.00000E-01  2.74889E-01  3.92699E+00  2.41338E+00  4.90809E-02 T
  3.00000E-01  2.74889E-01  4.12334E+00  2.39064E+00  4.72848E-02 T
  3.00000E-01  2.74889E-01  4.31969E+00  2.36899E+00  4.52751E-02 T
  3.00000E-01  2.74889E-01  4.51604E+00  2.34880E+00  4.14341E-02 T
  3.00000E-01  2.74889E-01  4.71239E+00  2.33110E+00  3.53834E-02 T
  3.00000E-01  2.74889E-01  4.90874E+00  2.31663E+00  2.76056E-02 T
  3.00000E-01  2.74889E-01  5.10509E+00  2.30645E+00  1.68917E-02 T
  3.00000E-01  2.74889E-01  5.30144E+00  2.30131E+00  6.04809E-03 T
  3.00000E-01  2.74889E-01  5.49779E+00  2.30100E+00 -5.03922E-03 T
  3.00000E-01  2.74889E-01  5.69414E+00  2.30629E+00 -1.86759E-02 T
  3.00000E-01  2.74889E-01  5.89049E+00  2.31796E+00 -3.26238E-02 T
  3.00000E-01  2.74889E-01  6.08684E+00  2.33587E+00 -4.54793E-02 T
  3.00000E-01  3.14159E-01  0.00000E+00  2.37304E+00 -4.87950E-02 T
  3.00000E-01  3.14159E-01  1.96350E-01  2.39600E+00 -4.91130E-02 T
  3.00000E-01  3.14159E-01  3.92699E-01  2.41912E+00 -4.85660E-02 T
  3.00000E-01  3.14159E-01  5.89049E-01  2.44208E+00 -4.77642E-02 T
  3.00000E-01  3.14159E-01  7.85398E-01  2.46507E+00 -4.77388E-02 T
  3.00000E-01  3.14159E-01  9.81748E-01  2.48819E+00 -4.71231E-02 T
  3.00000E-01  3.14159E-01  1.17810E+00  2.51089E+00 -4.51195E-02 T
  3.00000E-01  3.14159E-01  1.37445E+00  2.53227E+00 -4.06792E-02 T
  3.00000E-01  3.14159E-01  1.57080E+00  2.55058E+00 -3.18542E-02 T
  3.00000E-01  3.14159E-01  1.76715E+00  2.56329E+00 -1.79467E-02 T
  3.00000E-01  3.14159E-01  1.96350E+00  2.56799E+00 -4.32480E-04 T
  3.00000E-01  3.14159E-01  2.15985E+00  2.56384E+00  1.64264E-02 T
  3.00000E-01  3.14159E-01  2.35619E+00  2.55213E+00  2.94693E-02 T
  3.00000E-01  3.14159E-01  2.55254E+00  2.53502E+00  3.84668E-02 T
  3.00000E-01  3.14159E-01  2.74889E+00  2.51434E+00  4.45534E-02 T
  3.00000E-01  3.14159E-01  2.94524E+00  2.49147E+00  4.80339E-02 T
  3.00000E-01  3.14159E-01  3.14159E+00  2.46784E+00  4.86145E-02 T
  3.00000E-01  3.14159E-01  3.33794E+00  2.44465E+00  4.73283E-02 T
  3.00000E-01  3.14159E-01  3.53429E+00  2.42255E+00  4.51230E-02 T
  3.00000E-01  3.14159E-01  3.73064E+00  2.40169E+00  4.30608E-02 T
  3.00000E-01  3.14159E-01  3.92699E+00  2.38189E+00  4.12339E-02 T
  3.00000E-01  3.14159E-01  4.12334E+00  2.36313E+00  3.93363E-02 T
  3.00000E-01  3.14159E-01  4.31969E+00  2.34540E+00  3.71912E-02 T
  3.00000E-01  3.14159E-01  4.51604E+00  2.32919E+00  3.30108E-02 T
  3.00000E-01  3.14159E-01  4.71239E+00  2.31546E+00  2.69440E-02 T
  3.00000E-01  3.14159E-01  4.90874E+00  2.30506E+00  1.82979E-02 T
  3.00000E-01  3.14159E-01  5.10509E+00  2.29939E+00  6.53047E-03 T
  3.00000E-01  3.14159E-01  5.30144E+00  2.29917E+00 -5.48893E-03 T
  3.00000E-01  3.14159E-01  5.49779E+00  2.30439E+00 -1.77467E-02 T
  3.00000E-01  3.14159E-01  5.69414E+00  2.31521E+00 -2.96783E-02 T
  3.00000E-01  3.14159E-01  5.89049E+00  2.33106E+00 -3.94082E-02 T
  3.00000E-01  3.14159E-01  6.08684E+00  2.35087E+00 -4.61669E-02 T
  3.00000E-01  3.53429E-01  0.00000E+00  2.37021E+00 -4.46281E-02 T
  3.00000E-01  3.53429E-01  1.96350E-01  2.39033E+00 -4.16800E-02 T
  3.00000E-01  3.53429E-01  3.92699E-01  2.40955E+00 -4.01385E-02 T
  3.00000E-01  3.53429E-01  5.89049E-01  2.42863E+00 -4.06072E-02 T
  3.00000E-01  3.53429E-01  7.85398E-01  2.44853E+00 -4.25654E-02 T
  3.00000E-01  3.53429E-01  9.81748E-01  2.46939E+00 -4.35216E-02 T
  3.00000E-01  3.53429E-01  1.17810E+00  2.49038E+00 -4.22639E-02 T
  3.00000E-01  3.53429E-01  1.37445E+00  2.51015E+00 -3.75616E-02 T
  3.00000E-01  3.53429E-01  1.57080E+00  2.52660E+00 -2.80963E-02 T
  3.00000E-01  3.53429E-01  1.76715E+00  2.53712E+00 -1.34053E-02 T
  3.00000E-01  3.53429E-01  1.96350E+00  2.53941E+00  4.35670E-03 T
  3.00000E-01  3.53429E-01  2.15985E+00  2.53295E+00  2.11886E-02 T
  3.00000E-01  3.53429E-01  2.35619E+00  2.51893E+00  3.46797E-02 T
  3.00000E-01  3.53429E-01  2.55254E+00  2.49933E+00  4.42766E-02 T
  3.00000E-01  3.53429E-01  2.74889E+00  2.47604E+00  5.05484E-02 T
  3.00000E-01  3.53429E-01  2.94524E+00  2.45081E+00  5.30912E-02 T
  3.00000E-01  3.53429E-01  3.14159E+00  2.42556E+00  5.18732E-02 T
  3.00000E-01  3.53429E-01  3.33794E+00  2.40174E+00  4.83541E-02 T
  3.00000E-01  3.53429E-01  3.53429E+00  2.38009E+00  4.38589E-02 T
  3.00000E-01  3.53429E-01  3.73064E+00  2.36063E+00  3.99604E-02 T
  3.00000E-01  3.53429E-01  3.92699E+00  2.34290E+00  3.69372E-02 T
  3.00000E-01  3.53429E-01  4.12334E+00  2.32650E+00  3.47740E-02 T
  3.00000E-01  3.53429E-01  4.31969E+00  2.31112E+00  3.25858E-02 T
  3.00000E-01  3.53429E-01  4.51604E+00  2.29722E+00  2.85115E-02 T
  3.00000E-01  3.53429E-01  4.71239E+00  2.28572E+00  2.20995E-02 T
  3.00000E-01  3.53429E-01  4.90874E+00  2.27798E+00  1.16664E-02 T
  3.00000E-01  3.53429E-01  5.10509E+00  2.27581E+00 -2.22496E-03 T
  3.00000E-01  3.53429E-01  5.30144E+00  2.28005E+00 -1.67196E-02 T
  3.00000E-01  3.53429E-01  5.49779E+00  2.29068E+00 -3.03486E-02 T
  3.00000E-01  3.53429E-01  5.69414E+00  2.30688E+00 -4.06994E-02 T
  3.00000E-01  3.53429E-01  5.89049E+00  2.32692E+00 -4.66763E-02 T
  3.00000E-01  3.53429E-01  6.08684E+00  2.34877E+00 -4.76257E-02 T
  3.00000E-01  3.92699E-01  0.00000E+00  2.36213E+00 -3.63504E-02 T
  3.00000E-01  3.92699E-01  1.96350E-01  2.37799E+00 -3.23379E-02 T
  3.00000E-01  3.92699E-01  3.92699E-01  2.39281E+00 -3.15355E-02 T
  3.00000E-01  3.92699E-01  5.89049E-01  2.40818E+00 -3.41426E-02 T
  3.00000E-01  3.92699E-01  7.85398E-01  2.42534E+00 -3.81172E-02 T
  3.00000E-01  3.92699E-01  9.81748E-01  2.44421E+00 -4.03725E-02 T
  3.00000E-01  3.92699E-01  1.17810E+00  2.46356E+00 -3.93157E-02 T
  3.00000E-01  3.92699E-01  1.37445E+00  2.48155E+00 -3.40136E-02 T
  3.00000E-01  3.92699E-01  1.57080E+00  2.49586E+00 -2.37038E-02 T
  3.00000E-01  3.92699E-01  1.76715E+00  2.50395E+00 -8.65579E-03 T
  3.00000E-01  3.92699E-01  1.96350E+00  2.50411E+00  7.94424E-03 T
  3.00000E-01  3.92699E-01  2.15985E+00  2.49646E+00  2.27335E-02 T
  3.00000E-01  3.92699E-01  2.35619E+00  2.48241E+00  3.41461E-02 T
  3.00000E-01  3.92699E-01  2.55254E+00  2.46374E+00  4.23073E-02 T
  3.00000E-01  3.92699E-01  2.74889E+00  2.44186E+00  4.81428E-02 T
  3.00000E-01  3.92699E-01  2.94524E+00  2.41809E+00  5.09549E-02 T
  3.00000E-01  3.92699E-01  3.14159E+00  2.39399E+00  5.06265E-02 T
  3.00000E-01  3.92699E-01  3.33794E+00  2.37087E+00  4.78259E-02 T
  3.00000E-01  3.92699E-01  3.53429E+00  2.34970E+00  4.34158E-02 T
  3.00000E-01  3.92699E-01  3.73064E+00  2.33079E+00  3.89300E-02 T
  3.00000E-01  3.92699E-01  3.92699E+00  2.31398E+00  3.49267E-02 T
  3.00000E-01  3.92699E-01  4.12334E+00  2.29891E+00  3.17654E-02 T
  3.00000E-01  3.92699E-01  4.31969E+00  2.28532E+00  2.84084E-02 T
  3.00000E-01  3.92699E-01  4.51604E+00  2.27365E+00  2.33929E-02 T
  3.00000E-01  3.92699E-01  4.71239E+00  2.26481E+00  1.56867E-02 T
  3.00000E-01  3.92699E-01  4.90874E+00  2.26032E+00  3.85289E-03 T
  3.00000E-01  3.92699E-01  5.10509E+00  2.26178E+00 -1.06074E-02 T
  3.00000E-01  3.92699E-01  5.30144E+00  2.26978E+00 -2.51792E-02 T
  3.00000E-01  3.92699E-01  5.49779E+00  2.28389E+00 -3.72760E-02 T
  3.00000E-01  3.92699E-01  5.69414E+00  2.30250E+00 -4.45212E-02 T
  3.00000E-01  3.92699E-01  5.89049E+00  2.32336E+00 -4.63918E-02 T
  3.00000E-01  3.92699E-01  6.08684E+00  2.34392E+00 -4.25395E-02 T
  3.00000E-01  4.31969E-01  0.00000E+00  2.35924E+00 -2.41204E-02 T
  3.00000E-01  4.31969E-01  1.96350E-01  2.36971E+00 -2.17242E-02 T
  3.00000E-01  4.31969E-01  3.92699E-01  2.38012E+00 -2.35716E-02 T
  3.00000E-01  4.31969E-01  5.89049E-01  2.39226E+00 -2.85406E-02 T
  3.00000E-01  4.31969E-01  7.85398E-01  2.40692E+00 -3.33580E-02 T
  3.00000E-01  4.31969E-01  9.81748E-01  2.42325E+00 -3.48066E-02 T
  3.00000E-01  4.31969E-01  1.17810E+00  2.43929E+00 -3.15634E-02 T
  3.00000E-01  4.31969E-01  1.37445E+00  2.45272E+00 -2.36101E-02 T
  3.00000E-01  4.31969E-01  1.57080E+00  2.46123E+00 -1.08969E-02 T
  3.00000E-01  4.31969E-01  1.76715E+00  2.46275E+00  4.78699E-03 T
  3.00000E-01  4.31969E-01  1.96350E+00  2.45682E+00  1.92328E-02 T
  3.00000E-01  4.31969E-01  2.15985E+00  2.44486E+00  2.96897E-02 T
  3.00000E-01  4.31969E-01  2.35619E+00  2.42911E+00  3.54033E-02 T
  3.00000E-01  4.31969E-01  2.55254E+00  2.41160E+00  3.80082E-02 T
  3.00000E-01  4.31969E-01  2.74889E+00  2.39329E+00  3.94492E-02 T
  3.00000E-01  4.31969E-01  2.94524E+00  2.37471E+00  3.97352E-02 T
  3.00000E-01  4.31969E-01  3.14159E+00  2.35636E+00  3.91808E-02 T
  3.00000E-01  4.31969E-01  3.33794E+00  2.33861E+00  3.76267E-02 T
  3.00000E-01  4.31969E-01  3.53429E+00  2.32195E+00  3.50898E-02 T
  3.00000E-01  4.31969E-01  3.73064E+00  2.30667E+00  3.20674E-02 T
  3.00000E-01  4.31969E-01  3.92699E+00  2.29298E+00  2.85261E-02 T
  3.00000E-01  4.31969E-01  4.12334E+00  2.28102E+00  2.46484E-02 T
  3.00000E-01  4.31969E-01  4.31969E+00  2.27105E+00  1.97325E-02 T
  3.00000E-01  4.31969E-01  4.51604E+00  2.26367E+00  1.30943E-02 T
  3.00000E-01  4.31969E-01  4.71239E+00  2.25977E+00  3.95749E-03 T
  3.00000E-01  4.31969E-01  4.90874E+00  2.26056E+00 -7.81563E-03 T
  3.00000E-01  4.31969E-01  5.10509E+00  2.26683E+00 -2.03683E-02 T
  3.00000E-01  4.31969E-01  5.30144E+00  2.27852E+00 -3.15843E-02 T
  3.00000E-01  4.31969E-01  5.49779E+00  2.29451E+00 -3.88041E-02 T
  3.00000E-01  4.31969E-01  5.69414E+00  2.31272E+00 -4.09095E-02 T
  3.00000E-01  4.31969E-01  5.89049E+00  2.33089E+00 -3.78874E-02 T
  3.00000E-01  4.31969E-01  6.08684E+00  2.34671E+00 -3.06675E-02 T
  3.00000E-01  4.71239E-01  0.00000E+00  2.35835E+00 -1.82427E-02 T
  3.00000E-01  4.71239E-01  1.96350E-01  2.36654E+00 -1.78379E-02 T
  3.00000E-01  4.71239E-01  3.92699E-01  2.37554E+00 -2.12893E-02 T
  3.00000E-01  4.71239E-01  5.89049E-01  2.38663E+00 -2.61004E-02 T
  3.00000E-01  4.71239E-01  7.85398E-01  2.39964E+00 -2.85927E-02 T
  3.00000E-01  4.71239E-01  9.81748E-01  2.41277E+00 -2.60909E-02 T
  3.00000E-01  4.71239E-01  1.17810E+00  2.42354E+00 -1.85322E-02 T
  3.00000E-01  4.71239E-01  1.37445E+00  2.42978E+00 -7.00840E-03 T
  3.00000E-01  4.71239E-01  1.57080E+00  2.42967E+00  7.86531E-03 T
  3.00000E-01  4.71239E-01  1.76715E+00  2.42222E+00  2.30933E-02 T
  3.00000E-01  4.71239E-01  1.96350E+00  2.40834E+00  3.46073E-02 T
  3.00000E-01  4.71239E-01  2.15985E+00  2.39043E+00  4.03563E-02 T
  3.00000E-01  4.71239E-01  2.35619E+00  2.37141E+00  4.01765E-02 T
  3.00000E-01  4.71239E-01  2.55254E+00  2.35351E+00  3.67439E-02 T
  3.00000E-01  4.71239E-01  2.74889E+00  2.33755E+00  3.25516E-02 T
  3.00000E-01  4.71239E-01  2.94524E+00  2.32355E+00  2.88504E-02 T
  3.00000E-01  4.71239E-01  3.14159E+00  2.31095E+00  2.67692E-02 T
  3.00000E-01  4.71239E-01  3.33794E+00  2.29909E+00  2.57213E-02 T
  3.00000E-01  4.71239E-01  3.53429E+00  2.28769E+00  2.49362E-02 T
  3.00000E-01  4.71239E-01  3.73064E+00  2.27676E+00  2.36460E-02 T
  3.00000E-01  4.71239E-01  3.92699E+00  2.26673E+00  2.11321E-02 T
  3.00000E-01  4.71239E-01  4.12334E+00  2.25813E+00  1.73316E-02 T
  3.00000E-01  4.71239E-01  4.31969E+00  2.25163E+00  1.16720E-02 T
  3.00000E-01  4.71239E-01  4.51604E+00  2.24818E+00  3.48175E-03 T
  3.00000E-01  4.71239E-01  4.71239E+00  2.24898E+00 -7.52019E-03 T
  3.00000E-01  4.71239E-01  4.90874E+00  2.25504E+00 -1.99351E-02 T
  3.00000E-01  4.71239E-01  5.10509E+00  2.26651E+00 -3.13808E-02 T
  3.00000E-01  4.71239E-01  5.30144E+00  2.28249E+00 -3.93913E-02 T
  3.00000E-01  4.71239E-01  5.49779E+00  2.30100E+00 -4.19069E-02 T
  3.00000E-01  4.71239E-01  5.69414E+00  2.31958E+00 -3.92439E-02 T
  3.00000E-01  4.71239E-01  5.89049E+00  2.33606E+00 -3.22446E-02 T
  3.00000E-01  4.71239E-01  6.08684E+00  2.34887E+00 -2.36173E-02 T
  3.00000E-01  5.10509E-01  0.00000E+00  2.35662E+00 -1.36967E-02 T
  3.00000E-01  5.10509E-01  1.96350E-01  2.36332E+00 -1.59037E-02 T
  3.00000E-01  5.10509E-01  3.92699E-01  2.37179E+00 -2.07439E-02 T
  3.00000E-01  5.10509E-01  5.89049E-01  2.38255E+00 -2.49497E-02 T
  3.00000E-01  5.10509E-01  7.85398E-01  2.39451E+00 -2.51573E-02 T
  3.00000E-01  5.10509E-01  9.81748E-01  2.40530E+00 -1.97497E-02 T
  3.00000E-01  5.10509E-01  1.17810E+00  2.41249E+00 -1.01028E-02 T
  3.00000E-01  5.10509E-01  1.37445E+00  2.41442E+00  2.37253E-03 T
  3.00000E-01  5.10509E-01  1.57080E+00  2.40990E+00  1.68734E-02 T
  3.00000E-01  5.10509E-01  1.76715E+00  2.39865E+00  3.03381E-02 T
  3.00000E-01  5.10509E-01  1.96350E+00  2.38197E+00  3.99431E-02 T
  3.00000E-01  5.10509E-01  2.15985E+00  2.36214E+00  4.42329E-02 T
  3.00000E-01  5.10509E-01  2.35619E+00  2.34178E+00  4.32349E-02 T
  3.00000E-01  5.10509E-01  2.55254E+00  2.32283E+00  3.91875E-02 T
  3.00000E-01  5.10509E-01  2.74889E+00  2.30622E+00  3.37820E-02 T
  3.00000E-01  5.10509E-01  2.94524E+00  2.29216E+00  2.87423E-02 T
  3.00000E-01  5.10509E-01  3.14159E+00  2.28008E+00  2.53303E-02 T
  3.00000E-01  5.10509E-01  3.33794E+00  2.26935E+00  2.28169E-02 T
  3.00000E-01  5.10509E-01  3.53429E+00  2.25973E+00  2.03791E-02 T
  3.00000E-01  5.10509E-01  3.73064E+00  2.25138E+00  1.71272E-02 T
  3.00000E-01  5.10509E-01  3.92699E+00  2.24475E+00  1.27895E-02 T
  3.00000E-01  5.10509E-01  4.12334E+00  2.24021E+00  7.64972E-03 T
  3.00000E-01  5.10509E-01  4.31969E+00  2.23824E+00  9.86729E-04 T
  3.00000E-01  5.10509E-01  4.51604E+00  2.23973E+00 -8.27167E-03 T
  3.00000E-01  5.10509E-01  4.71239E+00  2.24586E+00 -1.97424E-02 T
  3.00000E-01  5.10509E-01  4.90874E+00  2.25714E+00 -3.10467E-02 T
  3.00000E-01  5.10509E-01  5.10509E+00  2.27298E+00 -3.95262E-02 T
  3.00000E-01  5.10509E-01  5.30144E+00  2.29166E+00 -4.28079E-02 T
  3.00000E-01  5.10509E-01  5.49779E+00  2.31062E+00 -4.02343E-02 T
  3.00000E-01  5.10509E-01  5.69414E+00  2.32750E+00 -3.33264E-02 T
  3.00000E-01  5.10509E-01  5.89049E+00  2.34069E+00 -2.41162E-02 T
  3.00000E-01  5.10509E-01  6.08684E+00  2.34988E+00 -1.64107E-02 T
  3.00000E-01  5.49779E-01  0.00000E+00  2.35575E+00 -4.69317E-03 T
  3.00000E-01  5.49779E-01  1.96350E-01  2.35907E+00 -1.00791E-02 T
  3.00000E-01  5.49779E-01  3.92699E-01  2.36523E+00 -1.63630E-02 T
  3.00000E-01  5.49779E-01  5.89049E-01  2.37389E+00 -2.02139E-02 T
  3.00000E-01  5.49779E-01  7.85398E-01  2.38328E+00 -1.90020E-02 T
  3.00000E-01  5.49779E-01  9.81748E-01  2.39082E+00 -1.24240E-02 T
  3.00000E-01  5.49779E-01  1.17810E+00  2.39446E+00 -2.72669E-03 T
  3.00000E-01  5.49779E-01  1.37445E+00  2.39308E+00  8.85203E-03 T
  3.00000E-01  5.49779E-01  1.57080E+00  2.38604E+00  2.10623E-02 T
  3.00000E-01  5.49779E-01  1.76715E+00  2.37370E+00  3.12056E-02 T
  3.00000E-01  5.49779E-01  1.96350E+00  2.35752E+00  3.78205E-02 T
  3.00000E-01  5.49779E-01  2.15985E+00  2.33934E+00  4.03442E-02 T
  3.00000E-01  5.49779E-01  2.35619E+00  2.32099E+00  3.94356E-02 T
  3.00000E-01  5.49779E-01  2.55254E+00  2.30371E+00  3.63931E-02 T
  3.00000E-01  5.49779E-01  2.74889E+00  2.28831E+00  3.17460E-02 T
  3.00000E-01  5.49779E-01  2.94524E+00  2.27519E+00  2.69329E-02 T
  3.00000E-01  5.49779E-01  3.14159E+00  2.26414E+00  2.26770E-02 T
  3.00000E-01  5.49779E-01  3.33794E+00  2.25504E+00  1.82787E-02 T
  3.00000E-01  5.49779E-01  3.53429E+00  2.24805E+00  1.31513E-02 T
  3.00000E-01  5.49779E-01  3.73064E+00  2.24363E+00  6.68383E-03 T
  3.00000E-01  5.49779E-01  3.92699E+00  2.24229E+00 -6.30779E-04 T
  3.00000E-01  5.49779E-01  4.12334E+00  2.24417E+00 -7.89738E-03 T
  3.00000E-01  5.49779E-01  4.31969E+00  2.24931E+00 -1.55531E-02 T
  3.00000E-01  5.49779E-01  4.51604E+00  2.25805E+00 -2.40560E-02 T
  3.00000E-01  5.49779E-01  4.71239E+00  2.27061E+00 -3.21773E-02 T
  3.00000E-01  5.49779E-01  4.90874E+00  2.28639E+00 -3.78042E-02 T
  3.00000E-01  5.49779E-01  5.10509E+00  2.30393E+00 -3.92107E-02 T
  3.00000E-01  5.49779E-01  5.30144E+00  2.32107E+00 -3.54532E-02 T
  3.00000E-01  5.49779E-01  5.49779E+00  2.33556E+00 -2.74031E-02 T
  3.00000E-01  5.49779E-01  5.69414E+00  2.34586E+00 -1.72819E-02 T
  3.00000E-01  5.49779E-01  5.89049E+00  2.35161E+00 -8.13346E-03 T
  3.00000E-01  5.49779E-01  6.08684E+00  2.35407E+00 -3.48005E-03 T
  3.00000E-01  5.89049E-01  0.00000E+00  2.36607E+00 -2.19268E-05 T
  3.00000E-01  5.89049E-01  1.96350E-01  2.36728E+00 -5.24664E-03 T
  3.00000E-01  5.89049E-01  3.92699E-01  2.37073E+00 -9.11613E-03 T
  3.00000E-01  5.89049E-01  5.89049E-01  2.37514E+00 -8.96168E-03 T
  3.00000E-01  5.89049E-01  7.85398E-01  2.37824E+00 -3.44661E-03 T
  3.00000E-01  5.89049E-01  9.81748E-01  2.37772E+00  6.05462E-03 T
  3.00000E-01  5.89049E-01  1.17810E+00  2.37243E+00  1.66898E-02 T
  3.00000E-01  5.89049E-01  1.37445E+00  2.36226E+00  2.68717E-02 T
  3.00000E-01  5.89049E-01  1.57080E+00  2.34790E+00  3.45881E-02 T
  3.00000E-01  5.89049E-01  1.76715E+00  2.33106E+00  3.79593E-02 T
  3.00000E-01  5.89049E-01  1.96350E+00  2.31380E+00  3.71265E-02 T
  3.00000E-01  5.89049E-01  2.15985E+00  2.29777E+00  3.33636E-02 T
  3.00000E-01  5.89049E-01  2.35619E+00  2.28382E+00  2.86724E-02 T
  3.00000E-01  5.89049E-01  2.55254E+00  2.27205E+00  2.39337E-02 T
  3.00000E-01  5.89049E-01  2.74889E+00  2.26244E+00  1.92962E-02 T
  3.00000E-01  5.89049E-01  2.94524E+00  2.25473E+00  1.57014E-02 T
  3.00000E-01  5.89049E-01  3.14159E+00  2.24843E+00  1.28420E-02 T
  3.00000E-01  5.89049E-01  3.33794E+00  2.24346E+00  9.51104E-03 T
  3.00000E-01  5.89049E-01  3.53429E+00  2.24027E+00  4.59432E-03 T
  3.00000E-01  5.89049E-01  3.73064E+00  2.23979E+00 -2.78910E-03 T
  3.00000E-01  5.89049E-01  3.92699E+00  2.24297E+00 -1.17757E-02 T
  3.00000E-01  5.89049E-01  4.12334E+00  2.25021E+00 -2.10860E-02 T
  3.00000E-01  5.89049E-01  4.31969E+00  2.26162E+00 -3.03540E-02 T
  3.00000E-01  5.89049E-01  4.51604E+00  2.27702E+00 -3.84386E-02 T
  3.00000E-01  5.89049E-01  4.71239E+00  2.29553E+00 -4.33151E-02 T
  3.00000E-01  5.89049E-01  4.90874E+00  2.31537E+00 -4.35170E-02 T
  3.00000E-01  5.89049E-01  5.10509E+00  2.33431E+00 -3.86623E-02 T
  3.00000E-01  5.89049E-01  5.30144E+00  2.35014E+00 -2.95853E-02 T
  3.00000E-01  5.89049E-01  5.49779E+00  2.36121E+00 -1.80559E-02 T
  3.00000E-01  5.89049E-01  5.69414E+00  2.36689E+00 -6.75437E-03 T
  3.00000E-01  5.89049E-01  5.89049E+00  2.36805E+00  9.38661E-04 T
  3.00000E-01  5.89049E-01  6.08684E+00  2.36691E+00  2.98290E-03 T
  3.00000E-01  6.28319E-01  0.00000E+00  2.37549E+00 -2.09017E-10 T
  3.00000E-01  6.28319E-01  1.96350E-01  2.37633E+00 -3.30303E-03 T
  3.00000E-01  6.28319E-01  3.92699E-01  2.37805E+00 -3.30211E-03 T
  3.00000E-01  6.28319E-01  5.89049E-01  2.37861E+00  1.78980E-03 T
  3.00000E-01  6.28319E-01  7.85398E-01  2.37561E+00  1.17120E-02 T
  3.00000E-01  6.28319E-01  9.81748E-01  2.36738E+00  2.36856E-02 T
  3.00000E-01  6.28319E-01  1.17810E+00  2.35377E+00  3.47272E-02 T
  3.00000E-01  6.28319E-01  1.37445E+00  2.33575E+00  4.28922E-02 T
  3.00000E-01  6.28319E-01  1.57080E+00  2.31519E+00  4.62325E-02 T
  3.00000E-01  6.28319E-01  1.76715E+00  2.29457E+00  4.40258E-02 T
  3.00000E-01  6.28319E-01  1.96350E+00  2.27618E+00  3.73944E-02 T
  3.00000E-01  6.28319E-01  2.15985E+00  2.26144E+00  2.86455E-02 T
  3.00000E-01  6.28319E-01  2.35619E+00  2.25068E+00  2.00380E-02 T
  3.00000E-01  6.28319E-01  2.55254E+00  2.24359E+00  1.22696E-02 T
  3.00000E-01  6.28319E-01  2.74889E+00  2.23964E+00  6.06798E-03 T
  3.00000E-01  6.28319E-01  2.94524E+00  2.23788E+00  2.28779E-03 T
  3.00000E-01  6.28319E-01  3.14159E+00  2.23741E+00 -7.03290E-09 T
  3.00000E-01  6.28319E-01  3.33794E+00  2.23788E+00 -2.28780E-03 T
  3.00000E-01  6.28319E-01  3.53429E+00  2.23964E+00 -6.06799E-03 T
  3.00000E-01  6.28319E-01  3.73064E+00  2.24359E+00 -1.22696E-02 T
  3.00000E-01  6.28319E-01  3.92699E+00  2.25068E+00 -2.00380E-02 T
  3.00000E-01  6.28319E-01  4.12334E+00  2.26144E+00 -2.86455E-02 T
  3.00000E-01  6.28319E-01  4.31969E+00  2.27618E+00 -3.73945E-02 T
  3.00000E-01  6.28319E-01  4.51604E+00  2.29457E+00 -4.40258E-02 T
  3.00000E-01  6.28319E-01  4.71239E+00  2.31519E+00 -4.62325E-02 T
  3.00000E-01  6.28319E-01  4.90874E+00  2.33575E+00 -4.28922E-02 T
  3.00000E-01  6.28319E-01  5.10509E+00  2.35377E+00 -3.47272E-02 T
  3.00000E-01  6.28319E-01  5.30144E+00  2.36738E+00 -2.36856E-02 T
  3.00000E-01  6.28319E-01  5.49779E+00  2.37561E+00 -1.17119E-02 T
  3.00000E-01  6.28319E-01  5.69414E+00  2.37861E+00 -1.78979E-03 T
  3.00000E-01  6.28319E-01  5.89049E+00  2.37805E+00  3.30212E-03 T
  3.00000E-01  6.28319E-01  6.08684E+00  2.37633E+00  3.30303E-03 T
  3.00000E-01  6.67588E-01  0.00000E+00  2.36607E+00  2.19279E-05 T
  3.00000E-01  6.67588E-01  1.96350E-01  2.36691E+00 -2.98290E-03 T
  3.00000E-01  6.67588E-01  3.92699E-01  2.36805E+00 -9.38653E-04 T
  3.00000E-01  6.67588E-01  5.89049E-01  2.36689E+00  6.75438E-03 T
  3.00000E-01  6.67588E-01  7.85398E-01  2.36121E+00  1.80559E-02 T
  3.00000E-01  6.67588E-01  9.81748E-01  2.35014E+00  2.95853E-02 T
  3.00000E-01  6.67588E-01  1.17810E+00  2.33431E+00  3.86623E-02 T
  3.00000E-01  6.67588E-01  1.37445E+00  2.31537E+00  4.35170E-02 T
  3.00000E-01  6.67588E-01  1.57080E+00  2.29553E+00  4.33151E-02 T
  3.00000E-01  6.67588E-01  1.76715E+00  2.27702E+00  3.84386E-02 T
  3.00000E-01  6.67588E-01  1.96350E+00  2.26162E+00  3.03540E-02 T
  3.00000E-01  6.67588E-01  2.15985E+00  2.25021E+00  2.10860E-02 T
  3.00000E-01  6.67588E-01  2.35619E+00  2.24297E+00  1.17757E-02 T
  3.00000E-01  6.67588E-01  2.55254E+00  2.23979E+00  2.78909E-03 T
  3.00000E-01  6.67588E-01  2.74889E+00  2.24027E+00 -4.59433E-03 T
  3.00000E-01  6.67588E-01  2.94524E+00  2.24346E+00 -9.51105E-03 T
  3.00000E-01  6.67588E-01  3.14159E+00  2.24843E+00 -1.28420E-02 T
  3.00000E-01  6.67588E-01  3.33794E+00  2.25473E+00 -1.57014E-02 T
  3.00000E-01  6.67588E-01  3.53429E+00  2.26245E+00 -1.92962E-02 T
  3.00000E-01  6.67588E-01  3.73064E+00  2.27205E+00 -2.39337E-02 T
  3.00000E-01  6.67588E-01  3.92699E+00  2.28382E+00 -2.86724E-02 T
  3.00000E-01  6.67588E-01  4.12334E+00  2.29777E+00 -3.33637E-02 T
  3.00000E-01  6.67588E-01  4.31969E+00  2.31380E+00 -3.71265E-02 T
  3.00000E-01  6.67588E-01  4.51604E+00  2.33106E+00 -3.79593E-02 T
  3.00000E-01  6.67588E-01  4.71239E+00  2.34790E+00 -3.45881E-02 T
  3.00000E-01  6.67588E-01  4.90874E+00  2.36226E+00 -2.68717E-02 T
  3.00000E-01  6.67588E-01  5.10509E+00  2.37243E+00 -1.66898E-02 T
  3.00000E-01  6.67588E-01  5.30144E+00  2.37772E+00 -6.05459E-03 T
  3.00000E-01  6.67588E-01  5.49779E+00  2.37824E+00  3.44663E-03 T
  3.00000E-01  6.67588E-01  5.69414E+00  2.37514E+00  8.96169E-03 T
  3.00000E-01  6.67588E-01  5.89049E+00  2.37073E+00  9.11614E-03 T
  3.00000E-01  6.67588E-01  6.08684E+00  2.36728E+00  5.24664E-03 T
  3.00000E-01  7.06858E-01  0.00000E+00  2.35575E+00  4.69318E-03 T
  3.00000E-01  7.06858E-01  1.96350E-01  2.35407E+00  3.48006E-03 T
  3.00000E-01  7.06858E-01  3.92699E-01  2.35161E+00  8.13348E-03 T
  3.00000E-01  7.06858E-01  5.89049E-01  2.34586E+00  1.72819E-02 T
  3.00000E-01  7.06858E-01  7.85398E-01  2.33556E+00  2.74031E-02 T
  3.00000E-01  7.06858E-01  9.81748E-01  2.32107E+00  3.54532E-02 T
  3.00000E-01  7.06858E-01  1.17810E+00  2.30393E+00  3.92107E-02 T
  3.00000E-01  7.06858E-01  1.37445E+00  2.28639E+00  3.78042E-02 T
  3.00000E-01  7.06858E-01  1.57080E+00  2.27061E+00  3.21772E-02 T
  3.00000E-01  7.06858E-01  1.76715E+00  2.25805E+00  2.40560E-02 T
  3.00000E-01  7.06858E-01  1.96350E+00  2.24931E+00  1.55531E-02 T
  3.00000E-01  7.06858E-01  2.15985E+00  2.24417E+00  7.89736E-03 T
  3.00000E-01  7.06858E-01  2.35619E+00  2.24229E+00  6.30761E-04 T
  3.00000E-01  7.06858E-01  2.55254E+00  2.24363E+00 -6.68384E-03 T
  3.00000E-01  7.06858E-01  2.74889E+00  2.24805E+00 -1.31513E-02 T
  3.00000E-01  7.06858E-01  2.94524E+00  2.25504E+00 -1.82787E-02 T
  3.00000E-01  7.06858E-01  3.14159E+00  2.26414E+00 -2.26770E-02 T
  3.00000E-01  7.06858E-01  3.33794E+00  2.27519E+00 -2.69329E-02 T
  3.00000E-01  7.06858E-01  3.53429E+00  2.28831E+00 -3.17460E-02 T
  3.00000E-01  7.06858E-01  3.73064E+00  2.30371E+00 -3.63931E-02 T
  3.00000E-01  7.06858E-01  3.92699E+00  2.32099E+00 -3.94357E-02 T
  3.00000E-01  7.06858E-01  4.12334E+00  2.33934E+00 -4.03442E-02 T
  3.00000E-01  7.06858E-01  4.31969E+00  2.35752E+00 -3.78205E-02 T
  3.00000E-01  7.06858E-01  4.51604E+00  2.37370E+00 -3.12056E-02 T
  3.00000E-01  7.06858E-01  4.71239E+00  2.38604E+00 -2.10623E-02 T
  3.00000E-01  7.06858E-01  4.90874E+00  2.39308E+00 -8.85200E-03 T
  3.00000E-01  7.06858E-01  5.10509E+00  2.39446E+00  2.72671E-03 T
  3.00000E-01  7.06858E-01  5.30144E+00  2.39082E+00  1.24240E-02 T
  3.00000E-01  7.06858E-01  5.49779E+00  2.38328E+00  1.90020E-02 T
  3.00000E-01  7.06858E-01  5.69414E+00  2.37389E+00  2.02139E-02 T
  3.00000E-01  7.06858E-01  5.89049E+00  2.36523E+00  1.63630E-02 T
  3.00000E-01  7.06858E-01  6.08684E+00  2.35907E+00  1.00791E-02 T
  3.00000E-01  7.46128E-01  0.00000E+00  2.35662E+00  1.36968E-02 T
  3.00000E-01  7.46128E-01  1.96350E-01  2.34988E+00  1.64107E-02 T
  3.00000E-01  7.46128E-01  3.92699E-01  2.34069E+00  2.41163E-02 T
  3.00000E-01  7.46128E-01  5.89049E-01  2.32750E+00  3.33264E-02 T
  3.00000E-01  7.46128E-01  7.85398E-01  2.31062E+00  4.02344E-02 T
  3.00000E-01  7.46128E-01  9.81748E-01  2.29166E+00  4.28079E-02 T
  3.00000E-01  7.46128E-01  1.17810E+00  2.27298E+00  3.95262E-02 T
  3.00000E-01  7.46128E-01  1.37445E+00  2.25714E+00  3.10467E-02 T
  3.00000E-01  7.46128E-01  1.57080E+00  2.24586E+00  1.97424E-02 T
  3.00000E-01  7.46128E-01  1.76715E+00  2.23973E+00  8.27165E-03 T
  3.00000E-01  7.46128E-01  1.96350E+00  2.23824E+00 -9.86748E-04 T
  3.00000E-01  7.46128E-01  2.15985E+00  2.24021E+00 -7.64974E-03 T
  3.00000E-01  7.46128E-01  2.35619E+00  2.24475E+00 -1.27895E-02 T
  3.00000E-01  7.46128E-01  2.55254E+00  2.25138E+00 -1.71272E-02 T
  3.00000E-01  7.46128E-01  2.74889E+00  2.25973E+00 -2.03791E-02 T
  3.00000E-01  7.46128E-01  2.94524E+00  2.26935E+00 -2.28169E-02 T
  3.00000E-01  7.46128E-01  3.14159E+00  2.28008E+00 -2.53303E-02 T
  3.00000E-01  7.46128E-01  3.33794E+00  2.29216E+00 -2.87423E-02 T
  3.00000E-01  7.46128E-01  3.53429E+00  2.30622E+00 -3.37820E-02 T
  3.00000E-01  7.46128E-01  3.73064E+00  2.32283E+00 -3.91875E-02 T
  3.00000E-01  7.46128E-01  3.92699E+00  2.34178E+00 -4.32350E-02 T
  3.00000E-01  7.46128E-01  4.12334E+00  2.36214E+00 -4.42329E-02 T
  3.00000E-01  7.46128E-01  4.31969E+00  2.38197E+00 -3.99431E-02 T
  3.00000E-01  7.46128E-01  4.51604E+00  2.39865E+00 -3.03381E-02 T
  3.00000E-01  7.46128E-01  4.71239E+00  2.40990E+00 -1.68734E-02 T
  3.00000E-01  7.46128E-01  4.90874E+00  2.41442E+00 -2.37251E-03 T
  3.00000E-01  7.46128E-01  5.10509E+00  2.41249E+00  1.01028E-02 T
  3.00000E-01  7.46128E-01  5.30144E+00  2.40530E+00  1.97497E-02 T
  3.00000E-01  7.46128E-01  5.49779E+00  2.39451E+00  2.51573E-02 T
  3.00000E-01  7.46128E-01  5.69414E+00  2.38255E+00  2.49497E-02 T
  3.00000E-01  7.46128E-01  5.89049E+00  2.37179E+00  2.07438E-02 T
  3.00000E-01  7.46128E-01  6.08684E+00  2.36332E+00  1.59037E-02 T
  3.00000E-01  7.85398E-01  0.00000E+00  2.35835E+00  1.82427E-02 T
  3.00000E-01  7.85398E-01  1.96350E-01  2.34887E+00  2.36174E-02 T
  3.00000E-01  7.85398E-01  3.92699E-01  2.33606E+00  3.22446E-02 T
  3.00000E-01  7.85398E-01  5.89049E-01  2.31958E+00  3.92439E-02 T
  3.00000E-01  7.85398E-01  7.85398E-01  2.30100E+00  4.19069E-02 T
  3.00000E-01  7.85398E-01  9.81748E-01  2.28249E+00  3.93913E-02 T
  3.00000E-01  7.85398E-01  1.17810E+00  2.26651E+00  3.13807E-02 T
  3.00000E-01  7.85398E-01  1.37445E+00  2.25504E+00  1.99351E-02 T
  3.00000E-01  7.85398E-01  1.57080E+00  2.24898E+00  7.52017E-03 T
  3.00000E-01  7.85398E-01  1.76715E+00  2.24818E+00 -3.48177E-03 T
  3.00000E-01  7.85398E-01  1.96350E+00  2.25163E+00 -1.16720E-02 T
  3.00000E-01  7.85398E-01  2.15985E+00  2.25813E+00 -1.73316E-02 T
  3.00000E-01  7.85398E-01  2.35619E+00  2.26673E+00 -2.11321E-02 T
  3.00000E-01  7.85398E-01  2.55254E+00  2.27676E+00 -2.36460E-02 T
  3.00000E-01  7.85398E-01  2.74889E+00  2.28769E+00 -2.49362E-02 T
  3.00000E-01  7.85398E-01  2.94524E+00  2.29909E+00 -2.57213E-02 T
  3.00000E-01  7.85398E-01  3.14159E+00  2.31095E+00 -2.67692E-02 T
  3.00000E-01  7.85398E-01  3.33794E+00  2.32355E+00 -2.88504E-02 T
  3.00000E-01  7.85398E-01  3.53429E+00  2.33755E+00 -3.25516E-02 T
  3.00000E-01  7.85398E-01  3.73064E+00  2.35351E+00 -3.67439E-02 T
  3.00000E-01  7.85398E-01  3.92699E+00  2.37141E+00 -4.01765E-02 T
  3.00000E-01  7.85398E-01  4.12334E+00  2.39043E+00 -4.03563E-02 T
  3.00000E-01  7.85398E-01  4.31969E+00  2.40834E+00 -3.46072E-02 T
  3.00000E-01  7.85398E-01  4.51604E+00  2.42222E+00 -2.30933E-02 T
  3.00000E-01  7.85398E-01  4.71239E+00  2.42967E+00 -7.86528E-03 T
  3.00000E-01  7.85398E-01  4.90874E+00  2.42978E+00  7.00842E-03 T
  3.00000E-01  7.85398E-01  5.10509E+00  2.42354E+00  1.85322E-02 T
  3.00000E-01  7.85398E-01  5.30144E+00  2.41277E+00  2.60909E-02 T
  3.00000E-01  7.85398E-01  5.49779E+00  2.39964E+00  2.85927E-02 T
  3.00000E-01  7.85398E-01  5.69414E+00  2.38663E+00  2.61004E-02 T
  3.00000E-01  7.85398E-01  5.89049E+00  2.37554E+00  2.12893E-02 T
  3.00000E-01  7.85398E-01  6.08684E+00  2.36654E+00  1.78379E-02 T
  3.00000E-01  8.24668E-01  0.00000E+00  2.35924E+00  2.41204E-02 T
  3.00000E-01  8.24668E-01  1.96350E-01  2.34671E+00  3.06676E-02 T
  3.00000E-01  8.24668E-01  3.92699E-01  2.33089E+00  3.78875E-02 T
  3.00000E-01  8.24668E-01  5.89049E-01  2.31272E+00  4.09095E-02 T
  3.00000E-01  8.24668E-01  7.85398E-01  2.29451E+00  3.88041E-02 T
  3.00000E-01  8.24668E-01  9.81748E-01  2.27852E+00  3.15843E-02 T
  3.00000E-01  8.24668E-01  1.17810E+00  2.26683E+00  2.03683E-02 T
  3.00000E-01  8.24668E-01  1.37445E+00  2.26056E+00  7.81561E-03 T
  3.00000E-01  8.24668E-01  1.57080E+00  2.25977E+00 -3.95751E-03 T
  3.00000E-01  8.24668E-01  1.76715E+00  2.26367E+00 -1.30943E-02 T
  3.00000E-01  8.24668E-01  1.96350E+00  2.27105E+00 -1.97325E-02 T
  3.00000E-01  8.24668E-01  2.15985E+00  2.28102E+00 -2.46484E-02 T
  3.00000E-01  8.24668E-01  2.35619E+00  2.29298E+00 -2.85261E-02 T
  3.00000E-01  8.24668E-01  2.55254E+00  2.30667E+00 -3.20674E-02 T
  3.00000E-01  8.24668E-01  2.74889E+00  2.32195E+00 -3.50898E-02 T
  3.00000E-01  8.24668E-01  2.94524E+00  2.33861E+00 -3.76267E-02 T
  3.00000E-01  8.24668E-01  3.14159E+00  2.35636E+00 -3.91808E-02 T
  3.00000E-01  8.24668E-01  3.33794E+00  2.37471E+00 -3.97352E-02 T
  3.00000E-01  8.24668E-01  3.53429E+00  2.39329E+00 -3.94492E-02 T
  3.00000E-01  8.24668E-01  3.73064E+00  2.41160E+00 -3.80082E-02 T
  3.00000E-01  8.24668E-01  3.92699E+00  2.42911E+00 -3.54033E-02 T
  3.00000E-01  8.24668E-01  4.12334E+00  2.44486E+00 -2.96897E-02 T
  3.00000E-01  8.24668E-01  4.31969E+00  2.45682E+00 -1.92328E-02 T
  3.00000E-01  8.24668E-01  4.51604E+00  2.46275E+00 -4.78696E-03 T
  3.00000E-01  8.24668E-01  4.71239E+00  2.46123E+00  1.08970E-02 T
  3.00000E-01  8.24668E-01  4.90874E+00  2.45272E+00  2.36101E-02 T
  3.00000E-01  8.24668E-01  5.10509E+00  2.43929E+00  3.15634E-02 T
  3.00000E-01  8.24668E-01  5.30144E+00  2.42325E+00  3.48067E-02 T
  3.00000E-01  8.24668E-01  5.49779E+00  2.40692E+00  3.33580E-02 T
  3.00000E-01  8.24668E-01  5.69414E+00  2.39226E+00  2.85406E-02 T
  3.00000E-01  8.24668E-01  5.89049E+00  2.38012E+00  2.35716E-02 T
  3.00000E-01  8.24668E-01  6.08684E+00  2.36971E+00  2.17243E-02 T
  3.00000E-01  8.63938E-01  0.00000E+00  2.36213E+00  3.63504E-02 T
  3.00000E-01  8.63938E-01  1.96350E-01  2.34392E+00  4.25395E-02 T
  3.00000E-01  8.63938E-01  3.92699E-01  2.32336E+00  4.63918E-02 T
  3.00000E-01  8.63938E-01  5.89049E-01  2.30250E+00  4.45212E-02 T
  3.00000E-01  8.63938E-01  7.85398E-01  2.28389E+00  3.72760E-02 T
  3.00000E-01  8.63938E-01  9.81748E-01  2.26978E+00  2.51792E-02 T
  3.00000E-01  8.63938E-01  1.17810E+00  2.26178E+00  1.06074E-02 T
  3.00000E-01  8.63938E-01  1.37445E+00  2.26032E+00 -3.85292E-03 T
  3.00000E-01  8.63938E-01  1.57080E+00  2.26481E+00 -1.56867E-02 T
  3.00000E-01  8.63938E-01  1.76715E+00  2.27365E+00 -2.33929E-02 T
  3.00000E-01  8.63938E-01  1.96350E+00  2.28532E+00 -2.84084E-02 T
  3.00000E-01  8.63938E-01  2.15985E+00  2.29891E+00 -3.17654E-02 T
  3.00000E-01  8.63938E-01  2.35619E+00  2.31398E+00 -3.49267E-02 T
  3.00000E-01  8.63938E-01  2.55254E+00  2.33079E+00 -3.89300E-02 T
  3.00000E-01  8.63938E-01  2.74889E+00  2.34970E+00 -4.34158E-02 T
  3.00000E-01  8.63938E-01  2.94524E+00  2.37087E+00 -4.78259E-02 T
  3.00000E-01  8.63938E-01  3.14159E+00  2.39399E+00 -5.06265E-02 T
  3.00000E-01  8.63938E-01  3.33794E+00  2.41809E+00 -5.09550E-02 T
  3.00000E-01  8.63938E-01  3.53429E+00  2.44186E+00 -4.81428E-02 T
  3.00000E-01  8.63938E-01  3.73064E+00  2.46374E+00 -4.23073E-02 T
  3.00000E-01  8.63938E-01  3.92699E+00  2.48241E+00 -3.41461E-02 T
  3.00000E-01  8.63938E-01  4.12334E+00  2.49646E+00 -2.27335E-02 T
  3.00000E-01  8.63938E-01  4.31969E+00  2.50411E+00 -7.94422E-03 T
  3.00000E-01  8.63938E-01  4.51604E+00  2.50395E+00  8.65581E-03 T
  3.00000E-01  8.63938E-01  4.71239E+00  2.49586E+00  2.37038E-02 T
  3.00000E-01  8.63938E-01  4.90874E+00  2.48155E+00  3.40136E-02 T
  3.00000E-01  8.63938E-01  5.10509E+00  2.46356E+00  3.93157E-02 T
  3.00000E-01  8.63938E-01  5.30144E+00  2.44421E+00  4.03725E-02 T
  3.00000E-01  8.63938E-01  5.49779E+00  2.42534E+00  3.81172E-02 T
  3.00000E-01  8.63938E-01  5.69414E+00  2.40818E+00  3.41426E-02 T
  3.00000E-01  8.63938E-01  5.89049E+00  2.39281E+00  3.15355E-02 T
  3.00000E-01  8.63938E-01  6.08684E+00  2.37799E+00  3.23379E-02 T
  3.00000E-01  9.03208E-01  0.00000E+00  2.37021E+00  4.46281E-02 T
  3.00000E-01  9.03208E-01  1.96350E-01  2.34877E+00  4.76257E-02 T
  3.00000E-01  9.03208E-01  3.92699E-01  2.32692E+00  4.66763E-02 T
  3.00000E-01  9.03208E-01  5.89049E-01  2.30688E+00  4.06994E-02 T
  3.00000E-01  9.03208E-01  7.85398E-01  2.29068E+00  3.03485E-02 T
  3.00000E-01  9.03208E-01  9.81748E-01  2.28005E+00  1.67196E-02 T
  3.00000E-01  9.03208E-01  1.17810E+00  2.27581E+00  2.22494E-03 T
  3.00000E-01  9.03208E-01  1.37445E+00  2.27798E+00 -1.16664E-02 T
  3.00000E-01  9.03208E-01  1.57080E+00  2.28572E+00 -2.20995E-02 T
  3.00000E-01  9.03208E-01  1.76715E+00  2.29722E+00 -2.85115E-02 T
  3.00000E-01  9.03208E-01  1.96350E+00  2.31112E+00 -3.25858E-02 T
  3.00000E-01  9.03208E-01  2.15985E+00  2.32650E+00 -3.47740E-02 T
  3.00000E-01  9.03208E-01  2.35619E+00  2.34290E+00 -3.69372E-02 T
  3.00000E-01  9.03208E-01  2.55254E+00  2.36063E+00 -3.99604E-02 T
  3.00000E-01  9.03208E-01  2.74889E+00  2.38009E+00 -4.38589E-02 T
  3.00000E-01  9.03208E-01  2.94524E+00  2.40174E+00 -4.83541E-02 T
  3.00000E-01  9.03208E-01  3.14159E+00  2.42556E+00 -5.18732E-02 T
  3.00000E-01  9.03208E-01  3.33794E+00  2.45081E+00 -5.30912E-02 T
  3.00000E-01  9.03208E-01  3.53429E+00  2.47604E+00 -5.05484E-02 T
  3.00000E-01  9.03208E-01  3.73064E+00  2.49933E+00 -4.42766E-02 T
  3.00000E-01  9.03208E-01  3.92699E+00  2.51893E+00 -3.46797E-02 T
  3.00000E-01  9.03208E-01  4.12334E+00  2.53295E+00 -2.11886E-02 T
  3.00000E-01  9.03208E-01  4.31969E+00  2.53941E+00 -4.35668E-03 T
  3.00000E-01  9.03208E-01  4.51604E+00  2.53712E+00  1.34054E-02 T
  3.00000E-01  9.03208E-01  4.71239E+00  2.52660E+00  2.80963E-02 T
  3.00000E-01  9.03208E-01  4.90874E+00  2.51015E+00  3.75616E-02 T
  3.00000E-01  9.03208E-01  5.10509E+00  2.49038E+00  4.22639E-02 T
  3.00000E-01  9.03208E-01  5.30144E+00  2.46939E+00  4.35216E-02 T
  3.00000E-01  9.03208E-01  5.49779E+00  2.44853E+00  4.25654E-02 T
  3.00000E-01  9.03208E-01  5.69414E+00  2.42863E+00  4.06072E-02 T
  3.00000E-01  9.03208E-01  5.89049E+00  2.40955E+00  4.01385E-02 T
  3.00000E-01  9.03208E-01  6.08684E+00  2.39033E+00  4.16800E-02 T
  3.00000E-01  9.42478E-01  0.00000E+00  2.37304E+00  4.87950E-02 T
  3.00000E-01  9.42478E-01  1.96350E-01  2.35087E+00  4.61669E-02 T
  3.00000E-01  9.42478E-01  3.92699E-01  2.33106E+00  3.94082E-02 T
  3.00000E-01  9.42478E-01  5.89049E-01  2.31521E+00  2.96782E-02 T
  3.00000E-01  9.42478E-01  7.85398E-01  2.30439E+00  1.77466E-02 T
  3.00000E-01  9.42478E-01  9.81748E-01  2.29917E+00  5.48891E-03 T
  3.00000E-01  9.42478E-01  1.17810E+00  2.29939E+00 -6.53049E-03 T
  3.00000E-01  9.42478E-01  1.37445E+00  2.30506E+00 -1.82979E-02 T
  3.00000E-01  9.42478E-01  1.57080E+00  2.31546E+00 -2.69440E-02 T
  3.00000E-01  9.42478E-01  1.76715E+00  2.32919E+00 -3.30108E-02 T
  3.00000E-01  9.42478E-01  1.96350E+00  2.34540E+00 -3.71912E-02 T
  3.00000E-01  9.42478E-01  2.15985E+00  2.36313E+00 -3.93363E-02 T
  3.00000E-01  9.42478E-01  2.35619E+00  2.38189E+00 -4.12339E-02 T
  3.00000E-01  9.42478E-01  2.55254E+00  2.40169E+00 -4.30608E-02 T
  3.00000E-01  9.42478E-01  2.74889E+00  2.42255E+00 -4.51230E-02 T
  3.00000E-01  9.42478E-01  2.94524E+00  2.44465E+00 -4.73283E-02 T
  3.00000E-01  9.42478E-01  3.14159E+00  2.46784E+00 -4.86145E-02 T
  3.00000E-01  9.42478E-01  3.33794E+00  2.49147E+00 -4.80339E-02 T
  3.00000E-01  9.42478E-01  3.53429E+00  2.51434E+00 -4.45534E-02 T
  3.00000E-01  9.42478E-01  3.73064E+00  2.53502E+00 -3.84668E-02 T
  3.00000E-01  9.42478E-01  3.92699E+00  2.55213E+00 -2.94693E-02 T
  3.00000E-01  9.42478E-01  4.12334E+00  2.56384E+00 -1.64264E-02 T
  3.00000E-01  9.42478E-01  4.31969E+00  2.56799E+00  4.32502E-04 T
  3.00000E-01  9.42478E-01  4.51604E+00  2.56329E+00  1.79467E-02 T
  3.00000E-01  9.42478E-01  4.71239E+00  2.55058E+00  3.18542E-02 T
  3.00000E-01  9.42478E-01  4.90874E+00  2.53227E+00  4.06792E-02 T
  3.00000E-01  9.42478E-01  5.10509E+00  2.51089E+00  4.51195E-02 T
  3.00000E-01  9.42478E-01  5.30144E+00  2.48819E+00  4.71231E-02 T
  3.00000E-01  9.42478E-01  5.49779E+00  2.46507E+00  4.77388E-02 T
  3.00000E-01  9.42478E-01  5.69414E+00  2.44208E+00  4.77642E-02 T
  3.00000E-01  9.42478E-01  5.89049E+00  2.41912E+00  4.85661E-02 T
  3.00000E-01  9.42478E-01  6.08684E+00  2.39600E+00  4.91130E-02 T
  3.00000E-01  9.81748E-01  0.00000E+00  2.35920E+00  5.48950E-02 T
  3.00000E-01  9.81748E-01  1.96350E-01  2.33587E+00  4.54793E-02 T
  3.00000E-01  9.81748E-01  3.92699E-01  2.31796E+00  3.26238E-02 T
  3.00000E-01  9.81748E-01  5.89049E-01  2.30629E+00  1.86758E-02 T
  3.00000E-01  9.81748E-01  7.85398E-01  2.30100E+00  5.03920E-03 T
  3.00000E-01  9.81748E-01  9.81748E-01  2.30131E+00 -6.04810E-03 T
  3.00000E-01  9.81748E-01  1.17810E+00  2.30645E+00 -1.68917E-02 T
  3.00000E-01  9.81748E-01  1.37445E+00  2.31663E+00 -2.76056E-02 T
  3.00000E-01  9.81748E-01  1.57080E+00  2.33110E+00 -3.53835E-02 T
  3.00000E-01  9.81748E-01  1.76715E+00  2.34880E+00 -4.14341E-02 T
  3.00000E-01  9.81748E-01  1.96350E+00  2.36899E+00 -4.52752E-02 T
  3.00000E-01  9.81748E-01  2.15985E+00  2.39064E+00 -4.72848E-02 T
  3.00000E-01  9.81748E-01  2.35619E+00  2.41338E+00 -4.90809E-02 T
  3.00000E-01  9.81748E-01  2.55254E+00  2.43704E+00 -5.02097E-02 T
  3.00000E-01  9.81748E-01  2.74889E+00  2.46138E+00 -5.09320E-02 T
  3.00000E-01  9.81748E-01  2.94524E+00  2.48612E+00 -5.06605E-02 T
  3.00000E-01  9.81748E-01  3.14159E+00  2.51052E+00 -4.84805E-02 T
  3.00000E-01  9.81748E-01  3.33794E+00  2.53350E+00 -4.38993E-02 T
  3.00000E-01  9.81748E-01  3.53429E+00  2.55379E+00 -3.70853E-02 T
  3.00000E-01  9.81748E-01  3.73064E+00  2.57049E+00 -2.91557E-02 T
  3.00000E-01  9.81748E-01  3.92699E+00  2.58295E+00 -1.97349E-02 T
  3.00000E-01  9.81748E-01  4.12334E+00  2.58995E+00 -7.19249E-03 T
  3.00000E-01  9.81748E-01  4.31969E+00  2.58967E+00  8.64661E-03 T
  3.00000E-01  9.81748E-01  4.51604E+00  2.58120E+00  2.43710E-02 T
  3.00000E-01  9.81748E-01  4.71239E+00  2.56562E+00  3.65747E-02 T
  3.00000E-01  9.81748E-01  4.90874E+00  2.54511E+00  4.44592E-02 T
  3.00000E-01  9.81748E-01  5.10509E+00  2.52177E+00  4.90669E-02 T
  3.00000E-01  9.81748E-01  5.30144E+00  2.49669E+00  5.26717E-02 T
  3.00000E-01  9.81748E-01  5.49779E+00  2.47025E+00  5.56491E-02 T
  3.00000E-01  9.81748E-01  5.69414E+00  2.44276E+00  5.83375E-02 T
  3.00000E-01  9.81748E-01  5.89049E+00  2.41439E+00  6.03678E-02 T
  3.00000E-01  9.81748E-01  6.08684E+00  2.38600E+00  5.94966E-02 T
  3.00000E-01  1.02102E+00  0.00000E+00  2.35776E+00  5.45691E-02 T
  3.00000E-01  1.02102E+00  1.96350E-01  2.33553E+00  4.13300E-02 T
  3.00000E-01  1.02102E+00  3.92699E-01  2.32008E+00  2.61442E-02 T
  3.00000E-01  1.02102E+00  5.89049E-01  2.31179E+00  1.02337E-02 T
  3.00000E-01  1.02102E+00  7.85398E-01  2.31050E+00 -3.84388E-03 T
  3.00000E-01  1.02102E+00  9.81748E-01  2.31468E+00 -1.42949E-02 T
  3.00000E-01  1.02102E+00  1.17810E+00  2.32363E+00 -2.51892E-02 T
  3.00000E-01  1.02102E+00  1.37445E+00  2.33752E+00 -3.49797E-02 T
  3.00000E-01  1.02102E+00  1.57080E+00  2.35525E+00 -4.16331E-02 T
  3.00000E-01  1.02102E+00  1.76715E+00  2.37582E+00 -4.65873E-02 T
  3.00000E-01  1.02102E+00  1.96350E+00  2.39828E+00 -4.87853E-02 T
  3.00000E-01  1.02102E+00  2.15985E+00  2.42157E+00 -4.96351E-02 T
  3.00000E-01  1.02102E+00  2.35619E+00  2.44547E+00 -5.03460E-02 T
  3.00000E-01  1.02102E+00  2.55254E+00  2.46986E+00 -5.07493E-02 T
  3.00000E-01  1.02102E+00  2.74889E+00  2.49474E+00 -5.13523E-02 T
  3.00000E-01  1.02102E+00  2.94524E+00  2.51999E+00 -5.08932E-02 T
  3.00000E-01  1.02102E+00  3.14159E+00  2.54467E+00 -4.78159E-02 T
  3.00000E-01  1.02102E+00  3.33794E+00  2.56716E+00 -4.12745E-02 T
  3.00000E-01  1.02102E+00  3.53429E+00  2.58581E+00 -3.22117E-02 T
  3.00000E-01  1.02102E+00  3.73064E+00  2.59974E+00 -2.24888E-02 T
  3.00000E-01  1.02102E+00  3.92699E+00  2.60867E+00 -1.22037E-02 T
  3.00000E-01  1.02102E+00  4.12334E+00  2.61184E+00  3.24227E-04 T
  3.00000E-01  1.02102E+00  4.31969E+00  2.60793E+00  1.50753E-02 T
  3.00000E-01  1.02102E+00  4.51604E+00  2.59661E+00  2.88144E-02 T
  3.00000E-01  1.02102E+00  4.71239E+00  2.57912E+00  3.94419E-02 T
  3.00000E-01  1.02102E+00  4.90874E+00  2.55730E+00  4.65668E-02 T
  3.00000E-01  1.02102E+00  5.10509E+00  2.53273E+00  5.16572E-02 T
  3.00000E-01  1.02102E+00  5.30144E+00  2.50595E+00  5.65654E-02 T
  3.00000E-01  1.02102E+00  5.49779E+00  2.47720E+00  6.08458E-02 T
  3.00000E-01  1.02102E+00  5.69414E+00  2.44689E+00  6.43990E-02 T
  3.00000E-01  1.02102E+00  5.89049E+00  2.41570E+00  6.56473E-02 T
  3.00000E-01  1.02102E+00  6.08684E+00  2.38528E+00  6.26694E-02 T
  3.00000E-01  1.06029E+00  0.00000E+00  2.37002E+00  4.45505E-02 T
  3.00000E-01  1.06029E+00  1.96350E-01  2.35253E+00  3.07415E-02 T
  3.00000E-01  1.06029E+00  3.92699E-01  2.34161E+00  1.64588E-02 T
  3.00000E-01  1.06029E+00  5.89049E-01  2.33763E+00  8.62847E-04 T
  3.00000E-01  1.06029E+00  7.85398E-01  2.34036E+00 -1.19042E-02 T
  3.00000E-01  1.06029E+00  9.81748E-01  2.34806E+00 -2.15538E-02 T
  3.00000E-01  1.06029E+00  1.17810E+00  2.36042E+00 -3.18508E-02 T
  3.00000E-01  1.06029E+00  1.37445E+00  2.37714E+00 -3.93162E-02 T
  3.00000E-01  1.06029E+00  1.57080E+00  2.39666E+00 -4.37197E-02 T
  3.00000E-01  1.06029E+00  1.76715E+00  2.41805E+00 -4.64071E-02 T
  3.00000E-01  1.06029E+00  1.96350E+00  2.44031E+00 -4.66267E-02 T
  3.00000E-01  1.06029E+00  2.15985E+00  2.46266E+00 -4.62430E-02 T
  3.00000E-01  1.06029E+00  2.35619E+00  2.48499E+00 -4.56363E-02 T
  3.00000E-01  1.06029E+00  2.55254E+00  2.50724E+00 -4.53346E-02 T
  3.00000E-01  1.06029E+00  2.74889E+00  2.52980E+00 -4.59803E-02 T
  3.00000E-01  1.06029E+00  2.94524E+00  2.55280E+00 -4.58886E-02 T
  3.00000E-01  1.06029E+00  3.14159E+00  2.57532E+00 -4.29465E-02 T
  3.00000E-01  1.06029E+00  3.33794E+00  2.59554E+00 -3.61190E-02 T
  3.00000E-01  1.06029E+00  3.53429E+00  2.61167E+00 -2.67588E-02 T
  3.00000E-01  1.06029E+00  3.73064E+00  2.62287E+00 -1.68440E-02 T
  3.00000E-01  1.06029E+00  3.92699E+00  2.62893E+00 -6.41883E-03 T
  3.00000E-01  1.06029E+00  4.12334E+00  2.62908E+00  6.26699E-03 T
  3.00000E-01  1.06029E+00  4.31969E+00  2.62220E+00  2.04187E-02 T
  3.00000E-01  1.06029E+00  4.51604E+00  2.60837E+00  3.29893E-02 T
  3.00000E-01  1.06029E+00  4.71239E+00  2.58896E+00  4.25603E-02 T
  3.00000E-01  1.06029E+00  4.90874E+00  2.56570E+00  4.89176E-02 T
  3.00000E-01  1.06029E+00  5.10509E+00  2.53990E+00  5.40104E-02 T
  3.00000E-01  1.06029E+00  5.30144E+00  2.51189E+00  5.87936E-02 T
  3.00000E-01  1.06029E+00  5.49779E+00  2.48215E+00  6.22578E-02 T
  3.00000E-01  1.06029E+00  5.69414E+00  2.45153E+00  6.37123E-02 T
  3.00000E-01  1.06029E+00  5.89049E+00  2.42140E+00  6.15861E-02 T
  3.00000E-01  1.06029E+00  6.08684E+00  2.39358E+00  5.54217E-02 T
  3.00000E-01  1.09956E+00  0.00000E+00  2.35520E+00  3.42876E-02 T
  3.00000E-01  1.09956E+00  1.96350E-01  2.34311E+00  1.85711E-02 T
  3.00000E-01  1.09956E+00  3.92699E-01  2.33791E+00  3.89574E-03 T
  3.00000E-01  1.09956E+00  5.89049E-01  2.33966E+00 -1.12351E-02 T
  3.00000E-01  1.09956E+00  7.85398E-01  2.34753E+00 -2.21609E-02 T
  3.00000E-01  1.09956E+00  9.81748E-01  2.35991E+00 -3.17046E-02 T
  3.00000E-01  1.09956E+00  1.17810E+00  2.37708E+00 -4.18071E-02 T
  3.00000E-01  1.09956E+00  1.37445E+00  2.39826E+00 -4.77737E-02 T
  3.00000E-01  1.09956E+00  1.57080E+00  2.42164E+00 -5.07432E-02 T
  3.00000E-01  1.09956E+00  1.76715E+00  2.44617E+00 -5.14628E-02 T
  3.00000E-01  1.09956E+00  1.96350E+00  2.47075E+00 -5.02315E-02 T
  3.00000E-01  1.09956E+00  2.15985E+00  2.49488E+00 -4.87363E-02 T
  3.00000E-01  1.09956E+00  2.35619E+00  2.51838E+00 -4.66576E-02 T
  3.00000E-01  1.09956E+00  2.55254E+00  2.54108E+00 -4.48881E-02 T
  3.00000E-01  1.09956E+00  2.74889E+00  2.56327E+00 -4.36494E-02 T
  3.00000E-01  1.09956E+00  2.94524E+00  2.58481E+00 -4.12303E-02 T
  3.00000E-01  1.09956E+00  3.14159E+00  2.60459E+00 -3.58313E-02 T
  3.00000E-01  1.09956E+00  3.33794E+00  2.62088E+00 -2.72808E-02 T
  3.00000E-01  1.09956E+00  3.53429E+00  2.63242E+00 -1.74438E-02 T
  3.00000E-01  1.09956E+00  3.73064E+00  2.63898E+00 -7.99646E-03 T
  3.00000E-01  1.09956E+00  3.92699E+00  2.64065E+00  1.81316E-03 T
  3.00000E-01  1.09956E+00  4.12334E+00  2.63666E+00  1.40210E-02 T
  3.00000E-01  1.09956E+00  4.31969E+00  2.62596E+00  2.73145E-02 T
  3.00000E-01  1.09956E+00  4.51604E+00  2.60878E+00  3.91830E-02 T
  3.00000E-01  1.09956E+00  4.71239E+00  2.58632E+00  4.83724E-02 T
  3.00000E-01  1.09956E+00  4.90874E+00  2.56014E+00  5.50039E-02 T
  3.00000E-01  1.09956E+00  5.10509E+00  2.53112E+00  6.11532E-02 T
  3.00000E-01  1.09956E+00  5.30144E+00  2.49950E+00  6.66323E-02 T
  3.00000E-01  1.09956E+00  5.49779E+00  2.46612E+00  6.97536E-02 T
  3.00000E-01  1.09956E+00  5.69414E+00  2.43265E+00  6.85439E-02 T
  3.00000E-01  1.09956E+00  5.89049E+00  2.40149E+00  6.19347E-02 T
  3.00000E-01  1.09956E+00  6.08684E+00  2.37496E+00  5.03530E-02 T
  3.00000E-01  1.13883E+00  0.00000E+00  2.34362E+00  2.46660E-02 T
  3.00000E-01  1.13883E+00  1.96350E-01  2.33644E+00  7.30491E-03 T
  3.00000E-01  1.13883E+00  3.92699E-01  2.33664E+00 -8.23373E-03 T
  3.00000E-01  1.13883E+00  5.89049E-01  2.34377E+00 -2.19469E-02 T
  3.00000E-01  1.13883E+00  7.85398E-01  2.35597E+00 -3.04428E-02 T
  3.00000E-01  1.13883E+00  9.81748E-01  2.37211E+00 -3.95741E-02 T
  3.00000E-01  1.13883E+00  1.17810E+00  2.39290E+00 -4.87399E-02 T
  3.00000E-01  1.13883E+00  1.37445E+00  2.41723E+00 -5.36926E-02 T
  3.00000E-01  1.13883E+00  1.57080E+00  2.44351E+00 -5.60581E-02 T
  3.00000E-01  1.13883E+00  1.76715E+00  2.47061E+00 -5.58679E-02 T
  3.00000E-01  1.13883E+00  1.96350E+00  2.49748E+00 -5.42694E-02 T
  3.00000E-01  1.13883E+00  2.15985E+00  2.52375E+00 -5.21276E-02 T
  3.00000E-01  1.13883E+00  2.35619E+00  2.54897E+00 -4.90729E-02 T
  3.00000E-01  1.13883E+00  2.55254E+00  2.57287E+00 -4.60591E-02 T
  3.00000E-01  1.13883E+00  2.74889E+00  2.59543E+00 -4.26514E-02 T
  3.00000E-01  1.13883E+00  2.94524E+00  2.61596E+00 -3.71027E-02 T
  3.00000E-01  1.13883E+00  3.14159E+00  2.63293E+00 -2.81949E-02 T
  3.00000E-01  1.13883E+00  3.33794E+00  2.64469E+00 -1.70644E-02 T
  3.00000E-01  1.13883E+00  3.53429E+00  2.65069E+00 -6.28272E-03 T
  3.00000E-01  1.13883E+00  3.73064E+00  2.65158E+00  2.56932E-03 T
  3.00000E-01  1.13883E+00  3.92699E+00  2.64809E+00  1.10825E-02 T
  3.00000E-01  1.13883E+00  4.12334E+00  2.63970E+00  2.15389E-02 T
  3.00000E-01  1.13883E+00  4.31969E+00  2.62563E+00  3.28894E-02 T
  3.00000E-01  1.13883E+00  4.51604E+00  2.60596E+00  4.34691E-02 T
  3.00000E-01  1.13883E+00  4.71239E+00  2.58155E+00  5.20063E-02 T
  3.00000E-01  1.13883E+00  4.90874E+00  2.55354E+00  5.90625E-02 T
  3.00000E-01  1.13883E+00  5.10509E+00  2.52233E+00  6.61810E-02 T
  3.00000E-01  1.13883E+00  5.30144E+00  2.48818E+00  7.23544E-02 T
  3.00000E-01  1.13883E+00  5.49779E+00  2.45219E+00  7.52238E-02 T
  3.00000E-01  1.13883E+00  5.69414E+00  2.41676E+00  7.18372E-02 T
  3.00000E-01  1.13883E+00  5.89049E+00  2.38500E+00  6.18945E-02 T
  3.00000E-01  1.13883E+00  6.08684E+00  2.35977E+00  4.53012E-02 T
  3.00000E-01  1.17810E+00  0.00000E+00  2.36634E+00  1.63898E-02 T
  3.00000E-01  1.17810E+00  1.96350E-01  2.36256E+00  2.37842E-04 T
  3.00000E-01  1.17810E+00  3.92699E-01  2.36619E+00 -1.59499E-02 T
  3.00000E-01  1.17810E+00  5.89049E-01  2.37684E+00 -2.86053E-02 T
  3.00000E-01  1.17810E+00  7.85398E-01  2.39199E+00 -3.57987E-02 T
  3.00000E-01  1.17810E+00  9.81748E-01  2.41067E+00 -4.35873E-02 T
  3.00000E-01  1.17810E+00  1.17810E+00  2.43297E+00 -4.95082E-02 T
  3.00000E-01  1.17810E+00  1.37445E+00  2.45742E+00 -5.20156E-02 T
  3.00000E-01  1.17810E+00  1.57080E+00  2.48297E+00 -5.30757E-02 T
  3.00000E-01  1.17810E+00  1.76715E+00  2.50888E+00 -5.24634E-02 T
  3.00000E-01  1.17810E+00  1.96350E+00  2.53454E+00 -5.10531E-02 T
  3.00000E-01  1.17810E+00  2.15985E+00  2.55950E+00 -4.85458E-02 T
  3.00000E-01  1.17810E+00  2.35619E+00  2.58316E+00 -4.51508E-02 T
  3.00000E-01  1.17810E+00  2.55254E+00  2.60531E+00 -4.18339E-02 T
  3.00000E-01  1.17810E+00  2.74889E+00  2.62583E+00 -3.77615E-02 T
  3.00000E-01  1.17810E+00  2.94524E+00  2.64375E+00 -3.09172E-02 T
  3.00000E-01  1.17810E+00  3.14159E+00  2.65724E+00 -2.03990E-02 T
  3.00000E-01  1.17810E+00  3.33794E+00  2.66471E+00 -8.16971E-03 T
  3.00000E-01  1.17810E+00  3.53429E+00  2.66600E+00  2.84056E-03 T
  3.00000E-01  1.17810E+00  3.73064E+00  2.66224E+00  1.11655E-02 T
  3.00000E-01  1.17810E+00  3.92699E+00  2.65445E+00  1.88083E-02 T
  3.00000E-01  1.17810E+00  4.12334E+00  2.64241E+00  2.76660E-02 T
  3.00000E-01  1.17810E+00  4.31969E+00  2.62570E+00  3.69434E-02 T
  3.00000E-01  1.17810E+00  4.51604E+00  2.60451E+00  4.53186E-02 T
  3.00000E-01  1.17810E+00  4.71239E+00  2.57974E+00  5.16774E-02 T
  3.00000E-01  1.17810E+00  4.90874E+00  2.55234E+00  5.70839E-02 T
  3.00000E-01  1.17810E+00  5.10509E+00  2.52256E+00  6.23705E-02 T
  3.00000E-01  1.17810E+00  5.30144E+00  2.49075E+00  6.65620E-02 T
  3.00000E-01  1.17810E+00  5.49779E+00  2.45805E+00  6.71954E-02 T
  3.00000E-01  1.17810E+00  5.69414E+00  2.42679E+00  6.23065E-02 T
  3.00000E-01  1.17810E+00  5.89049E+00  2.39938E+00  5.24693E-02 T
  3.00000E-01  1.17810E+00  6.08684E+00  2.37841E+00  3.58002E-02 T
  3.00000E-01  1.21737E+00  0.00000E+00  2.37259E+00  1.02242E-02 T
  3.00000E-01  1.21737E+00  1.96350E-01  2.37146E+00 -5.70014E-03 T
  3.00000E-01  1.21737E+00  3.92699E-01  2.37835E+00 -2.38436E-02 T
  3.00000E-01  1.21737E+00  5.89049E-01  2.39296E+00 -3.72752E-02 T
  3.00000E-01  1.21737E+00  7.85398E-01  2.41259E+00 -4.56246E-02 T
  3.00000E-01  1.21737E+00  9.81748E-01  2.43607E+00 -5.26225E-02 T
  3.00000E-01  1.21737E+00  1.17810E+00  2.46221E+00 -5.52566E-02 T
  3.00000E-01  1.21737E+00  1.37445E+00  2.48903E+00 -5.49175E-02 T
  3.00000E-01  1.21737E+00  1.57080E+00  2.51575E+00 -5.36683E-02 T
  3.00000E-01  1.21737E+00  1.76715E+00  2.54191E+00 -5.16487E-02 T
  3.00000E-01  1.21737E+00  1.96350E+00  2.56719E+00 -4.89253E-02 T
  3.00000E-01  1.21737E+00  2.15985E+00  2.59095E+00 -4.46934E-02 T
  3.00000E-01  1.21737E+00  2.35619E+00  2.61255E+00 -3.98774E-02 T
  3.00000E-01  1.21737E+00  2.55254E+00  2.63191E+00 -3.53758E-02 T
  3.00000E-01  1.21737E+00  2.74889E+00  2.64901E+00 -3.03390E-02 T
  3.00000E-01  1.21737E+00  2.94524E+00  2.66297E+00 -2.25782E-02 T
  3.00000E-01  1.21737E+00  3.14159E+00  2.67201E+00 -1.15343E-02 T
  3.00000E-01  1.21737E+00  3.33794E+00  2.67486E+00  6.43280E-04 T
  3.00000E-01  1.21737E+00  3.53429E+00  2.67161E+00  1.12943E-02 T
  3.00000E-01  1.21737E+00  3.73064E+00  2.66348E+00  1.94627E-02 T
  3.00000E-01  1.21737E+00  3.92699E+00  2.65134E+00  2.71414E-02 T
  3.00000E-01  1.21737E+00  4.12334E+00  2.63513E+00  3.53770E-02 T
  3.00000E-01  1.21737E+00  4.31969E+00  2.61481E+00  4.33254E-02 T
  3.00000E-01  1.21737E+00  4.51604E+00  2.59095E+00  4.96501E-02 T
  3.00000E-01  1.21737E+00  4.71239E+00  2.56467E+00  5.39781E-02 T
  3.00000E-01  1.21737E+00  4.90874E+00  2.53672E+00  5.75829E-02 T
  3.00000E-01  1.21737E+00  5.10509E+00  2.50743E+00  6.05656E-02 T
  3.00000E-01  1.21737E+00  5.30144E+00  2.47734E+00  6.19657E-02 T
  3.00000E-01  1.21737E+00  5.49779E+00  2.44783E+00  5.92798E-02 T
  3.00000E-01  1.21737E+00  5.69414E+00  2.42093E+00  5.28748E-02 T
  3.00000E-01  1.21737E+00  5.89049E+00  2.39798E+00  4.32587E-02 T
  3.00000E-01  1.21737E+00  6.08684E+00  2.38122E+00  2.72565E-02 T
