s E_r[V/m] (\Gamma_b/n_b[m/s]  Q_b/n_b/T_b[m/s] L_1^b[m^2/s] L_2^b[m^2/s]  Z_b n_b[10^{19}m^{-3}] dlnn_b/dr[m^{-1}] T_b[eV] dlnT_b/dr[m^{-1}], b=1,NBB), size(e\varphi_1/T_i) 
  5.50000E-01 -2.02797E+04  2.48802E-02  7.79314E-02  1.30005E-03  4.84514E-03  5.29971E+00 -9.16395E-01  4.65531E+02 -6.94513E+00 -1.00000E+00 -6.15187E-01 -1.40271E+00  6.27128E-02  2.34819E-01  5.29971E+00 -9.16395E-01  5.05420E+02 -7.50368E+00  1.00000E+00  1.72190-280  0.00000E+00          NaN
  5.50000E-01 -1.94998E+04  2.41061E-02  7.57539E-02  1.30007E-03  4.84514E-03  5.29971E+00 -9.16395E-01  4.65531E+02 -6.94513E+00 -1.00000E+00 -5.82106E-01 -1.30596E+00  6.27135E-02  2.34819E-01  5.29971E+00 -9.16395E-01  5.05420E+02 -7.50368E+00  1.00000E+00  1.72190-280  0.00000E+00          NaN
  5.50000E-01 -1.87198E+04  2.33316E-02  7.35765E-02  1.30009E-03  4.84515E-03  5.29971E+00 -9.16395E-01  4.65531E+02 -6.94513E+00 -1.00000E+00 -5.49026E-01 -1.20922E+00  6.27143E-02  2.34819E-01  5.29971E+00 -9.16395E-01  5.05420E+02 -7.50368E+00  1.00000E+00  1.72190-280  0.00000E+00          NaN
  5.50000E-01 -1.79398E+04  2.25568E-02  7.13989E-02  1.30012E-03  4.84515E-03  5.29971E+00 -9.16395E-01  4.65531E+02 -6.94513E+00 -1.00000E+00 -5.15946E-01 -1.11247E+00  6.27151E-02  2.34819E-01  5.29971E+00 -9.16395E-01  5.05420E+02 -7.50368E+00  1.00000E+00  1.72190-280  0.00000E+00          NaN
  5.50000E-01 -1.71598E+04  2.17817E-02  6.92213E-02  1.30014E-03  4.84516E-03  5.29971E+00 -9.16395E-01  4.65531E+02 -6.94513E+00 -1.00000E+00 -4.82865E-01 -1.01572E+00  6.27160E-02  2.34819E-01  5.29971E+00 -9.16395E-01  5.05420E+02 -7.50368E+00  1.00000E+00  1.72190-280  0.00000E+00          NaN
  5.50000E-01 -1.63798E+04  2.10061E-02  6.70437E-02  1.30017E-03  4.84516E-03  5.29971E+00 -9.16395E-01  4.65531E+02 -6.94513E+00 -1.00000E+00 -4.49783E-01 -9.18973E-01  6.27169E-02  2.34820E-01  5.29971E+00 -9.16395E-01  5.05420E+02 -7.50368E+00  1.00000E+00  1.72190-280  0.00000E+00          NaN
  5.50000E-01 -1.55998E+04  2.02301E-02  6.48660E-02  1.30020E-03  4.84517E-03  5.29971E+00 -9.16395E-01  4.65531E+02 -6.94513E+00 -1.00000E+00 -4.16701E-01 -8.22225E-01  6.27180E-02  2.34820E-01  5.29971E+00 -9.16395E-01  5.05420E+02 -7.50368E+00  1.00000E+00  1.72190-280  0.00000E+00          NaN
  5.50000E-01 -1.48198E+04  1.94536E-02  6.26882E-02  1.30023E-03  4.84517E-03  5.29971E+00 -9.16395E-01  4.65531E+02 -6.94513E+00 -1.00000E+00 -3.83617E-01 -7.25476E-01  6.27191E-02  2.34820E-01  5.29971E+00 -9.16395E-01  5.05420E+02 -7.50368E+00  1.00000E+00  1.72190-280  0.00000E+00          NaN
  5.50000E-01 -1.40398E+04  1.86765E-02  6.05103E-02  1.30026E-03  4.84517E-03  5.29971E+00 -9.16395E-01  4.65531E+02 -6.94513E+00 -1.00000E+00 -3.50530E-01 -6.28727E-01  6.27202E-02  2.34821E-01  5.29971E+00 -9.16395E-01  5.05420E+02 -7.50368E+00  1.00000E+00  1.72190-280  0.00000E+00          NaN
  5.50000E-01 -1.32598E+04  1.78988E-02  5.83323E-02  1.30029E-03  4.84518E-03  5.29971E+00 -9.16395E-01  4.65531E+02 -6.94513E+00 -1.00000E+00 -3.17441E-01 -5.31978E-01  6.27215E-02  2.34821E-01  5.29971E+00 -9.16395E-01  5.05420E+02 -7.50368E+00  1.00000E+00  1.72190-280  0.00000E+00          NaN
  5.50000E-01 -1.24798E+04  1.71205E-02  5.61543E-02  1.30032E-03  4.84518E-03  5.29971E+00 -9.16395E-01  4.65531E+02 -6.94513E+00 -1.00000E+00 -2.84348E-01 -4.35227E-01  6.27228E-02  2.34821E-01  5.29971E+00 -9.16395E-01  5.05420E+02 -7.50368E+00  1.00000E+00  1.72190-280  0.00000E+00          NaN
  5.50000E-01 -1.16999E+04  1.63415E-02  5.39761E-02  1.30035E-03  4.84519E-03  5.29971E+00 -9.16395E-01  4.65531E+02 -6.94513E+00 -1.00000E+00 -2.51250E-01 -3.38475E-01  6.27243E-02  2.34822E-01  5.29971E+00 -9.16395E-01  5.05420E+02 -7.50368E+00  1.00000E+00  1.72190-280  0.00000E+00          NaN
  5.50000E-01 -1.09199E+04  1.55618E-02  5.17979E-02  1.30038E-03  4.84519E-03  5.29971E+00 -9.16395E-01  4.65531E+02 -6.94513E+00 -1.00000E+00 -2.18146E-01 -2.41721E-01  6.27258E-02  2.34822E-01  5.29971E+00 -9.16395E-01  5.05420E+02 -7.50368E+00  1.00000E+00  1.72190-280  0.00000E+00          NaN
  5.50000E-01 -1.01399E+04  1.47813E-02  4.96196E-02  1.30041E-03  4.84520E-03  5.29971E+00 -9.16395E-01  4.65531E+02 -6.94513E+00 -1.00000E+00 -1.85035E-01 -1.44964E-01  6.27274E-02  2.34823E-01  5.29971E+00 -9.16395E-01  5.05420E+02 -7.50368E+00  1.00000E+00  1.72190-280  0.00000E+00          NaN
  5.50000E-01 -9.35988E+03  1.39999E-02  4.74411E-02  1.30044E-03  4.84520E-03  5.29971E+00 -9.16395E-01  4.65531E+02 -6.94513E+00 -1.00000E+00 -1.51915E-01 -4.82054E-02  6.27291E-02  2.34823E-01  5.29971E+00 -9.16395E-01  5.05420E+02 -7.50368E+00  1.00000E+00  1.72190-280  0.00000E+00          NaN
  5.50000E-01 -8.57989E+03  1.32176E-02  4.52626E-02  1.30048E-03  4.84521E-03  5.29971E+00 -9.16395E-01  4.65531E+02 -6.94513E+00 -1.00000E+00 -1.18784E-01  4.85569E-02  6.27308E-02  2.34824E-01  5.29971E+00 -9.16395E-01  5.05420E+02 -7.50368E+00  1.00000E+00  1.72190-280  0.00000E+00          NaN
  5.50000E-01 -7.79990E+03  1.24344E-02  4.30839E-02  1.30051E-03  4.84521E-03  5.29971E+00 -9.16395E-01  4.65531E+02 -6.94513E+00 -1.00000E+00 -8.56405E-02  1.45323E-01  6.27326E-02  2.34824E-01  5.29971E+00 -9.16395E-01  5.05420E+02 -7.50368E+00  1.00000E+00  1.72190-280  0.00000E+00          NaN
  5.50000E-01 -7.01991E+03  1.16503E-02  4.09051E-02  1.30054E-03  4.84522E-03  5.29971E+00 -9.16395E-01  4.65531E+02 -6.94513E+00 -1.00000E+00 -5.24835E-02  2.42094E-01  6.27345E-02  2.34825E-01  5.29971E+00 -9.16395E-01  5.05420E+02 -7.50368E+00  1.00000E+00  1.72190-280  0.00000E+00          NaN
  5.50000E-01 -6.23992E+03  1.08653E-02  3.87262E-02  1.30057E-03  4.84522E-03  5.29971E+00 -9.16395E-01  4.65531E+02 -6.94513E+00 -1.00000E+00 -1.93117E-02  3.38870E-01  6.27364E-02  2.34825E-01  5.29971E+00 -9.16395E-01  5.05420E+02 -7.50368E+00  1.00000E+00  1.72190-280  0.00000E+00          NaN
  5.50000E-01 -5.45993E+03  1.00792E-02  3.65473E-02  1.30060E-03  4.84522E-03  5.29971E+00 -9.16395E-01  4.65531E+02 -6.94513E+00 -1.00000E+00  1.38750E-02  4.35651E-01  6.27383E-02  2.34826E-01  5.29971E+00 -9.16395E-01  5.05420E+02 -7.50368E+00  1.00000E+00  1.72190-280  0.00000E+00          NaN
  5.50000E-01 -4.67994E+03  9.29232E-03  3.43682E-02  1.30062E-03  4.84523E-03  5.29971E+00 -9.16395E-01  4.65531E+02 -6.94513E+00 -1.00000E+00  4.70756E-02  5.32437E-01  6.27403E-02  2.34826E-01  5.29971E+00 -9.16395E-01  5.05420E+02 -7.50368E+00  1.00000E+00  1.72190-280  0.00000E+00          NaN
  5.50000E-01 -3.89995E+03  8.50454E-03  3.21890E-02  1.30065E-03  4.84523E-03  5.29971E+00 -9.16395E-01  4.65531E+02 -6.94513E+00 -1.00000E+00  8.02863E-02  6.29230E-01  6.27422E-02  2.34827E-01  5.29971E+00 -9.16395E-01  5.05420E+02 -7.50368E+00  1.00000E+00  1.72190-280  0.00000E+00          NaN
  5.50000E-01 -3.11996E+03  7.71597E-03  3.00097E-02  1.30067E-03  4.84523E-03  5.29971E+00 -9.16395E-01  4.65531E+02 -6.94513E+00 -1.00000E+00  1.13500E-01  7.26026E-01  6.27443E-02  2.34827E-01  5.29971E+00 -9.16395E-01  5.05420E+02 -7.50368E+00  1.00000E+00  1.72190-280  0.00000E+00          NaN
  5.50000E-01 -2.33997E+03  6.92670E-03  2.78304E-02  1.30069E-03  4.84524E-03  5.29971E+00 -9.16395E-01  4.65531E+02 -6.94513E+00 -1.00000E+00  1.46707E-01  8.22827E-01  6.27465E-02  2.34828E-01  5.29971E+00 -9.16395E-01  5.05420E+02 -7.50368E+00  1.00000E+00  1.72190-280  0.00000E+00          NaN
  5.50000E-01 -1.55998E+03  6.13670E-03  2.56510E-02  1.30071E-03  4.84524E-03  5.29971E+00 -9.16395E-01  4.65531E+02 -6.94513E+00 -1.00000E+00  1.79899E-01  9.19629E-01  6.27491E-02  2.34828E-01  5.29971E+00 -9.16395E-01  5.05420E+02 -7.50368E+00  1.00000E+00  1.72190-280  0.00000E+00          NaN
  5.50000E-01 -7.79990E+02  5.34450E-03  2.34716E-02  1.30073E-03  4.84525E-03  5.29971E+00 -9.16395E-01  4.65531E+02 -6.94513E+00 -1.00000E+00  2.13113E-01  1.01644E+00  6.27517E-02  2.34829E-01  5.29971E+00 -9.16395E-01  5.05420E+02 -7.50368E+00  1.00000E+00  1.72190-280  0.00000E+00          NaN
  5.50000E-01 -9.86416E-13  4.52586E-03  2.12910E-02  1.30088E-03  4.84528E-03  5.29971E+00 -9.16395E-01  4.65531E+02 -6.94513E+00 -1.00000E+00  2.46304E-01  1.11326E+00  6.27540E-02  2.34829E-01  5.29971E+00 -9.16395E-01  5.05420E+02 -7.50368E+00  1.00000E+00  1.72190-280  0.00000E+00          NaN
  5.50000E-01  7.79990E+02  3.76478E-03  1.91129E-02  1.30073E-03  4.84525E-03  5.29971E+00 -9.16395E-01  4.65531E+02 -6.94513E+00 -1.00000E+00  2.80066E-01  1.21012E+00  6.27517E-02  2.34829E-01  5.29971E+00 -9.16395E-01  5.05420E+02 -7.50368E+00  1.00000E+00  1.72190-280  0.00000E+00          NaN
  5.50000E-01  1.55998E+03  2.98003E-03  1.69338E-02  1.30071E-03  4.84524E-03  5.29971E+00 -9.16395E-01  4.65531E+02 -6.94513E+00 -1.00000E+00  3.13676E-01  1.30698E+00  6.27491E-02  2.34828E-01  5.29971E+00 -9.16395E-01  5.05420E+02 -7.50368E+00  1.00000E+00  1.72190-280  0.00000E+00          NaN
  5.50000E-01  2.33997E+03  2.19381E-03  1.47547E-02  1.30069E-03  4.84524E-03  5.29971E+00 -9.16395E-01  4.65531E+02 -6.94513E+00 -1.00000E+00  3.47204E-01  1.40383E+00  6.27465E-02  2.34828E-01  5.29971E+00 -9.16395E-01  5.05420E+02 -7.50368E+00  1.00000E+00  1.72190-280  0.00000E+00          NaN
  5.50000E-01  3.11996E+03  1.40824E-03  1.25757E-02  1.30067E-03  4.84523E-03  5.29971E+00 -9.16395E-01  4.65531E+02 -6.94513E+00 -1.00000E+00  3.80660E-01  1.50067E+00  6.27443E-02  2.34827E-01  5.29971E+00 -9.16395E-01  5.05420E+02 -7.50368E+00  1.00000E+00  1.72190-280  0.00000E+00          NaN
  5.50000E-01  3.89995E+03  6.23661E-04  1.03968E-02  1.30065E-03  4.84523E-03  5.29971E+00 -9.16395E-01  4.65531E+02 -6.94513E+00 -1.00000E+00  4.14069E-01  1.59750E+00  6.27422E-02  2.34827E-01  5.29971E+00 -9.16395E-01  5.05420E+02 -7.50368E+00  1.00000E+00  1.72190-280  0.00000E+00          NaN
  5.50000E-01  4.67994E+03 -1.59835E-04  8.21807E-03  1.30062E-03  4.84523E-03  5.29971E+00 -9.16395E-01  4.65531E+02 -6.94513E+00 -1.00000E+00  4.47442E-01  1.69432E+00  6.27403E-02  2.34826E-01  5.29971E+00 -9.16395E-01  5.05420E+02 -7.50368E+00  1.00000E+00  1.72190-280  0.00000E+00          NaN
  5.50000E-01  5.45993E+03 -9.42241E-04  6.03943E-03  1.30060E-03  4.84522E-03  5.29971E+00 -9.16395E-01  4.65531E+02 -6.94513E+00 -1.00000E+00  4.80788E-01  1.79114E+00  6.27383E-02  2.34826E-01  5.29971E+00 -9.16395E-01  5.05420E+02 -7.50368E+00  1.00000E+00  1.72190-280  0.00000E+00          NaN
  5.50000E-01  6.23992E+03 -1.72357E-03  3.86093E-03  1.30057E-03  4.84522E-03  5.29971E+00 -9.16395E-01  4.65531E+02 -6.94513E+00 -1.00000E+00  5.14108E-01  1.88796E+00  6.27364E-02  2.34825E-01  5.29971E+00 -9.16395E-01  5.05420E+02 -7.50368E+00  1.00000E+00  1.72190-280  0.00000E+00          NaN
  5.50000E-01  7.01991E+03 -2.50387E-03  1.68256E-03  1.30054E-03  4.84522E-03  5.29971E+00 -9.16395E-01  4.65531E+02 -6.94513E+00 -1.00000E+00  5.47406E-01  1.98476E+00  6.27345E-02  2.34825E-01  5.29971E+00 -9.16395E-01  5.05420E+02 -7.50368E+00  1.00000E+00  1.72190-280  0.00000E+00          NaN
  5.50000E-01  7.79990E+03 -3.28316E-03 -4.95688E-04  1.30051E-03  4.84521E-03  5.29971E+00 -9.16395E-01  4.65531E+02 -6.94513E+00 -1.00000E+00  5.80683E-01  2.08157E+00  6.27326E-02  2.34824E-01  5.29971E+00 -9.16395E-01  5.05420E+02 -7.50368E+00  1.00000E+00  1.72190-280  0.00000E+00          NaN
  5.50000E-01  8.57989E+03 -4.06151E-03 -2.67381E-03  1.30048E-03  4.84521E-03  5.29971E+00 -9.16395E-01  4.65531E+02 -6.94513E+00 -1.00000E+00  6.13940E-01  2.17836E+00  6.27308E-02  2.34824E-01  5.29971E+00 -9.16395E-01  5.05420E+02 -7.50368E+00  1.00000E+00  1.72190-280  0.00000E+00          NaN
  5.50000E-01  9.35988E+03 -4.83897E-03 -4.85181E-03  1.30044E-03  4.84520E-03  5.29971E+00 -9.16395E-01  4.65531E+02 -6.94513E+00 -1.00000E+00  6.47179E-01  2.27515E+00  6.27291E-02  2.34823E-01  5.29971E+00 -9.16395E-01  5.05420E+02 -7.50368E+00  1.00000E+00  1.72190-280  0.00000E+00          NaN
  5.50000E-01  1.01399E+04 -5.61562E-03 -7.02971E-03  1.30041E-03  4.84520E-03  5.29971E+00 -9.16395E-01  4.65531E+02 -6.94513E+00 -1.00000E+00  6.80402E-01  2.37194E+00  6.27274E-02  2.34823E-01  5.29971E+00 -9.16395E-01  5.05420E+02 -7.50368E+00  1.00000E+00  1.72190-280  0.00000E+00          NaN
  5.50000E-01  1.09199E+04 -6.39152E-03 -9.20750E-03  1.30038E-03  4.84519E-03  5.29971E+00 -9.16395E-01  4.65531E+02 -6.94513E+00 -1.00000E+00  7.13610E-01  2.46872E+00  6.27258E-02  2.34822E-01  5.29971E+00 -9.16395E-01  5.05420E+02 -7.50368E+00  1.00000E+00  1.72190-280  0.00000E+00          NaN
  5.50000E-01  1.16999E+04 -7.16673E-03 -1.13852E-02  1.30035E-03  4.84519E-03  5.29971E+00 -9.16395E-01  4.65531E+02 -6.94513E+00 -1.00000E+00  7.46805E-01  2.56550E+00  6.27243E-02  2.34822E-01  5.29971E+00 -9.16395E-01  5.05420E+02 -7.50368E+00  1.00000E+00  1.72190-280  0.00000E+00          NaN
  5.50000E-01  1.24798E+04 -7.94133E-03 -1.35628E-02  1.30032E-03  4.84518E-03  5.29971E+00 -9.16395E-01  4.65531E+02 -6.94513E+00 -1.00000E+00  7.79989E-01  2.66228E+00  6.27228E-02  2.34821E-01  5.29971E+00 -9.16395E-01  5.05420E+02 -7.50368E+00  1.00000E+00  1.72190-280  0.00000E+00          NaN
  5.50000E-01  1.32598E+04 -8.71539E-03 -1.57403E-02  1.30029E-03  4.84518E-03  5.29971E+00 -9.16395E-01  4.65531E+02 -6.94513E+00 -1.00000E+00  8.13162E-01  2.75905E+00  6.27215E-02  2.34821E-01  5.29971E+00 -9.16395E-01  5.05420E+02 -7.50368E+00  1.00000E+00  1.72190-280  0.00000E+00          NaN
  5.50000E-01  1.40398E+04 -9.48895E-03 -1.79178E-02  1.30026E-03  4.84517E-03  5.29971E+00 -9.16395E-01  4.65531E+02 -6.94513E+00 -1.00000E+00  8.46327E-01  2.85582E+00  6.27202E-02  2.34821E-01  5.29971E+00 -9.16395E-01  5.05420E+02 -7.50368E+00  1.00000E+00  1.72190-280  0.00000E+00          NaN
  5.50000E-01  1.48198E+04 -1.02621E-02 -2.00952E-02  1.30023E-03  4.84517E-03  5.29971E+00 -9.16395E-01  4.65531E+02 -6.94513E+00 -1.00000E+00  8.79483E-01  2.95259E+00  6.27191E-02  2.34820E-01  5.29971E+00 -9.16395E-01  5.05420E+02 -7.50368E+00  1.00000E+00  1.72190-280  0.00000E+00          NaN
  5.50000E-01  1.55998E+04 -1.10348E-02 -2.22725E-02  1.30020E-03  4.84517E-03  5.29971E+00 -9.16395E-01  4.65531E+02 -6.94513E+00 -1.00000E+00  9.12633E-01  3.04936E+00  6.27180E-02  2.34820E-01  5.29971E+00 -9.16395E-01  5.05420E+02 -7.50368E+00  1.00000E+00  1.72190-280  0.00000E+00          NaN
  5.50000E-01  1.63798E+04 -1.18072E-02 -2.44498E-02  1.30017E-03  4.84516E-03  5.29971E+00 -9.16395E-01  4.65531E+02 -6.94513E+00 -1.00000E+00  9.45777E-01  3.14612E+00  6.27169E-02  2.34820E-01  5.29971E+00 -9.16395E-01  5.05420E+02 -7.50368E+00  1.00000E+00  1.72190-280  0.00000E+00          NaN
  5.50000E-01  1.71598E+04 -1.25793E-02 -2.66270E-02  1.30014E-03  4.84516E-03  5.29971E+00 -9.16395E-01  4.65531E+02 -6.94513E+00 -1.00000E+00  9.78915E-01  3.24288E+00  6.27160E-02  2.34819E-01  5.29971E+00 -9.16395E-01  5.05420E+02 -7.50368E+00  1.00000E+00  1.72190-280  0.00000E+00          NaN
  5.50000E-01  1.79398E+04 -1.33512E-02 -2.88041E-02  1.30012E-03  4.84515E-03  5.29971E+00 -9.16395E-01  4.65531E+02 -6.94513E+00 -1.00000E+00  1.01205E+00  3.33965E+00  6.27151E-02  2.34819E-01  5.29971E+00 -9.16395E-01  5.05420E+02 -7.50368E+00  1.00000E+00  1.72190-280  0.00000E+00          NaN
  5.50000E-01 -6.23992E+03  1.08653E-02  3.87262E-02  1.30057E-03  4.84522E-03  5.29971E+00 -9.16395E-01  4.65531E+02 -6.94513E+00 -1.00000E+00 -1.93117E-02  3.38870E-01  6.27364E-02  2.34825E-01  5.29971E+00 -9.16395E-01  5.05420E+02 -7.50368E+00  1.00000E+00  1.72190-280  0.00000E+00          NaN
  5.50000E-01 -5.45993E+03  1.00792E-02  3.65473E-02  1.30060E-03  4.84522E-03  5.29971E+00 -9.16395E-01  4.65531E+02 -6.94513E+00 -1.00000E+00  1.38750E-02  4.35651E-01  6.27383E-02  2.34826E-01  5.29971E+00 -9.16395E-01  5.05420E+02 -7.50368E+00  1.00000E+00  1.72190-280  0.00000E+00          NaN
  5.50000E-01 -5.84993E+03  1.04724E-02  3.76368E-02  1.30058E-03  4.84522E-03  5.29971E+00 -9.16395E-01  4.65531E+02 -6.94513E+00 -1.00000E+00 -2.72018E-03  3.87259E-01  6.27374E-02  2.34826E-01  5.29971E+00 -9.16395E-01  5.05420E+02 -7.50368E+00  1.00000E+00  1.72190-280  0.00000E+00          NaN
  5.50000E-01 -5.65493E+03  1.02758E-02  3.70920E-02  1.30059E-03  4.84522E-03  5.29971E+00 -9.16395E-01  4.65531E+02 -6.94513E+00 -1.00000E+00  5.57698E-03  4.11455E-01  6.27379E-02  2.34826E-01  5.29971E+00 -9.16395E-01  5.05420E+02 -7.50368E+00  1.00000E+00  1.72190-280  0.00000E+00          NaN
  5.50000E-01 -5.55743E+03  1.01775E-02  3.68196E-02  1.30059E-03  4.84522E-03  5.29971E+00 -9.16395E-01  4.65531E+02 -6.94513E+00 -1.00000E+00  9.72590E-03  4.23553E-01  6.27381E-02  2.34826E-01  5.29971E+00 -9.16395E-01  5.05420E+02 -7.50368E+00  1.00000E+00  1.72190-280  0.00000E+00          NaN
