s E_r[V/m] (\Gamma_b/n_b[m/s]  Q_b/n_b/T_b[m/s] L_1^b[m^2/s] L_2^b[m^2/s]  Z_b n_b[10^{19}m^{-3}] dlnn_b/dr[m^{-1}] T_b[eV] dlnT_b/dr[m^{-1}], b=1,NBB), size(e\varphi_1/T_i) 
  2.00000E-01 -1.57632E+04  3.94130E-02  1.40785E-01  5.21945E-03  1.95353E-02  5.76764E+00 -5.49388E-01  1.22118E+03 -6.02628E+00 -1.00000E+00 -6.48539E-01 -1.49384E+00  1.70551E-01  6.38418E-01  5.76764E+00 -5.49388E-01  1.01915E+03 -2.74538E+00  1.00000E+00  1.15464E+15  0.00000E+00          NaN
  2.00000E-01 -1.46373E+04  3.77521E-02  1.35973E-01  5.21945E-03  1.95353E-02  5.76764E+00 -5.49388E-01  1.22118E+03 -6.02628E+00 -1.00000E+00 -5.83741E-01 -1.30542E+00  1.70551E-01  6.38418E-01  5.76764E+00 -5.49388E-01  1.01915E+03 -2.74538E+00  1.00000E+00  1.15464E+15  0.00000E+00          NaN
  2.00000E-01 -1.35113E+04  3.60912E-02  1.31161E-01  5.21946E-03  1.95353E-02  5.76764E+00 -5.49388E-01  1.22118E+03 -6.02628E+00 -1.00000E+00 -5.18945E-01 -1.11700E+00  1.70551E-01  6.38418E-01  5.76764E+00 -5.49388E-01  1.01915E+03 -2.74538E+00  1.00000E+00  1.15464E+15  0.00000E+00          NaN
  2.00000E-01 -1.23854E+04  3.44303E-02  1.26348E-01  5.21946E-03  1.95353E-02  5.76764E+00 -5.49388E-01  1.22118E+03 -6.02628E+00 -1.00000E+00 -4.54150E-01 -9.28581E-01  1.70551E-01  6.38418E-01  5.76764E+00 -5.49388E-01  1.01915E+03 -2.74538E+00  1.00000E+00  1.15464E+15  0.00000E+00          NaN
  2.00000E-01 -1.12594E+04  3.27693E-02  1.21536E-01  5.21946E-03  1.95353E-02  5.76764E+00 -5.49388E-01  1.22118E+03 -6.02628E+00 -1.00000E+00 -3.89357E-01 -7.40162E-01  1.70551E-01  6.38419E-01  5.76764E+00 -5.49388E-01  1.01915E+03 -2.74538E+00  1.00000E+00  1.15464E+15  0.00000E+00          NaN
  2.00000E-01 -1.01335E+04  3.11082E-02  1.16723E-01  5.21946E-03  1.95353E-02  5.76764E+00 -5.49388E-01  1.22118E+03 -6.02628E+00 -1.00000E+00 -3.24565E-01 -5.51743E-01  1.70552E-01  6.38419E-01  5.76764E+00 -5.49388E-01  1.01915E+03 -2.74538E+00  1.00000E+00  1.15464E+15  0.00000E+00          NaN
  2.00000E-01 -9.00755E+03  2.94470E-02  1.11911E-01  5.21947E-03  1.95353E-02  5.76764E+00 -5.49388E-01  1.22118E+03 -6.02628E+00 -1.00000E+00 -2.59776E-01 -3.63324E-01  1.70552E-01  6.38419E-01  5.76764E+00 -5.49388E-01  1.01915E+03 -2.74538E+00  1.00000E+00  1.15464E+15  0.00000E+00          NaN
  2.00000E-01 -7.88160E+03  2.77858E-02  1.07099E-01  5.21947E-03  1.95353E-02  5.76764E+00 -5.49388E-01  1.22118E+03 -6.02628E+00 -1.00000E+00 -1.94988E-01 -1.74906E-01  1.70552E-01  6.38419E-01  5.76764E+00 -5.49388E-01  1.01915E+03 -2.74538E+00  1.00000E+00  1.15464E+15  0.00000E+00          NaN
  2.00000E-01 -6.75566E+03  2.61244E-02  1.02286E-01  5.21947E-03  1.95353E-02  5.76764E+00 -5.49388E-01  1.22118E+03 -6.02628E+00 -1.00000E+00 -1.30201E-01  1.35125E-02  1.70553E-01  6.38419E-01  5.76764E+00 -5.49388E-01  1.01915E+03 -2.74538E+00  1.00000E+00  1.15464E+15  0.00000E+00          NaN
  2.00000E-01 -5.62972E+03  2.44630E-02  9.74738E-02  5.21947E-03  1.95353E-02  5.76764E+00 -5.49388E-01  1.22118E+03 -6.02628E+00 -1.00000E+00 -6.54153E-02  2.01931E-01  1.70553E-01  6.38419E-01  5.76764E+00 -5.49388E-01  1.01915E+03 -2.74538E+00  1.00000E+00  1.15464E+15  0.00000E+00          NaN
  2.00000E-01 -4.50377E+03  2.28012E-02  9.26614E-02  5.21948E-03  1.95353E-02  5.76764E+00 -5.49388E-01  1.22118E+03 -6.02628E+00 -1.00000E+00 -6.26602E-04  3.90349E-01  1.70554E-01  6.38419E-01  5.76764E+00 -5.49388E-01  1.01915E+03 -2.74538E+00  1.00000E+00  1.15464E+15  0.00000E+00          NaN
  2.00000E-01 -3.37783E+03  2.11389E-02  8.78489E-02  5.21948E-03  1.95353E-02  5.76764E+00 -5.49388E-01  1.22118E+03 -6.02628E+00 -1.00000E+00  6.41700E-02  5.78769E-01  1.70555E-01  6.38419E-01  5.76764E+00 -5.49388E-01  1.01915E+03 -2.74538E+00  1.00000E+00  1.15464E+15  0.00000E+00          NaN
  2.00000E-01 -2.25189E+03  1.94752E-02  8.30365E-02  5.21949E-03  1.95353E-02  5.76764E+00 -5.49388E-01  1.22118E+03 -6.02628E+00 -1.00000E+00  1.28983E-01  7.67190E-01  1.70556E-01  6.38419E-01  5.76764E+00 -5.49388E-01  1.01915E+03 -2.74538E+00  1.00000E+00  1.15464E+15  0.00000E+00          NaN
  2.00000E-01 -1.12594E+03  1.78078E-02  7.82239E-02  5.21951E-03  1.95353E-02  5.76764E+00 -5.49388E-01  1.22118E+03 -6.02628E+00 -1.00000E+00  1.93819E-01  9.55614E-01  1.70557E-01  6.38419E-01  5.76764E+00 -5.49388E-01  1.01915E+03 -2.74538E+00  1.00000E+00  1.15464E+15  0.00000E+00          NaN
  2.00000E-01 -1.90346E-12  1.61387E-02  7.34113E-02  5.21952E-03  1.95353E-02  5.76764E+00 -5.49388E-01  1.22118E+03 -6.02628E+00 -1.00000E+00  2.58641E-01  1.14404E+00  1.70557E-01  6.38419E-01  5.76764E+00 -5.49388E-01  1.01915E+03 -2.74538E+00  1.00000E+00  1.15464E+15  0.00000E+00          NaN
  2.00000E-01  1.12594E+03  1.44827E-02  6.85990E-02  5.21951E-03  1.95353E-02  5.76764E+00 -5.49388E-01  1.22118E+03 -6.02628E+00 -1.00000E+00  3.23564E-01  1.33247E+00  1.70557E-01  6.38419E-01  5.76764E+00 -5.49388E-01  1.01915E+03 -2.74538E+00  1.00000E+00  1.15464E+15  0.00000E+00          NaN
  2.00000E-01  2.25189E+03  1.28278E-02  6.37867E-02  5.21949E-03  1.95353E-02  5.76764E+00 -5.49388E-01  1.22118E+03 -6.02628E+00 -1.00000E+00  3.88443E-01  1.52090E+00  1.70556E-01  6.38419E-01  5.76764E+00 -5.49388E-01  1.01915E+03 -2.74538E+00  1.00000E+00  1.15464E+15  0.00000E+00          NaN
  2.00000E-01  3.37783E+03  1.11697E-02  5.89744E-02  5.21948E-03  1.95353E-02  5.76764E+00 -5.49388E-01  1.22118E+03 -6.02628E+00 -1.00000E+00  4.53308E-01  1.70933E+00  1.70555E-01  6.38419E-01  5.76764E+00 -5.49388E-01  1.01915E+03 -2.74538E+00  1.00000E+00  1.15464E+15  0.00000E+00          NaN
  2.00000E-01  4.50377E+03  9.51012E-03  5.41620E-02  5.21948E-03  1.95353E-02  5.76764E+00 -5.49388E-01  1.22118E+03 -6.02628E+00 -1.00000E+00  5.18155E-01  1.89775E+00  1.70554E-01  6.38419E-01  5.76764E+00 -5.49388E-01  1.01915E+03 -2.74538E+00  1.00000E+00  1.15464E+15  0.00000E+00          NaN
  2.00000E-01  5.62972E+03  7.84993E-03  4.93497E-02  5.21947E-03  1.95353E-02  5.76764E+00 -5.49388E-01  1.22118E+03 -6.02628E+00 -1.00000E+00  5.82988E-01  2.08617E+00  1.70553E-01  6.38419E-01  5.76764E+00 -5.49388E-01  1.01915E+03 -2.74538E+00  1.00000E+00  1.15464E+15  0.00000E+00          NaN
  2.00000E-01  6.75566E+03  6.18949E-03  4.45373E-02  5.21947E-03  1.95353E-02  5.76764E+00 -5.49388E-01  1.22118E+03 -6.02628E+00 -1.00000E+00  6.47810E-01  2.27460E+00  1.70553E-01  6.38419E-01  5.76764E+00 -5.49388E-01  1.01915E+03 -2.74538E+00  1.00000E+00  1.15464E+15  0.00000E+00          NaN
  2.00000E-01  7.88160E+03  4.52893E-03  3.97249E-02  5.21947E-03  1.95353E-02  5.76764E+00 -5.49388E-01  1.22118E+03 -6.02628E+00 -1.00000E+00  7.12624E-01  2.46302E+00  1.70552E-01  6.38419E-01  5.76764E+00 -5.49388E-01  1.01915E+03 -2.74538E+00  1.00000E+00  1.15464E+15  0.00000E+00          NaN
  2.00000E-01  9.00755E+03  2.86835E-03  3.49125E-02  5.21947E-03  1.95353E-02  5.76764E+00 -5.49388E-01  1.22118E+03 -6.02628E+00 -1.00000E+00  7.77435E-01  2.65144E+00  1.70552E-01  6.38419E-01  5.76764E+00 -5.49388E-01  1.01915E+03 -2.74538E+00  1.00000E+00  1.15464E+15  0.00000E+00          NaN
  2.00000E-01  1.01335E+04  1.20778E-03  3.01001E-02  5.21946E-03  1.95353E-02  5.76764E+00 -5.49388E-01  1.22118E+03 -6.02628E+00 -1.00000E+00  8.42242E-01  2.83986E+00  1.70552E-01  6.38419E-01  5.76764E+00 -5.49388E-01  1.01915E+03 -2.74538E+00  1.00000E+00  1.15464E+15  0.00000E+00          NaN
  2.00000E-01  1.12594E+04 -4.52742E-04  2.52878E-02  5.21946E-03  1.95353E-02  5.76764E+00 -5.49388E-01  1.22118E+03 -6.02628E+00 -1.00000E+00  9.07048E-01  3.02828E+00  1.70551E-01  6.38419E-01  5.76764E+00 -5.49388E-01  1.01915E+03 -2.74538E+00  1.00000E+00  1.15464E+15  0.00000E+00          NaN
  2.00000E-01  1.23854E+04 -2.11321E-03  2.04754E-02  5.21946E-03  1.95353E-02  5.76764E+00 -5.49388E-01  1.22118E+03 -6.02628E+00 -1.00000E+00  9.71852E-01  3.21670E+00  1.70551E-01  6.38418E-01  5.76764E+00 -5.49388E-01  1.01915E+03 -2.74538E+00  1.00000E+00  1.15464E+15  0.00000E+00          NaN
  2.00000E-01  1.35113E+04 -3.77361E-03  1.56631E-02  5.21946E-03  1.95353E-02  5.76764E+00 -5.49388E-01  1.22118E+03 -6.02628E+00 -1.00000E+00  1.03666E+00  3.40512E+00  1.70551E-01  6.38418E-01  5.76764E+00 -5.49388E-01  1.01915E+03 -2.74538E+00  1.00000E+00  1.15464E+15  0.00000E+00          NaN
  2.00000E-01  1.46373E+04 -5.43393E-03  1.08507E-02  5.21945E-03  1.95353E-02  5.76764E+00 -5.49388E-01  1.22118E+03 -6.02628E+00 -1.00000E+00  1.10146E+00  3.59354E+00  1.70551E-01  6.38418E-01  5.76764E+00 -5.49388E-01  1.01915E+03 -2.74538E+00  1.00000E+00  1.15464E+15  0.00000E+00          NaN
  2.00000E-01  1.57632E+04 -7.09417E-03  6.03839E-03  5.21945E-03  1.95353E-02  5.76764E+00 -5.49388E-01  1.22118E+03 -6.02628E+00 -1.00000E+00  1.16626E+00  3.78196E+00  1.70551E-01  6.38418E-01  5.76764E+00 -5.49388E-01  1.01915E+03 -2.74538E+00  1.00000E+00  1.15464E+15  0.00000E+00          NaN
  2.00000E-01  1.68892E+04 -8.75431E-03  1.22606E-03  5.21945E-03  1.95353E-02  5.76764E+00 -5.49388E-01  1.22118E+03 -6.02628E+00 -1.00000E+00  1.23107E+00  3.97038E+00  1.70551E-01  6.38418E-01  5.76764E+00 -5.49388E-01  1.01915E+03 -2.74538E+00  1.00000E+00  1.15464E+15  0.00000E+00          NaN
  2.00000E-01  1.80151E+04 -1.04144E-02 -3.58625E-03  5.21944E-03  1.95353E-02  5.76764E+00 -5.49388E-01  1.22118E+03 -6.02628E+00 -1.00000E+00  1.29587E+00  4.15880E+00  1.70551E-01  6.38418E-01  5.76764E+00 -5.49388E-01  1.01915E+03 -2.74538E+00  1.00000E+00  1.15464E+15  0.00000E+00          NaN
  2.00000E-01  1.91410E+04 -1.20743E-02 -8.39856E-03  5.21944E-03  1.95353E-02  5.76764E+00 -5.49388E-01  1.22118E+03 -6.02628E+00 -1.00000E+00  1.36067E+00  4.34722E+00  1.70550E-01  6.38418E-01  5.76764E+00 -5.49388E-01  1.01915E+03 -2.74538E+00  1.00000E+00  1.15464E+15  0.00000E+00          NaN
  2.00000E-01  2.02670E+04 -1.37342E-02 -1.32109E-02  5.21944E-03  1.95353E-02  5.76764E+00 -5.49388E-01  1.22118E+03 -6.02628E+00 -1.00000E+00  1.42548E+00  4.53564E+00  1.70550E-01  6.38418E-01  5.76764E+00 -5.49388E-01  1.01915E+03 -2.74538E+00  1.00000E+00  1.15464E+15  0.00000E+00          NaN
  2.00000E-01  2.13929E+04 -1.53939E-02 -1.80231E-02  5.21943E-03  1.95353E-02  5.76764E+00 -5.49388E-01  1.22118E+03 -6.02628E+00 -1.00000E+00  1.49028E+00  4.72406E+00  1.70550E-01  6.38418E-01  5.76764E+00 -5.49388E-01  1.01915E+03 -2.74538E+00  1.00000E+00  1.15464E+15  0.00000E+00          NaN
  2.00000E-01  2.25189E+04 -1.70536E-02 -2.28354E-02  5.21943E-03  1.95353E-02  5.76764E+00 -5.49388E-01  1.22118E+03 -6.02628E+00 -1.00000E+00  1.55508E+00  4.91248E+00  1.70550E-01  6.38418E-01  5.76764E+00 -5.49388E-01  1.01915E+03 -2.74538E+00  1.00000E+00  1.15464E+15  0.00000E+00          NaN
  2.00000E-01  2.36448E+04 -1.87131E-02 -2.76477E-02  5.21942E-03  1.95353E-02  5.76764E+00 -5.49388E-01  1.22118E+03 -6.02628E+00 -1.00000E+00  1.61989E+00  5.10090E+00  1.70550E-01  6.38418E-01  5.76764E+00 -5.49388E-01  1.01915E+03 -2.74538E+00  1.00000E+00  1.15464E+15  0.00000E+00          NaN
  2.00000E-01  2.47708E+04 -2.03726E-02 -3.24599E-02  5.21942E-03  1.95353E-02  5.76764E+00 -5.49388E-01  1.22118E+03 -6.02628E+00 -1.00000E+00  1.68469E+00  5.28932E+00  1.70550E-01  6.38418E-01  5.76764E+00 -5.49388E-01  1.01915E+03 -2.74538E+00  1.00000E+00  1.15464E+15  0.00000E+00          NaN
  2.00000E-01  2.58967E+04 -2.20319E-02 -3.72722E-02  5.21942E-03  1.95353E-02  5.76764E+00 -5.49388E-01  1.22118E+03 -6.02628E+00 -1.00000E+00  1.74950E+00  5.47774E+00  1.70550E-01  6.38418E-01  5.76764E+00 -5.49388E-01  1.01915E+03 -2.74538E+00  1.00000E+00  1.15464E+15  0.00000E+00          NaN
  2.00000E-01  2.70226E+04 -2.36911E-02 -4.20844E-02  5.21941E-03  1.95353E-02  5.76764E+00 -5.49388E-01  1.22118E+03 -6.02628E+00 -1.00000E+00  1.81430E+00  5.66616E+00  1.70550E-01  6.38418E-01  5.76764E+00 -5.49388E-01  1.01915E+03 -2.74538E+00  1.00000E+00  1.15464E+15  0.00000E+00          NaN
  2.00000E-01  2.81486E+04 -2.53503E-02 -4.68966E-02  5.21941E-03  1.95353E-02  5.76764E+00 -5.49388E-01  1.22118E+03 -6.02628E+00 -1.00000E+00  1.87910E+00  5.85458E+00  1.70550E-01  6.38418E-01  5.76764E+00 -5.49388E-01  1.01915E+03 -2.74538E+00  1.00000E+00  1.15464E+15  0.00000E+00          NaN
  2.00000E-01  2.92745E+04 -2.70093E-02 -5.17088E-02  5.21940E-03  1.95353E-02  5.76764E+00 -5.49388E-01  1.22118E+03 -6.02628E+00 -1.00000E+00  1.94391E+00  6.04300E+00  1.70550E-01  6.38418E-01  5.76764E+00 -5.49388E-01  1.01915E+03 -2.74538E+00  1.00000E+00  1.15464E+15  0.00000E+00          NaN
  2.00000E-01  3.04005E+04 -2.86682E-02 -5.65210E-02  5.21940E-03  1.95353E-02  5.76764E+00 -5.49388E-01  1.22118E+03 -6.02628E+00 -1.00000E+00  2.00871E+00  6.23142E+00  1.70550E-01  6.38418E-01  5.76764E+00 -5.49388E-01  1.01915E+03 -2.74538E+00  1.00000E+00  1.15464E+15  0.00000E+00          NaN
  2.00000E-01  3.15264E+04 -3.03270E-02 -6.13332E-02  5.21939E-03  1.95353E-02  5.76764E+00 -5.49388E-01  1.22118E+03 -6.02628E+00 -1.00000E+00  2.07351E+00  6.41984E+00  1.70550E-01  6.38418E-01  5.76764E+00 -5.49388E-01  1.01915E+03 -2.74538E+00  1.00000E+00  1.15464E+15  0.00000E+00          NaN
  2.00000E-01  3.26524E+04 -3.19857E-02 -6.61454E-02  5.21939E-03  1.95353E-02  5.76764E+00 -5.49388E-01  1.22118E+03 -6.02628E+00 -1.00000E+00  2.13831E+00  6.60826E+00  1.70550E-01  6.38418E-01  5.76764E+00 -5.49388E-01  1.01915E+03 -2.74538E+00  1.00000E+00  1.15464E+15  0.00000E+00          NaN
  2.00000E-01  3.37783E+04 -3.36443E-02 -7.09576E-02  5.21938E-03  1.95353E-02  5.76764E+00 -5.49388E-01  1.22118E+03 -6.02628E+00 -1.00000E+00  2.20312E+00  6.79668E+00  1.70550E-01  6.38418E-01  5.76764E+00 -5.49388E-01  1.01915E+03 -2.74538E+00  1.00000E+00  1.15464E+15  0.00000E+00          NaN
  2.00000E-01  3.49042E+04 -3.53028E-02 -7.57697E-02  5.21938E-03  1.95353E-02  5.76764E+00 -5.49388E-01  1.22118E+03 -6.02628E+00 -1.00000E+00  2.26792E+00  6.98510E+00  1.70550E-01  6.38418E-01  5.76764E+00 -5.49388E-01  1.01915E+03 -2.74538E+00  1.00000E+00  1.15464E+15  0.00000E+00          NaN
  2.00000E-01  3.60302E+04 -3.69612E-02 -8.05818E-02  5.21937E-03  1.95353E-02  5.76764E+00 -5.49388E-01  1.22118E+03 -6.02628E+00 -1.00000E+00  2.33272E+00  7.17352E+00  1.70550E-01  6.38418E-01  5.76764E+00 -5.49388E-01  1.01915E+03 -2.74538E+00  1.00000E+00  1.15464E+15  0.00000E+00          NaN
  2.00000E-01  3.71561E+04 -3.86195E-02 -8.53940E-02  5.21937E-03  1.95353E-02  5.76764E+00 -5.49388E-01  1.22118E+03 -6.02628E+00 -1.00000E+00  2.39753E+00  7.36194E+00  1.70550E-01  6.38418E-01  5.76764E+00 -5.49388E-01  1.01915E+03 -2.74538E+00  1.00000E+00  1.15464E+15  0.00000E+00          NaN
  2.00000E-01  3.82821E+04 -4.02777E-02 -9.02061E-02  5.21936E-03  1.95353E-02  5.76764E+00 -5.49388E-01  1.22118E+03 -6.02628E+00 -1.00000E+00  2.46233E+00  7.55036E+00  1.70550E-01  6.38418E-01  5.76764E+00 -5.49388E-01  1.01915E+03 -2.74538E+00  1.00000E+00  1.15464E+15  0.00000E+00          NaN
  2.00000E-01  3.94080E+04 -4.19358E-02 -9.50182E-02  5.21936E-03  1.95353E-02  5.76764E+00 -5.49388E-01  1.22118E+03 -6.02628E+00 -1.00000E+00  2.52713E+00  7.73878E+00  1.70550E-01  6.38418E-01  5.76764E+00 -5.49388E-01  1.01915E+03 -2.74538E+00  1.00000E+00  1.15464E+15  0.00000E+00          NaN
  2.00000E-01 -4.50377E+03  2.28012E-02  9.26614E-02  5.21948E-03  1.95353E-02  5.76764E+00 -5.49388E-01  1.22118E+03 -6.02628E+00 -1.00000E+00 -6.26602E-04  3.90349E-01  1.70554E-01  6.38419E-01  5.76764E+00 -5.49388E-01  1.01915E+03 -2.74538E+00  1.00000E+00  1.15464E+15  0.00000E+00          NaN
  2.00000E-01 -3.37783E+03  2.11389E-02  8.78489E-02  5.21948E-03  1.95353E-02  5.76764E+00 -5.49388E-01  1.22118E+03 -6.02628E+00 -1.00000E+00  6.41700E-02  5.78769E-01  1.70555E-01  6.38419E-01  5.76764E+00 -5.49388E-01  1.01915E+03 -2.74538E+00  1.00000E+00  1.15464E+15  0.00000E+00          NaN
  2.00000E-01 -3.94080E+03  2.19702E-02  9.02552E-02  5.21948E-03  1.95353E-02  5.76764E+00 -5.49388E-01  1.22118E+03 -6.02628E+00 -1.00000E+00  3.17703E-02  4.84559E-01  1.70555E-01  6.38419E-01  5.76764E+00 -5.49388E-01  1.01915E+03 -2.74538E+00  1.00000E+00  1.15464E+15  0.00000E+00          NaN
  2.00000E-01 -4.22229E+03  2.23857E-02  9.14583E-02  5.21948E-03  1.95353E-02  5.76764E+00 -5.49388E-01  1.22118E+03 -6.02628E+00 -1.00000E+00  1.55715E-02  4.37454E-01  1.70554E-01  6.38419E-01  5.76764E+00 -5.49388E-01  1.01915E+03 -2.74538E+00  1.00000E+00  1.15464E+15  0.00000E+00          NaN
  2.00000E-01 -4.08155E+03  2.21780E-02  9.08567E-02  5.21948E-03  1.95353E-02  5.76764E+00 -5.49388E-01  1.22118E+03 -6.02628E+00 -1.00000E+00  2.36708E-02  4.61006E-01  1.70554E-01  6.38419E-01  5.76764E+00 -5.49388E-01  1.01915E+03 -2.74538E+00  1.00000E+00  1.15464E+15  0.00000E+00          NaN
  2.00000E-01 -4.15192E+03  2.22818E-02  9.11575E-02  5.21948E-03  1.95353E-02  5.76764E+00 -5.49388E-01  1.22118E+03 -6.02628E+00 -1.00000E+00  1.96212E-02  4.49230E-01  1.70554E-01  6.38419E-01  5.76764E+00 -5.49388E-01  1.01915E+03 -2.74538E+00  1.00000E+00  1.15464E+15  0.00000E+00          NaN
