s E_r[V/m] (\Gamma_b/n_b[m/s]  Q_b/n_b/T_b[m/s] L_1^b[m^2/s] L_2^b[m^2/s]  Z_b n_b[10^{19}m^{-3}] dlnn_b/dr[m^{-1}] T_b[eV] dlnT_b/dr[m^{-1}], b=1,NBB), size(e\varphi_1/T_i) 
  6.00000E-01 -2.07892E+04  2.41744E-02  7.45303E-02  1.08856E-03  4.04874E-03  5.20457E+00 -1.19278E+00  4.10775E+02 -7.50867E+00 -1.00000E+00 -5.95079E-01 -1.36535E+00  5.12375E-02  1.91849E-01  5.20457E+00 -1.19278E+00  4.39408E+02 -8.67597E+00  1.00000E+00  3.12488+186  0.00000E+00          NaN
  6.00000E-01 -2.00193E+04  2.34409E-02  7.24909E-02  1.08859E-03  4.04874E-03  5.20457E+00 -1.19278E+00  4.10775E+02 -7.50867E+00 -1.00000E+00 -5.64388E-01 -1.27560E+00  5.12380E-02  1.91849E-01  5.20457E+00 -1.19278E+00  4.39408E+02 -8.67597E+00  1.00000E+00  3.12488+186  0.00000E+00          NaN
  6.00000E-01 -1.92493E+04  2.27071E-02  7.04513E-02  1.08861E-03  4.04875E-03  5.20457E+00 -1.19278E+00  4.10775E+02 -7.50867E+00 -1.00000E+00 -5.33698E-01 -1.18585E+00  5.12386E-02  1.91850E-01  5.20457E+00 -1.19278E+00  4.39408E+02 -8.67597E+00  1.00000E+00  3.12488+186  0.00000E+00          NaN
  6.00000E-01 -1.84793E+04  2.19729E-02  6.84118E-02  1.08864E-03  4.04875E-03  5.20457E+00 -1.19278E+00  4.10775E+02 -7.50867E+00 -1.00000E+00 -5.03009E-01 -1.09610E+00  5.12393E-02  1.91850E-01  5.20457E+00 -1.19278E+00  4.39408E+02 -8.67597E+00  1.00000E+00  3.12488+186  0.00000E+00          NaN
  6.00000E-01 -1.77093E+04  2.12385E-02  6.63721E-02  1.08866E-03  4.04876E-03  5.20457E+00 -1.19278E+00  4.10775E+02 -7.50867E+00 -1.00000E+00 -4.72322E-01 -1.00635E+00  5.12400E-02  1.91850E-01  5.20457E+00 -1.19278E+00  4.39408E+02 -8.67597E+00  1.00000E+00  3.12488+186  0.00000E+00          NaN
  6.00000E-01 -1.69394E+04  2.05036E-02  6.43324E-02  1.08869E-03  4.04876E-03  5.20457E+00 -1.19278E+00  4.10775E+02 -7.50867E+00 -1.00000E+00 -4.41635E-01 -9.16596E-01  5.12408E-02  1.91850E-01  5.20457E+00 -1.19278E+00  4.39408E+02 -8.67597E+00  1.00000E+00  3.12488+186  0.00000E+00          NaN
  6.00000E-01 -1.61694E+04  1.97684E-02  6.22926E-02  1.08872E-03  4.04877E-03  5.20457E+00 -1.19278E+00  4.10775E+02 -7.50867E+00 -1.00000E+00 -4.10950E-01 -8.26845E-01  5.12416E-02  1.91850E-01  5.20457E+00 -1.19278E+00  4.39408E+02 -8.67597E+00  1.00000E+00  3.12488+186  0.00000E+00          NaN
  6.00000E-01 -1.53994E+04  1.90327E-02  6.02527E-02  1.08875E-03  4.04877E-03  5.20457E+00 -1.19278E+00  4.10775E+02 -7.50867E+00 -1.00000E+00 -3.80266E-01 -7.37096E-01  5.12425E-02  1.91851E-01  5.20457E+00 -1.19278E+00  4.39408E+02 -8.67597E+00  1.00000E+00  3.12488+186  0.00000E+00          NaN
  6.00000E-01 -1.46295E+04  1.82965E-02  5.82128E-02  1.08878E-03  4.04878E-03  5.20457E+00 -1.19278E+00  4.10775E+02 -7.50867E+00 -1.00000E+00 -3.49582E-01 -6.47346E-01  5.12435E-02  1.91851E-01  5.20457E+00 -1.19278E+00  4.39408E+02 -8.67597E+00  1.00000E+00  3.12488+186  0.00000E+00          NaN
  6.00000E-01 -1.38595E+04  1.75598E-02  5.61727E-02  1.08881E-03  4.04878E-03  5.20457E+00 -1.19278E+00  4.10775E+02 -7.50867E+00 -1.00000E+00 -3.18899E-01 -5.57597E-01  5.12446E-02  1.91851E-01  5.20457E+00 -1.19278E+00  4.39408E+02 -8.67597E+00  1.00000E+00  3.12488+186  0.00000E+00          NaN
  6.00000E-01 -1.30895E+04  1.68225E-02  5.41326E-02  1.08885E-03  4.04879E-03  5.20457E+00 -1.19278E+00  4.10775E+02 -7.50867E+00 -1.00000E+00 -2.88217E-01 -4.67848E-01  5.12458E-02  1.91852E-01  5.20457E+00 -1.19278E+00  4.39408E+02 -8.67597E+00  1.00000E+00  3.12488+186  0.00000E+00          NaN
  6.00000E-01 -1.23195E+04  1.60846E-02  5.20924E-02  1.08888E-03  4.04879E-03  5.20457E+00 -1.19278E+00  4.10775E+02 -7.50867E+00 -1.00000E+00 -2.57533E-01 -3.78099E-01  5.12471E-02  1.91852E-01  5.20457E+00 -1.19278E+00  4.39408E+02 -8.67597E+00  1.00000E+00  3.12488+186  0.00000E+00          NaN
  6.00000E-01 -1.15496E+04  1.53458E-02  5.00520E-02  1.08892E-03  4.04880E-03  5.20457E+00 -1.19278E+00  4.10775E+02 -7.50867E+00 -1.00000E+00 -2.26849E-01 -2.88350E-01  5.12485E-02  1.91852E-01  5.20457E+00 -1.19278E+00  4.39408E+02 -8.67597E+00  1.00000E+00  3.12488+186  0.00000E+00          NaN
  6.00000E-01 -1.07796E+04  1.46063E-02  4.80116E-02  1.08896E-03  4.04881E-03  5.20457E+00 -1.19278E+00  4.10775E+02 -7.50867E+00 -1.00000E+00 -1.96163E-01 -1.98601E-01  5.12501E-02  1.91853E-01  5.20457E+00 -1.19278E+00  4.39408E+02 -8.67597E+00  1.00000E+00  3.12488+186  0.00000E+00          NaN
  6.00000E-01 -1.00096E+04  1.38658E-02  4.59710E-02  1.08900E-03  4.04881E-03  5.20457E+00 -1.19278E+00  4.10775E+02 -7.50867E+00 -1.00000E+00 -1.65473E-01 -1.08850E-01  5.12518E-02  1.91853E-01  5.20457E+00 -1.19278E+00  4.39408E+02 -8.67597E+00  1.00000E+00  3.12488+186  0.00000E+00          NaN
  6.00000E-01 -9.23965E+03  1.31244E-02  4.39303E-02  1.08904E-03  4.04882E-03  5.20457E+00 -1.19278E+00  4.10775E+02 -7.50867E+00 -1.00000E+00 -1.34778E-01 -1.90980E-02  5.12537E-02  1.91854E-01  5.20457E+00 -1.19278E+00  4.39408E+02 -8.67597E+00  1.00000E+00  3.12488+186  0.00000E+00          NaN
  6.00000E-01 -8.46968E+03  1.23818E-02  4.18895E-02  1.08908E-03  4.04882E-03  5.20457E+00 -1.19278E+00  4.10775E+02 -7.50867E+00 -1.00000E+00 -1.04076E-01  7.06563E-02  5.12557E-02  1.91854E-01  5.20457E+00 -1.19278E+00  4.39408E+02 -8.67597E+00  1.00000E+00  3.12488+186  0.00000E+00          NaN
  6.00000E-01 -7.69971E+03  1.16380E-02  3.98485E-02  1.08912E-03  4.04883E-03  5.20457E+00 -1.19278E+00  4.10775E+02 -7.50867E+00 -1.00000E+00 -7.33634E-02  1.60414E-01  5.12578E-02  1.91855E-01  5.20457E+00 -1.19278E+00  4.39408E+02 -8.67597E+00  1.00000E+00  3.12488+186  0.00000E+00          NaN
  6.00000E-01 -6.92974E+03  1.08930E-02  3.78073E-02  1.08916E-03  4.04883E-03  5.20457E+00 -1.19278E+00  4.10775E+02 -7.50867E+00 -1.00000E+00 -4.26384E-02  2.50175E-01  5.12601E-02  1.91856E-01  5.20457E+00 -1.19278E+00  4.39408E+02 -8.67597E+00  1.00000E+00  3.12488+186  0.00000E+00          NaN
  6.00000E-01 -6.15977E+03  1.01467E-02  3.57660E-02  1.08920E-03  4.04884E-03  5.20457E+00 -1.19278E+00  4.10775E+02 -7.50867E+00 -1.00000E+00 -1.18973E-02  3.39942E-01  5.12625E-02  1.91856E-01  5.20457E+00 -1.19278E+00  4.39408E+02 -8.67597E+00  1.00000E+00  3.12488+186  0.00000E+00          NaN
  6.00000E-01 -5.38980E+03  9.39900E-03  3.37245E-02  1.08924E-03  4.04885E-03  5.20457E+00 -1.19278E+00  4.10775E+02 -7.50867E+00 -1.00000E+00  1.88628E-02  4.29714E-01  5.12650E-02  1.91857E-01  5.20457E+00 -1.19278E+00  4.39408E+02 -8.67597E+00  1.00000E+00  3.12488+186  0.00000E+00          NaN
  6.00000E-01 -4.61983E+03  8.64997E-03  3.16829E-02  1.08928E-03  4.04885E-03  5.20457E+00 -1.19278E+00  4.10775E+02 -7.50867E+00 -1.00000E+00  4.96439E-02  5.19495E-01  5.12675E-02  1.91858E-01  5.20457E+00 -1.19278E+00  4.39408E+02 -8.67597E+00  1.00000E+00  3.12488+186  0.00000E+00          NaN
  6.00000E-01 -3.84986E+03  7.89961E-03  2.96411E-02  1.08931E-03  4.04886E-03  5.20457E+00 -1.19278E+00  4.10775E+02 -7.50867E+00 -1.00000E+00  8.04455E-02  6.09283E-01  5.12701E-02  1.91858E-01  5.20457E+00 -1.19278E+00  4.39408E+02 -8.67597E+00  1.00000E+00  3.12488+186  0.00000E+00          NaN
  6.00000E-01 -3.07988E+03  7.14803E-03  2.75992E-02  1.08935E-03  4.04886E-03  5.20457E+00 -1.19278E+00  4.10775E+02 -7.50867E+00 -1.00000E+00  1.11262E-01  6.99080E-01  5.12727E-02  1.91859E-01  5.20457E+00 -1.19278E+00  4.39408E+02 -8.67597E+00  1.00000E+00  3.12488+186  0.00000E+00          NaN
  6.00000E-01 -2.30991E+03  6.39535E-03  2.55572E-02  1.08937E-03  4.04886E-03  5.20457E+00 -1.19278E+00  4.10775E+02 -7.50867E+00 -1.00000E+00  1.42078E-01  7.88884E-01  5.12754E-02  1.91860E-01  5.20457E+00 -1.19278E+00  4.39408E+02 -8.67597E+00  1.00000E+00  3.12488+186  0.00000E+00          NaN
  6.00000E-01 -1.53994E+03  5.64171E-03  2.35151E-02  1.08939E-03  4.04887E-03  5.20457E+00 -1.19278E+00  4.10775E+02 -7.50867E+00 -1.00000E+00  1.72867E-01  8.78691E-01  5.12785E-02  1.91860E-01  5.20457E+00 -1.19278E+00  4.39408E+02 -8.67597E+00  1.00000E+00  3.12488+186  0.00000E+00          NaN
  6.00000E-01 -7.69971E+02  4.88624E-03  2.14730E-02  1.08941E-03  4.04887E-03  5.20457E+00 -1.19278E+00  4.10775E+02 -7.50867E+00 -1.00000E+00  2.03632E-01  9.68503E-01  5.12821E-02  1.91861E-01  5.20457E+00 -1.19278E+00  4.39408E+02 -8.67597E+00  1.00000E+00  3.12488+186  0.00000E+00          NaN
  6.00000E-01 -2.06056E-13  4.10202E-03  1.94302E-02  1.08949E-03  4.04887E-03  5.20457E+00 -1.19278E+00  4.10775E+02 -7.50867E+00 -1.00000E+00  2.34398E-01  1.05834E+00  5.12848E-02  1.91861E-01  5.20457E+00 -1.19278E+00  4.39408E+02 -8.67597E+00  1.00000E+00  3.12488+186  0.00000E+00          NaN
  6.00000E-01  7.69971E+02  3.37962E-03  1.73890E-02  1.08941E-03  4.04887E-03  5.20457E+00 -1.19278E+00  4.10775E+02 -7.50867E+00 -1.00000E+00  2.65931E-01  1.14823E+00  5.12821E-02  1.91861E-01  5.20457E+00 -1.19278E+00  4.39408E+02 -8.67597E+00  1.00000E+00  3.12488+186  0.00000E+00          NaN
  6.00000E-01  1.53994E+03  2.63119E-03  1.53472E-02  1.08939E-03  4.04887E-03  5.20457E+00 -1.19278E+00  4.10775E+02 -7.50867E+00 -1.00000E+00  2.97276E-01  1.23811E+00  5.12785E-02  1.91860E-01  5.20457E+00 -1.19278E+00  4.39408E+02 -8.67597E+00  1.00000E+00  3.12488+186  0.00000E+00          NaN
  6.00000E-01  2.30991E+03  1.88252E-03  1.33055E-02  1.08937E-03  4.04886E-03  5.20457E+00 -1.19278E+00  4.10775E+02 -7.50867E+00 -1.00000E+00  3.28482E-01  1.32798E+00  5.12754E-02  1.91860E-01  5.20457E+00 -1.19278E+00  4.39408E+02 -8.67597E+00  1.00000E+00  3.12488+186  0.00000E+00          NaN
  6.00000E-01  3.07988E+03  1.13523E-03  1.12640E-02  1.08935E-03  4.04886E-03  5.20457E+00 -1.19278E+00  4.10775E+02 -7.50867E+00 -1.00000E+00  3.59596E-01  1.41784E+00  5.12727E-02  1.91859E-01  5.20457E+00 -1.19278E+00  4.39408E+02 -8.67597E+00  1.00000E+00  3.12488+186  0.00000E+00          NaN
  6.00000E-01  3.84986E+03  3.89516E-04  9.22263E-03  1.08931E-03  4.04886E-03  5.20457E+00 -1.19278E+00  4.10775E+02 -7.50867E+00 -1.00000E+00  3.90652E-01  1.50769E+00  5.12701E-02  1.91858E-01  5.20457E+00 -1.19278E+00  4.39408E+02 -8.67597E+00  1.00000E+00  3.12488+186  0.00000E+00          NaN
  6.00000E-01  4.61983E+03 -3.54607E-04  7.18149E-03  1.08928E-03  4.04885E-03  5.20457E+00 -1.19278E+00  4.10775E+02 -7.50867E+00 -1.00000E+00  4.21664E-01  1.59752E+00  5.12675E-02  1.91858E-01  5.20457E+00 -1.19278E+00  4.39408E+02 -8.67597E+00  1.00000E+00  3.12488+186  0.00000E+00          NaN
  6.00000E-01  5.38980E+03 -1.09719E-03  5.14054E-03  1.08924E-03  4.04885E-03  5.20457E+00 -1.19278E+00  4.10775E+02 -7.50867E+00 -1.00000E+00  4.52640E-01  1.68735E+00  5.12650E-02  1.91857E-01  5.20457E+00 -1.19278E+00  4.39408E+02 -8.67597E+00  1.00000E+00  3.12488+186  0.00000E+00          NaN
  6.00000E-01  6.15977E+03 -1.83832E-03  3.09979E-03  1.08920E-03  4.04884E-03  5.20457E+00 -1.19278E+00  4.10775E+02 -7.50867E+00 -1.00000E+00  4.83581E-01  1.77717E+00  5.12625E-02  1.91856E-01  5.20457E+00 -1.19278E+00  4.39408E+02 -8.67597E+00  1.00000E+00  3.12488+186  0.00000E+00          NaN
  6.00000E-01  6.92974E+03 -2.57808E-03  1.05921E-03  1.08916E-03  4.04883E-03  5.20457E+00 -1.19278E+00  4.10775E+02 -7.50867E+00 -1.00000E+00  5.14492E-01  1.86698E+00  5.12601E-02  1.91856E-01  5.20457E+00 -1.19278E+00  4.39408E+02 -8.67597E+00  1.00000E+00  3.12488+186  0.00000E+00          NaN
  6.00000E-01  7.69971E+03 -3.31658E-03 -9.81198E-04  1.08912E-03  4.04883E-03  5.20457E+00 -1.19278E+00  4.10775E+02 -7.50867E+00 -1.00000E+00  5.45376E-01  1.95679E+00  5.12578E-02  1.91855E-01  5.20457E+00 -1.19278E+00  4.39408E+02 -8.67597E+00  1.00000E+00  3.12488+186  0.00000E+00          NaN
  6.00000E-01  8.46968E+03 -4.05397E-03 -3.02145E-03  1.08908E-03  4.04882E-03  5.20457E+00 -1.19278E+00  4.10775E+02 -7.50867E+00 -1.00000E+00  5.76236E-01  2.04659E+00  5.12557E-02  1.91854E-01  5.20457E+00 -1.19278E+00  4.39408E+02 -8.67597E+00  1.00000E+00  3.12488+186  0.00000E+00          NaN
  6.00000E-01  9.23965E+03 -4.79034E-03 -5.06157E-03  1.08904E-03  4.04882E-03  5.20457E+00 -1.19278E+00  4.10775E+02 -7.50867E+00 -1.00000E+00  6.07076E-01  2.13638E+00  5.12537E-02  1.91854E-01  5.20457E+00 -1.19278E+00  4.39408E+02 -8.67597E+00  1.00000E+00  3.12488+186  0.00000E+00          NaN
  6.00000E-01  1.00096E+04 -5.52584E-03 -7.10156E-03  1.08900E-03  4.04881E-03  5.20457E+00 -1.19278E+00  4.10775E+02 -7.50867E+00 -1.00000E+00  6.37897E-01  2.22616E+00  5.12518E-02  1.91853E-01  5.20457E+00 -1.19278E+00  4.39408E+02 -8.67597E+00  1.00000E+00  3.12488+186  0.00000E+00          NaN
  6.00000E-01  1.07796E+04 -6.26058E-03 -9.14143E-03  1.08896E-03  4.04881E-03  5.20457E+00 -1.19278E+00  4.10775E+02 -7.50867E+00 -1.00000E+00  6.68703E-01  2.31595E+00  5.12501E-02  1.91853E-01  5.20457E+00 -1.19278E+00  4.39408E+02 -8.67597E+00  1.00000E+00  3.12488+186  0.00000E+00          NaN
  6.00000E-01  1.15496E+04 -6.99466E-03 -1.11812E-02  1.08892E-03  4.04880E-03  5.20457E+00 -1.19278E+00  4.10775E+02 -7.50867E+00 -1.00000E+00  6.99496E-01  2.40572E+00  5.12485E-02  1.91852E-01  5.20457E+00 -1.19278E+00  4.39408E+02 -8.67597E+00  1.00000E+00  3.12488+186  0.00000E+00          NaN
  6.00000E-01  1.23195E+04 -7.72819E-03 -1.32209E-02  1.08888E-03  4.04879E-03  5.20457E+00 -1.19278E+00  4.10775E+02 -7.50867E+00 -1.00000E+00  7.30277E-01  2.49550E+00  5.12471E-02  1.91852E-01  5.20457E+00 -1.19278E+00  4.39408E+02 -8.67597E+00  1.00000E+00  3.12488+186  0.00000E+00          NaN
  6.00000E-01  1.30895E+04 -8.46123E-03 -1.52605E-02  1.08885E-03  4.04879E-03  5.20457E+00 -1.19278E+00  4.10775E+02 -7.50867E+00 -1.00000E+00  7.61050E-01  2.58527E+00  5.12458E-02  1.91852E-01  5.20457E+00 -1.19278E+00  4.39408E+02 -8.67597E+00  1.00000E+00  3.12488+186  0.00000E+00          NaN
  6.00000E-01  1.38595E+04 -9.19387E-03 -1.73000E-02  1.08881E-03  4.04878E-03  5.20457E+00 -1.19278E+00  4.10775E+02 -7.50867E+00 -1.00000E+00  7.91815E-01  2.67505E+00  5.12446E-02  1.91851E-01  5.20457E+00 -1.19278E+00  4.39408E+02 -8.67597E+00  1.00000E+00  3.12488+186  0.00000E+00          NaN
  6.00000E-01  1.46295E+04 -9.92617E-03 -1.93395E-02  1.08878E-03  4.04878E-03  5.20457E+00 -1.19278E+00  4.10775E+02 -7.50867E+00 -1.00000E+00  8.22573E-01  2.76481E+00  5.12435E-02  1.91851E-01  5.20457E+00 -1.19278E+00  4.39408E+02 -8.67597E+00  1.00000E+00  3.12488+186  0.00000E+00          NaN
  6.00000E-01  1.53994E+04 -1.06582E-02 -2.13789E-02  1.08875E-03  4.04877E-03  5.20457E+00 -1.19278E+00  4.10775E+02 -7.50867E+00 -1.00000E+00  8.53325E-01  2.85458E+00  5.12425E-02  1.91851E-01  5.20457E+00 -1.19278E+00  4.39408E+02 -8.67597E+00  1.00000E+00  3.12488+186  0.00000E+00          NaN
  6.00000E-01  1.61694E+04 -1.13899E-02 -2.34182E-02  1.08872E-03  4.04877E-03  5.20457E+00 -1.19278E+00  4.10775E+02 -7.50867E+00 -1.00000E+00  8.84073E-01  2.94435E+00  5.12416E-02  1.91850E-01  5.20457E+00 -1.19278E+00  4.39408E+02 -8.67597E+00  1.00000E+00  3.12488+186  0.00000E+00          NaN
  6.00000E-01  1.69394E+04 -1.21214E-02 -2.54575E-02  1.08869E-03  4.04876E-03  5.20457E+00 -1.19278E+00  4.10775E+02 -7.50867E+00 -1.00000E+00  9.14817E-01  3.03412E+00  5.12408E-02  1.91850E-01  5.20457E+00 -1.19278E+00  4.39408E+02 -8.67597E+00  1.00000E+00  3.12488+186  0.00000E+00          NaN
  6.00000E-01 -6.15977E+03  1.01467E-02  3.57660E-02  1.08920E-03  4.04884E-03  5.20457E+00 -1.19278E+00  4.10775E+02 -7.50867E+00 -1.00000E+00 -1.18973E-02  3.39942E-01  5.12625E-02  1.91856E-01  5.20457E+00 -1.19278E+00  4.39408E+02 -8.67597E+00  1.00000E+00  3.12488+186  0.00000E+00          NaN
  6.00000E-01 -5.38980E+03  9.39900E-03  3.37245E-02  1.08924E-03  4.04885E-03  5.20457E+00 -1.19278E+00  4.10775E+02 -7.50867E+00 -1.00000E+00  1.88628E-02  4.29714E-01  5.12650E-02  1.91857E-01  5.20457E+00 -1.19278E+00  4.39408E+02 -8.67597E+00  1.00000E+00  3.12488+186  0.00000E+00          NaN
  6.00000E-01 -5.77478E+03  9.77301E-03  3.47453E-02  1.08922E-03  4.04884E-03  5.20457E+00 -1.19278E+00  4.10775E+02 -7.50867E+00 -1.00000E+00  3.48025E-03  3.84827E-01  5.12637E-02  1.91857E-01  5.20457E+00 -1.19278E+00  4.39408E+02 -8.67597E+00  1.00000E+00  3.12488+186  0.00000E+00          NaN
  6.00000E-01 -5.58229E+03  9.58605E-03  3.42349E-02  1.08923E-03  4.04884E-03  5.20457E+00 -1.19278E+00  4.10775E+02 -7.50867E+00 -1.00000E+00  1.11709E-02  4.07271E-01  5.12643E-02  1.91857E-01  5.20457E+00 -1.19278E+00  4.39408E+02 -8.67597E+00  1.00000E+00  3.12488+186  0.00000E+00          NaN
  6.00000E-01 -5.67854E+03  9.67954E-03  3.44901E-02  1.08923E-03  4.04884E-03  5.20457E+00 -1.19278E+00  4.10775E+02 -7.50867E+00 -1.00000E+00  7.32541E-03  3.96049E-01  5.12640E-02  1.91857E-01  5.20457E+00 -1.19278E+00  4.39408E+02 -8.67597E+00  1.00000E+00  3.12488+186  0.00000E+00          NaN
