s \zeta_{Boozer}  \theta_{Boozer}(right-handed)  B[T]  (v_B.\nabla\psi)[A.U.]
  8.00000E-01  0.00000E+00  0.00000E+00  2.29936E+00  0.00000E+00 T
  8.00000E-01  0.00000E+00  1.96350E-01  2.30514E+00 -2.79484E-02 T
  8.00000E-01  0.00000E+00  3.92699E-01  2.32584E+00 -6.20308E-02 T
  8.00000E-01  0.00000E+00  5.89049E-01  2.36089E+00 -9.00976E-02 T
  8.00000E-01  0.00000E+00  7.85398E-01  2.40843E+00 -1.09468E-01 T
  8.00000E-01  0.00000E+00  9.81748E-01  2.46069E+00 -1.06366E-01 T
  8.00000E-01  0.00000E+00  1.17810E+00  2.50937E+00 -9.14759E-02 T
  8.00000E-01  0.00000E+00  1.37445E+00  2.54972E+00 -7.19774E-02 T
  8.00000E-01  0.00000E+00  1.57080E+00  2.58384E+00 -6.58327E-02 T
  8.00000E-01  0.00000E+00  1.76715E+00  2.61770E+00 -6.71885E-02 T
  8.00000E-01  0.00000E+00  1.96350E+00  2.65345E+00 -7.15675E-02 T
  8.00000E-01  0.00000E+00  2.15985E+00  2.69242E+00 -7.63201E-02 T
  8.00000E-01  0.00000E+00  2.35619E+00  2.73270E+00 -7.30747E-02 T
  8.00000E-01  0.00000E+00  2.55254E+00  2.76914E+00 -6.10832E-02 T
  8.00000E-01  0.00000E+00  2.74889E+00  2.79869E+00 -4.65929E-02 T
  8.00000E-01  0.00000E+00  2.94524E+00  2.81922E+00 -2.65309E-02 T
  8.00000E-01  0.00000E+00  3.14159E+00  2.82675E+00  1.24126E-08 T
  8.00000E-01  0.00000E+00  3.33794E+00  2.81922E+00  2.65309E-02 T
  8.00000E-01  0.00000E+00  3.53429E+00  2.79869E+00  4.65929E-02 T
  8.00000E-01  0.00000E+00  3.73064E+00  2.76914E+00  6.10833E-02 T
  8.00000E-01  0.00000E+00  3.92699E+00  2.73270E+00  7.30747E-02 T
  8.00000E-01  0.00000E+00  4.12334E+00  2.69242E+00  7.63201E-02 T
  8.00000E-01  0.00000E+00  4.31969E+00  2.65345E+00  7.15675E-02 T
  8.00000E-01  0.00000E+00  4.51604E+00  2.61770E+00  6.71885E-02 T
  8.00000E-01  0.00000E+00  4.71239E+00  2.58384E+00  6.58327E-02 T
  8.00000E-01  0.00000E+00  4.90874E+00  2.54972E+00  7.19774E-02 T
  8.00000E-01  0.00000E+00  5.10509E+00  2.50937E+00  9.14759E-02 T
  8.00000E-01  0.00000E+00  5.30144E+00  2.46069E+00  1.06366E-01 T
  8.00000E-01  0.00000E+00  5.49779E+00  2.40843E+00  1.09468E-01 T
  8.00000E-01  0.00000E+00  5.69414E+00  2.36089E+00  9.00975E-02 T
  8.00000E-01  0.00000E+00  5.89049E+00  2.32584E+00  6.20308E-02 T
  8.00000E-01  0.00000E+00  6.08684E+00  2.30514E+00  2.79484E-02 T
  8.00000E-01  3.92699E-02  0.00000E+00  2.32128E+00 -1.87566E-02 T
  8.00000E-01  3.92699E-02  1.96350E-01  2.33709E+00 -5.16485E-02 T
  8.00000E-01  3.92699E-02  3.92699E-01  2.36779E+00 -7.86815E-02 T
  8.00000E-01  3.92699E-02  5.89049E-01  2.40913E+00 -9.71884E-02 T
  8.00000E-01  3.92699E-02  7.85398E-01  2.45823E+00 -1.05387E-01 T
  8.00000E-01  3.92699E-02  9.81748E-01  2.50884E+00 -1.01232E-01 T
  8.00000E-01  3.92699E-02  1.17810E+00  2.55658E+00 -8.88637E-02 T
  8.00000E-01  3.92699E-02  1.37445E+00  2.59724E+00 -7.30950E-02 T
  8.00000E-01  3.92699E-02  1.57080E+00  2.63292E+00 -6.69743E-02 T
  8.00000E-01  3.92699E-02  1.76715E+00  2.66667E+00 -6.28073E-02 T
  8.00000E-01  3.92699E-02  1.96350E+00  2.69911E+00 -6.10558E-02 T
  8.00000E-01  3.92699E-02  2.15985E+00  2.73206E+00 -6.27696E-02 T
  8.00000E-01  3.92699E-02  2.35619E+00  2.76563E+00 -5.98603E-02 T
  8.00000E-01  3.92699E-02  2.55254E+00  2.79502E+00 -4.65878E-02 T
  8.00000E-01  3.92699E-02  2.74889E+00  2.81599E+00 -2.88022E-02 T
  8.00000E-01  3.92699E-02  2.94524E+00  2.82522E+00 -2.79244E-03 T
  8.00000E-01  3.92699E-02  3.14159E+00  2.81814E+00  2.78213E-02 T
  8.00000E-01  3.92699E-02  3.33794E+00  2.79620E+00  4.99595E-02 T
  8.00000E-01  3.92699E-02  3.53429E+00  2.76512E+00  6.24267E-02 T
  8.00000E-01  3.92699E-02  3.73064E+00  2.72997E+00  6.67368E-02 T
  8.00000E-01  3.92699E-02  3.92699E+00  2.69436E+00  6.66868E-02 T
  8.00000E-01  3.92699E-02  4.12334E+00  2.65938E+00  6.66100E-02 T
  8.00000E-01  3.92699E-02  4.31969E+00  2.62483E+00  6.62904E-02 T
  8.00000E-01  3.92699E-02  4.51604E+00  2.59114E+00  6.56364E-02 T
  8.00000E-01  3.92699E-02  4.71239E+00  2.55758E+00  6.75569E-02 T
  8.00000E-01  3.92699E-02  4.90874E+00  2.52259E+00  7.39894E-02 T
  8.00000E-01  3.92699E-02  5.10509E+00  2.48349E+00  8.49543E-02 T
  8.00000E-01  3.92699E-02  5.30144E+00  2.44049E+00  9.22077E-02 T
  8.00000E-01  3.92699E-02  5.49779E+00  2.39666E+00  8.93706E-02 T
  8.00000E-01  3.92699E-02  5.69414E+00  2.35913E+00  6.99873E-02 T
  8.00000E-01  3.92699E-02  5.89049E+00  2.33212E+00  4.58280E-02 T
  8.00000E-01  3.92699E-02  6.08684E+00  2.31910E+00  1.04401E-02 T
  8.00000E-01  7.85398E-02  0.00000E+00  2.31688E+00 -2.77906E-02 T
  8.00000E-01  7.85398E-02  1.96350E-01  2.33936E+00 -7.18002E-02 T
  8.00000E-01  7.85398E-02  3.92699E-01  2.38129E+00 -1.05573E-01 T
  8.00000E-01  7.85398E-02  5.89049E-01  2.43547E+00 -1.20735E-01 T
  8.00000E-01  7.85398E-02  7.85398E-01  2.49384E+00 -1.17849E-01 T
  8.00000E-01  7.85398E-02  9.81748E-01  2.54942E+00 -1.05785E-01 T
  8.00000E-01  7.85398E-02  1.17810E+00  2.59842E+00 -8.74117E-02 T
  8.00000E-01  7.85398E-02  1.37445E+00  2.63934E+00 -7.35628E-02 T
  8.00000E-01  7.85398E-02  1.57080E+00  2.67573E+00 -6.60944E-02 T
  8.00000E-01  7.85398E-02  1.76715E+00  2.70880E+00 -5.91767E-02 T
  8.00000E-01  7.85398E-02  1.96350E+00  2.73858E+00 -5.19835E-02 T
  8.00000E-01  7.85398E-02  2.15985E+00  2.76478E+00 -4.53815E-02 T
  8.00000E-01  7.85398E-02  2.35619E+00  2.78783E+00 -3.85630E-02 T
  8.00000E-01  7.85398E-02  2.55254E+00  2.80598E+00 -2.67406E-02 T
  8.00000E-01  7.85398E-02  2.74889E+00  2.81639E+00 -9.81889E-03 T
  8.00000E-01  7.85398E-02  2.94524E+00  2.81491E+00  1.69707E-02 T
  8.00000E-01  7.85398E-02  3.14159E+00  2.79691E+00  4.75427E-02 T
  8.00000E-01  7.85398E-02  3.33794E+00  2.76485E+00  6.77021E-02 T
  8.00000E-01  7.85398E-02  3.53429E+00  2.72568E+00  7.57355E-02 T
  8.00000E-01  7.85398E-02  3.73064E+00  2.68588E+00  7.22336E-02 T
  8.00000E-01  7.85398E-02  3.92699E+00  2.65070E+00  6.19984E-02 T
  8.00000E-01  7.85398E-02  4.12334E+00  2.62004E+00  5.84277E-02 T
  8.00000E-01  7.85398E-02  4.31969E+00  2.58912E+00  6.31835E-02 T
  8.00000E-01  7.85398E-02  4.51604E+00  2.55525E+00  7.16467E-02 T
  8.00000E-01  7.85398E-02  4.71239E+00  2.51703E+00  8.14566E-02 T
  8.00000E-01  7.85398E-02  4.90874E+00  2.47548E+00  8.72511E-02 T
  8.00000E-01  7.85398E-02  5.10509E+00  2.43340E+00  8.59832E-02 T
  8.00000E-01  7.85398E-02  5.30144E+00  2.39426E+00  7.83214E-02 T
  8.00000E-01  7.85398E-02  5.49779E+00  2.36121E+00  6.13299E-02 T
  8.00000E-01  7.85398E-02  5.69414E+00  2.33726E+00  4.45669E-02 T
  8.00000E-01  7.85398E-02  5.89049E+00  2.31949E+00  3.10366E-02 T
  8.00000E-01  7.85398E-02  6.08684E+00  2.31154E+00  2.87932E-03 T
  8.00000E-01  1.17810E-01  0.00000E+00  2.28128E+00 -3.92109E-02 T
  8.00000E-01  1.17810E-01  1.96350E-01  2.31074E+00 -9.29160E-02 T
  8.00000E-01  1.17810E-01  3.92699E-01  2.36379E+00 -1.33729E-01 T
  8.00000E-01  1.17810E-01  5.89049E-01  2.43078E+00 -1.46210E-01 T
  8.00000E-01  1.17810E-01  7.85398E-01  2.49946E+00 -1.34697E-01 T
  8.00000E-01  1.17810E-01  9.81748E-01  2.56089E+00 -1.11246E-01 T
  8.00000E-01  1.17810E-01  1.17810E+00  2.61072E+00 -8.64037E-02 T
  8.00000E-01  1.17810E-01  1.37445E+00  2.65183E+00 -7.49203E-02 T
  8.00000E-01  1.17810E-01  1.57080E+00  2.68960E+00 -6.91986E-02 T
  8.00000E-01  1.17810E-01  1.76715E+00  2.72494E+00 -6.36814E-02 T
  8.00000E-01  1.17810E-01  1.96350E+00  2.75698E+00 -5.41920E-02 T
  8.00000E-01  1.17810E-01  2.15985E+00  2.78228E+00 -3.81405E-02 T
  8.00000E-01  1.17810E-01  2.35619E+00  2.79850E+00 -2.13895E-02 T
  8.00000E-01  1.17810E-01  2.55254E+00  2.80599E+00 -5.67978E-03 T
  8.00000E-01  1.17810E-01  2.74889E+00  2.80420E+00  1.28934E-02 T
  8.00000E-01  1.17810E-01  2.94524E+00  2.79098E+00  3.58554E-02 T
  8.00000E-01  1.17810E-01  3.14159E+00  2.76497E+00  5.87109E-02 T
  8.00000E-01  1.17810E-01  3.33794E+00  2.72883E+00  7.36700E-02 T
  8.00000E-01  1.17810E-01  3.53429E+00  2.68789E+00  7.86462E-02 T
  8.00000E-01  1.17810E-01  3.73064E+00  2.64741E+00  7.46909E-02 T
  8.00000E-01  1.17810E-01  3.92699E+00  2.61087E+00  6.71236E-02 T
  8.00000E-01  1.17810E-01  4.12334E+00  2.57739E+00  6.57968E-02 T
  8.00000E-01  1.17810E-01  4.31969E+00  2.54325E+00  7.07639E-02 T
  8.00000E-01  1.17810E-01  4.51604E+00  2.50592E+00  8.06666E-02 T
  8.00000E-01  1.17810E-01  4.71239E+00  2.46360E+00  9.26937E-02 T
  8.00000E-01  1.17810E-01  4.90874E+00  2.41683E+00  1.01296E-01 T
  8.00000E-01  1.17810E-01  5.10509E+00  2.36949E+00  9.78177E-02 T
  8.00000E-01  1.17810E-01  5.30144E+00  2.32775E+00  8.06544E-02 T
  8.00000E-01  1.17810E-01  5.49779E+00  2.29829E+00  4.75985E-02 T
  8.00000E-01  1.17810E-01  5.69414E+00  2.28264E+00  2.63379E-02 T
  8.00000E-01  1.17810E-01  5.89049E+00  2.27317E+00  1.41768E-02 T
  8.00000E-01  1.17810E-01  6.08684E+00  2.27165E+00 -7.77801E-03 T
  8.00000E-01  1.57080E-01  0.00000E+00  2.31101E+00 -5.91966E-02 T
  8.00000E-01  1.57080E-01  1.96350E-01  2.34719E+00 -9.79650E-02 T
  8.00000E-01  1.57080E-01  3.92699E-01  2.39891E+00 -1.20823E-01 T
  8.00000E-01  1.57080E-01  5.89049E-01  2.45832E+00 -1.25330E-01 T
  8.00000E-01  1.57080E-01  7.85398E-01  2.51745E+00 -1.15166E-01 T
  8.00000E-01  1.57080E-01  9.81748E-01  2.57102E+00 -9.86187E-02 T
  8.00000E-01  1.57080E-01  1.17810E+00  2.61700E+00 -8.31575E-02 T
  8.00000E-01  1.57080E-01  1.37445E+00  2.65799E+00 -7.63117E-02 T
  8.00000E-01  1.57080E-01  1.57080E+00  2.69702E+00 -7.20299E-02 T
  8.00000E-01  1.57080E-01  1.76715E+00  2.73388E+00 -6.55791E-02 T
  8.00000E-01  1.57080E-01  1.96350E+00  2.76607E+00 -5.19642E-02 T
  8.00000E-01  1.57080E-01  2.15985E+00  2.78846E+00 -2.91939E-02 T
  8.00000E-01  1.57080E-01  2.35619E+00  2.79792E+00 -5.72988E-03 T
  8.00000E-01  1.57080E-01  2.55254E+00  2.79482E+00  1.72874E-02 T
  8.00000E-01  1.57080E-01  2.74889E+00  2.77905E+00  3.97781E-02 T
  8.00000E-01  1.57080E-01  2.94524E+00  2.75244E+00  5.72278E-02 T
  8.00000E-01  1.57080E-01  3.14159E+00  2.71858E+00  6.74731E-02 T
  8.00000E-01  1.57080E-01  3.33794E+00  2.68193E+00  6.94660E-02 T
  8.00000E-01  1.57080E-01  3.53429E+00  2.64662E+00  6.46482E-02 T
  8.00000E-01  1.57080E-01  3.73064E+00  2.61499E+00  5.81972E-02 T
  8.00000E-01  1.57080E-01  3.92699E+00  2.58597E+00  5.66422E-02 T
  8.00000E-01  1.57080E-01  4.12334E+00  2.55631E+00  6.16786E-02 T
  8.00000E-01  1.57080E-01  4.31969E+00  2.52369E+00  6.94169E-02 T
  8.00000E-01  1.57080E-01  4.51604E+00  2.48730E+00  7.85746E-02 T
  8.00000E-01  1.57080E-01  4.71239E+00  2.44713E+00  8.70640E-02 T
  8.00000E-01  1.57080E-01  4.90874E+00  2.40430E+00  9.13733E-02 T
  8.00000E-01  1.57080E-01  5.10509E+00  2.36247E+00  8.60469E-02 T
  8.00000E-01  1.57080E-01  5.30144E+00  2.32586E+00  7.02682E-02 T
  8.00000E-01  1.57080E-01  5.49779E+00  2.30076E+00  3.95412E-02 T
  8.00000E-01  1.57080E-01  5.69414E+00  2.28811E+00  1.89704E-02 T
  8.00000E-01  1.57080E-01  5.89049E+00  2.28415E+00 -3.50592E-03 T
  8.00000E-01  1.57080E-01  6.08684E+00  2.29169E+00 -2.90819E-02 T
  8.00000E-01  1.96350E-01  0.00000E+00  2.34835E+00 -8.14048E-02 T
  8.00000E-01  1.96350E-01  1.96350E-01  2.39109E+00 -9.91535E-02 T
  8.00000E-01  1.96350E-01  3.92699E-01  2.43912E+00 -1.01990E-01 T
  8.00000E-01  1.96350E-01  5.89049E-01  2.48785E+00 -9.86293E-02 T
  8.00000E-01  1.96350E-01  7.85398E-01  2.53503E+00 -9.27750E-02 T
  8.00000E-01  1.96350E-01  9.81748E-01  2.58012E+00 -8.65828E-02 T
  8.00000E-01  1.96350E-01  1.17810E+00  2.62264E+00 -8.02093E-02 T
  8.00000E-01  1.96350E-01  1.37445E+00  2.66310E+00 -7.60037E-02 T
  8.00000E-01  1.96350E-01  1.57080E+00  2.70209E+00 -7.16105E-02 T
  8.00000E-01  1.96350E-01  1.76715E+00  2.73799E+00 -6.13789E-02 T
  8.00000E-01  1.96350E-01  1.96350E+00  2.76626E+00 -4.18082E-02 T
  8.00000E-01  1.96350E-01  2.15985E+00  2.78242E+00 -1.74045E-02 T
  8.00000E-01  1.96350E-01  2.35619E+00  2.78524E+00  7.50469E-03 T
  8.00000E-01  1.96350E-01  2.55254E+00  2.77347E+00  3.58732E-02 T
  8.00000E-01  1.96350E-01  2.74889E+00  2.74703E+00  6.04719E-02 T
  8.00000E-01  1.96350E-01  2.94524E+00  2.70981E+00  7.68540E-02 T
  8.00000E-01  1.96350E-01  3.14159E+00  2.66759E+00  8.07026E-02 T
  8.00000E-01  1.96350E-01  3.33794E+00  2.62743E+00  7.22390E-02 T
  8.00000E-01  1.96350E-01  3.53429E+00  2.59396E+00  5.81351E-02 T
  8.00000E-01  1.96350E-01  3.73064E+00  2.56749E+00  4.77193E-02 T
  8.00000E-01  1.96350E-01  3.92699E+00  2.54394E+00  4.82590E-02 T
  8.00000E-01  1.96350E-01  4.12334E+00  2.51757E+00  5.87669E-02 T
  8.00000E-01  1.96350E-01  4.31969E+00  2.48580E+00  7.02400E-02 T
  8.00000E-01  1.96350E-01  4.51604E+00  2.44961E+00  7.83174E-02 T
  8.00000E-01  1.96350E-01  4.71239E+00  2.41151E+00  8.02363E-02 T
  8.00000E-01  1.96350E-01  4.90874E+00  2.37478E+00  7.48559E-02 T
  8.00000E-01  1.96350E-01  5.10509E+00  2.34232E+00  6.50192E-02 T
  8.00000E-01  1.96350E-01  5.30144E+00  2.31590E+00  4.83220E-02 T
  8.00000E-01  1.96350E-01  5.49779E+00  2.29962E+00  2.40627E-02 T
  8.00000E-01  1.96350E-01  5.69414E+00  2.29322E+00  3.68284E-03 T
  8.00000E-01  1.96350E-01  5.89049E+00  2.29827E+00 -2.74431E-02 T
  8.00000E-01  1.96350E-01  6.08684E+00  2.31724E+00 -5.48679E-02 T
  8.00000E-01  2.35619E-01  0.00000E+00  2.33649E+00 -1.05129E-01 T
  8.00000E-01  2.35619E-01  1.96350E-01  2.38806E+00 -1.13241E-01 T
  8.00000E-01  2.35619E-01  3.92699E-01  2.43997E+00 -1.04206E-01 T
  8.00000E-01  2.35619E-01  5.89049E-01  2.48724E+00 -9.15796E-02 T
  8.00000E-01  2.35619E-01  7.85398E-01  2.53003E+00 -8.28069E-02 T
  8.00000E-01  2.35619E-01  9.81748E-01  2.57002E+00 -7.77668E-02 T
  8.00000E-01  2.35619E-01  1.17810E+00  2.60949E+00 -7.81568E-02 T
  8.00000E-01  2.35619E-01  1.37445E+00  2.65012E+00 -7.87825E-02 T
  8.00000E-01  2.35619E-01  1.57080E+00  2.69090E+00 -7.58869E-02 T
  8.00000E-01  2.35619E-01  1.76715E+00  2.72855E+00 -6.32368E-02 T
  8.00000E-01  2.35619E-01  1.96350E+00  2.75588E+00 -3.64778E-02 T
  8.00000E-01  2.35619E-01  2.15985E+00  2.76739E+00 -6.54276E-03 T
  8.00000E-01  2.35619E-01  2.35619E+00  2.76358E+00  2.04125E-02 T
  8.00000E-01  2.35619E-01  2.55254E+00  2.74556E+00  4.54743E-02 T
  8.00000E-01  2.35619E-01  2.74889E+00  2.71559E+00  6.58525E-02 T
  8.00000E-01  2.35619E-01  2.94524E+00  2.67586E+00  8.33392E-02 T
  8.00000E-01  2.35619E-01  3.14159E+00  2.62998E+00  9.06016E-02 T
  8.00000E-01  2.35619E-01  3.33794E+00  2.58442E+00  8.57979E-02 T
  8.00000E-01  2.35619E-01  3.53429E+00  2.54359E+00  7.65014E-02 T
  8.00000E-01  2.35619E-01  3.73064E+00  2.50738E+00  7.03503E-02 T
  8.00000E-01  2.35619E-01  3.92699E+00  2.47327E+00  7.03767E-02 T
  8.00000E-01  2.35619E-01  4.12334E+00  2.43836E+00  7.43754E-02 T
  8.00000E-01  2.35619E-01  4.31969E+00  2.40224E+00  7.77656E-02 T
  8.00000E-01  2.35619E-01  4.51604E+00  2.36494E+00  8.10522E-02 T
  8.00000E-01  2.35619E-01  4.71239E+00  2.32823E+00  7.66102E-02 T
  8.00000E-01  2.35619E-01  4.90874E+00  2.29612E+00  6.39067E-02 T
  8.00000E-01  2.35619E-01  5.10509E+00  2.27109E+00  4.69361E-02 T
  8.00000E-01  2.35619E-01  5.30144E+00  2.25534E+00  2.28982E-02 T
  8.00000E-01  2.35619E-01  5.49779E+00  2.25021E+00  2.22788E-03 T
  8.00000E-01  2.35619E-01  5.69414E+00  2.25287E+00 -1.61008E-02 T
  8.00000E-01  2.35619E-01  5.89049E+00  2.26662E+00 -4.69481E-02 T
  8.00000E-01  2.35619E-01  6.08684E+00  2.29457E+00 -7.76174E-02 T
  8.00000E-01  2.74889E-01  0.00000E+00  2.34816E+00 -1.01311E-01 T
  8.00000E-01  2.74889E-01  1.96350E-01  2.39532E+00 -9.82154E-02 T
  8.00000E-01  2.74889E-01  3.92699E-01  2.43858E+00 -8.34793E-02 T
  8.00000E-01  2.74889E-01  5.89049E-01  2.47602E+00 -7.35141E-02 T
  8.00000E-01  2.74889E-01  7.85398E-01  2.51130E+00 -7.12002E-02 T
  8.00000E-01  2.74889E-01  9.81748E-01  2.54693E+00 -7.35042E-02 T
  8.00000E-01  2.74889E-01  1.17810E+00  2.58589E+00 -8.13220E-02 T
  8.00000E-01  2.74889E-01  1.37445E+00  2.62901E+00 -8.62865E-02 T
  8.00000E-01  2.74889E-01  1.57080E+00  2.67391E+00 -8.45533E-02 T
  8.00000E-01  2.74889E-01  1.76715E+00  2.71484E+00 -6.65155E-02 T
  8.00000E-01  2.74889E-01  1.96350E+00  2.74099E+00 -2.88848E-02 T
  8.00000E-01  2.74889E-01  2.15985E+00  2.74545E+00  1.11315E-02 T
  8.00000E-01  2.74889E-01  2.35619E+00  2.73081E+00  4.14900E-02 T
  8.00000E-01  2.74889E-01  2.55254E+00  2.70332E+00  5.93385E-02 T
  8.00000E-01  2.74889E-01  2.74889E+00  2.66951E+00  6.82894E-02 T
  8.00000E-01  2.74889E-01  2.94524E+00  2.63188E+00  7.62288E-02 T
  8.00000E-01  2.74889E-01  3.14159E+00  2.59114E+00  8.20003E-02 T
  8.00000E-01  2.74889E-01  3.33794E+00  2.54950E+00  8.20250E-02 T
  8.00000E-01  2.74889E-01  3.53429E+00  2.50929E+00  8.02635E-02 T
  8.00000E-01  2.74889E-01  3.73064E+00  2.47015E+00  7.97865E-02 T
  8.00000E-01  2.74889E-01  3.92699E+00  2.43200E+00  7.85839E-02 T
  8.00000E-01  2.74889E-01  4.12334E+00  2.39547E+00  7.51582E-02 T
  8.00000E-01  2.74889E-01  4.31969E+00  2.36104E+00  7.31167E-02 T
  8.00000E-01  2.74889E-01  4.51604E+00  2.32752E+00  7.15643E-02 T
  8.00000E-01  2.74889E-01  4.71239E+00  2.29700E+00  6.15359E-02 T
  8.00000E-01  2.74889E-01  4.90874E+00  2.27258E+00  4.70930E-02 T
  8.00000E-01  2.74889E-01  5.10509E+00  2.25509E+00  3.10283E-02 T
  8.00000E-01  2.74889E-01  5.30144E+00  2.24581E+00  1.05599E-02 T
  8.00000E-01  2.74889E-01  5.49779E+00  2.24524E+00 -7.11240E-03 T
  8.00000E-01  2.74889E-01  5.69414E+00  2.25265E+00 -2.85721E-02 T
  8.00000E-01  2.74889E-01  5.89049E+00  2.27205E+00 -5.90267E-02 T
  8.00000E-01  2.74889E-01  6.08684E+00  2.30482E+00 -8.56958E-02 T
  8.00000E-01  3.14159E-01  0.00000E+00  2.37798E+00 -7.07753E-02 T
  8.00000E-01  3.14159E-01  1.96350E-01  2.40824E+00 -5.77108E-02 T
  8.00000E-01  3.14159E-01  3.92699E-01  2.43332E+00 -4.98718E-02 T
  8.00000E-01  3.14159E-01  5.89049E-01  2.45834E+00 -5.64347E-02 T
  8.00000E-01  3.14159E-01  7.85398E-01  2.48866E+00 -6.84020E-02 T
  8.00000E-01  3.14159E-01  9.81748E-01  2.52520E+00 -8.00298E-02 T
  8.00000E-01  3.14159E-01  1.17810E+00  2.56768E+00 -8.90190E-02 T
  8.00000E-01  3.14159E-01  1.37445E+00  2.61403E+00 -9.21014E-02 T
  8.00000E-01  3.14159E-01  1.57080E+00  2.66045E+00 -8.45975E-02 T
  8.00000E-01  3.14159E-01  1.76715E+00  2.69879E+00 -5.73943E-02 T
  8.00000E-01  3.14159E-01  1.96350E+00  2.71773E+00 -1.21066E-02 T
  8.00000E-01  3.14159E-01  2.15985E+00  2.71163E+00  3.37186E-02 T
  8.00000E-01  3.14159E-01  2.35619E+00  2.68398E+00  6.82500E-02 T
  8.00000E-01  3.14159E-01  2.55254E+00  2.64296E+00  8.55732E-02 T
  8.00000E-01  3.14159E-01  2.74889E+00  2.59799E+00  8.70432E-02 T
  8.00000E-01  3.14159E-01  2.94524E+00  2.55583E+00  7.86646E-02 T
  8.00000E-01  3.14159E-01  3.14159E+00  2.51908E+00  6.91031E-02 T
  8.00000E-01  3.14159E-01  3.33794E+00  2.48740E+00  5.98450E-02 T
  8.00000E-01  3.14159E-01  3.53429E+00  2.45998E+00  5.40709E-02 T
  8.00000E-01  3.14159E-01  3.73064E+00  2.43430E+00  5.34485E-02 T
  8.00000E-01  3.14159E-01  3.92699E+00  2.40835E+00  5.61340E-02 T
  8.00000E-01  3.14159E-01  4.12334E+00  2.38120E+00  5.91580E-02 T
  8.00000E-01  3.14159E-01  4.31969E+00  2.35320E+00  6.09800E-02 T
  8.00000E-01  3.14159E-01  4.51604E+00  2.32558E+00  5.83826E-02 T
  8.00000E-01  3.14159E-01  4.71239E+00  2.30030E+00  5.27112E-02 T
  8.00000E-01  3.14159E-01  4.90874E+00  2.27839E+00  4.38167E-02 T
  8.00000E-01  3.14159E-01  5.10509E+00  2.26231E+00  2.64947E-02 T
  8.00000E-01  3.14159E-01  5.30144E+00  2.25635E+00 -5.68845E-04 T
  8.00000E-01  3.14159E-01  5.49779E+00  2.26270E+00 -2.74452E-02 T
  8.00000E-01  3.14159E-01  5.69414E+00  2.28059E+00 -5.26187E-02 T
  8.00000E-01  3.14159E-01  5.89049E+00  2.30896E+00 -7.13157E-02 T
  8.00000E-01  3.14159E-01  6.08684E+00  2.34331E+00 -7.70027E-02 T
  8.00000E-01  3.53429E-01  0.00000E+00  2.37825E+00 -5.08070E-02 T
  8.00000E-01  3.53429E-01  1.96350E-01  2.39762E+00 -3.35813E-02 T
  8.00000E-01  3.53429E-01  3.92699E-01  2.41226E+00 -3.15267E-02 T
  8.00000E-01  3.53429E-01  5.89049E-01  2.43018E+00 -4.58758E-02 T
  8.00000E-01  3.53429E-01  7.85398E-01  2.45712E+00 -6.67157E-02 T
  8.00000E-01  3.53429E-01  9.81748E-01  2.49437E+00 -8.55908E-02 T
  8.00000E-01  3.53429E-01  1.17810E+00  2.53969E+00 -9.62011E-02 T
  8.00000E-01  3.53429E-01  1.37445E+00  2.58866E+00 -9.63043E-02 T
  8.00000E-01  3.53429E-01  1.57080E+00  2.63498E+00 -8.14081E-02 T
  8.00000E-01  3.53429E-01  1.76715E+00  2.66944E+00 -4.78636E-02 T
  8.00000E-01  3.53429E-01  1.96350E+00  2.68275E+00 -2.02949E-03 T
  8.00000E-01  3.53429E-01  2.15985E+00  2.67191E+00  4.23890E-02 T
  8.00000E-01  3.53429E-01  2.35619E+00  2.63969E+00  7.95012E-02 T
  8.00000E-01  3.53429E-01  2.55254E+00  2.59191E+00  1.04245E-01 T
  8.00000E-01  3.53429E-01  2.74889E+00  2.53658E+00  1.12032E-01 T
  8.00000E-01  3.53429E-01  2.94524E+00  2.48391E+00  9.89790E-02 T
  8.00000E-01  3.53429E-01  3.14159E+00  2.44104E+00  7.80691E-02 T
  8.00000E-01  3.53429E-01  3.33794E+00  2.40887E+00  5.76330E-02 T
  8.00000E-01  3.53429E-01  3.53429E+00  2.38517E+00  4.48562E-02 T
  8.00000E-01  3.53429E-01  3.73064E+00  2.36542E+00  4.09178E-02 T
  8.00000E-01  3.53429E-01  3.92699E+00  2.34644E+00  4.16551E-02 T
  8.00000E-01  3.53429E-01  4.12334E+00  2.32662E+00  4.53474E-02 T
  8.00000E-01  3.53429E-01  4.31969E+00  2.30449E+00  5.21666E-02 T
  8.00000E-01  3.53429E-01  4.51604E+00  2.27976E+00  5.70587E-02 T
  8.00000E-01  3.53429E-01  4.71239E+00  2.25428E+00  5.60187E-02 T
  8.00000E-01  3.53429E-01  4.90874E+00  2.23195E+00  4.27815E-02 T
  8.00000E-01  3.53429E-01  5.10509E+00  2.21925E+00  1.24867E-02 T
  8.00000E-01  3.53429E-01  5.30144E+00  2.22252E+00 -2.74387E-02 T
  8.00000E-01  3.53429E-01  5.49779E+00  2.24216E+00 -6.05205E-02 T
  8.00000E-01  3.53429E-01  5.69414E+00  2.27442E+00 -8.26059E-02 T
  8.00000E-01  3.53429E-01  5.89049E+00  2.31308E+00 -8.55863E-02 T
  8.00000E-01  3.53429E-01  6.08684E+00  2.34962E+00 -7.20810E-02 T
  8.00000E-01  3.92699E-01  0.00000E+00  2.36912E+00 -2.29818E-02 T
  8.00000E-01  3.92699E-01  1.96350E-01  2.37549E+00 -7.67598E-03 T
  8.00000E-01  3.92699E-01  3.92699E-01  2.37942E+00 -1.24821E-02 T
  8.00000E-01  3.92699E-01  5.89049E-01  2.38989E+00 -3.43598E-02 T
  8.00000E-01  3.92699E-01  7.85398E-01  2.41284E+00 -6.33150E-02 T
  8.00000E-01  3.92699E-01  9.81748E-01  2.44961E+00 -8.94832E-02 T
  8.00000E-01  3.92699E-01  1.17810E+00  2.49737E+00 -1.04972E-01 T
  8.00000E-01  3.92699E-01  1.37445E+00  2.55007E+00 -1.04651E-01 T
  8.00000E-01  3.92699E-01  1.57080E+00  2.59848E+00 -8.29590E-02 T
  8.00000E-01  3.92699E-01  1.76715E+00  2.63070E+00 -3.99644E-02 T
  8.00000E-01  3.92699E-01  1.96350E+00  2.63895E+00  6.88617E-03 T
  8.00000E-01  3.92699E-01  2.15985E+00  2.62547E+00  4.34501E-02 T
  8.00000E-01  3.92699E-01  2.35619E+00  2.59609E+00  6.95978E-02 T
  8.00000E-01  3.92699E-01  2.55254E+00  2.55562E+00  9.00168E-02 T
  8.00000E-01  3.92699E-01  2.74889E+00  2.50696E+00  1.03535E-01 T
  8.00000E-01  3.92699E-01  2.94524E+00  2.45644E+00  1.01529E-01 T
  8.00000E-01  3.92699E-01  3.14159E+00  2.41042E+00  8.99703E-02 T
  8.00000E-01  3.92699E-01  3.33794E+00  2.37196E+00  7.36626E-02 T
  8.00000E-01  3.92699E-01  3.53429E+00  2.34133E+00  5.92754E-02 T
  8.00000E-01  3.92699E-01  3.73064E+00  2.31694E+00  4.79268E-02 T
  8.00000E-01  3.92699E-01  3.92699E+00  2.29698E+00  4.11950E-02 T
  8.00000E-01  3.92699E-01  4.12334E+00  2.27878E+00  4.10279E-02 T
  8.00000E-01  3.92699E-01  4.31969E+00  2.25957E+00  4.52105E-02 T
  8.00000E-01  3.92699E-01  4.51604E+00  2.23928E+00  4.57200E-02 T
  8.00000E-01  3.92699E-01  4.71239E+00  2.22007E+00  4.12020E-02 T
  8.00000E-01  3.92699E-01  4.90874E+00  2.20456E+00  2.76977E-02 T
  8.00000E-01  3.92699E-01  5.10509E+00  2.19902E+00 -5.43283E-03 T
  8.00000E-01  3.92699E-01  5.30144E+00  2.21064E+00 -4.76487E-02 T
  8.00000E-01  3.92699E-01  5.49779E+00  2.23905E+00 -8.02445E-02 T
  8.00000E-01  3.92699E-01  5.69414E+00  2.27876E+00 -9.47520E-02 T
  8.00000E-01  3.92699E-01  5.89049E+00  2.31983E+00 -8.31496E-02 T
  8.00000E-01  3.92699E-01  6.08684E+00  2.35165E+00 -5.38314E-02 T
  8.00000E-01  4.31969E-01  0.00000E+00  2.35741E+00  1.78632E-02 T
  8.00000E-01  4.31969E-01  1.96350E-01  2.34860E+00  1.49605E-02 T
  8.00000E-01  4.31969E-01  3.92699E-01  2.34753E+00 -1.32061E-02 T
  8.00000E-01  4.31969E-01  5.89049E-01  2.36182E+00 -4.81301E-02 T
  8.00000E-01  4.31969E-01  7.85398E-01  2.39132E+00 -7.70594E-02 T
  8.00000E-01  4.31969E-01  9.81748E-01  2.43293E+00 -9.66809E-02 T
  8.00000E-01  4.31969E-01  1.17810E+00  2.48157E+00 -1.02454E-01 T
  8.00000E-01  4.31969E-01  1.37445E+00  2.53003E+00 -9.10369E-02 T
  8.00000E-01  4.31969E-01  1.57080E+00  2.56751E+00 -5.41064E-02 T
  8.00000E-01  4.31969E-01  1.76715E+00  2.58106E+00  1.22759E-03 T
  8.00000E-01  4.31969E-01  1.96350E+00  2.56827E+00  4.55853E-02 T
  8.00000E-01  4.31969E-01  2.15985E+00  2.53935E+00  6.58741E-02 T
  8.00000E-01  4.31969E-01  2.35619E+00  2.50599E+00  6.64377E-02 T
  8.00000E-01  4.31969E-01  2.55254E+00  2.47471E+00  6.20715E-02 T
  8.00000E-01  4.31969E-01  2.74889E+00  2.44486E+00  6.20666E-02 T
  8.00000E-01  4.31969E-01  2.94524E+00  2.41486E+00  6.36861E-02 T
  8.00000E-01  4.31969E-01  3.14159E+00  2.38497E+00  6.22877E-02 T
  8.00000E-01  4.31969E-01  3.33794E+00  2.35714E+00  5.70884E-02 T
  8.00000E-01  4.31969E-01  3.53429E+00  2.33207E+00  5.18357E-02 T
  8.00000E-01  4.31969E-01  3.73064E+00  2.30947E+00  4.77387E-02 T
  8.00000E-01  4.31969E-01  3.92699E+00  2.28864E+00  4.43477E-02 T
  8.00000E-01  4.31969E-01  4.12334E+00  2.26972E+00  4.03320E-02 T
  8.00000E-01  4.31969E-01  4.31969E+00  2.25245E+00  3.75773E-02 T
  8.00000E-01  4.31969E-01  4.51604E+00  2.23672E+00  3.31288E-02 T
  8.00000E-01  4.31969E-01  4.71239E+00  2.22432E+00  2.19731E-02 T
  8.00000E-01  4.31969E-01  4.90874E+00  2.21905E+00  2.74064E-04 T
  8.00000E-01  4.31969E-01  5.10509E+00  2.22553E+00 -3.09025E-02 T
  8.00000E-01  4.31969E-01  5.30144E+00  2.24594E+00 -6.08979E-02 T
  8.00000E-01  4.31969E-01  5.49779E+00  2.27780E+00 -8.01350E-02 T
  8.00000E-01  4.31969E-01  5.69414E+00  2.31457E+00 -7.86664E-02 T
  8.00000E-01  4.31969E-01  5.89049E+00  2.34533E+00 -5.20547E-02 T
  8.00000E-01  4.31969E-01  6.08684E+00  2.36004E+00 -1.10259E-02 T
  8.00000E-01  4.71239E-01  0.00000E+00  2.35436E+00  2.79979E-02 T
  8.00000E-01  4.71239E-01  1.96350E-01  2.34434E+00  9.52938E-03 T
  8.00000E-01  4.71239E-01  3.92699E-01  2.34945E+00 -3.34131E-02 T
  8.00000E-01  4.71239E-01  5.89049E-01  2.37439E+00 -7.13830E-02 T
  8.00000E-01  4.71239E-01  7.85398E-01  2.41332E+00 -9.11541E-02 T
  8.00000E-01  4.71239E-01  9.81748E-01  2.45780E+00 -9.16608E-02 T
  8.00000E-01  4.71239E-01  1.17810E+00  2.49917E+00 -7.62564E-02 T
  8.00000E-01  4.71239E-01  1.37445E+00  2.53001E+00 -4.52559E-02 T
  8.00000E-01  4.71239E-01  1.57080E+00  2.54011E+00  7.98849E-03 T
  8.00000E-01  4.71239E-01  1.76715E+00  2.52112E+00  6.65136E-02 T
  8.00000E-01  4.71239E-01  1.96350E+00  2.47878E+00  1.00464E-01 T
  8.00000E-01  4.71239E-01  2.15985E+00  2.42877E+00  1.02231E-01 T
  8.00000E-01  4.71239E-01  2.35619E+00  2.38496E+00  8.04021E-02 T
  8.00000E-01  4.71239E-01  2.55254E+00  2.35457E+00  5.01432E-02 T
  8.00000E-01  4.71239E-01  2.74889E+00  2.33752E+00  2.58409E-02 T
  8.00000E-01  4.71239E-01  2.94524E+00  2.32859E+00  1.56228E-02 T
  8.00000E-01  4.71239E-01  3.14159E+00  2.32122E+00  1.84681E-02 T
  8.00000E-01  4.71239E-01  3.33794E+00  2.31070E+00  2.80841E-02 T
  8.00000E-01  4.71239E-01  3.53429E+00  2.29615E+00  3.57159E-02 T
  8.00000E-01  4.71239E-01  3.73064E+00  2.27864E+00  4.23011E-02 T
  8.00000E-01  4.71239E-01  3.92699E+00  2.25856E+00  4.72856E-02 T
  8.00000E-01  4.71239E-01  4.12334E+00  2.23735E+00  4.78958E-02 T
  8.00000E-01  4.71239E-01  4.31969E+00  2.21750E+00  4.14946E-02 T
  8.00000E-01  4.71239E-01  4.51604E+00  2.20252E+00  2.57597E-02 T
  8.00000E-01  4.71239E-01  4.71239E+00  2.19696E+00 -1.89114E-03 T
  8.00000E-01  4.71239E-01  4.90874E+00  2.20503E+00 -3.55451E-02 T
  8.00000E-01  4.71239E-01  5.10509E+00  2.22730E+00 -6.56141E-02 T
  8.00000E-01  4.71239E-01  5.30144E+00  2.26098E+00 -8.48693E-02 T
  8.00000E-01  4.71239E-01  5.49779E+00  2.30016E+00 -8.67912E-02 T
  8.00000E-01  4.71239E-01  5.69414E+00  2.33616E+00 -6.79641E-02 T
  8.00000E-01  4.71239E-01  5.89049E+00  2.35962E+00 -3.14786E-02 T
  8.00000E-01  4.71239E-01  6.08684E+00  2.36440E+00  9.53876E-03 T
  8.00000E-01  5.10509E-01  0.00000E+00  2.35108E+00  2.78595E-02 T
  8.00000E-01  5.10509E-01  1.96350E-01  2.34238E+00  4.90382E-03 T
  8.00000E-01  5.10509E-01  3.92699E-01  2.35010E+00 -4.00056E-02 T
  8.00000E-01  5.10509E-01  5.89049E-01  2.37842E+00 -7.87820E-02 T
  8.00000E-01  5.10509E-01  7.85398E-01  2.42004E+00 -9.35009E-02 T
  8.00000E-01  5.10509E-01  9.81748E-01  2.46335E+00 -8.37540E-02 T
  8.00000E-01  5.10509E-01  1.17810E+00  2.49837E+00 -5.76962E-02 T
  8.00000E-01  5.10509E-01  1.37445E+00  2.51730E+00 -1.65707E-02 T
  8.00000E-01  5.10509E-01  1.57080E+00  2.51282E+00  3.53461E-02 T
  8.00000E-01  5.10509E-01  1.76715E+00  2.48357E+00  8.13318E-02 T
  8.00000E-01  5.10509E-01  1.96350E+00  2.43734E+00  1.05831E-01 T
  8.00000E-01  5.10509E-01  2.15985E+00  2.38617E+00  1.06796E-01 T
  8.00000E-01  5.10509E-01  2.35619E+00  2.34003E+00  8.95651E-02 T
  8.00000E-01  5.10509E-01  2.55254E+00  2.30527E+00  6.21103E-02 T
  8.00000E-01  5.10509E-01  2.74889E+00  2.28341E+00  3.61044E-02 T
  8.00000E-01  5.10509E-01  2.94524E+00  2.27123E+00  2.06428E-02 T
  8.00000E-01  5.10509E-01  3.14159E+00  2.26283E+00  1.92109E-02 T
  8.00000E-01  5.10509E-01  3.33794E+00  2.25308E+00  2.50646E-02 T
  8.00000E-01  5.10509E-01  3.53429E+00  2.24068E+00  3.12019E-02 T
  8.00000E-01  5.10509E-01  3.73064E+00  2.22579E+00  3.59833E-02 T
  8.00000E-01  5.10509E-01  3.92699E+00  2.21020E+00  3.46582E-02 T
  8.00000E-01  5.10509E-01  4.12334E+00  2.19624E+00  2.93228E-02 T
  8.00000E-01  5.10509E-01  4.31969E+00  2.18546E+00  2.00432E-02 T
  8.00000E-01  5.10509E-01  4.51604E+00  2.18001E+00  3.52018E-03 T
  8.00000E-01  5.10509E-01  4.71239E+00  2.18443E+00 -2.63371E-02 T
  8.00000E-01  5.10509E-01  4.90874E+00  2.20378E+00 -6.36123E-02 T
  8.00000E-01  5.10509E-01  5.10509E+00  2.23856E+00 -9.30615E-02 T
  8.00000E-01  5.10509E-01  5.30144E+00  2.28221E+00 -9.91916E-02 T
  8.00000E-01  5.10509E-01  5.49779E+00  2.32381E+00 -8.14698E-02 T
  8.00000E-01  5.10509E-01  5.69414E+00  2.35399E+00 -4.80996E-02 T
  8.00000E-01  5.10509E-01  5.89049E+00  2.36718E+00 -8.84438E-03 T
  8.00000E-01  5.10509E-01  6.08684E+00  2.36356E+00  2.14303E-02 T
  8.00000E-01  5.49779E-01  0.00000E+00  2.32868E+00  2.64447E-02 T
  8.00000E-01  5.49779E-01  1.96350E-01  2.32364E+00 -6.24608E-03 T
  8.00000E-01  5.49779E-01  3.92699E-01  2.33556E+00 -4.58431E-02 T
  8.00000E-01  5.49779E-01  5.89049E-01  2.36427E+00 -7.56582E-02 T
  8.00000E-01  5.49779E-01  7.85398E-01  2.40274E+00 -8.50885E-02 T
  8.00000E-01  5.49779E-01  9.81748E-01  2.44108E+00 -7.26786E-02 T
  8.00000E-01  5.49779E-01  1.17810E+00  2.46947E+00 -4.27533E-02 T
  8.00000E-01  5.49779E-01  1.37445E+00  2.48075E+00 -2.79177E-03 T
  8.00000E-01  5.49779E-01  1.57080E+00  2.47219E+00  3.70596E-02 T
  8.00000E-01  5.49779E-01  1.76715E+00  2.44667E+00  6.60076E-02 T
  8.00000E-01  5.49779E-01  1.96350E+00  2.41168E+00  7.81022E-02 T
  8.00000E-01  5.49779E-01  2.15985E+00  2.37443E+00  7.94035E-02 T
  8.00000E-01  5.49779E-01  2.35619E+00  2.33838E+00  7.56555E-02 T
  8.00000E-01  5.49779E-01  2.55254E+00  2.30571E+00  6.67724E-02 T
  8.00000E-01  5.49779E-01  2.74889E+00  2.27861E+00  5.29792E-02 T
  8.00000E-01  5.49779E-01  2.94524E+00  2.25829E+00  3.90100E-02 T
  8.00000E-01  5.49779E-01  3.14159E+00  2.24289E+00  3.18886E-02 T
  8.00000E-01  5.49779E-01  3.33794E+00  2.22957E+00  2.90122E-02 T
  8.00000E-01  5.49779E-01  3.53429E+00  2.21757E+00  2.55354E-02 T
  8.00000E-01  5.49779E-01  3.73064E+00  2.20802E+00  1.75154E-02 T
  8.00000E-01  5.49779E-01  3.92699E+00  2.20269E+00  7.29488E-03 T
  8.00000E-01  5.49779E-01  4.12334E+00  2.20158E+00 -2.55425E-03 T
  8.00000E-01  5.49779E-01  4.31969E+00  2.20572E+00 -1.77311E-02 T
  8.00000E-01  5.49779E-01  4.51604E+00  2.21794E+00 -3.94955E-02 T
  8.00000E-01  5.49779E-01  4.71239E+00  2.24057E+00 -6.36872E-02 T
  8.00000E-01  5.49779E-01  4.90874E+00  2.27322E+00 -8.18604E-02 T
  8.00000E-01  5.49779E-01  5.10509E+00  2.31134E+00 -8.42112E-02 T
  8.00000E-01  5.49779E-01  5.30144E+00  2.34664E+00 -6.72211E-02 T
  8.00000E-01  5.49779E-01  5.49779E+00  2.37072E+00 -3.44892E-02 T
  8.00000E-01  5.49779E-01  5.69414E+00  2.37732E+00  6.27638E-03 T
  8.00000E-01  5.49779E-01  5.89049E+00  2.36626E+00  3.82066E-02 T
  8.00000E-01  5.49779E-01  6.08684E+00  2.34583E+00  4.51453E-02 T
  8.00000E-01  5.89049E-01  0.00000E+00  2.34568E+00  8.68772E-03 T
  8.00000E-01  5.89049E-01  1.96350E-01  2.35040E+00 -2.78329E-02 T
  8.00000E-01  5.89049E-01  3.92699E-01  2.36944E+00 -5.13014E-02 T
  8.00000E-01  5.89049E-01  5.89049E-01  2.39529E+00 -5.66353E-02 T
  8.00000E-01  5.89049E-01  7.85398E-01  2.42065E+00 -4.82284E-02 T
  8.00000E-01  5.89049E-01  9.81748E-01  2.43834E+00 -2.31806E-02 T
  8.00000E-01  5.89049E-01  1.17810E+00  2.44095E+00  1.34114E-02 T
  8.00000E-01  5.89049E-01  1.37445E+00  2.42490E+00  5.37889E-02 T
  8.00000E-01  5.89049E-01  1.57080E+00  2.39135E+00  8.46913E-02 T
  8.00000E-01  5.89049E-01  1.76715E+00  2.35002E+00  8.77651E-02 T
  8.00000E-01  5.89049E-01  1.96350E+00  2.31373E+00  6.89651E-02 T
  8.00000E-01  5.89049E-01  2.15985E+00  2.28742E+00  4.81960E-02 T
  8.00000E-01  5.89049E-01  2.35619E+00  2.26958E+00  3.24914E-02 T
  8.00000E-01  5.89049E-01  2.55254E+00  2.25742E+00  2.35480E-02 T
  8.00000E-01  5.89049E-01  2.74889E+00  2.24761E+00  2.17120E-02 T
  8.00000E-01  5.89049E-01  2.94524E+00  2.23783E+00  2.28971E-02 T
  8.00000E-01  5.89049E-01  3.14159E+00  2.22740E+00  2.48396E-02 T
  8.00000E-01  5.89049E-01  3.33794E+00  2.21593E+00  2.78715E-02 T
  8.00000E-01  5.89049E-01  3.53429E+00  2.20350E+00  2.82676E-02 T
  8.00000E-01  5.89049E-01  3.73064E+00  2.19293E+00  1.88124E-02 T
  8.00000E-01  5.89049E-01  3.92699E+00  2.18868E+00 -3.51133E-04 T
  8.00000E-01  5.89049E-01  4.12334E+00  2.19430E+00 -2.68333E-02 T
  8.00000E-01  5.89049E-01  4.31969E+00  2.21240E+00 -5.69556E-02 T
  8.00000E-01  5.89049E-01  4.51604E+00  2.24367E+00 -8.53300E-02 T
  8.00000E-01  5.89049E-01  4.71239E+00  2.28647E+00 -1.04561E-01 T
  8.00000E-01  5.89049E-01  4.90874E+00  2.33425E+00 -1.01620E-01 T
  8.00000E-01  5.89049E-01  5.10509E+00  2.37597E+00 -7.63341E-02 T
  8.00000E-01  5.89049E-01  5.30144E+00  2.40408E+00 -4.25182E-02 T
  8.00000E-01  5.89049E-01  5.49779E+00  2.41479E+00 -1.80604E-03 T
  8.00000E-01  5.89049E-01  5.69414E+00  2.40619E+00  3.62242E-02 T
  8.00000E-01  5.89049E-01  5.89049E+00  2.38349E+00  5.62247E-02 T
  8.00000E-01  5.89049E-01  6.08684E+00  2.35854E+00  4.50936E-02 T
  8.00000E-01  6.28319E-01  0.00000E+00  2.37436E+00 -1.59157E-09 T
  8.00000E-01  6.28319E-01  1.96350E-01  2.38337E+00 -3.66304E-02 T
  8.00000E-01  6.28319E-01  3.92699E-01  2.40504E+00 -5.04055E-02 T
  8.00000E-01  6.28319E-01  5.89049E-01  2.42681E+00 -3.83911E-02 T
  8.00000E-01  6.28319E-01  7.85398E-01  2.43935E+00 -1.17109E-02 T
  8.00000E-01  6.28319E-01  9.81748E-01  2.43589E+00  2.74640E-02 T
  8.00000E-01  6.28319E-01  1.17810E+00  2.41283E+00  6.95549E-02 T
  8.00000E-01  6.28319E-01  1.37445E+00  2.37034E+00  1.10103E-01 T
  8.00000E-01  6.28319E-01  1.57080E+00  2.31433E+00  1.27069E-01 T
  8.00000E-01  6.28319E-01  1.76715E+00  2.26097E+00  1.05088E-01 T
  8.00000E-01  6.28319E-01  1.96350E+00  2.22325E+00  6.57633E-02 T
  8.00000E-01  6.28319E-01  2.15985E+00  2.20264E+00  3.05138E-02 T
  8.00000E-01  6.28319E-01  2.35619E+00  2.19536E+00  5.04402E-03 T
  8.00000E-01  6.28319E-01  2.55254E+00  2.19665E+00 -9.19134E-03 T
  8.00000E-01  6.28319E-01  2.74889E+00  2.20187E+00 -1.35205E-02 T
  8.00000E-01  6.28319E-01  2.94524E+00  2.20715E+00 -9.60932E-03 T
  8.00000E-01  6.28319E-01  3.14159E+00  2.20935E+00 -8.66142E-09 T
  8.00000E-01  6.28319E-01  3.33794E+00  2.20715E+00  9.60930E-03 T
  8.00000E-01  6.28319E-01  3.53429E+00  2.20187E+00  1.35205E-02 T
  8.00000E-01  6.28319E-01  3.73064E+00  2.19665E+00  9.19132E-03 T
  8.00000E-01  6.28319E-01  3.92699E+00  2.19536E+00 -5.04404E-03 T
  8.00000E-01  6.28319E-01  4.12334E+00  2.20264E+00 -3.05138E-02 T
  8.00000E-01  6.28319E-01  4.31969E+00  2.22325E+00 -6.57634E-02 T
  8.00000E-01  6.28319E-01  4.51604E+00  2.26097E+00 -1.05088E-01 T
  8.00000E-01  6.28319E-01  4.71239E+00  2.31433E+00 -1.27069E-01 T
  8.00000E-01  6.28319E-01  4.90874E+00  2.37034E+00 -1.10103E-01 T
  8.00000E-01  6.28319E-01  5.10509E+00  2.41283E+00 -6.95548E-02 T
  8.00000E-01  6.28319E-01  5.30144E+00  2.43589E+00 -2.74639E-02 T
  8.00000E-01  6.28319E-01  5.49779E+00  2.43935E+00  1.17110E-02 T
  8.00000E-01  6.28319E-01  5.69414E+00  2.42681E+00  3.83911E-02 T
  8.00000E-01  6.28319E-01  5.89049E+00  2.40504E+00  5.04055E-02 T
  8.00000E-01  6.28319E-01  6.08684E+00  2.38337E+00  3.66304E-02 T
  8.00000E-01  6.67588E-01  0.00000E+00  2.34568E+00 -8.68774E-03 T
  8.00000E-01  6.67588E-01  1.96350E-01  2.35854E+00 -4.50936E-02 T
  8.00000E-01  6.67588E-01  3.92699E-01  2.38349E+00 -5.62247E-02 T
  8.00000E-01  6.67588E-01  5.89049E-01  2.40619E+00 -3.62241E-02 T
  8.00000E-01  6.67588E-01  7.85398E-01  2.41479E+00  1.80609E-03 T
  8.00000E-01  6.67588E-01  9.81748E-01  2.40408E+00  4.25182E-02 T
  8.00000E-01  6.67588E-01  1.17810E+00  2.37597E+00  7.63342E-02 T
  8.00000E-01  6.67588E-01  1.37445E+00  2.33425E+00  1.01620E-01 T
  8.00000E-01  6.67588E-01  1.57080E+00  2.28647E+00  1.04561E-01 T
  8.00000E-01  6.67588E-01  1.76715E+00  2.24367E+00  8.53299E-02 T
  8.00000E-01  6.67588E-01  1.96350E+00  2.21240E+00  5.69555E-02 T
  8.00000E-01  6.67588E-01  2.15985E+00  2.19430E+00  2.68333E-02 T
  8.00000E-01  6.67588E-01  2.35619E+00  2.18868E+00  3.51106E-04 T
  8.00000E-01  6.67588E-01  2.55254E+00  2.19293E+00 -1.88125E-02 T
  8.00000E-01  6.67588E-01  2.74889E+00  2.20350E+00 -2.82676E-02 T
  8.00000E-01  6.67588E-01  2.94524E+00  2.21593E+00 -2.78716E-02 T
  8.00000E-01  6.67588E-01  3.14159E+00  2.22740E+00 -2.48396E-02 T
  8.00000E-01  6.67588E-01  3.33794E+00  2.23783E+00 -2.28971E-02 T
  8.00000E-01  6.67588E-01  3.53429E+00  2.24761E+00 -2.17121E-02 T
  8.00000E-01  6.67588E-01  3.73064E+00  2.25742E+00 -2.35480E-02 T
  8.00000E-01  6.67588E-01  3.92699E+00  2.26958E+00 -3.24915E-02 T
  8.00000E-01  6.67588E-01  4.12334E+00  2.28742E+00 -4.81960E-02 T
  8.00000E-01  6.67588E-01  4.31969E+00  2.31373E+00 -6.89651E-02 T
  8.00000E-01  6.67588E-01  4.51604E+00  2.35002E+00 -8.77651E-02 T
  8.00000E-01  6.67588E-01  4.71239E+00  2.39135E+00 -8.46912E-02 T
  8.00000E-01  6.67588E-01  4.90874E+00  2.42490E+00 -5.37888E-02 T
  8.00000E-01  6.67588E-01  5.10509E+00  2.44095E+00 -1.34113E-02 T
  8.00000E-01  6.67588E-01  5.30144E+00  2.43834E+00  2.31807E-02 T
  8.00000E-01  6.67588E-01  5.49779E+00  2.42065E+00  4.82284E-02 T
  8.00000E-01  6.67588E-01  5.69414E+00  2.39529E+00  5.66353E-02 T
  8.00000E-01  6.67588E-01  5.89049E+00  2.36944E+00  5.13014E-02 T
  8.00000E-01  6.67588E-01  6.08684E+00  2.35040E+00  2.78329E-02 T
  8.00000E-01  7.06858E-01  0.00000E+00  2.32868E+00 -2.64447E-02 T
  8.00000E-01  7.06858E-01  1.96350E-01  2.34583E+00 -4.51453E-02 T
  8.00000E-01  7.06858E-01  3.92699E-01  2.36626E+00 -3.82066E-02 T
  8.00000E-01  7.06858E-01  5.89049E-01  2.37732E+00 -6.27630E-03 T
  8.00000E-01  7.06858E-01  7.85398E-01  2.37072E+00  3.44893E-02 T
  8.00000E-01  7.06858E-01  9.81748E-01  2.34664E+00  6.72211E-02 T
  8.00000E-01  7.06858E-01  1.17810E+00  2.31134E+00  8.42112E-02 T
  8.00000E-01  7.06858E-01  1.37445E+00  2.27322E+00  8.18603E-02 T
  8.00000E-01  7.06858E-01  1.57080E+00  2.24057E+00  6.36872E-02 T
  8.00000E-01  7.06858E-01  1.76715E+00  2.21794E+00  3.94955E-02 T
  8.00000E-01  7.06858E-01  1.96350E+00  2.20572E+00  1.77310E-02 T
  8.00000E-01  7.06858E-01  2.15985E+00  2.20158E+00  2.55422E-03 T
  8.00000E-01  7.06858E-01  2.35619E+00  2.20269E+00 -7.29490E-03 T
  8.00000E-01  7.06858E-01  2.55254E+00  2.20802E+00 -1.75154E-02 T
  8.00000E-01  7.06858E-01  2.74889E+00  2.21757E+00 -2.55354E-02 T
  8.00000E-01  7.06858E-01  2.94524E+00  2.22957E+00 -2.90122E-02 T
  8.00000E-01  7.06858E-01  3.14159E+00  2.24289E+00 -3.18886E-02 T
  8.00000E-01  7.06858E-01  3.33794E+00  2.25829E+00 -3.90100E-02 T
  8.00000E-01  7.06858E-01  3.53429E+00  2.27861E+00 -5.29792E-02 T
  8.00000E-01  7.06858E-01  3.73064E+00  2.30571E+00 -6.67724E-02 T
  8.00000E-01  7.06858E-01  3.92699E+00  2.33838E+00 -7.56556E-02 T
  8.00000E-01  7.06858E-01  4.12334E+00  2.37443E+00 -7.94036E-02 T
  8.00000E-01  7.06858E-01  4.31969E+00  2.41168E+00 -7.81022E-02 T
  8.00000E-01  7.06858E-01  4.51604E+00  2.44667E+00 -6.60076E-02 T
  8.00000E-01  7.06858E-01  4.71239E+00  2.47219E+00 -3.70596E-02 T
  8.00000E-01  7.06858E-01  4.90874E+00  2.48075E+00  2.79183E-03 T
  8.00000E-01  7.06858E-01  5.10509E+00  2.46947E+00  4.27534E-02 T
  8.00000E-01  7.06858E-01  5.30144E+00  2.44108E+00  7.26787E-02 T
  8.00000E-01  7.06858E-01  5.49779E+00  2.40274E+00  8.50885E-02 T
  8.00000E-01  7.06858E-01  5.69414E+00  2.36427E+00  7.56582E-02 T
  8.00000E-01  7.06858E-01  5.89049E+00  2.33556E+00  4.58430E-02 T
  8.00000E-01  7.06858E-01  6.08684E+00  2.32364E+00  6.24603E-03 T
  8.00000E-01  7.46128E-01  0.00000E+00  2.35108E+00 -2.78595E-02 T
  8.00000E-01  7.46128E-01  1.96350E-01  2.36356E+00 -2.14302E-02 T
  8.00000E-01  7.46128E-01  3.92699E-01  2.36718E+00  8.84445E-03 T
  8.00000E-01  7.46128E-01  5.89049E-01  2.35399E+00  4.80997E-02 T
  8.00000E-01  7.46128E-01  7.85398E-01  2.32381E+00  8.14699E-02 T
  8.00000E-01  7.46128E-01  9.81748E-01  2.28221E+00  9.91916E-02 T
  8.00000E-01  7.46128E-01  1.17810E+00  2.23856E+00  9.30615E-02 T
  8.00000E-01  7.46128E-01  1.37445E+00  2.20378E+00  6.36122E-02 T
  8.00000E-01  7.46128E-01  1.57080E+00  2.18443E+00  2.63371E-02 T
  8.00000E-01  7.46128E-01  1.76715E+00  2.18001E+00 -3.52023E-03 T
  8.00000E-01  7.46128E-01  1.96350E+00  2.18546E+00 -2.00432E-02 T
  8.00000E-01  7.46128E-01  2.15985E+00  2.19624E+00 -2.93228E-02 T
  8.00000E-01  7.46128E-01  2.35619E+00  2.21020E+00 -3.46583E-02 T
  8.00000E-01  7.46128E-01  2.55254E+00  2.22579E+00 -3.59833E-02 T
  8.00000E-01  7.46128E-01  2.74889E+00  2.24068E+00 -3.12019E-02 T
  8.00000E-01  7.46128E-01  2.94524E+00  2.25308E+00 -2.50646E-02 T
  8.00000E-01  7.46128E-01  3.14159E+00  2.26283E+00 -1.92109E-02 T
  8.00000E-01  7.46128E-01  3.33794E+00  2.27123E+00 -2.06428E-02 T
  8.00000E-01  7.46128E-01  3.53429E+00  2.28341E+00 -3.61044E-02 T
  8.00000E-01  7.46128E-01  3.73064E+00  2.30527E+00 -6.21103E-02 T
  8.00000E-01  7.46128E-01  3.92699E+00  2.34003E+00 -8.95652E-02 T
  8.00000E-01  7.46128E-01  4.12334E+00  2.38617E+00 -1.06796E-01 T
  8.00000E-01  7.46128E-01  4.31969E+00  2.43734E+00 -1.05831E-01 T
  8.00000E-01  7.46128E-01  4.51604E+00  2.48357E+00 -8.13317E-02 T
  8.00000E-01  7.46128E-01  4.71239E+00  2.51282E+00 -3.53460E-02 T
  8.00000E-01  7.46128E-01  4.90874E+00  2.51730E+00  1.65708E-02 T
  8.00000E-01  7.46128E-01  5.10509E+00  2.49837E+00  5.76963E-02 T
  8.00000E-01  7.46128E-01  5.30144E+00  2.46335E+00  8.37540E-02 T
  8.00000E-01  7.46128E-01  5.49779E+00  2.42004E+00  9.35009E-02 T
  8.00000E-01  7.46128E-01  5.69414E+00  2.37842E+00  7.87820E-02 T
  8.00000E-01  7.46128E-01  5.89049E+00  2.35010E+00  4.00055E-02 T
  8.00000E-01  7.46128E-01  6.08684E+00  2.34238E+00 -4.90386E-03 T
  8.00000E-01  7.85398E-01  0.00000E+00  2.35436E+00 -2.79979E-02 T
  8.00000E-01  7.85398E-01  1.96350E-01  2.36440E+00 -9.53872E-03 T
  8.00000E-01  7.85398E-01  3.92699E-01  2.35962E+00  3.14787E-02 T
  8.00000E-01  7.85398E-01  5.89049E-01  2.33616E+00  6.79641E-02 T
  8.00000E-01  7.85398E-01  7.85398E-01  2.30016E+00  8.67912E-02 T
  8.00000E-01  7.85398E-01  9.81748E-01  2.26098E+00  8.48692E-02 T
  8.00000E-01  7.85398E-01  1.17810E+00  2.22730E+00  6.56141E-02 T
  8.00000E-01  7.85398E-01  1.37445E+00  2.20503E+00  3.55450E-02 T
  8.00000E-01  7.85398E-01  1.57080E+00  2.19696E+00  1.89109E-03 T
  8.00000E-01  7.85398E-01  1.76715E+00  2.20252E+00 -2.57598E-02 T
  8.00000E-01  7.85398E-01  1.96350E+00  2.21750E+00 -4.14946E-02 T
  8.00000E-01  7.85398E-01  2.15985E+00  2.23736E+00 -4.78958E-02 T
  8.00000E-01  7.85398E-01  2.35619E+00  2.25856E+00 -4.72856E-02 T
  8.00000E-01  7.85398E-01  2.55254E+00  2.27864E+00 -4.23011E-02 T
  8.00000E-01  7.85398E-01  2.74889E+00  2.29615E+00 -3.57159E-02 T
  8.00000E-01  7.85398E-01  2.94524E+00  2.31070E+00 -2.80841E-02 T
  8.00000E-01  7.85398E-01  3.14159E+00  2.32122E+00 -1.84682E-02 T
  8.00000E-01  7.85398E-01  3.33794E+00  2.32859E+00 -1.56228E-02 T
  8.00000E-01  7.85398E-01  3.53429E+00  2.33752E+00 -2.58409E-02 T
  8.00000E-01  7.85398E-01  3.73064E+00  2.35457E+00 -5.01433E-02 T
  8.00000E-01  7.85398E-01  3.92699E+00  2.38496E+00 -8.04021E-02 T
  8.00000E-01  7.85398E-01  4.12334E+00  2.42877E+00 -1.02231E-01 T
  8.00000E-01  7.85398E-01  4.31969E+00  2.47878E+00 -1.00464E-01 T
  8.00000E-01  7.85398E-01  4.51604E+00  2.52112E+00 -6.65135E-02 T
  8.00000E-01  7.85398E-01  4.71239E+00  2.54011E+00 -7.98839E-03 T
  8.00000E-01  7.85398E-01  4.90874E+00  2.53001E+00  4.52560E-02 T
  8.00000E-01  7.85398E-01  5.10509E+00  2.49917E+00  7.62565E-02 T
  8.00000E-01  7.85398E-01  5.30144E+00  2.45780E+00  9.16609E-02 T
  8.00000E-01  7.85398E-01  5.49779E+00  2.41332E+00  9.11541E-02 T
  8.00000E-01  7.85398E-01  5.69414E+00  2.37439E+00  7.13830E-02 T
  8.00000E-01  7.85398E-01  5.89049E+00  2.34945E+00  3.34131E-02 T
  8.00000E-01  7.85398E-01  6.08684E+00  2.34434E+00 -9.52942E-03 T
  8.00000E-01  8.24668E-01  0.00000E+00  2.35741E+00 -1.78632E-02 T
  8.00000E-01  8.24668E-01  1.96350E-01  2.36004E+00  1.10259E-02 T
  8.00000E-01  8.24668E-01  3.92699E-01  2.34533E+00  5.20548E-02 T
  8.00000E-01  8.24668E-01  5.89049E-01  2.31457E+00  7.86664E-02 T
  8.00000E-01  8.24668E-01  7.85398E-01  2.27780E+00  8.01350E-02 T
  8.00000E-01  8.24668E-01  9.81748E-01  2.24594E+00  6.08979E-02 T
  8.00000E-01  8.24668E-01  1.17810E+00  2.22553E+00  3.09025E-02 T
  8.00000E-01  8.24668E-01  1.37445E+00  2.21905E+00 -2.74120E-04 T
  8.00000E-01  8.24668E-01  1.57080E+00  2.22432E+00 -2.19731E-02 T
  8.00000E-01  8.24668E-01  1.76715E+00  2.23672E+00 -3.31288E-02 T
  8.00000E-01  8.24668E-01  1.96350E+00  2.25245E+00 -3.75773E-02 T
  8.00000E-01  8.24668E-01  2.15985E+00  2.26972E+00 -4.03320E-02 T
  8.00000E-01  8.24668E-01  2.35619E+00  2.28864E+00 -4.43477E-02 T
  8.00000E-01  8.24668E-01  2.55254E+00  2.30947E+00 -4.77387E-02 T
  8.00000E-01  8.24668E-01  2.74889E+00  2.33207E+00 -5.18357E-02 T
  8.00000E-01  8.24668E-01  2.94524E+00  2.35714E+00 -5.70884E-02 T
  8.00000E-01  8.24668E-01  3.14159E+00  2.38497E+00 -6.22878E-02 T
  8.00000E-01  8.24668E-01  3.33794E+00  2.41487E+00 -6.36862E-02 T
  8.00000E-01  8.24668E-01  3.53429E+00  2.44486E+00 -6.20666E-02 T
  8.00000E-01  8.24668E-01  3.73064E+00  2.47471E+00 -6.20716E-02 T
  8.00000E-01  8.24668E-01  3.92699E+00  2.50599E+00 -6.64377E-02 T
  8.00000E-01  8.24668E-01  4.12334E+00  2.53935E+00 -6.58741E-02 T
  8.00000E-01  8.24668E-01  4.31969E+00  2.56827E+00 -4.55852E-02 T
  8.00000E-01  8.24668E-01  4.51604E+00  2.58106E+00 -1.22748E-03 T
  8.00000E-01  8.24668E-01  4.71239E+00  2.56751E+00  5.41065E-02 T
  8.00000E-01  8.24668E-01  4.90874E+00  2.53003E+00  9.10370E-02 T
  8.00000E-01  8.24668E-01  5.10509E+00  2.48157E+00  1.02454E-01 T
  8.00000E-01  8.24668E-01  5.30144E+00  2.43293E+00  9.66809E-02 T
  8.00000E-01  8.24668E-01  5.49779E+00  2.39132E+00  7.70594E-02 T
  8.00000E-01  8.24668E-01  5.69414E+00  2.36182E+00  4.81301E-02 T
  8.00000E-01  8.24668E-01  5.89049E+00  2.34753E+00  1.32060E-02 T
  8.00000E-01  8.24668E-01  6.08684E+00  2.34860E+00 -1.49605E-02 T
  8.00000E-01  8.63938E-01  0.00000E+00  2.36912E+00  2.29819E-02 T
  8.00000E-01  8.63938E-01  1.96350E-01  2.35165E+00  5.38315E-02 T
  8.00000E-01  8.63938E-01  3.92699E-01  2.31983E+00  8.31496E-02 T
  8.00000E-01  8.63938E-01  5.89049E-01  2.27876E+00  9.47520E-02 T
  8.00000E-01  8.63938E-01  7.85398E-01  2.23905E+00  8.02445E-02 T
  8.00000E-01  8.63938E-01  9.81748E-01  2.21064E+00  4.76487E-02 T
  8.00000E-01  8.63938E-01  1.17810E+00  2.19902E+00  5.43278E-03 T
  8.00000E-01  8.63938E-01  1.37445E+00  2.20456E+00 -2.76977E-02 T
  8.00000E-01  8.63938E-01  1.57080E+00  2.22007E+00 -4.12021E-02 T
  8.00000E-01  8.63938E-01  1.76715E+00  2.23928E+00 -4.57200E-02 T
  8.00000E-01  8.63938E-01  1.96350E+00  2.25957E+00 -4.52105E-02 T
  8.00000E-01  8.63938E-01  2.15985E+00  2.27878E+00 -4.10279E-02 T
  8.00000E-01  8.63938E-01  2.35619E+00  2.29698E+00 -4.11950E-02 T
  8.00000E-01  8.63938E-01  2.55254E+00  2.31694E+00 -4.79268E-02 T
  8.00000E-01  8.63938E-01  2.74889E+00  2.34133E+00 -5.92754E-02 T
  8.00000E-01  8.63938E-01  2.94524E+00  2.37196E+00 -7.36626E-02 T
  8.00000E-01  8.63938E-01  3.14159E+00  2.41042E+00 -8.99703E-02 T
  8.00000E-01  8.63938E-01  3.33794E+00  2.45644E+00 -1.01529E-01 T
  8.00000E-01  8.63938E-01  3.53429E+00  2.50696E+00 -1.03535E-01 T
  8.00000E-01  8.63938E-01  3.73064E+00  2.55562E+00 -9.00168E-02 T
  8.00000E-01  8.63938E-01  3.92699E+00  2.59609E+00 -6.95978E-02 T
  8.00000E-01  8.63938E-01  4.12334E+00  2.62547E+00 -4.34501E-02 T
  8.00000E-01  8.63938E-01  4.31969E+00  2.63895E+00 -6.88612E-03 T
  8.00000E-01  8.63938E-01  4.51604E+00  2.63070E+00  3.99644E-02 T
  8.00000E-01  8.63938E-01  4.71239E+00  2.59848E+00  8.29590E-02 T
  8.00000E-01  8.63938E-01  4.90874E+00  2.55007E+00  1.04651E-01 T
  8.00000E-01  8.63938E-01  5.10509E+00  2.49737E+00  1.04972E-01 T
  8.00000E-01  8.63938E-01  5.30144E+00  2.44961E+00  8.94832E-02 T
  8.00000E-01  8.63938E-01  5.49779E+00  2.41284E+00  6.33149E-02 T
  8.00000E-01  8.63938E-01  5.69414E+00  2.38989E+00  3.43598E-02 T
  8.00000E-01  8.63938E-01  5.89049E+00  2.37942E+00  1.24821E-02 T
  8.00000E-01  8.63938E-01  6.08684E+00  2.37549E+00  7.67602E-03 T
  8.00000E-01  9.03208E-01  0.00000E+00  2.37825E+00  5.08071E-02 T
  8.00000E-01  9.03208E-01  1.96350E-01  2.34962E+00  7.20811E-02 T
  8.00000E-01  9.03208E-01  3.92699E-01  2.31308E+00  8.55863E-02 T
  8.00000E-01  9.03208E-01  5.89049E-01  2.27442E+00  8.26059E-02 T
  8.00000E-01  9.03208E-01  7.85398E-01  2.24216E+00  6.05205E-02 T
  8.00000E-01  9.03208E-01  9.81748E-01  2.22252E+00  2.74387E-02 T
  8.00000E-01  9.03208E-01  1.17810E+00  2.21925E+00 -1.24867E-02 T
  8.00000E-01  9.03208E-01  1.37445E+00  2.23195E+00 -4.27815E-02 T
  8.00000E-01  9.03208E-01  1.57080E+00  2.25428E+00 -5.60187E-02 T
  8.00000E-01  9.03208E-01  1.76715E+00  2.27976E+00 -5.70587E-02 T
  8.00000E-01  9.03208E-01  1.96350E+00  2.30449E+00 -5.21666E-02 T
  8.00000E-01  9.03208E-01  2.15985E+00  2.32662E+00 -4.53474E-02 T
  8.00000E-01  9.03208E-01  2.35619E+00  2.34644E+00 -4.16552E-02 T
  8.00000E-01  9.03208E-01  2.55254E+00  2.36542E+00 -4.09178E-02 T
  8.00000E-01  9.03208E-01  2.74889E+00  2.38517E+00 -4.48562E-02 T
  8.00000E-01  9.03208E-01  2.94524E+00  2.40887E+00 -5.76330E-02 T
  8.00000E-01  9.03208E-01  3.14159E+00  2.44104E+00 -7.80691E-02 T
  8.00000E-01  9.03208E-01  3.33794E+00  2.48391E+00 -9.89790E-02 T
  8.00000E-01  9.03208E-01  3.53429E+00  2.53658E+00 -1.12031E-01 T
  8.00000E-01  9.03208E-01  3.73064E+00  2.59191E+00 -1.04245E-01 T
  8.00000E-01  9.03208E-01  3.92699E+00  2.63969E+00 -7.95011E-02 T
  8.00000E-01  9.03208E-01  4.12334E+00  2.67191E+00 -4.23889E-02 T
  8.00000E-01  9.03208E-01  4.31969E+00  2.68275E+00  2.02954E-03 T
  8.00000E-01  9.03208E-01  4.51604E+00  2.66944E+00  4.78637E-02 T
  8.00000E-01  9.03208E-01  4.71239E+00  2.63498E+00  8.14081E-02 T
  8.00000E-01  9.03208E-01  4.90874E+00  2.58866E+00  9.63043E-02 T
  8.00000E-01  9.03208E-01  5.10509E+00  2.53969E+00  9.62011E-02 T
  8.00000E-01  9.03208E-01  5.30144E+00  2.49437E+00  8.55908E-02 T
  8.00000E-01  9.03208E-01  5.49779E+00  2.45712E+00  6.67157E-02 T
  8.00000E-01  9.03208E-01  5.69414E+00  2.43018E+00  4.58758E-02 T
  8.00000E-01  9.03208E-01  5.89049E+00  2.41226E+00  3.15267E-02 T
  8.00000E-01  9.03208E-01  6.08684E+00  2.39762E+00  3.35813E-02 T
  8.00000E-01  9.42478E-01  0.00000E+00  2.37798E+00  7.07754E-02 T
  8.00000E-01  9.42478E-01  1.96350E-01  2.34331E+00  7.70027E-02 T
  8.00000E-01  9.42478E-01  3.92699E-01  2.30896E+00  7.13157E-02 T
  8.00000E-01  9.42478E-01  5.89049E-01  2.28059E+00  5.26187E-02 T
  8.00000E-01  9.42478E-01  7.85398E-01  2.26270E+00  2.74451E-02 T
  8.00000E-01  9.42478E-01  9.81748E-01  2.25635E+00  5.68800E-04 T
  8.00000E-01  9.42478E-01  1.17810E+00  2.26231E+00 -2.64948E-02 T
  8.00000E-01  9.42478E-01  1.37445E+00  2.27839E+00 -4.38167E-02 T
  8.00000E-01  9.42478E-01  1.57080E+00  2.30030E+00 -5.27112E-02 T
  8.00000E-01  9.42478E-01  1.76715E+00  2.32558E+00 -5.83826E-02 T
  8.00000E-01  9.42478E-01  1.96350E+00  2.35320E+00 -6.09800E-02 T
  8.00000E-01  9.42478E-01  2.15985E+00  2.38120E+00 -5.91581E-02 T
  8.00000E-01  9.42478E-01  2.35619E+00  2.40835E+00 -5.61340E-02 T
  8.00000E-01  9.42478E-01  2.55254E+00  2.43430E+00 -5.34485E-02 T
  8.00000E-01  9.42478E-01  2.74889E+00  2.45998E+00 -5.40709E-02 T
  8.00000E-01  9.42478E-01  2.94524E+00  2.48740E+00 -5.98450E-02 T
  8.00000E-01  9.42478E-01  3.14159E+00  2.51908E+00 -6.91032E-02 T
  8.00000E-01  9.42478E-01  3.33794E+00  2.55583E+00 -7.86646E-02 T
  8.00000E-01  9.42478E-01  3.53429E+00  2.59799E+00 -8.70431E-02 T
  8.00000E-01  9.42478E-01  3.73064E+00  2.64296E+00 -8.55732E-02 T
  8.00000E-01  9.42478E-01  3.92699E+00  2.68398E+00 -6.82500E-02 T
  8.00000E-01  9.42478E-01  4.12334E+00  2.71163E+00 -3.37185E-02 T
  8.00000E-01  9.42478E-01  4.31969E+00  2.71773E+00  1.21066E-02 T
  8.00000E-01  9.42478E-01  4.51604E+00  2.69879E+00  5.73943E-02 T
  8.00000E-01  9.42478E-01  4.71239E+00  2.66045E+00  8.45976E-02 T
  8.00000E-01  9.42478E-01  4.90874E+00  2.61403E+00  9.21014E-02 T
  8.00000E-01  9.42478E-01  5.10509E+00  2.56768E+00  8.90190E-02 T
  8.00000E-01  9.42478E-01  5.30144E+00  2.52520E+00  8.00298E-02 T
  8.00000E-01  9.42478E-01  5.49779E+00  2.48866E+00  6.84020E-02 T
  8.00000E-01  9.42478E-01  5.69414E+00  2.45834E+00  5.64347E-02 T
  8.00000E-01  9.42478E-01  5.89049E+00  2.43332E+00  4.98719E-02 T
  8.00000E-01  9.42478E-01  6.08684E+00  2.40824E+00  5.77109E-02 T
  8.00000E-01  9.81748E-01  0.00000E+00  2.34816E+00  1.01312E-01 T
  8.00000E-01  9.81748E-01  1.96350E-01  2.30482E+00  8.56958E-02 T
  8.00000E-01  9.81748E-01  3.92699E-01  2.27205E+00  5.90267E-02 T
  8.00000E-01  9.81748E-01  5.89049E-01  2.25265E+00  2.85721E-02 T
  8.00000E-01  9.81748E-01  7.85398E-01  2.24524E+00  7.11238E-03 T
  8.00000E-01  9.81748E-01  9.81748E-01  2.24581E+00 -1.05599E-02 T
  8.00000E-01  9.81748E-01  1.17810E+00  2.25509E+00 -3.10283E-02 T
  8.00000E-01  9.81748E-01  1.37445E+00  2.27258E+00 -4.70930E-02 T
  8.00000E-01  9.81748E-01  1.57080E+00  2.29700E+00 -6.15359E-02 T
  8.00000E-01  9.81748E-01  1.76715E+00  2.32752E+00 -7.15643E-02 T
  8.00000E-01  9.81748E-01  1.96350E+00  2.36104E+00 -7.31168E-02 T
  8.00000E-01  9.81748E-01  2.15985E+00  2.39547E+00 -7.51583E-02 T
  8.00000E-01  9.81748E-01  2.35619E+00  2.43200E+00 -7.85839E-02 T
  8.00000E-01  9.81748E-01  2.55254E+00  2.47015E+00 -7.97865E-02 T
  8.00000E-01  9.81748E-01  2.74889E+00  2.50929E+00 -8.02635E-02 T
  8.00000E-01  9.81748E-01  2.94524E+00  2.54950E+00 -8.20250E-02 T
  8.00000E-01  9.81748E-01  3.14159E+00  2.59114E+00 -8.20003E-02 T
  8.00000E-01  9.81748E-01  3.33794E+00  2.63188E+00 -7.62288E-02 T
  8.00000E-01  9.81748E-01  3.53429E+00  2.66951E+00 -6.82894E-02 T
  8.00000E-01  9.81748E-01  3.73064E+00  2.70332E+00 -5.93385E-02 T
  8.00000E-01  9.81748E-01  3.92699E+00  2.73081E+00 -4.14900E-02 T
  8.00000E-01  9.81748E-01  4.12334E+00  2.74545E+00 -1.11314E-02 T
  8.00000E-01  9.81748E-01  4.31969E+00  2.74099E+00  2.88849E-02 T
  8.00000E-01  9.81748E-01  4.51604E+00  2.71484E+00  6.65155E-02 T
  8.00000E-01  9.81748E-01  4.71239E+00  2.67391E+00  8.45533E-02 T
  8.00000E-01  9.81748E-01  4.90874E+00  2.62901E+00  8.62865E-02 T
  8.00000E-01  9.81748E-01  5.10509E+00  2.58589E+00  8.13220E-02 T
  8.00000E-01  9.81748E-01  5.30144E+00  2.54693E+00  7.35042E-02 T
  8.00000E-01  9.81748E-01  5.49779E+00  2.51130E+00  7.12002E-02 T
  8.00000E-01  9.81748E-01  5.69414E+00  2.47602E+00  7.35141E-02 T
  8.00000E-01  9.81748E-01  5.89049E+00  2.43858E+00  8.34793E-02 T
  8.00000E-01  9.81748E-01  6.08684E+00  2.39532E+00  9.82155E-02 T
  8.00000E-01  1.02102E+00  0.00000E+00  2.33649E+00  1.05129E-01 T
  8.00000E-01  1.02102E+00  1.96350E-01  2.29457E+00  7.76174E-02 T
  8.00000E-01  1.02102E+00  3.92699E-01  2.26662E+00  4.69481E-02 T
  8.00000E-01  1.02102E+00  5.89049E-01  2.25287E+00  1.61008E-02 T
  8.00000E-01  1.02102E+00  7.85398E-01  2.25021E+00 -2.22791E-03 T
  8.00000E-01  1.02102E+00  9.81748E-01  2.25534E+00 -2.28982E-02 T
  8.00000E-01  1.02102E+00  1.17810E+00  2.27109E+00 -4.69361E-02 T
  8.00000E-01  1.02102E+00  1.37445E+00  2.29612E+00 -6.39067E-02 T
  8.00000E-01  1.02102E+00  1.57080E+00  2.32823E+00 -7.66102E-02 T
  8.00000E-01  1.02102E+00  1.76715E+00  2.36494E+00 -8.10522E-02 T
  8.00000E-01  1.02102E+00  1.96350E+00  2.40224E+00 -7.77656E-02 T
  8.00000E-01  1.02102E+00  2.15985E+00  2.43836E+00 -7.43754E-02 T
  8.00000E-01  1.02102E+00  2.35619E+00  2.47327E+00 -7.03767E-02 T
  8.00000E-01  1.02102E+00  2.55254E+00  2.50738E+00 -7.03503E-02 T
  8.00000E-01  1.02102E+00  2.74889E+00  2.54359E+00 -7.65014E-02 T
  8.00000E-01  1.02102E+00  2.94524E+00  2.58442E+00 -8.57979E-02 T
  8.00000E-01  1.02102E+00  3.14159E+00  2.62998E+00 -9.06016E-02 T
  8.00000E-01  1.02102E+00  3.33794E+00  2.67586E+00 -8.33392E-02 T
  8.00000E-01  1.02102E+00  3.53429E+00  2.71559E+00 -6.58525E-02 T
  8.00000E-01  1.02102E+00  3.73064E+00  2.74556E+00 -4.54743E-02 T
  8.00000E-01  1.02102E+00  3.92699E+00  2.76358E+00 -2.04125E-02 T
  8.00000E-01  1.02102E+00  4.12334E+00  2.76739E+00  6.54279E-03 T
  8.00000E-01  1.02102E+00  4.31969E+00  2.75588E+00  3.64778E-02 T
  8.00000E-01  1.02102E+00  4.51604E+00  2.72855E+00  6.32368E-02 T
  8.00000E-01  1.02102E+00  4.71239E+00  2.69090E+00  7.58869E-02 T
  8.00000E-01  1.02102E+00  4.90874E+00  2.65012E+00  7.87825E-02 T
  8.00000E-01  1.02102E+00  5.10509E+00  2.60949E+00  7.81567E-02 T
  8.00000E-01  1.02102E+00  5.30144E+00  2.57002E+00  7.77668E-02 T
  8.00000E-01  1.02102E+00  5.49779E+00  2.53003E+00  8.28070E-02 T
  8.00000E-01  1.02102E+00  5.69414E+00  2.48724E+00  9.15796E-02 T
  8.00000E-01  1.02102E+00  5.89049E+00  2.43997E+00  1.04206E-01 T
  8.00000E-01  1.02102E+00  6.08684E+00  2.38806E+00  1.13241E-01 T
  8.00000E-01  1.06029E+00  0.00000E+00  2.34835E+00  8.14048E-02 T
  8.00000E-01  1.06029E+00  1.96350E-01  2.31724E+00  5.48679E-02 T
  8.00000E-01  1.06029E+00  3.92699E-01  2.29827E+00  2.74430E-02 T
  8.00000E-01  1.06029E+00  5.89049E-01  2.29322E+00 -3.68288E-03 T
  8.00000E-01  1.06029E+00  7.85398E-01  2.29962E+00 -2.40627E-02 T
  8.00000E-01  1.06029E+00  9.81748E-01  2.31590E+00 -4.83220E-02 T
  8.00000E-01  1.06029E+00  1.17810E+00  2.34232E+00 -6.50192E-02 T
  8.00000E-01  1.06029E+00  1.37445E+00  2.37478E+00 -7.48559E-02 T
  8.00000E-01  1.06029E+00  1.57080E+00  2.41151E+00 -8.02363E-02 T
  8.00000E-01  1.06029E+00  1.76715E+00  2.44961E+00 -7.83174E-02 T
  8.00000E-01  1.06029E+00  1.96350E+00  2.48580E+00 -7.02400E-02 T
  8.00000E-01  1.06029E+00  2.15985E+00  2.51757E+00 -5.87669E-02 T
  8.00000E-01  1.06029E+00  2.35619E+00  2.54394E+00 -4.82589E-02 T
  8.00000E-01  1.06029E+00  2.55254E+00  2.56749E+00 -4.77193E-02 T
  8.00000E-01  1.06029E+00  2.74889E+00  2.59396E+00 -5.81351E-02 T
  8.00000E-01  1.06029E+00  2.94524E+00  2.62743E+00 -7.22390E-02 T
  8.00000E-01  1.06029E+00  3.14159E+00  2.66759E+00 -8.07026E-02 T
  8.00000E-01  1.06029E+00  3.33794E+00  2.70981E+00 -7.68539E-02 T
  8.00000E-01  1.06029E+00  3.53429E+00  2.74703E+00 -6.04719E-02 T
  8.00000E-01  1.06029E+00  3.73064E+00  2.77347E+00 -3.58731E-02 T
  8.00000E-01  1.06029E+00  3.92699E+00  2.78524E+00 -7.50466E-03 T
  8.00000E-01  1.06029E+00  4.12334E+00  2.78242E+00  1.74046E-02 T
  8.00000E-01  1.06029E+00  4.31969E+00  2.76626E+00  4.18082E-02 T
  8.00000E-01  1.06029E+00  4.51604E+00  2.73799E+00  6.13789E-02 T
  8.00000E-01  1.06029E+00  4.71239E+00  2.70209E+00  7.16105E-02 T
  8.00000E-01  1.06029E+00  4.90874E+00  2.66310E+00  7.60037E-02 T
  8.00000E-01  1.06029E+00  5.10509E+00  2.62264E+00  8.02093E-02 T
  8.00000E-01  1.06029E+00  5.30144E+00  2.58012E+00  8.65829E-02 T
  8.00000E-01  1.06029E+00  5.49779E+00  2.53503E+00  9.27750E-02 T
  8.00000E-01  1.06029E+00  5.69414E+00  2.48785E+00  9.86293E-02 T
  8.00000E-01  1.06029E+00  5.89049E+00  2.43912E+00  1.01990E-01 T
  8.00000E-01  1.06029E+00  6.08684E+00  2.39109E+00  9.91534E-02 T
  8.00000E-01  1.09956E+00  0.00000E+00  2.31101E+00  5.91966E-02 T
  8.00000E-01  1.09956E+00  1.96350E-01  2.29169E+00  2.90819E-02 T
  8.00000E-01  1.09956E+00  3.92699E-01  2.28415E+00  3.50588E-03 T
  8.00000E-01  1.09956E+00  5.89049E-01  2.28811E+00 -1.89704E-02 T
  8.00000E-01  1.09956E+00  7.85398E-01  2.30076E+00 -3.95412E-02 T
  8.00000E-01  1.09956E+00  9.81748E-01  2.32586E+00 -7.02683E-02 T
  8.00000E-01  1.09956E+00  1.17810E+00  2.36247E+00 -8.60469E-02 T
  8.00000E-01  1.09956E+00  1.37445E+00  2.40430E+00 -9.13734E-02 T
  8.00000E-01  1.09956E+00  1.57080E+00  2.44713E+00 -8.70640E-02 T
  8.00000E-01  1.09956E+00  1.76715E+00  2.48730E+00 -7.85746E-02 T
  8.00000E-01  1.09956E+00  1.96350E+00  2.52369E+00 -6.94169E-02 T
  8.00000E-01  1.09956E+00  2.15985E+00  2.55631E+00 -6.16786E-02 T
  8.00000E-01  1.09956E+00  2.35619E+00  2.58597E+00 -5.66423E-02 T
  8.00000E-01  1.09956E+00  2.55254E+00  2.61499E+00 -5.81972E-02 T
  8.00000E-01  1.09956E+00  2.74889E+00  2.64662E+00 -6.46482E-02 T
  8.00000E-01  1.09956E+00  2.94524E+00  2.68193E+00 -6.94660E-02 T
  8.00000E-01  1.09956E+00  3.14159E+00  2.71858E+00 -6.74731E-02 T
  8.00000E-01  1.09956E+00  3.33794E+00  2.75244E+00 -5.72278E-02 T
  8.00000E-01  1.09956E+00  3.53429E+00  2.77905E+00 -3.97781E-02 T
  8.00000E-01  1.09956E+00  3.73064E+00  2.79482E+00 -1.72874E-02 T
  8.00000E-01  1.09956E+00  3.92699E+00  2.79792E+00  5.72992E-03 T
  8.00000E-01  1.09956E+00  4.12334E+00  2.78846E+00  2.91939E-02 T
  8.00000E-01  1.09956E+00  4.31969E+00  2.76607E+00  5.19642E-02 T
  8.00000E-01  1.09956E+00  4.51604E+00  2.73388E+00  6.55791E-02 T
  8.00000E-01  1.09956E+00  4.71239E+00  2.69702E+00  7.20299E-02 T
  8.00000E-01  1.09956E+00  4.90874E+00  2.65799E+00  7.63117E-02 T
  8.00000E-01  1.09956E+00  5.10509E+00  2.61700E+00  8.31575E-02 T
  8.00000E-01  1.09956E+00  5.30144E+00  2.57102E+00  9.86187E-02 T
  8.00000E-01  1.09956E+00  5.49779E+00  2.51745E+00  1.15167E-01 T
  8.00000E-01  1.09956E+00  5.69414E+00  2.45832E+00  1.25330E-01 T
  8.00000E-01  1.09956E+00  5.89049E+00  2.39891E+00  1.20823E-01 T
  8.00000E-01  1.09956E+00  6.08684E+00  2.34719E+00  9.79650E-02 T
  8.00000E-01  1.13883E+00  0.00000E+00  2.28128E+00  3.92109E-02 T
  8.00000E-01  1.13883E+00  1.96350E-01  2.27165E+00  7.77797E-03 T
  8.00000E-01  1.13883E+00  3.92699E-01  2.27317E+00 -1.41768E-02 T
  8.00000E-01  1.13883E+00  5.89049E-01  2.28264E+00 -2.63379E-02 T
  8.00000E-01  1.13883E+00  7.85398E-01  2.29829E+00 -4.75986E-02 T
  8.00000E-01  1.13883E+00  9.81748E-01  2.32775E+00 -8.06544E-02 T
  8.00000E-01  1.13883E+00  1.17810E+00  2.36949E+00 -9.78177E-02 T
  8.00000E-01  1.13883E+00  1.37445E+00  2.41683E+00 -1.01296E-01 T
  8.00000E-01  1.13883E+00  1.57080E+00  2.46360E+00 -9.26937E-02 T
  8.00000E-01  1.13883E+00  1.76715E+00  2.50592E+00 -8.06666E-02 T
  8.00000E-01  1.13883E+00  1.96350E+00  2.54325E+00 -7.07639E-02 T
  8.00000E-01  1.13883E+00  2.15985E+00  2.57739E+00 -6.57967E-02 T
  8.00000E-01  1.13883E+00  2.35619E+00  2.61087E+00 -6.71236E-02 T
  8.00000E-01  1.13883E+00  2.55254E+00  2.64741E+00 -7.46910E-02 T
  8.00000E-01  1.13883E+00  2.74889E+00  2.68789E+00 -7.86462E-02 T
  8.00000E-01  1.13883E+00  2.94524E+00  2.72883E+00 -7.36700E-02 T
  8.00000E-01  1.13883E+00  3.14159E+00  2.76497E+00 -5.87109E-02 T
  8.00000E-01  1.13883E+00  3.33794E+00  2.79098E+00 -3.58553E-02 T
  8.00000E-01  1.13883E+00  3.53429E+00  2.80420E+00 -1.28934E-02 T
  8.00000E-01  1.13883E+00  3.73064E+00  2.80599E+00  5.67981E-03 T
  8.00000E-01  1.13883E+00  3.92699E+00  2.79850E+00  2.13895E-02 T
  8.00000E-01  1.13883E+00  4.12334E+00  2.78228E+00  3.81406E-02 T
  8.00000E-01  1.13883E+00  4.31969E+00  2.75698E+00  5.41921E-02 T
  8.00000E-01  1.13883E+00  4.51604E+00  2.72494E+00  6.36814E-02 T
  8.00000E-01  1.13883E+00  4.71239E+00  2.68960E+00  6.91986E-02 T
  8.00000E-01  1.13883E+00  4.90874E+00  2.65183E+00  7.49203E-02 T
  8.00000E-01  1.13883E+00  5.10509E+00  2.61072E+00  8.64037E-02 T
  8.00000E-01  1.13883E+00  5.30144E+00  2.56089E+00  1.11246E-01 T
  8.00000E-01  1.13883E+00  5.49779E+00  2.49946E+00  1.34697E-01 T
  8.00000E-01  1.13883E+00  5.69414E+00  2.43078E+00  1.46210E-01 T
  8.00000E-01  1.13883E+00  5.89049E+00  2.36379E+00  1.33729E-01 T
  8.00000E-01  1.13883E+00  6.08684E+00  2.31074E+00  9.29159E-02 T
  8.00000E-01  1.17810E+00  0.00000E+00  2.31688E+00  2.77906E-02 T
  8.00000E-01  1.17810E+00  1.96350E-01  2.31154E+00 -2.87935E-03 T
  8.00000E-01  1.17810E+00  3.92699E-01  2.31949E+00 -3.10366E-02 T
  8.00000E-01  1.17810E+00  5.89049E-01  2.33726E+00 -4.45669E-02 T
  8.00000E-01  1.17810E+00  7.85398E-01  2.36121E+00 -6.13300E-02 T
  8.00000E-01  1.17810E+00  9.81748E-01  2.39426E+00 -7.83214E-02 T
  8.00000E-01  1.17810E+00  1.17810E+00  2.43340E+00 -8.59832E-02 T
  8.00000E-01  1.17810E+00  1.37445E+00  2.47548E+00 -8.72510E-02 T
  8.00000E-01  1.17810E+00  1.57080E+00  2.51703E+00 -8.14566E-02 T
  8.00000E-01  1.17810E+00  1.76715E+00  2.55525E+00 -7.16467E-02 T
  8.00000E-01  1.17810E+00  1.96350E+00  2.58912E+00 -6.31835E-02 T
  8.00000E-01  1.17810E+00  2.15985E+00  2.62004E+00 -5.84277E-02 T
  8.00000E-01  1.17810E+00  2.35619E+00  2.65070E+00 -6.19984E-02 T
  8.00000E-01  1.17810E+00  2.55254E+00  2.68588E+00 -7.22336E-02 T
  8.00000E-01  1.17810E+00  2.74889E+00  2.72568E+00 -7.57355E-02 T
  8.00000E-01  1.17810E+00  2.94524E+00  2.76485E+00 -6.77020E-02 T
  8.00000E-01  1.17810E+00  3.14159E+00  2.79691E+00 -4.75426E-02 T
  8.00000E-01  1.17810E+00  3.33794E+00  2.81491E+00 -1.69706E-02 T
  8.00000E-01  1.17810E+00  3.53429E+00  2.81639E+00  9.81892E-03 T
  8.00000E-01  1.17810E+00  3.73064E+00  2.80598E+00  2.67407E-02 T
  8.00000E-01  1.17810E+00  3.92699E+00  2.78783E+00  3.85630E-02 T
  8.00000E-01  1.17810E+00  4.12334E+00  2.76478E+00  4.53815E-02 T
  8.00000E-01  1.17810E+00  4.31969E+00  2.73858E+00  5.19835E-02 T
  8.00000E-01  1.17810E+00  4.51604E+00  2.70880E+00  5.91767E-02 T
  8.00000E-01  1.17810E+00  4.71239E+00  2.67573E+00  6.60945E-02 T
  8.00000E-01  1.17810E+00  4.90874E+00  2.63934E+00  7.35628E-02 T
  8.00000E-01  1.17810E+00  5.10509E+00  2.59842E+00  8.74118E-02 T
  8.00000E-01  1.17810E+00  5.30144E+00  2.54942E+00  1.05785E-01 T
  8.00000E-01  1.17810E+00  5.49779E+00  2.49384E+00  1.17849E-01 T
  8.00000E-01  1.17810E+00  5.69414E+00  2.43547E+00  1.20735E-01 T
  8.00000E-01  1.17810E+00  5.89049E+00  2.38129E+00  1.05573E-01 T
  8.00000E-01  1.17810E+00  6.08684E+00  2.33936E+00  7.18002E-02 T
  8.00000E-01  1.21737E+00  0.00000E+00  2.32128E+00  1.87566E-02 T
  8.00000E-01  1.21737E+00  1.96350E-01  2.31910E+00 -1.04401E-02 T
  8.00000E-01  1.21737E+00  3.92699E-01  2.33212E+00 -4.58280E-02 T
  8.00000E-01  1.21737E+00  5.89049E-01  2.35913E+00 -6.99874E-02 T
  8.00000E-01  1.21737E+00  7.85398E-01  2.39666E+00 -8.93706E-02 T
  8.00000E-01  1.21737E+00  9.81748E-01  2.44049E+00 -9.22077E-02 T
  8.00000E-01  1.21737E+00  1.17810E+00  2.48349E+00 -8.49543E-02 T
  8.00000E-01  1.21737E+00  1.37445E+00  2.52259E+00 -7.39894E-02 T
  8.00000E-01  1.21737E+00  1.57080E+00  2.55758E+00 -6.75569E-02 T
  8.00000E-01  1.21737E+00  1.76715E+00  2.59114E+00 -6.56364E-02 T
  8.00000E-01  1.21737E+00  1.96350E+00  2.62483E+00 -6.62904E-02 T
  8.00000E-01  1.21737E+00  2.15985E+00  2.65938E+00 -6.66100E-02 T
  8.00000E-01  1.21737E+00  2.35619E+00  2.69436E+00 -6.66868E-02 T
  8.00000E-01  1.21737E+00  2.55254E+00  2.72997E+00 -6.67368E-02 T
  8.00000E-01  1.21737E+00  2.74889E+00  2.76512E+00 -6.24267E-02 T
  8.00000E-01  1.21737E+00  2.94524E+00  2.79620E+00 -4.99595E-02 T
  8.00000E-01  1.21737E+00  3.14159E+00  2.81814E+00 -2.78213E-02 T
  8.00000E-01  1.21737E+00  3.33794E+00  2.82522E+00  2.79248E-03 T
  8.00000E-01  1.21737E+00  3.53429E+00  2.81599E+00  2.88022E-02 T
  8.00000E-01  1.21737E+00  3.73064E+00  2.79502E+00  4.65878E-02 T
  8.00000E-01  1.21737E+00  3.92699E+00  2.76563E+00  5.98604E-02 T
  8.00000E-01  1.21737E+00  4.12334E+00  2.73206E+00  6.27696E-02 T
  8.00000E-01  1.21737E+00  4.31969E+00  2.69911E+00  6.10558E-02 T
  8.00000E-01  1.21737E+00  4.51604E+00  2.66667E+00  6.28073E-02 T
  8.00000E-01  1.21737E+00  4.71239E+00  2.63292E+00  6.69743E-02 T
  8.00000E-01  1.21737E+00  4.90874E+00  2.59724E+00  7.30950E-02 T
  8.00000E-01  1.21737E+00  5.10509E+00  2.55658E+00  8.88637E-02 T
  8.00000E-01  1.21737E+00  5.30144E+00  2.50884E+00  1.01232E-01 T
  8.00000E-01  1.21737E+00  5.49779E+00  2.45823E+00  1.05387E-01 T
  8.00000E-01  1.21737E+00  5.69414E+00  2.40913E+00  9.71884E-02 T
  8.00000E-01  1.21737E+00  5.89049E+00  2.36779E+00  7.86815E-02 T
  8.00000E-01  1.21737E+00  6.08684E+00  2.33709E+00  5.16485E-02 T
