s E_r[V/m] (\Gamma_b/n_b[m/s]  Q_b/n_b/T_b[m/s] L_1^b[m^2/s] L_2^b[m^2/s]  Z_b n_b[10^{19}m^{-3}] dlnn_b/dr[m^{-1}] T_b[eV] dlnT_b/dr[m^{-1}], b=1,NBB), size(e\varphi_1/T_i) 
  5.00000E-01 -1.98345E+04  2.58032E-02  8.20887E-02  1.54726E-03  5.77601E-03  5.37769E+00 -7.11537E-01  5.26088E+02 -6.55641E+00 -1.00000E+00 -6.36709E-01 -1.45001E+00  7.52932E-02  2.81927E-01  5.37769E+00 -7.11537E-01  5.73787E+02 -6.50425E+00  1.00000E+00  1.39987+141  0.00000E+00          NaN
  5.00000E-01 -1.90412E+04  2.49816E-02  7.97560E-02  1.54728E-03  5.77601E-03  5.37769E+00 -7.11537E-01  5.26088E+02 -6.55641E+00 -1.00000E+00 -6.01118E-01 -1.34594E+00  7.52940E-02  2.81927E-01  5.37769E+00 -7.11537E-01  5.73787E+02 -6.50425E+00  1.00000E+00  1.39987+141  0.00000E+00          NaN
  5.00000E-01 -1.82478E+04  2.41596E-02  7.74232E-02  1.54730E-03  5.77601E-03  5.37769E+00 -7.11537E-01  5.26088E+02 -6.55641E+00 -1.00000E+00 -5.65526E-01 -1.24186E+00  7.52949E-02  2.81928E-01  5.37769E+00 -7.11537E-01  5.73787E+02 -6.50425E+00  1.00000E+00  1.39987+141  0.00000E+00          NaN
  5.00000E-01 -1.74544E+04  2.33373E-02  7.50903E-02  1.54732E-03  5.77602E-03  5.37769E+00 -7.11537E-01  5.26088E+02 -6.55641E+00 -1.00000E+00 -5.29931E-01 -1.13778E+00  7.52958E-02  2.81928E-01  5.37769E+00 -7.11537E-01  5.73787E+02 -6.50425E+00  1.00000E+00  1.39987+141  0.00000E+00          NaN
  5.00000E-01 -1.66610E+04  2.25146E-02  7.27573E-02  1.54735E-03  5.77602E-03  5.37769E+00 -7.11537E-01  5.26088E+02 -6.55641E+00 -1.00000E+00 -4.94334E-01 -1.03371E+00  7.52968E-02  2.81928E-01  5.37769E+00 -7.11537E-01  5.73787E+02 -6.50425E+00  1.00000E+00  1.39987+141  0.00000E+00          NaN
  5.00000E-01 -1.58676E+04  2.16914E-02  7.04243E-02  1.54737E-03  5.77602E-03  5.37769E+00 -7.11537E-01  5.26088E+02 -6.55641E+00 -1.00000E+00 -4.58734E-01 -9.29630E-01  7.52978E-02  2.81928E-01  5.37769E+00 -7.11537E-01  5.73787E+02 -6.50425E+00  1.00000E+00  1.39987+141  0.00000E+00          NaN
  5.00000E-01 -1.50743E+04  2.08678E-02  6.80913E-02  1.54740E-03  5.77603E-03  5.37769E+00 -7.11537E-01  5.26088E+02 -6.55641E+00 -1.00000E+00 -4.23130E-01 -8.25551E-01  7.52989E-02  2.81929E-01  5.37769E+00 -7.11537E-01  5.73787E+02 -6.50425E+00  1.00000E+00  1.39987+141  0.00000E+00          NaN
  5.00000E-01 -1.42809E+04  2.00436E-02  6.57582E-02  1.54742E-03  5.77603E-03  5.37769E+00 -7.11537E-01  5.26088E+02 -6.55641E+00 -1.00000E+00 -3.87522E-01 -7.21471E-01  7.53001E-02  2.81929E-01  5.37769E+00 -7.11537E-01  5.73787E+02 -6.50425E+00  1.00000E+00  1.39987+141  0.00000E+00          NaN
  5.00000E-01 -1.34875E+04  1.92189E-02  6.34250E-02  1.54745E-03  5.77604E-03  5.37769E+00 -7.11537E-01  5.26088E+02 -6.55641E+00 -1.00000E+00 -3.51909E-01 -6.17389E-01  7.53013E-02  2.81929E-01  5.37769E+00 -7.11537E-01  5.73787E+02 -6.50425E+00  1.00000E+00  1.39987+141  0.00000E+00          NaN
  5.00000E-01 -1.26941E+04  1.83937E-02  6.10917E-02  1.54747E-03  5.77604E-03  5.37769E+00 -7.11537E-01  5.26088E+02 -6.55641E+00 -1.00000E+00 -3.16290E-01 -5.13306E-01  7.53025E-02  2.81930E-01  5.37769E+00 -7.11537E-01  5.73787E+02 -6.50425E+00  1.00000E+00  1.39987+141  0.00000E+00          NaN
  5.00000E-01 -1.19007E+04  1.75678E-02  5.87584E-02  1.54750E-03  5.77604E-03  5.37769E+00 -7.11537E-01  5.26088E+02 -6.55641E+00 -1.00000E+00 -2.80665E-01 -4.09221E-01  7.53038E-02  2.81930E-01  5.37769E+00 -7.11537E-01  5.73787E+02 -6.50425E+00  1.00000E+00  1.39987+141  0.00000E+00          NaN
  5.00000E-01 -1.11073E+04  1.67414E-02  5.64249E-02  1.54752E-03  5.77605E-03  5.37769E+00 -7.11537E-01  5.26088E+02 -6.55641E+00 -1.00000E+00 -2.45031E-01 -3.05134E-01  7.53052E-02  2.81930E-01  5.37769E+00 -7.11537E-01  5.73787E+02 -6.50425E+00  1.00000E+00  1.39987+141  0.00000E+00          NaN
  5.00000E-01 -1.03140E+04  1.59143E-02  5.40915E-02  1.54755E-03  5.77605E-03  5.37769E+00 -7.11537E-01  5.26088E+02 -6.55641E+00 -1.00000E+00 -2.09390E-01 -2.01043E-01  7.53066E-02  2.81931E-01  5.37769E+00 -7.11537E-01  5.73787E+02 -6.50425E+00  1.00000E+00  1.39987+141  0.00000E+00          NaN
  5.00000E-01 -9.52058E+03  1.50866E-02  5.17579E-02  1.54757E-03  5.77605E-03  5.37769E+00 -7.11537E-01  5.26088E+02 -6.55641E+00 -1.00000E+00 -1.73738E-01 -9.69501E-02  7.53080E-02  2.81931E-01  5.37769E+00 -7.11537E-01  5.73787E+02 -6.50425E+00  1.00000E+00  1.39987+141  0.00000E+00          NaN
  5.00000E-01 -8.72720E+03  1.42582E-02  4.94242E-02  1.54760E-03  5.77606E-03  5.37769E+00 -7.11537E-01  5.26088E+02 -6.55641E+00 -1.00000E+00 -1.38076E-01  7.14639E-03  7.53095E-02  2.81932E-01  5.37769E+00 -7.11537E-01  5.73787E+02 -6.50425E+00  1.00000E+00  1.39987+141  0.00000E+00          NaN
  5.00000E-01 -7.93382E+03  1.34291E-02  4.70905E-02  1.54762E-03  5.77606E-03  5.37769E+00 -7.11537E-01  5.26088E+02 -6.55641E+00 -1.00000E+00 -1.02404E-01  1.11246E-01  7.53110E-02  2.81932E-01  5.37769E+00 -7.11537E-01  5.73787E+02 -6.50425E+00  1.00000E+00  1.39987+141  0.00000E+00          NaN
  5.00000E-01 -7.14044E+03  1.25993E-02  4.47567E-02  1.54764E-03  5.77606E-03  5.37769E+00 -7.11537E-01  5.26088E+02 -6.55641E+00 -1.00000E+00 -6.67205E-02  2.15350E-01  7.53125E-02  2.81932E-01  5.37769E+00 -7.11537E-01  5.73787E+02 -6.50425E+00  1.00000E+00  1.39987+141  0.00000E+00          NaN
  5.00000E-01 -6.34705E+03  1.17689E-02  4.24228E-02  1.54766E-03  5.77607E-03  5.37769E+00 -7.11537E-01  5.26088E+02 -6.55641E+00 -1.00000E+00 -3.10263E-02  3.19458E-01  7.53140E-02  2.81933E-01  5.37769E+00 -7.11537E-01  5.73787E+02 -6.50425E+00  1.00000E+00  1.39987+141  0.00000E+00          NaN
  5.00000E-01 -5.55367E+03  1.09379E-02  4.00888E-02  1.54769E-03  5.77607E-03  5.37769E+00 -7.11537E-01  5.26088E+02 -6.55641E+00 -1.00000E+00  4.67754E-03  4.23570E-01  7.53155E-02  2.81933E-01  5.37769E+00 -7.11537E-01  5.73787E+02 -6.50425E+00  1.00000E+00  1.39987+141  0.00000E+00          NaN
  5.00000E-01 -4.76029E+03  1.01062E-02  3.77548E-02  1.54770E-03  5.77607E-03  5.37769E+00 -7.11537E-01  5.26088E+02 -6.55641E+00 -1.00000E+00  4.03887E-02  5.27685E-01  7.53170E-02  2.81934E-01  5.37769E+00 -7.11537E-01  5.73787E+02 -6.50425E+00  1.00000E+00  1.39987+141  0.00000E+00          NaN
  5.00000E-01 -3.96691E+03  9.27401E-03  3.54208E-02  1.54772E-03  5.77608E-03  5.37769E+00 -7.11537E-01  5.26088E+02 -6.55641E+00 -1.00000E+00  7.61036E-02  6.31804E-01  7.53186E-02  2.81934E-01  5.37769E+00 -7.11537E-01  5.73787E+02 -6.50425E+00  1.00000E+00  1.39987+141  0.00000E+00          NaN
  5.00000E-01 -3.17353E+03  8.44128E-03  3.30866E-02  1.54774E-03  5.77608E-03  5.37769E+00 -7.11537E-01  5.26088E+02 -6.55641E+00 -1.00000E+00  1.11818E-01  7.35926E-01  7.53203E-02  2.81934E-01  5.37769E+00 -7.11537E-01  5.73787E+02 -6.50425E+00  1.00000E+00  1.39987+141  0.00000E+00          NaN
  5.00000E-01 -2.38015E+03  7.60807E-03  3.07525E-02  1.54775E-03  5.77608E-03  5.37769E+00 -7.11537E-01  5.26088E+02 -6.55641E+00 -1.00000E+00  1.47527E-01  8.40049E-01  7.53222E-02  2.81935E-01  5.37769E+00 -7.11537E-01  5.73787E+02 -6.50425E+00  1.00000E+00  1.39987+141  0.00000E+00          NaN
  5.00000E-01 -1.58676E+03  6.77420E-03  2.84183E-02  1.54777E-03  5.77608E-03  5.37769E+00 -7.11537E-01  5.26088E+02 -6.55641E+00 -1.00000E+00  1.83240E-01  9.44176E-01  7.53243E-02  2.81935E-01  5.37769E+00 -7.11537E-01  5.73787E+02 -6.50425E+00  1.00000E+00  1.39987+141  0.00000E+00          NaN
  5.00000E-01 -7.93382E+02  5.93769E-03  2.60840E-02  1.54779E-03  5.77609E-03  5.37769E+00 -7.11537E-01  5.26088E+02 -6.55641E+00 -1.00000E+00  2.18992E-01  1.04831E+00  7.53263E-02  2.81935E-01  5.37769E+00 -7.11537E-01  5.73787E+02 -6.50425E+00  1.00000E+00  1.39987+141  0.00000E+00          NaN
  5.00000E-01  0.00000E+00  5.08039E-03  2.37492E-02  1.54786E-03  5.77609E-03  5.37769E+00 -7.11537E-01  5.26088E+02 -6.55641E+00 -1.00000E+00  2.54720E-01  1.15245E+00  7.53277E-02  2.81936E-01  5.37769E+00 -7.11537E-01  5.73787E+02 -6.50425E+00  1.00000E+00  1.39987+141  0.00000E+00          NaN
  5.00000E-01  7.93382E+02  4.27010E-03  2.14156E-02  1.54779E-03  5.77609E-03  5.37769E+00 -7.11537E-01  5.26088E+02 -6.55641E+00 -1.00000E+00  2.90849E-01  1.25662E+00  7.53263E-02  2.81935E-01  5.37769E+00 -7.11537E-01  5.73787E+02 -6.50425E+00  1.00000E+00  1.39987+141  0.00000E+00          NaN
  5.00000E-01  1.58676E+03  3.44183E-03  1.90817E-02  1.54777E-03  5.77608E-03  5.37769E+00 -7.11537E-01  5.26088E+02 -6.55641E+00 -1.00000E+00  3.26864E-01  1.36078E+00  7.53243E-02  2.81935E-01  5.37769E+00 -7.11537E-01  5.73787E+02 -6.50425E+00  1.00000E+00  1.39987+141  0.00000E+00          NaN
  5.00000E-01  2.38015E+03  2.61123E-03  1.67477E-02  1.54775E-03  5.77608E-03  5.37769E+00 -7.11537E-01  5.26088E+02 -6.55641E+00 -1.00000E+00  3.62834E-01  1.46494E+00  7.53222E-02  2.81935E-01  5.37769E+00 -7.11537E-01  5.73787E+02 -6.50425E+00  1.00000E+00  1.39987+141  0.00000E+00          NaN
  5.00000E-01  3.17353E+03  1.78076E-03  1.44138E-02  1.54774E-03  5.77608E-03  5.37769E+00 -7.11537E-01  5.26088E+02 -6.55641E+00 -1.00000E+00  3.98751E-01  1.56910E+00  7.53203E-02  2.81934E-01  5.37769E+00 -7.11537E-01  5.73787E+02 -6.50425E+00  1.00000E+00  1.39987+141  0.00000E+00          NaN
  5.00000E-01  3.96691E+03  9.50847E-04  1.20799E-02  1.54772E-03  5.77608E-03  5.37769E+00 -7.11537E-01  5.26088E+02 -6.55641E+00 -1.00000E+00  4.34629E-01  1.67324E+00  7.53186E-02  2.81934E-01  5.37769E+00 -7.11537E-01  5.73787E+02 -6.50425E+00  1.00000E+00  1.39987+141  0.00000E+00          NaN
  5.00000E-01  4.76029E+03  1.21637E-04  9.74611E-03  1.54770E-03  5.77607E-03  5.37769E+00 -7.11537E-01  5.26088E+02 -6.55641E+00 -1.00000E+00  4.70477E-01  1.77739E+00  7.53170E-02  2.81934E-01  5.37769E+00 -7.11537E-01  5.73787E+02 -6.50425E+00  1.00000E+00  1.39987+141  0.00000E+00          NaN
  5.00000E-01  5.55367E+03 -7.06829E-04  7.41241E-03  1.54769E-03  5.77607E-03  5.37769E+00 -7.11537E-01  5.26088E+02 -6.55641E+00 -1.00000E+00  5.06303E-01  1.88152E+00  7.53155E-02  2.81933E-01  5.37769E+00 -7.11537E-01  5.73787E+02 -6.50425E+00  1.00000E+00  1.39987+141  0.00000E+00          NaN
  5.00000E-01  6.34705E+03 -1.53453E-03  5.07880E-03  1.54766E-03  5.77607E-03  5.37769E+00 -7.11537E-01  5.26088E+02 -6.55641E+00 -1.00000E+00  5.42110E-01  1.98566E+00  7.53140E-02  2.81933E-01  5.37769E+00 -7.11537E-01  5.73787E+02 -6.50425E+00  1.00000E+00  1.39987+141  0.00000E+00          NaN
  5.00000E-01  7.14044E+03 -2.36148E-03  2.74527E-03  1.54764E-03  5.77606E-03  5.37769E+00 -7.11537E-01  5.26088E+02 -6.55641E+00 -1.00000E+00  5.77900E-01  2.08979E+00  7.53125E-02  2.81932E-01  5.37769E+00 -7.11537E-01  5.73787E+02 -6.50425E+00  1.00000E+00  1.39987+141  0.00000E+00          NaN
  5.00000E-01  7.93382E+03 -3.18769E-03  4.11834E-04  1.54762E-03  5.77606E-03  5.37769E+00 -7.11537E-01  5.26088E+02 -6.55641E+00 -1.00000E+00  6.13673E-01  2.19391E+00  7.53110E-02  2.81932E-01  5.37769E+00 -7.11537E-01  5.73787E+02 -6.50425E+00  1.00000E+00  1.39987+141  0.00000E+00          NaN
  5.00000E-01  8.72720E+03 -4.01316E-03 -1.92151E-03  1.54760E-03  5.77606E-03  5.37769E+00 -7.11537E-01  5.26088E+02 -6.55641E+00 -1.00000E+00  6.49432E-01  2.29804E+00  7.53095E-02  2.81932E-01  5.37769E+00 -7.11537E-01  5.73787E+02 -6.50425E+00  1.00000E+00  1.39987+141  0.00000E+00          NaN
  5.00000E-01  9.52058E+03 -4.83793E-03 -4.25476E-03  1.54757E-03  5.77605E-03  5.37769E+00 -7.11537E-01  5.26088E+02 -6.55641E+00 -1.00000E+00  6.85176E-01  2.40215E+00  7.53080E-02  2.81931E-01  5.37769E+00 -7.11537E-01  5.73787E+02 -6.50425E+00  1.00000E+00  1.39987+141  0.00000E+00          NaN
  5.00000E-01  1.03140E+04 -5.66202E-03 -6.58793E-03  1.54755E-03  5.77605E-03  5.37769E+00 -7.11537E-01  5.26088E+02 -6.55641E+00 -1.00000E+00  7.20906E-01  2.50627E+00  7.53066E-02  2.81931E-01  5.37769E+00 -7.11537E-01  5.73787E+02 -6.50425E+00  1.00000E+00  1.39987+141  0.00000E+00          NaN
  5.00000E-01  1.11073E+04 -6.48547E-03 -8.92102E-03  1.54752E-03  5.77605E-03  5.37769E+00 -7.11537E-01  5.26088E+02 -6.55641E+00 -1.00000E+00  7.56624E-01  2.61038E+00  7.53052E-02  2.81930E-01  5.37769E+00 -7.11537E-01  5.73787E+02 -6.50425E+00  1.00000E+00  1.39987+141  0.00000E+00          NaN
  5.00000E-01  1.19007E+04 -7.30831E-03 -1.12540E-02  1.54750E-03  5.77604E-03  5.37769E+00 -7.11537E-01  5.26088E+02 -6.55641E+00 -1.00000E+00  7.92330E-01  2.71449E+00  7.53038E-02  2.81930E-01  5.37769E+00 -7.11537E-01  5.73787E+02 -6.50425E+00  1.00000E+00  1.39987+141  0.00000E+00          NaN
  5.00000E-01  1.26941E+04 -8.13059E-03 -1.35869E-02  1.54747E-03  5.77604E-03  5.37769E+00 -7.11537E-01  5.26088E+02 -6.55641E+00 -1.00000E+00  8.28026E-01  2.81859E+00  7.53025E-02  2.81930E-01  5.37769E+00 -7.11537E-01  5.73787E+02 -6.50425E+00  1.00000E+00  1.39987+141  0.00000E+00          NaN
  5.00000E-01  1.34875E+04 -8.95232E-03 -1.59198E-02  1.54745E-03  5.77604E-03  5.37769E+00 -7.11537E-01  5.26088E+02 -6.55641E+00 -1.00000E+00  8.63711E-01  2.92269E+00  7.53013E-02  2.81929E-01  5.37769E+00 -7.11537E-01  5.73787E+02 -6.50425E+00  1.00000E+00  1.39987+141  0.00000E+00          NaN
  5.00000E-01  1.42809E+04 -9.77357E-03 -1.82526E-02  1.54742E-03  5.77603E-03  5.37769E+00 -7.11537E-01  5.26088E+02 -6.55641E+00 -1.00000E+00  8.99387E-01  3.02679E+00  7.53001E-02  2.81929E-01  5.37769E+00 -7.11537E-01  5.73787E+02 -6.50425E+00  1.00000E+00  1.39987+141  0.00000E+00          NaN
  5.00000E-01  1.50743E+04 -1.05944E-02 -2.05853E-02  1.54740E-03  5.77603E-03  5.37769E+00 -7.11537E-01  5.26088E+02 -6.55641E+00 -1.00000E+00  9.35056E-01  3.13089E+00  7.52989E-02  2.81929E-01  5.37769E+00 -7.11537E-01  5.73787E+02 -6.50425E+00  1.00000E+00  1.39987+141  0.00000E+00          NaN
  5.00000E-01  1.58676E+04 -1.14147E-02 -2.29180E-02  1.54737E-03  5.77602E-03  5.37769E+00 -7.11537E-01  5.26088E+02 -6.55641E+00 -1.00000E+00  9.70717E-01  3.23498E+00  7.52978E-02  2.81928E-01  5.37769E+00 -7.11537E-01  5.73787E+02 -6.50425E+00  1.00000E+00  1.39987+141  0.00000E+00          NaN
  5.00000E-01  1.66610E+04 -1.22347E-02 -2.52506E-02  1.54735E-03  5.77602E-03  5.37769E+00 -7.11537E-01  5.26088E+02 -6.55641E+00 -1.00000E+00  1.00637E+00  3.33907E+00  7.52968E-02  2.81928E-01  5.37769E+00 -7.11537E-01  5.73787E+02 -6.50425E+00  1.00000E+00  1.39987+141  0.00000E+00          NaN
  5.00000E-01  1.74544E+04 -1.30544E-02 -2.75831E-02  1.54732E-03  5.77602E-03  5.37769E+00 -7.11537E-01  5.26088E+02 -6.55641E+00 -1.00000E+00  1.04202E+00  3.44316E+00  7.52958E-02  2.81928E-01  5.37769E+00 -7.11537E-01  5.73787E+02 -6.50425E+00  1.00000E+00  1.39987+141  0.00000E+00          NaN
  5.00000E-01  1.82478E+04 -1.38737E-02 -2.99156E-02  1.54730E-03  5.77601E-03  5.37769E+00 -7.11537E-01  5.26088E+02 -6.55641E+00 -1.00000E+00  1.07766E+00  3.54725E+00  7.52949E-02  2.81928E-01  5.37769E+00 -7.11537E-01  5.73787E+02 -6.50425E+00  1.00000E+00  1.39987+141  0.00000E+00          NaN
  5.00000E-01  1.90412E+04 -1.46928E-02 -3.22481E-02  1.54728E-03  5.77601E-03  5.37769E+00 -7.11537E-01  5.26088E+02 -6.55641E+00 -1.00000E+00  1.11330E+00  3.65134E+00  7.52940E-02  2.81927E-01  5.37769E+00 -7.11537E-01  5.73787E+02 -6.50425E+00  1.00000E+00  1.39987+141  0.00000E+00          NaN
  5.00000E-01 -5.55367E+03  1.09379E-02  4.00888E-02  1.54769E-03  5.77607E-03  5.37769E+00 -7.11537E-01  5.26088E+02 -6.55641E+00 -1.00000E+00  4.67754E-03  4.23570E-01  7.53155E-02  2.81933E-01  5.37769E+00 -7.11537E-01  5.73787E+02 -6.50425E+00  1.00000E+00  1.39987+141  0.00000E+00          NaN
  5.00000E-01 -4.76029E+03  1.01062E-02  3.77548E-02  1.54770E-03  5.77607E-03  5.37769E+00 -7.11537E-01  5.26088E+02 -6.55641E+00 -1.00000E+00  4.03887E-02  5.27685E-01  7.53170E-02  2.81934E-01  5.37769E+00 -7.11537E-01  5.73787E+02 -6.50425E+00  1.00000E+00  1.39987+141  0.00000E+00          NaN
  5.00000E-01 -5.15698E+03  1.05221E-02  3.89218E-02  1.54769E-03  5.77607E-03  5.37769E+00 -7.11537E-01  5.26088E+02 -6.55641E+00 -1.00000E+00  2.25324E-02  4.75627E-01  7.53162E-02  2.81933E-01  5.37769E+00 -7.11537E-01  5.73787E+02 -6.50425E+00  1.00000E+00  1.39987+141  0.00000E+00          NaN
  5.00000E-01 -5.35533E+03  1.07300E-02  3.95053E-02  1.54769E-03  5.77607E-03  5.37769E+00 -7.11537E-01  5.26088E+02 -6.55641E+00 -1.00000E+00  1.36048E-02  4.49599E-01  7.53159E-02  2.81933E-01  5.37769E+00 -7.11537E-01  5.73787E+02 -6.50425E+00  1.00000E+00  1.39987+141  0.00000E+00          NaN
  5.00000E-01 -5.45450E+03  1.08339E-02  3.97971E-02  1.54769E-03  5.77607E-03  5.37769E+00 -7.11537E-01  5.26088E+02 -6.55641E+00 -1.00000E+00  9.14109E-03  4.36584E-01  7.53157E-02  2.81933E-01  5.37769E+00 -7.11537E-01  5.73787E+02 -6.50425E+00  1.00000E+00  1.39987+141  0.00000E+00          NaN
