Welcome to Extrae 4.0.1
Extrae: Parsing the configuration file (./extrae.xml) begins
Extrae: Tracing package is located on /apps/BSCTOOLS/extrae/4.0.1/impi_2018_1
Extrae: Generating intermediate files for Paraver traces.
Extrae: MPI routines will collect HW counters information.
Extrae: All MPI_Comm_* calls will be traced.
Extrae: Warning! <openmp> tag will be ignored. This library does not support OpenMP.
Extrae: Tracing 3 level(s) of MPI callers: [ 1 2 3 ]
Extrae: Resource usage is disabled at flush buffer.
Extrae: Memory usage is disabled at flush buffer.
Extrae: Tracing buffer can hold 5000000 events
Extrae: Circular buffer disabled.
Extrae: Sampling buffers will be written at instrumentation points
Extrae: Dynamic memory instrumentation is disabled.
Extrae: Basic I/O memory instrumentation is disabled.
Extrae: System calls instrumentation is disabled.
Extrae: Parsing the configuration file (./extrae.xml) has ended
Extrae: Intermediate traces will be stored in /gpfs/projects/bsc99/bsc99206/KNOSOS/runs/extrae
Extrae: Tracing mode is set to: Detail.
Extrae: Successfully initiated with 8 tasks and 1 threads

Extrae: Temporal directory (/gpfs/projects/bsc99/bsc99206/KNOSOS/runs/extrae) is shared among processes.
Extrae: Final directory (/gpfs/projects/bsc99/bsc99206/KNOSOS/runs/extrae) is shared among processes.
Extrae: Successfully initiated with 8 tasks and 1 threads

