Welcome to Extrae 4.0.1
Extrae: Parsing the configuration file (./extrae.xml) begins
Extrae: Tracing package is located on /apps/BSCTOOLS/extrae/4.0.1/impi_2018_1
Extrae: Generating intermediate files for Paraver traces.
Extrae: MPI routines will collect HW counters information.
Extrae: All MPI_Comm_* calls will be traced.
Extrae: Warning! <openmp> tag will be ignored. This library does not support OpenMP.
Extrae: Tracing 3 level(s) of MPI callers: [ 1 2 3 ]
Extrae: Resource usage is disabled at flush buffer.
Extrae: Memory usage is disabled at flush buffer.
Extrae: Tracing buffer can hold 5000000 events
Extrae: Circular buffer disabled.
Extrae: Sampling buffers will be written at instrumentation points
Extrae: Dynamic memory instrumentation is disabled.
Extrae: Basic I/O memory instrumentation is disabled.
Extrae: System calls instrumentation is disabled.
Extrae: Parsing the configuration file (./extrae.xml) has ended
Extrae: Intermediate traces will be stored in /gpfs/projects/bsc99/bsc99206/KNOSOS/runs/extrae_debug
Extrae: Tracing mode is set to: Detail.
Extrae: Successfully initiated with 2 tasks and 1 threads

Extrae: Temporal directory (/gpfs/projects/bsc99/bsc99206/KNOSOS/runs/extrae_debug) is shared among processes.
Extrae: Final directory (/gpfs/projects/bsc99/bsc99206/KNOSOS/runs/extrae_debug) is shared among processes.
Extrae: Successfully initiated with 2 tasks and 1 threads

Extrae: Intermediate raw trace file created : /gpfs/projects/bsc99/bsc99206/KNOSOS/runs/extrae_debug/set-0/TRACE@s20r2b46.0000013801000001000000.mpit
Extrae: Intermediate raw trace file created : /gpfs/projects/bsc99/bsc99206/KNOSOS/runs/extrae_debug/set-0/TRACE@s20r2b46.0000013802000000000000.mpit
Extrae: Intermediate raw sym file created : /gpfs/projects/bsc99/bsc99206/KNOSOS/runs/extrae_debug/set-0/TRACE@s20r2b46.0000013801000001000000.sym
Extrae: Intermediate raw sym file created : /gpfs/projects/bsc99/bsc99206/KNOSOS/runs/extrae_debug/set-0/TRACE@s20r2b46.0000013802000000000000.sym
Extrae: Deallocating memory.
Extrae: Application has ended. Tracing has been terminated.
mpi2prv: Proceeding with the merge of the intermediate tracefiles.
mpi2prv: Executing the merge process (using /gpfs/projects/bsc99/bsc99206/KNOSOS/runs/extrae_debug/TRACE.mpits).
merger: Extrae 4.0.1
mpi2prv: Tree order is set to 16 but is larger that numtasks. Setting tree order to 2
mpi2prv: Assigned nodes < s20r2b46, s20r2b46 >
mpi2prv: Assigned size per processor < <1 Mbyte, <1 Mbyte >
mpi2prv: File /gpfs/projects/bsc99/bsc99206/KNOSOS/runs/extrae_debug/set-0/TRACE@s20r2b46.0000013802000000000000.mpit is object 1.1.1 on node s20r2b46 assigned to processor 0
mpi2prv: File /gpfs/projects/bsc99/bsc99206/KNOSOS/runs/extrae_debug/set-0/TRACE@s20r2b46.0000013801000001000000.mpit is object 1.2.1 on node s20r2b46 assigned to processor 1
mpi2prv: Time synchronization has been turned off
mpi2prv: Checking for target directory existence... exists, ok!
mpi2prv: Selected output trace format is Paraver
mpi2prv: Stored trace format is Paraver
mpi2prv: Enabling Time Synchronization (Node).
mpi2prv: Circular buffer enabled at tracing time? NO
mpi2prv: Parsing intermediate files
mpi2prv: Processor 0 succeeded to translate its assigned files
mpi2prv: Processor 1 succeeded to translate its assigned files
mpi2prv: Elapsed time translating files: 0 hours 0 minutes 0 seconds
mpi2prv: Gathering addresses across processors... done
mpi2prv: Elapsed time broadcasting and sorting addresses: 0 hours 0 minutes 0 seconds
mpi2prv: Starting the distribution of foreign receives.
mpi2prv: Processor 0 is storing 0 foreign receives (0 Kbytes) for the next phase.
mpi2prv: Processor 1 is storing 0 foreign receives (0 Kbytes) for the next phase.
mpi2prv: Ended the distribution of foreign receives.
mpi2prv: Sharing information < MPI OpenMP pthread CUDA HWC MISC callers files >
mpi2prv: Elapsed time sharing communications: 0 hours 0 minutes 0 seconds
mpi2prv: Sharing thread accounting information for ptask 0 done
mpi2prv: Merge tree depth for 2 tasks is 1 levels using a fan-out of 2 leaves
mpi2prv: Executing merge tree step 1 of 1.
mpi2prv: Generating tracefile (intermediate buffers of 1118464 events)
         This process can take a while. Please, be patient.
mpi2prv: Progress ... 5% 10% 15% 20% 25% 30% 35% 40% 45% 51% 56% 61% 66% 71% 75% 80% 85% 90% 95% done
mpi2prv: Elapsed time on tree step 1: 0 hours 0 minutes 0 seconds
mpi2prv: Resulting tracefile occupies 10173 bytes
mpi2prv: Removing temporal files... done
mpi2prv: Elapsed time removing temporal files: 0 hours 0 minutes 0 seconds
mpi2prv: Congratulations! knosos.x.0003.prv has been generated.
