Set INTEL compilers as MPI wrappers backend 
remove impi/2017.4 (PATH, MANPATH, LD_LIBRARY_PATH) 
load impi/2017.4 (PATH, MANPATH, LD_LIBRARY_PATH) 
remove mkl/2017.4 (LD_LIBRARY_PATH) 
load mkl/2017.4 (LD_LIBRARY_PATH) 
load netcdf/4.4.1.1 (PATH, LD_LIBRARY_PATH, NETCDF, HDF5/1.8.19 is used
internally) 
load dlb/git (PATH): DLB 3.3a 

The following have been reloaded with a version change:
  1) intel/2017.4 => intel/2018.4

slurmstepd: error: execve(): knosos.x: No such file or directory
slurmstepd: error: execve(): knosos.x: No such file or directory
slurmstepd: error: execve(): knosos.x: No such file or directory
slurmstepd: error: execve(): knosos.x: No such file or directory
slurmstepd: error: execve(): knosos.x: No such file or directory
slurmstepd: error: execve(): knosos.x: No such file or directory
slurmstepd: error: execve(): knosos.x: No such file or directory
slurmstepd: error: execve(): knosos.x: No such file or directory
srun: error: s20r2b35: tasks 0-7: Exited with exit code 2
srun: launch/slurm: _step_signal: Terminating StepId=23832022.0

real	0m0.499s
user	0m0.032s
sys	0m0.016s
