WARNING! There are options you set that were not used!
WARNING! could be spelling mistake, etc!
There are 3 unused database options. They are:
WARNING! There are options you set that were not used!
WARNING! could be spelling mistake, etc!
There are 3 unused database options. They are:
Option left: name:--talp (no value)
Option left: name:--talp-output-file=TALP.json (no value)
Option left: name:--talp-summary=all (no value)
WARNING! There are options you set that were not used!
WARNING! could be spelling mistake, etc!
There are 3 unused database options. They are:
Option left: name:--talp (no value)
Option left: name:--talp-output-file=TALP.json (no value)
Option left: name:--talp-summary=all (no value)
WARNING! There are options you set that were not used!
WARNING! There are options you set that were not used!
WARNING! could be spelling mistake, etc!
There are 3 unused database options. They are:
Option left: name:--talp (no value)
Option left: name:--talp-output-file=TALP.json (no value)
Option left: name:--talp-summary=all (no value)
WARNING! There are options you set that were not used!
WARNING! could be spelling mistake, etc!
There are 3 unused database options. They are:
Option left: name:--talp (no value)
Option left: name:--talp-output-file=TALP.json (no value)
Option left: name:--talp-summary=all (no value)
WARNING! There are options you set that were not used!
WARNING! could be spelling mistake, etc!
There are 3 unused database options. They are:
Option left: name:--talp (no value)
Option left: name:--talp-output-file=TALP.json (no value)
Option left: name:--talp-summary=all (no value)
WARNING! There are options you set that were not used!
WARNING! could be spelling mistake, etc!
There are 3 unused database options. They are:
Option left: name:--talp (no value)
Option left: name:--talp-output-file=TALP.json (no value)
Option left: name:--talp-summary=all (no value)
WARNING! There are options you set that were not used!
WARNING! could be spelling mistake, etc!
There are 3 unused database options. They are:
Option left: name:--talp (no value)
Option left: name:--talp-output-file=TALP.json (no value)
Option left: name:--talp-summary=all (no value)
WARNING! There are options you set that were not used!
WARNING! could be spelling mistake, etc!
There are 3 unused database options. They are:
Option left: name:--talp (no value)
Option left: name:--talp-output-file=TALP.json (no value)
Option left: name:--talp-summary=all (no value)
Option left: name:--talp (no value)
Option left: name:--talp-output-file=TALP.json (no value)
Option left: name:--talp-summary=all (no value)
WARNING! There are options you set that were not used!
WARNING! could be spelling mistake, etc!
There are 3 unused database options. They are:
Option left: name:--talp (no value)
Option left: name:--talp-output-file=TALP.json (no value)
Option left: name:--talp-summary=all (no value)
WARNING! There are options you set that were not used!
WARNING! could be spelling mistake, etc!
There are 3 unused database options. They are:
Option left: name:--talp (no value)
Option left: name:--talp-output-file=TALP.json (no value)
Option left: name:--talp-summary=all (no value)
WARNING! There are options you set that were not used!
WARNING! could be spelling mistake, etc!
There are 3 unused database options. They are:
Option left: name:--talp (no value)
Option left: name:--talp-output-file=TALP.json (no value)
Option left: name:--talp-summary=all (no value)
WARNING! There are options you set that were not used!
WARNING! could be spelling mistake, etc!
There are 3 unused database options. They are:
Option left: name:--talp (no value)
Option left: name:--talp-output-file=TALP.json (no value)
Option left: name:--talp-summary=all (no value)
WARNING! There are options you set that were not used!
WARNING! could be spelling mistake, etc!
There are 3 unused database options. They are:
Option left: name:--talp (no value)
Option left: name:--talp-output-file=TALP.json (no value)
Option left: name:--talp-summary=all (no value)
WARNING! There are options you set that were not used!
WARNING! could be spelling mistake, etc!
There are 3 unused database options. They are:
Option left: name:--talp (no value)
Option left: name:--talp-output-file=TALP.json (no value)
Option left: name:--talp-summary=all (no value)
WARNING! There are options you set that were not used!
WARNING! could be spelling mistake, etc!
There are 3 unused database options. They are:
Option left: name:--talp (no value)
Option left: name:--talp-output-file=TALP.json (no value)
Option left: name:--talp-summary=all (no value)
WARNING! There are options you set that were not used!
WARNING! could be spelling mistake, etc!
There are 3 unused database options. They are:
Option left: name:--talp (no value)
Option left: name:--talp-output-file=TALP.json (no value)
Option left: name:--talp-summary=all (no value)
WARNING! There are options you set that were not used!
WARNING! could be spelling mistake, etc!
There are 3 unused database options. They are:
Option left: name:--talp (no value)
Option left: name:--talp-output-file=TALP.json (no value)
Option left: name:--talp-summary=all (no value)
WARNING! There are options you set that were not used!
WARNING! could be spelling mistake, etc!
There are 3 unused database options. They are:
Option left: name:--talp (no value)
Option left: name:--talp-output-file=TALP.json (no value)
Option left: name:--talp-summary=all (no value)
WARNING! There are options you set that were not used!
WARNING! could be spelling mistake, etc!
There are 3 unused database options. They are:
Option left: name:--talp (no value)
Option left: name:--talp-output-file=TALP.json (no value)
Option left: name:--talp-summary=all (no value)
WARNING! There are options you set that were not used!
WARNING! could be spelling mistake, etc!
There are 3 unused database options. They are:
Option left: name:--talp (no value)
Option left: name:--talp-output-file=TALP.json (no value)
Option left: name:--talp-summary=all (no value)
WARNING! could be spelling mistake, etc!
There are 3 unused database options. They are:
Option left: name:--talp (no value)
Option left: name:--talp-output-file=TALP.json (no value)
Option left: name:--talp-summary=all (no value)
