s E_r[V/m] (\Gamma_b/n_b[m/s]  Q_b/n_b/T_b[m/s] L_1^b[m^2/s] L_2^b[m^2/s]  Z_b n_b[10^{19}m^{-3}] dlnn_b/dr[m^{-1}] T_b[eV] dlnT_b/dr[m^{-1}], b=1,NBB), size(e\varphi_1/T_i) 
  9.50000E-01 -1.21155E+04  1.40443E-02  3.19605E-02  2.37809E-04  7.58984E-04  3.82008E+00 -5.66261E+00  1.23075E+02 -1.79085E+01 -1.00000E+00 -1.73218E-01 -3.94624E-01  5.88804E-03  2.21504E-02  3.82008E+00 -5.66261E+00  9.98797E+01 -2.14935E+01  1.00000E+00  6.46254-201  0.00000E+00          NaN
  9.50000E-01 -1.16107E+04  1.35597E-02  3.09973E-02  2.37960E-04  7.59049E-04  3.82008E+00 -5.66261E+00  1.23075E+02 -1.79085E+01 -1.00000E+00 -1.64789E-01 -3.66882E-01  5.90560E-03  2.21732E-02  3.82008E+00 -5.66261E+00  9.98797E+01 -2.14935E+01  1.00000E+00  6.46254-201  0.00000E+00          NaN
  9.50000E-01 -1.11059E+04  1.30724E-02  3.00330E-02  2.38113E-04  7.59115E-04  3.82008E+00 -5.66261E+00  1.23075E+02 -1.79085E+01 -1.00000E+00 -1.56294E-01 -3.39041E-01  5.92382E-03  2.21966E-02  3.82008E+00 -5.66261E+00  9.98797E+01 -2.14935E+01  1.00000E+00  6.46254-201  0.00000E+00          NaN
  9.50000E-01 -1.06010E+04  1.25823E-02  2.90677E-02  2.38269E-04  7.59182E-04  3.82008E+00 -5.66261E+00  1.23075E+02 -1.79085E+01 -1.00000E+00 -1.47730E-01 -3.11095E-01  5.94275E-03  2.22207E-02  3.82008E+00 -5.66261E+00  9.98797E+01 -2.14935E+01  1.00000E+00  6.46254-201  0.00000E+00          NaN
  9.50000E-01 -1.00962E+04  1.20892E-02  2.81013E-02  2.38429E-04  7.59250E-04  3.82008E+00 -5.66261E+00  1.23075E+02 -1.79085E+01 -1.00000E+00 -1.39091E-01 -2.83039E-01  5.96242E-03  2.22455E-02  3.82008E+00 -5.66261E+00  9.98797E+01 -2.14935E+01  1.00000E+00  6.46254-201  0.00000E+00          NaN
  9.50000E-01 -9.59142E+03  1.15930E-02  2.71338E-02  2.38591E-04  7.59318E-04  3.82008E+00 -5.66261E+00  1.23075E+02 -1.79085E+01 -1.00000E+00 -1.30372E-01 -2.54864E-01  5.98288E-03  2.22709E-02  3.82008E+00 -5.66261E+00  9.98797E+01 -2.14935E+01  1.00000E+00  6.46254-201  0.00000E+00          NaN
  9.50000E-01 -9.08661E+03  1.10935E-02  2.61651E-02  2.38756E-04  7.59387E-04  3.82008E+00 -5.66261E+00  1.23075E+02 -1.79085E+01 -1.00000E+00 -1.21569E-01 -2.26566E-01  6.00416E-03  2.22971E-02  3.82008E+00 -5.66261E+00  9.98797E+01 -2.14935E+01  1.00000E+00  6.46254-201  0.00000E+00          NaN
  9.50000E-01 -8.58180E+03  1.05904E-02  2.51952E-02  2.38924E-04  7.59457E-04  3.82008E+00 -5.66261E+00  1.23075E+02 -1.79085E+01 -1.00000E+00 -1.12674E-01 -1.98136E-01  6.02632E-03  2.23239E-02  3.82008E+00 -5.66261E+00  9.98797E+01 -2.14935E+01  1.00000E+00  6.46254-201  0.00000E+00          NaN
  9.50000E-01 -8.07699E+03  1.00837E-02  2.42241E-02  2.39094E-04  7.59528E-04  3.82008E+00 -5.66261E+00  1.23075E+02 -1.79085E+01 -1.00000E+00 -1.03681E-01 -1.69568E-01  6.04942E-03  2.23514E-02  3.82008E+00 -5.66261E+00  9.98797E+01 -2.14935E+01  1.00000E+00  6.46254-201  0.00000E+00          NaN
  9.50000E-01 -7.57217E+03  9.57307E-03  2.32516E-02  2.39267E-04  7.59600E-04  3.82008E+00 -5.66261E+00  1.23075E+02 -1.79085E+01 -1.00000E+00 -9.45833E-02 -1.40853E-01  6.07352E-03  2.23797E-02  3.82008E+00 -5.66261E+00  9.98797E+01 -2.14935E+01  1.00000E+00  6.46254-201  0.00000E+00          NaN
  9.50000E-01 -7.06736E+03  9.05844E-03  2.22778E-02  2.39441E-04  7.59672E-04  3.82008E+00 -5.66261E+00  1.23075E+02 -1.79085E+01 -1.00000E+00 -8.53728E-02 -1.11982E-01  6.09868E-03  2.24087E-02  3.82008E+00 -5.66261E+00  9.98797E+01 -2.14935E+01  1.00000E+00  6.46254-201  0.00000E+00          NaN
  9.50000E-01 -6.56255E+03  8.53962E-03  2.13027E-02  2.39616E-04  7.59745E-04  3.82008E+00 -5.66261E+00  1.23075E+02 -1.79085E+01 -1.00000E+00 -7.60408E-02 -8.29476E-02  6.12499E-03  2.24384E-02  3.82008E+00 -5.66261E+00  9.98797E+01 -2.14935E+01  1.00000E+00  6.46254-201  0.00000E+00          NaN
  9.50000E-01 -6.05774E+03  8.01646E-03  2.03261E-02  2.39793E-04  7.59819E-04  3.82008E+00 -5.66261E+00  1.23075E+02 -1.79085E+01 -1.00000E+00 -6.65781E-02 -5.37391E-02  6.15253E-03  2.24688E-02  3.82008E+00 -5.66261E+00  9.98797E+01 -2.14935E+01  1.00000E+00  6.46254-201  0.00000E+00          NaN
  9.50000E-01 -5.55293E+03  7.48885E-03  1.93481E-02  2.39969E-04  7.59894E-04  3.82008E+00 -5.66261E+00  1.23075E+02 -1.79085E+01 -1.00000E+00 -5.69741E-02 -2.43461E-02  6.18141E-03  2.25000E-02  3.82008E+00 -5.66261E+00  9.98797E+01 -2.14935E+01  1.00000E+00  6.46254-201  0.00000E+00          NaN
  9.50000E-01 -5.04812E+03  6.95667E-03  1.83687E-02  2.40146E-04  7.59969E-04  3.82008E+00 -5.66261E+00  1.23075E+02 -1.79085E+01 -1.00000E+00 -4.72175E-02  5.24250E-03  6.21173E-03  2.25319E-02  3.82008E+00 -5.66261E+00  9.98797E+01 -2.14935E+01  1.00000E+00  6.46254-201  0.00000E+00          NaN
  9.50000E-01 -4.54330E+03  6.41985E-03  1.73878E-02  2.40323E-04  7.60044E-04  3.82008E+00 -5.66261E+00  1.23075E+02 -1.79085E+01 -1.00000E+00 -3.72962E-02  3.50392E-02  6.24362E-03  2.25644E-02  3.82008E+00 -5.66261E+00  9.98797E+01 -2.14935E+01  1.00000E+00  6.46254-201  0.00000E+00          NaN
  9.50000E-01 -4.03849E+03  5.87828E-03  1.64055E-02  2.40500E-04  7.60120E-04  3.82008E+00 -5.66261E+00  1.23075E+02 -1.79085E+01 -1.00000E+00 -2.71977E-02  6.50572E-02  6.27722E-03  2.25976E-02  3.82008E+00 -5.66261E+00  9.98797E+01 -2.14935E+01  1.00000E+00  6.46254-201  0.00000E+00          NaN
  9.50000E-01 -3.53368E+03  5.33177E-03  1.54218E-02  2.40679E-04  7.60197E-04  3.82008E+00 -5.66261E+00  1.23075E+02 -1.79085E+01 -1.00000E+00 -1.69104E-02  9.53097E-02  6.31271E-03  2.26313E-02  3.82008E+00 -5.66261E+00  9.98797E+01 -2.14935E+01  1.00000E+00  6.46254-201  0.00000E+00          NaN
  9.50000E-01 -3.02887E+03  4.77991E-03  1.44367E-02  2.40864E-04  7.60274E-04  3.82008E+00 -5.66261E+00  1.23075E+02 -1.79085E+01 -1.00000E+00 -6.42522E-03  1.25810E-01  6.35031E-03  2.26655E-02  3.82008E+00 -5.66261E+00  9.98797E+01 -2.14935E+01  1.00000E+00  6.46254-201  0.00000E+00          NaN
  9.50000E-01 -2.52406E+03  4.22177E-03  1.34500E-02  2.41061E-04  7.60354E-04  3.82008E+00 -5.66261E+00  1.23075E+02 -1.79085E+01 -1.00000E+00  4.26274E-03  1.56568E-01  6.39038E-03  2.26999E-02  3.82008E+00 -5.66261E+00  9.98797E+01 -2.14935E+01  1.00000E+00  6.46254-201  0.00000E+00          NaN
  9.50000E-01 -2.01925E+03  3.65526E-03  1.24617E-02  2.41283E-04  7.60436E-04  3.82008E+00 -5.66261E+00  1.23075E+02 -1.79085E+01 -1.00000E+00  1.51556E-02  1.87594E-01  6.43344E-03  2.27345E-02  3.82008E+00 -5.66261E+00  9.98797E+01 -2.14935E+01  1.00000E+00  6.46254-201  0.00000E+00          NaN
  9.50000E-01 -1.51443E+03  3.07601E-03  1.14712E-02  2.41551E-04  7.60525E-04  3.82008E+00 -5.66261E+00  1.23075E+02 -1.79085E+01 -1.00000E+00  2.62601E-02  2.18904E-01  6.48004E-03  2.27688E-02  3.82008E+00 -5.66261E+00  9.98797E+01 -2.14935E+01  1.00000E+00  6.46254-201  0.00000E+00          NaN
  9.50000E-01 -1.00962E+03  2.47623E-03  1.04778E-02  2.41891E-04  7.60623E-04  3.82008E+00 -5.66261E+00  1.23075E+02 -1.79085E+01 -1.00000E+00  3.75734E-02  2.50525E-01  6.53035E-03  2.28021E-02  3.82008E+00 -5.66261E+00  9.98797E+01 -2.14935E+01  1.00000E+00  6.46254-201  0.00000E+00          NaN
  9.50000E-01 -5.04812E+02  1.84890E-03  9.48079E-03  2.42282E-04  7.60726E-04  3.82008E+00 -5.66261E+00  1.23075E+02 -1.79085E+01 -1.00000E+00  4.88651E-02  2.82439E-01  6.58573E-03  2.28328E-02  3.82008E+00 -5.66261E+00  9.98797E+01 -2.14935E+01  1.00000E+00  6.46254-201  0.00000E+00          NaN
  9.50000E-01 -2.59281E-13  1.12068E-03  8.48019E-03  2.42677E-04  7.60811E-04  3.82008E+00 -5.66261E+00  1.23075E+02 -1.79085E+01 -1.00000E+00  5.79766E-02  3.14613E-01  6.65406E-03  2.28656E-02  3.82008E+00 -5.66261E+00  9.98797E+01 -2.14935E+01  1.00000E+00  6.46254-201  0.00000E+00          NaN
  9.50000E-01  5.04812E+02  6.54275E-04  7.49328E-03  2.42282E-04  7.60726E-04  3.82008E+00 -5.66261E+00  1.23075E+02 -1.79085E+01 -1.00000E+00  7.84839E-02  3.49010E-01  6.58573E-03  2.28328E-02  3.82008E+00 -5.66261E+00  9.98797E+01 -2.14935E+01  1.00000E+00  6.46254-201  0.00000E+00          NaN
  9.50000E-01  1.00962E+03  1.33720E-04  6.50919E-03  2.41891E-04  7.60623E-04  3.82008E+00 -5.66261E+00  1.23075E+02 -1.79085E+01 -1.00000E+00  9.42167E-02  3.82548E-01  6.53035E-03  2.28021E-02  3.82008E+00 -5.66261E+00  9.98797E+01 -2.14935E+01  1.00000E+00  6.46254-201  0.00000E+00          NaN
  9.50000E-01  1.51443E+03 -3.81800E-04  5.52666E-03  2.41551E-04  7.60525E-04  3.82008E+00 -5.66261E+00  1.23075E+02 -1.79085E+01 -1.00000E+00  1.08371E-01  4.15412E-01  6.48004E-03  2.27688E-02  3.82008E+00 -5.66261E+00  9.98797E+01 -2.14935E+01  1.00000E+00  6.46254-201  0.00000E+00          NaN
  9.50000E-01  2.01925E+03 -9.02091E-04  4.54440E-03  2.41283E-04  7.60436E-04  3.82008E+00 -5.66261E+00  1.23075E+02 -1.79085E+01 -1.00000E+00  1.21541E-01  4.47721E-01  6.43344E-03  2.27345E-02  3.82008E+00 -5.66261E+00  9.98797E+01 -2.14935E+01  1.00000E+00  6.46254-201  0.00000E+00          NaN
  9.50000E-01  2.52406E+03 -1.42652E-03  3.56251E-03  2.41061E-04  7.60354E-04  3.82008E+00 -5.66261E+00  1.23075E+02 -1.79085E+01 -1.00000E+00  1.33998E-01  4.79550E-01  6.39038E-03  2.26999E-02  3.82008E+00 -5.66261E+00  9.98797E+01 -2.14935E+01  1.00000E+00  6.46254-201  0.00000E+00          NaN
  9.50000E-01  3.02887E+03 -1.95249E-03  2.58137E-03  2.40864E-04  7.60274E-04  3.82008E+00 -5.66261E+00  1.23075E+02 -1.79085E+01 -1.00000E+00  1.45903E-01  5.10958E-01  6.35031E-03  2.26655E-02  3.82008E+00 -5.66261E+00  9.98797E+01 -2.14935E+01  1.00000E+00  6.46254-201  0.00000E+00          NaN
  9.50000E-01  3.53368E+03 -2.47787E-03  1.60127E-03  2.40679E-04  7.60197E-04  3.82008E+00 -5.66261E+00  1.23075E+02 -1.79085E+01 -1.00000E+00  1.57360E-01  5.41989E-01  6.31271E-03  2.26313E-02  3.82008E+00 -5.66261E+00  9.98797E+01 -2.14935E+01  1.00000E+00  6.46254-201  0.00000E+00          NaN
  9.50000E-01  4.03849E+03 -3.00119E-03  6.22399E-04  2.40500E-04  7.60120E-04  3.82008E+00 -5.66261E+00  1.23075E+02 -1.79085E+01 -1.00000E+00  1.68441E-01  5.72678E-01  6.27722E-03  2.25976E-02  3.82008E+00 -5.66261E+00  9.98797E+01 -2.14935E+01  1.00000E+00  6.46254-201  0.00000E+00          NaN
  9.50000E-01  4.54330E+03 -3.52154E-03 -3.55104E-04  2.40323E-04  7.60044E-04  3.82008E+00 -5.66261E+00  1.23075E+02 -1.79085E+01 -1.00000E+00  1.79198E-01  6.03056E-01  6.24362E-03  2.25644E-02  3.82008E+00 -5.66261E+00  9.98797E+01 -2.14935E+01  1.00000E+00  6.46254-201  0.00000E+00          NaN
  9.50000E-01  5.04812E+03 -4.03834E-03 -1.33118E-03  2.40146E-04  7.59969E-04  3.82008E+00 -5.66261E+00  1.23075E+02 -1.79085E+01 -1.00000E+00  1.89672E-01  6.33149E-01  6.21173E-03  2.25319E-02  3.82008E+00 -5.66261E+00  9.98797E+01 -2.14935E+01  1.00000E+00  6.46254-201  0.00000E+00          NaN
  9.50000E-01  5.55293E+03 -4.55130E-03 -2.30579E-03  2.39969E-04  7.59894E-04  3.82008E+00 -5.66261E+00  1.23075E+02 -1.79085E+01 -1.00000E+00  1.99897E-01  6.62979E-01  6.18141E-03  2.25000E-02  3.82008E+00 -5.66261E+00  9.98797E+01 -2.14935E+01  1.00000E+00  6.46254-201  0.00000E+00          NaN
  9.50000E-01  6.05774E+03 -5.06028E-03 -3.27895E-03  2.39793E-04  7.59819E-04  3.82008E+00 -5.66261E+00  1.23075E+02 -1.79085E+01 -1.00000E+00  2.09901E-01  6.92567E-01  6.15253E-03  2.24688E-02  3.82008E+00 -5.66261E+00  9.98797E+01 -2.14935E+01  1.00000E+00  6.46254-201  0.00000E+00          NaN
  9.50000E-01  6.56255E+03 -5.56527E-03 -4.25068E-03  2.39616E-04  7.59745E-04  3.82008E+00 -5.66261E+00  1.23075E+02 -1.79085E+01 -1.00000E+00  2.19706E-01  7.21931E-01  6.12499E-03  2.24384E-02  3.82008E+00 -5.66261E+00  9.98797E+01 -2.14935E+01  1.00000E+00  6.46254-201  0.00000E+00          NaN
  9.50000E-01  7.06736E+03 -6.06634E-03 -5.22102E-03  2.39441E-04  7.59672E-04  3.82008E+00 -5.66261E+00  1.23075E+02 -1.79085E+01 -1.00000E+00  2.29331E-01  7.51087E-01  6.09868E-03  2.24087E-02  3.82008E+00 -5.66261E+00  9.98797E+01 -2.14935E+01  1.00000E+00  6.46254-201  0.00000E+00          NaN
  9.50000E-01  7.57217E+03 -6.56363E-03 -6.19001E-03  2.39267E-04  7.59600E-04  3.82008E+00 -5.66261E+00  1.23075E+02 -1.79085E+01 -1.00000E+00  2.38794E-01  7.80049E-01  6.07352E-03  2.23797E-02  3.82008E+00 -5.66261E+00  9.98797E+01 -2.14935E+01  1.00000E+00  6.46254-201  0.00000E+00          NaN
  9.50000E-01  8.07699E+03 -7.05730E-03 -7.15772E-03  2.39094E-04  7.59528E-04  3.82008E+00 -5.66261E+00  1.23075E+02 -1.79085E+01 -1.00000E+00  2.48109E-01  8.08831E-01  6.04942E-03  2.23514E-02  3.82008E+00 -5.66261E+00  9.98797E+01 -2.14935E+01  1.00000E+00  6.46254-201  0.00000E+00          NaN
  9.50000E-01  8.58180E+03 -7.54753E-03 -8.12419E-03  2.38924E-04  7.59457E-04  3.82008E+00 -5.66261E+00  1.23075E+02 -1.79085E+01 -1.00000E+00  2.57289E-01  8.37443E-01  6.02632E-03  2.23239E-02  3.82008E+00 -5.66261E+00  9.98797E+01 -2.14935E+01  1.00000E+00  6.46254-201  0.00000E+00          NaN
  9.50000E-01  9.08661E+03 -8.03451E-03 -9.08948E-03  2.38756E-04  7.59387E-04  3.82008E+00 -5.66261E+00  1.23075E+02 -1.79085E+01 -1.00000E+00  2.66345E-01  8.65897E-01  6.00416E-03  2.22971E-02  3.82008E+00 -5.66261E+00  9.98797E+01 -2.14935E+01  1.00000E+00  6.46254-201  0.00000E+00          NaN
  9.50000E-01  9.59142E+03 -8.51844E-03 -1.00536E-02  2.38591E-04  7.59318E-04  3.82008E+00 -5.66261E+00  1.23075E+02 -1.79085E+01 -1.00000E+00  2.75286E-01  8.94204E-01  5.98288E-03  2.22709E-02  3.82008E+00 -5.66261E+00  9.98797E+01 -2.14935E+01  1.00000E+00  6.46254-201  0.00000E+00          NaN
  9.50000E-01  1.00962E+04 -8.99950E-03 -1.10167E-02  2.38429E-04  7.59250E-04  3.82008E+00 -5.66261E+00  1.23075E+02 -1.79085E+01 -1.00000E+00  2.84123E-01  9.22372E-01  5.96242E-03  2.22455E-02  3.82008E+00 -5.66261E+00  9.98797E+01 -2.14935E+01  1.00000E+00  6.46254-201  0.00000E+00          NaN
  9.50000E-01  1.06010E+04 -9.47787E-03 -1.19788E-02  2.38269E-04  7.59182E-04  3.82008E+00 -5.66261E+00  1.23075E+02 -1.79085E+01 -1.00000E+00  2.92864E-01  9.50410E-01  5.94275E-03  2.22207E-02  3.82008E+00 -5.66261E+00  9.98797E+01 -2.14935E+01  1.00000E+00  6.46254-201  0.00000E+00          NaN
  9.50000E-01  1.11059E+04 -9.95372E-03 -1.29398E-02  2.38113E-04  7.59115E-04  3.82008E+00 -5.66261E+00  1.23075E+02 -1.79085E+01 -1.00000E+00  3.01514E-01  9.78326E-01  5.92382E-03  2.21966E-02  3.82008E+00 -5.66261E+00  9.98797E+01 -2.14935E+01  1.00000E+00  6.46254-201  0.00000E+00          NaN
  9.50000E-01  1.16107E+04 -1.04272E-02 -1.39000E-02  2.37960E-04  7.59049E-04  3.82008E+00 -5.66261E+00  1.23075E+02 -1.79085E+01 -1.00000E+00  3.10082E-01  1.00613E+00  5.90560E-03  2.21732E-02  3.82008E+00 -5.66261E+00  9.98797E+01 -2.14935E+01  1.00000E+00  6.46254-201  0.00000E+00          NaN
  9.50000E-01  1.21155E+04 -1.08984E-02 -1.48592E-02  2.37809E-04  7.58984E-04  3.82008E+00 -5.66261E+00  1.23075E+02 -1.79085E+01 -1.00000E+00  3.18573E-01  1.03382E+00  5.88804E-03  2.21504E-02  3.82008E+00 -5.66261E+00  9.98797E+01 -2.14935E+01  1.00000E+00  6.46254-201  0.00000E+00          NaN
  9.50000E-01  1.26203E+04 -1.13675E-02 -1.58175E-02  2.37661E-04  7.58919E-04  3.82008E+00 -5.66261E+00  1.23075E+02 -1.79085E+01 -1.00000E+00  3.26993E-01  1.06142E+00  5.87112E-03  2.21282E-02  3.82008E+00 -5.66261E+00  9.98797E+01 -2.14935E+01  1.00000E+00  6.46254-201  0.00000E+00          NaN
  9.50000E-01 -3.02887E+03  4.77991E-03  1.44367E-02  2.40864E-04  7.60274E-04  3.82008E+00 -5.66261E+00  1.23075E+02 -1.79085E+01 -1.00000E+00 -6.42522E-03  1.25810E-01  6.35031E-03  2.26655E-02  3.82008E+00 -5.66261E+00  9.98797E+01 -2.14935E+01  1.00000E+00  6.46254-201  0.00000E+00          NaN
  9.50000E-01 -2.52406E+03  4.22177E-03  1.34500E-02  2.41061E-04  7.60354E-04  3.82008E+00 -5.66261E+00  1.23075E+02 -1.79085E+01 -1.00000E+00  4.26274E-03  1.56568E-01  6.39038E-03  2.26999E-02  3.82008E+00 -5.66261E+00  9.98797E+01 -2.14935E+01  1.00000E+00  6.46254-201  0.00000E+00          NaN
  9.50000E-01 -2.77646E+03  4.50172E-03  1.39435E-02  2.40961E-04  7.60314E-04  3.82008E+00 -5.66261E+00  1.23075E+02 -1.79085E+01 -1.00000E+00 -1.10673E-03  1.41156E-01  6.37001E-03  2.26826E-02  3.82008E+00 -5.66261E+00  9.98797E+01 -2.14935E+01  1.00000E+00  6.46254-201  0.00000E+00          NaN
  9.50000E-01 -2.65026E+03  4.36198E-03  1.36968E-02  2.41010E-04  7.60334E-04  3.82008E+00 -5.66261E+00  1.23075E+02 -1.79085E+01 -1.00000E+00  1.57162E-03  1.48853E-01  6.38011E-03  2.26913E-02  3.82008E+00 -5.66261E+00  9.98797E+01 -2.14935E+01  1.00000E+00  6.46254-201  0.00000E+00          NaN
  9.50000E-01 -2.58716E+03  4.29193E-03  1.35734E-02  2.41036E-04  7.60344E-04  3.82008E+00 -5.66261E+00  1.23075E+02 -1.79085E+01 -1.00000E+00  2.91559E-03  1.52709E-01  6.38522E-03  2.26956E-02  3.82008E+00 -5.66261E+00  9.98797E+01 -2.14935E+01  1.00000E+00  6.46254-201  0.00000E+00          NaN
