96 [139739362748160] INFO mrtehelpers.mrteenv <> - Product libs directory: /gpfs/apps/MN4/INTEL/2020.0.088/vtune_profiler_2020.0.0.605129/lib64
97 [139739362748160] INFO mrtehelpers.mrteenv <> - File mask: amplxe_samplingmrte_clrprof*
144 [139739362748160] INFO mrtehelpers.mrteenv <> - File name: libamplxe_samplingmrte_clrprof_1.0.so
144 [139739362748160] INFO mrtehelpers.mrteenv <> - File mask: amplxe_samplingmrte_clrprof*
173 [139739362748160] INFO mrtehelpers.mrteenv <> - File name: libamplxe_samplingmrte_clrprof_1.0.so
