151 [140018691491584] INFO mrtehelpers.mrteenv <> - Product libs directory: /gpfs/apps/MN4/INTEL/2020.0.088/vtune_profiler_2020.0.0.605129/lib64
151 [140018691491584] INFO mrtehelpers.mrteenv <> - File mask: amplxe_samplingmrte_clrprof*
229 [140018691491584] INFO mrtehelpers.mrteenv <> - File name: libamplxe_samplingmrte_clrprof_1.0.so
229 [140018691491584] INFO mrtehelpers.mrteenv <> - File mask: amplxe_samplingmrte_clrprof*
273 [140018691491584] INFO mrtehelpers.mrteenv <> - File name: libamplxe_samplingmrte_clrprof_1.0.so
