14 [140273407924032] INFO perfrun.launcher <> - Launcher main begin
19 [140273407924032] INFO perfrun.launcher <> - MessageCatalogInit finished
19 [140273407924032] INFO perfrun.launcher <> - Launcher instance created
19 [140273407924032] INFO perfrun.launcher <> - argc = 6; cmdline = /gpfs/apps/MN4/INTEL/2020.0.088/vtune_profiler_2020.0.0.605129/bin64/amplxe-runss -dump-vdso -r /scratch/tmp/25157076/amplxe-tmp-bsc99397/amplxe-res-170223-445419295536404 --tmp-dir /scratch/tmp/25157076/amplxe-tmp-bsc99397 
33 [140273407924032] INFO perfrun.launcher <> - plugin remoteplug has been added successfully
33 [140273407924032] INFO perfrun.launcher <> - plugin system has been added successfully
33 [140273407924032] INFO perfrun.launcher <> - plugin vdso has been added successfully
33 [140273407924032] INFO perfrun.launcher <> - plugin itt has been added successfully
33 [140273407924032] INFO perfrun.launcher <> - plugin ptracecollector has been added successfully
33 [140273407924032] INFO perfrun.launcher <> - plugin gpu has been added successfully
33 [140273407924032] INFO perfrun.launcher <> - plugin  has been added successfully
33 [140273407924032] INFO perfrun.launcher <> - plugin  has been added successfully
33 [140273407924032] INFO perfrun.launcher <> - plugin  has been added successfully
33 [140273407924032] INFO perfrun.launcher <> - plugin mrte has been added successfully
33 [140273407924032] INFO perfrun.launcher <> - plugin emon has been added successfully
33 [140273407924032] INFO perfrun.launcher <> - plugin cuscol has been added successfully
33 [140273407924032] INFO perfrun.launcher <> - plugin stdsrc has been added successfully
34 [140273407924032] INFO perfrun.launcher <> - plugin sep has been added successfully
34 [140273407924032] INFO perfrun.launcher <> - plugin vtsspp has been added successfully
34 [140273407924032] INFO perfrun.sdk <> - Reading value (-1) from file: /proc/sys/kernel/perf_event_paranoid
34 [140273407924032] INFO perfrun.perfcollector <> - checking access to: /gpfs/apps/MN4/INTEL/2020.0.088/vtune_profiler_2020.0.0.605129/bin64/amplxe-perf-priv
40 [140273407924032] INFO perfrun.perfcollector <> - cpu: family = 6 model = 85
40 [140273407924032] INFO perfrun.perfcollector <> - dir found : /sys/bus/event_source/devices/cpu
41 [140273407924032] INFO perfrun.perfcollector <> - format: pc config:19 mask:19
41 [140273407924032] INFO perfrun.perfcollector <> - format: any config:21 mask:21
41 [140273407924032] INFO perfrun.perfcollector <> - format: inv config:23 mask:23
41 [140273407924032] INFO perfrun.perfcollector <> - format: edge config:18 mask:18
41 [140273407924032] INFO perfrun.perfcollector <> - format: cmask config:24-31 mask:24-31
41 [140273407924032] INFO perfrun.perfcollector <> - format: event config:0-7 mask:0-7
41 [140273407924032] INFO perfrun.perfcollector <> - format: in_tx config:32 mask:32
41 [140273407924032] INFO perfrun.perfcollector <> - format: ldlat config1:0-15 mask:0-15
41 [140273407924032] INFO perfrun.perfcollector <> - format: umask config:8-15 mask:8-15
41 [140273407924032] INFO perfrun.perfcollector <> - format: in_tx_cp config:33 mask:33
41 [140273407924032] INFO perfrun.perfcollector <> - format: offcore_rsp config1:0-63 mask:0-63
41 [140273407924032] INFO perfrun.perfcollector <> - hwInfo : PERF_CPU_PMU_DETAILS
41 [140273407924032] INFO perfrun.perfcollector <> - pmu added : family : cpu , id : 0
41 [140273407924032] INFO perfrun.perfcollector <> - dir found : /sys/bus/event_source/devices/msr
41 [140273407924032] INFO perfrun.perfcollector <> - format: event config:0-63 mask:0-63
41 [140273407924032] WARN perfrun.perfcollector <> - pmu hwInfo is not set, at file: vcs/perfrun1/plugins/perfcollector/src/controller.cpp:763
41 [140273407924032] INFO perfrun.perfcollector <> - pmu added : family : msr , id : 0
41 [140273407924032] INFO perfrun.perfcollector <> - dir found : /sys/bus/event_source/devices/software
41 [140273407924032] WARN perfrun.perfcollector <> - format subdir doesn't exist, at file: vcs/perfrun1/plugins/perfcollector/src/controller.cpp:674
43 [140273407924032] WARN perfrun.perfcollector <> - pmu hwInfo is not set, at file: vcs/perfrun1/plugins/perfcollector/src/controller.cpp:763
43 [140273407924032] INFO perfrun.perfcollector <> - pmu added : family : software , id : 0
43 [140273407924032] INFO perfrun.perfcollector <> - dir found : /sys/bus/event_source/devices/tracepoint
43 [140273407924032] WARN perfrun.perfcollector <> - format subdir doesn't exist, at file: vcs/perfrun1/plugins/perfcollector/src/controller.cpp:674
43 [140273407924032] WARN perfrun.perfcollector <> - pmu hwInfo is not set, at file: vcs/perfrun1/plugins/perfcollector/src/controller.cpp:763
43 [140273407924032] INFO perfrun.perfcollector <> - pmu added : family : tracepoint , id : 0
43 [140273407924032] INFO perfrun.perfcollector <> - dir found : /sys/bus/event_source/devices/intel_bts
43 [140273407924032] WARN perfrun.perfcollector <> - format subdir doesn't exist, at file: vcs/perfrun1/plugins/perfcollector/src/controller.cpp:674
43 [140273407924032] WARN perfrun.perfcollector <> - pmu hwInfo is not set, at file: vcs/perfrun1/plugins/perfcollector/src/controller.cpp:763
43 [140273407924032] INFO perfrun.perfcollector <> - pmu added : family : intel_bts , id : 0
43 [140273407924032] INFO perfrun.perfcollector <> - dir found : /sys/bus/event_source/devices/intel_cqm
43 [140273407924032] INFO perfrun.perfcollector <> - format: event config:0-7 mask:0-7
43 [140273407924032] WARN perfrun.perfcollector <> - pmu hwInfo is not set, at file: vcs/perfrun1/plugins/perfcollector/src/controller.cpp:763
43 [140273407924032] INFO perfrun.perfcollector <> - pmu added : family : intel_cqm , id : 0
43 [140273407924032] INFO perfrun.perfcollector <> - dir found : /sys/bus/event_source/devices/breakpoint
43 [140273407924032] WARN perfrun.perfcollector <> - format subdir doesn't exist, at file: vcs/perfrun1/plugins/perfcollector/src/controller.cpp:674
43 [140273407924032] WARN perfrun.perfcollector <> - pmu hwInfo is not set, at file: vcs/perfrun1/plugins/perfcollector/src/controller.cpp:763
43 [140273407924032] INFO perfrun.perfcollector <> - pmu added : family : breakpoint , id : 0
43 [140273407924032] INFO perfrun.perfcollector <> - dir found : /sys/bus/event_source/devices/intel_pt
43 [140273407924032] INFO perfrun.perfcollector <> - format: cyc config:1 mask:1
43 [140273407924032] INFO perfrun.perfcollector <> - format: mtc config:9 mask:9
43 [140273407924032] INFO perfrun.perfcollector <> - format: tsc config:10 mask:10
43 [140273407924032] INFO perfrun.perfcollector <> - format: psb_period config:24-27 mask:24-27
43 [140273407924032] INFO perfrun.perfcollector <> - format: noretcomp config:11 mask:11
43 [140273407924032] INFO perfrun.perfcollector <> - format: mtc_period config:14-17 mask:14-17
43 [140273407924032] INFO perfrun.perfcollector <> - format: cyc_thresh config:19-22 mask:19-22
43 [140273407924032] WARN perfrun.perfcollector <> - pmu hwInfo is not set, at file: vcs/perfrun1/plugins/perfcollector/src/controller.cpp:763
43 [140273407924032] INFO perfrun.perfcollector <> - pmu added : family : intel_pt , id : 0
44 [140273407924032] INFO perfrun.launcher <> - plugin perf has been added successfully
44 [140273407924032] INFO perfrun.launcher <> - plugin tpss has been added successfully
44 [140273407924032] INFO perfrun.launcher <> - plugin exprof has been added successfully
44 [140273407924032] INFO perfrun.launcher <> - plugin media has been added successfully
44 [140273407924032] INFO perfrun.launcher <> - plugin ice has been added successfully
44 [140273407924032] INFO perfrun.launcher <> - plugin  has been added successfully
44 [140273407924032] INFO perfrun.launcher <> - plugin  has been added successfully
44 [140273407924032] INFO perfrun.launcher <> - plugin parallelfs has been added successfully
44 [140273407924032] INFO perfrun.launcher <> - plugin power has been added successfully
44 [140273407924032] INFO perfrun.launcher <> - the option was added --interval: Specify an interval of data collection (for example, sampling) in milliseconds.
45 [140273407924032] INFO perfrun.launcher <> - the option was added --follow-child: Profile process with or without children.
45 [140273407924032] INFO perfrun.launcher <> - the option was added --gelding: BADMSG: perfrun1.launcher.plugin_manager::gelding
45 [140273407924032] INFO perfrun.launcher <> - the option was added --time-source: Specify time source for measurement. Possible values: sys - wall clock time; tsc - time stamp counter; ext - time from an external source; auto - auto select accurate time source.
45 [140273407924032] INFO perfrun.launcher <> - the option was added --stack: Enable or disable collection of stacks.
45 [140273407924032] INFO perfrun.launcher <> - the option was added --stack-stitching: Enable or disable the stack stitching algorithm for Intel TBB-based applications.
45 [140273407924032] INFO perfrun.launcher <> - the option was added --type: Specify type of data to be collected. For example, --type cpu:counters,waiting:nostack,io.
45 [140273407924032] INFO perfrun.launcher <> - the option was added --mrte-mode: Specify Java/.NET/other managed runtime collection mode. Possible values: native - collect information only for native code; managed - collect information only for managed code; mixed - collect information for both managed and native code; auto - choose the mode based on binary type.
45 [140273407924032] INFO perfrun.launcher <> - the option was added --mrte-mode-list: List supported Java/.NET/other managed runtime collection modes.
45 [140273407924032] INFO perfrun.launcher <> - the option was added --mrte-type: Specify which managed runtimes to collect. Possible values: java - collect information for Java; dotnet - collect information for .NET; python - collect information for CPython. You can specify several values separated by comma.
45 [140273407924032] INFO perfrun.launcher <> - the option was added --mrte-type-list: List supported Java/.NET/other managed runtime types.
45 [140273407924032] INFO perfrun.launcher <> - the option was added --trace-strategy: Specify how to profile a process tree. <string> can be "<process>:trace:notrace" - profile the process but do not profile its children. Shorthand parameters: t - trace, nt - notrace. For example, "vtunedemo.exe:t:t".
45 [140273407924032] INFO perfrun.launcher <> - the option was added --collector: BADMSG: perfrun1.launcher.plugin_manager::collector
45 [140273407924032] INFO perfrun.launcher <> - the option was added --system-wide: Enable system-wide profiling. This mode may require additional permissions.
45 [140273407924032] INFO perfrun.launcher <> - the option was added --kvm-guest: Enable KVM guest OS profiling.
45 [140273407924032] INFO perfrun.launcher <> - the option was added --kvm-guest-kallsyms: Specify a local path to the /proc/kallsyms file copied from the guest OS for proper symbol resolution.
45 [140273407924032] INFO perfrun.launcher <> - the option was added --kvm-guest-modules: Specify a local path to the /proc/modules file copied from the guest OS for proper symbol resolution.
45 [140273407924032] INFO perfrun.launcher <> - the option was added --bandwidth-limits: Measure bandwidth limits
45 [140273407924032] INFO perfrun.launcher <> - the option was added --acrn-map-info: Collect map info for ACRN
45 [140273407924032] INFO perfrun.launcher <> - the option was added --bandwidth-strategy: Bandwidth limits determination specific properties (example: --bandwidth-strategy array-size=0,duration=500).
45 [140273407924032] INFO perfrun.launcher <> - the option was added --bandwidth-config: List of benchmarks to run.
45 [140273407924032] INFO perfrun.launcher <> - the option was added --dump-vdso: Dump [vdso] to result directory
45 [140273407924032] INFO perfrun.launcher <> - the option was added --system-collector-config: Specify subcollectors. Possible values: all, container, device-info, none. Specify subcollectors. Possible values: all, vdso.
45 [140273407924032] INFO perfrun.launcher <> - the option was added --itt-config: Specify a sub-set of ITT API to collect.
45 [140273407924032] INFO perfrun.launcher <> - the option was added --itt-debug: Set pseudo-breakpoint at ITT API collector's start to enable the debugger to attach early.
45 [140273407924032] INFO perfrun.launcher <> - the option was added --ptrace: Ptrace collector.
45 [140273407924032] INFO perfrun.launcher <> - the option was added --target-pid: BADMSG: perfrun1.ptracecollector::target-pid
45 [140273407924032] INFO perfrun.launcher <> - the option was added --ptrace-server-pid: BADMSG: perfrun1.ptracecollector::ptrace-server-pid
45 [140273407924032] INFO perfrun.launcher <> - the option was added --ptrace-trace: BADMSG: perfrun1.ptracecollector::ptrace-trace
45 [140273407924032] INFO perfrun.launcher <> - the option was added --ptrace-time-source: BADMSG: perfrun1.ptracecollector::ptrace-time-source
45 [140273407924032] INFO perfrun.launcher <> - the option was added --ptrace-start-type: BADMSG: perfrun1.ptracecollector::ptrace-start-type
45 [140273407924032] INFO perfrun.launcher <> - the option was added --gpu-config: Specify types of GPU data to be collected. Possible values: preset1, preset2.
46 [140273407924032] INFO perfrun.launcher <> - the option was added --gpu-debug: Enable self-testing of the GPGPU profiling collector.
46 [140273407924032] INFO perfrun.launcher <> - the option was added --custom-collector: Allows to provide arbitrary command line to be run on collection steps.
46 [140273407924032] INFO perfrun.launcher <> - the option was added --stdsrc-config: Specify Standard Sources category tag(s).
46 [140273407924032] INFO perfrun.launcher <> - the option was added --ftrace-config-list: List Linux Ftrace category tag(s).
46 [140273407924032] INFO perfrun.launcher <> - the option was added --ftrace-config: Specify Linux Ftrace category tag(s).
46 [140273407924032] INFO perfrun.launcher <> - the option was added --ftrace-function-groups: Enable tracing of specific groups of functions.
46 [140273407924032] INFO perfrun.launcher <> - the option was added --event-info: BADMSG: perfrun1.stdsrc::event-info
46 [140273407924032] INFO perfrun.launcher <> - the option was added --cpu-list: List supported CPUs.
46 [140273407924032] INFO perfrun.launcher <> - the option was added --target-list: List available targets for performing sampling collection.
46 [140273407924032] INFO perfrun.launcher <> - the option was added --event-value-list: Display event information.
46 [140273407924032] INFO perfrun.launcher <> - the option was added --platform-value-list: Display details of supported platforms.
46 [140273407924032] INFO perfrun.launcher <> - the option was added --uncore-event-list: List uncore events for which a sampling data collection can be performed on this platform.
46 [140273407924032] INFO perfrun.launcher <> - the option was added --modifier-list: Specify the event name <string> for which the modifiers list is requested.
46 [140273407924032] INFO perfrun.launcher <> - the option was added --pmu-list: List supported PMUs.
46 [140273407924032] INFO perfrun.launcher <> - the option was added --os-mode-only: Enable sampling data collection for OS-mode processes only.
46 [140273407924032] INFO perfrun.launcher <> - the option was added --user-mode-only: Enable sampling data collection for user-mode processes only.
46 [140273407924032] INFO perfrun.launcher <> - the option was added --event-config: Perform data collection for the events with <string> configured using the format <event name1>":modifier1=val:modifier2=val/constraint1={:modifier3=val:modifier4=val}...,"<event name2>":... Specify the events(s) to monitor and embed the event names within double quotes("). [:modifier=val] specifies individual event modifiers along with the respective values for a given platform. Note that the modifiers can be generic to an event as well as specific to a constraint (or an event qualifier). The constraint specific special modifiers appear after [/constraint=]. The modifiers can be in decimal or hexadecimal format. Only specific modifiers accept the value as a string. Each event specification is delimited by a comma (,). For a list of supported modifiers and constraints, refer to the documentation.
46 [140273407924032] INFO perfrun.launcher <> - the option was added --chipset-event-config: Perform data collection for the chipset events with <string> configured using the format "<event name1>"...,"<event name2>":... Specify the events(s) to monitor and embed the event names within double quotes(").
46 [140273407924032] INFO perfrun.launcher <> - the option was added --uncore-event-config: Perform uncore data collection in ebc count mode for the events with <string> configured using the format "<event name1>"...,"<event name2>":... Specify the events(s) to monitor and embed the event names within double quotes(").
46 [140273407924032] INFO perfrun.launcher <> - the option was added --count-emon: Enable counting mode and output the data in EMON format.
46 [140273407924032] INFO perfrun.launcher <> - the option was added --event-based-counts: Enable event-based counting mode. During sampling data collection, event counts data is collected for the list of events specified in -event-config option.
46 [140273407924032] INFO perfrun.launcher <> - the option was added --event-mux-tfactor: Specify the event multiplexing tfactor as <integer> to set the length of the interval between interrupts. The larger the tfactor value, the larger the period between interrupts. Currently this option is only available on Intel platforms codenamed Knights Corner.
46 [140273407924032] INFO perfrun.launcher <> - the option was added --full-pebs-capture: Capture full pebs information.
46 [140273407924032] INFO perfrun.launcher <> - the option was added --last-branch-records: Capture Last Branch Records information.
46 [140273407924032] INFO perfrun.launcher <> - the option was added --pmu-type: Specify the targeted PMU name as <string>.
46 [140273407924032] INFO perfrun.launcher <> - the option was added --platform-type: Specify the targeted platform number as <number>.
46 [140273407924032] INFO perfrun.launcher <> - the option was added --p-state-trigger: Specify the name of the trigger event for P-state data as <string>. The default trigger is CPU_CLK_UNHALTED.REF_TSC.
46 [140273407924032] INFO perfrun.launcher <> - the option was added --bts-count: Specify the <integer> number of BTS records collected after each sample or context switch (VTSS++ only).
46 [140273407924032] INFO perfrun.launcher <> - the option was added --cpu-mask: Specify which CPU(s) <string> to collect data on. For example, specify "2-8,10,12-14" to sample only CPUs 2 through 8, 10, and 12 through 14.
46 [140273407924032] INFO perfrun.launcher <> - the option was added --event-mux-alg: Specify the event multiplexing algorithm. Possible values: sequence, timer, trigger.
46 [140273407924032] INFO perfrun.launcher <> - the option was added --event-mux-timeslice: Specify the event multiplexing time slice value as <integer>. The time slice specifies the duration between cycles for each event multiplexing group. The default value is 50 milliseconds. This option is valid only for timer-based event multiplexing. Specify the event multiplexing time slice value as <integer>. The time slice specifies the duration between cycles for each event multiplexing group. The default value is 1 millisecond. This option is valid only for timer-based event multiplexing.
46 [140273407924032] INFO perfrun.launcher <> - the option was added --event-mux-factor: Specify the event multiplexing factor as <integer>. It controls the switching of event multiplexing groups. The default factor is 50. This option is valid only for trigger-based event multiplexing. Specify the event multiplexing factor as <integer>. It controls the switching of event multiplexing groups. The default factor is 1. This option is valid only for trigger-based event multiplexing.
46 [140273407924032] INFO perfrun.launcher <> - the option was added --event-mux-trigger: Specify the name of the trigger event for event multiplexing as <string>. This option is valid only for trigger-based event multiplexing. The default trigger is CPU_CLK_UNHALTED.CORE (or CPU_CLK_UNHALTED.THREAD). BADMSG: perfrun1.vtsspp::event-mux-trigger
47 [140273407924032] INFO perfrun.launcher <> - the option was added --pt-mode: BADMSG: perfrun1.vtsspp::pt-mode
47 [140273407924032] INFO perfrun.launcher <> - the option was added --sample-after-multiplier: Specify the sample after multiplier as <double>. This multiplier modifies the sample after value for all the events specified in -event-config option. The values can range from 0.1 to 100.0. SAV multiplier value
47 [140273407924032] INFO perfrun.launcher <> - the option was added --uncore-sampling-interval: Specify the uncore sampling interval as <integer>. This value set the uncore sampling interval for all the uncore events specified in -event-config option.
47 [140273407924032] INFO perfrun.launcher <> - the option was added --count: Enable counting mode. Enable counting mode
47 [140273407924032] INFO perfrun.launcher <> - the option was added --trace-mpi: Configure collector to trace MPI code.
47 [140273407924032] INFO perfrun.launcher <> - the option was added --aggregated-counting: Enable aggregated counting mode. Enable aggregated-counting mode
47 [140273407924032] INFO perfrun.launcher <> - the option was added --perf-per-cpu: System-wide collection from all CPUs
47 [140273407924032] INFO perfrun.launcher <> - the option was added --raw-perf-config: Specify a verified configuration for the Perf collector in the format: <describer>,<content>. For example: map-events-file,<path_to_map_events_file>.
47 [140273407924032] INFO perfrun.launcher <> - the option was added --sys-config: BADMSG: perfrun1.vtsspp::sys-config Specify types of system data to be collected. Supported value: cswitch - collect context switch information.
47 [140273407924032] INFO perfrun.launcher <> - the option was added --perf-event-config: Specify events for Perf collector in Perf format. For example: perf-event-config=cpu-clock.
47 [140273407924032] INFO perfrun.launcher <> - the option was added --perf-aio: Number of control blocks in asynchronous trace writing mode.
47 [140273407924032] INFO perfrun.launcher <> - the option was added --perf-compression: Specify compression of Perf collector output data. Possible levels: 0 - without compression, 1..3 - best speed, 4..22 - best compression that incurs big overhead.
47 [140273407924032] INFO perfrun.launcher <> - the option was added --perf-min-mmap-read: Minimum data size read from the kernel mapped region.
47 [140273407924032] INFO perfrun.launcher <> - the option was added --perf-affinity: Adjust an affinity mask of the Perf thread to a node with an allocated memory trace buffer.
47 [140273407924032] INFO perfrun.launcher <> - the option was added --stackwalk: Specify stack unwinding method. Possible values: online - unwind stacks during collection; offline - unwind stacks after collection is finished. Specify stack unwinding method. Possible value: lbr - unwind stacks during collection. Specify stack unwinding method. Possible values: online - unwind stacks during collection; offline - unwind stacks after collection is finished; lbr - enable LBR-based call stack collection. Specify stack unwinding method. Possible values: online - unwind stacks during collection; offline - unwind stacks after collection is finished. Specify stack unwinding method. Possible values: online - unwind stacks during collection; offline - unwind stacks after collection is finished.
47 [140273407924032] INFO perfrun.launcher <> - the option was added --filter-include: Filter data during collection. Possible values: contended=<on|off> - filter out uncontended events; contended_nostack=<time> - filter out stacks for contended events that take less than <time> microseconds; wait=<time> - ignore transitions and blocks with wait time less than <time> microseconds; wait_nostack=<time> - filter out stacks for waits that take less than <time> microseconds.
47 [140273407924032] INFO perfrun.launcher <> - the option was added --debug-pin: Debug PIN tool and runtime.
47 [140273407924032] INFO perfrun.launcher <> - the option was added --debug-exception: Disallow the application to set own abnormal termination handler.
47 [140273407924032] INFO perfrun.launcher <> - the option was added --trace-type: Specify the trace file granularity. Possible values: per-thread - per-thread trace file generation; per-process - per-process trace file generation.
47 [140273407924032] INFO perfrun.launcher <> - the option was added --instrumentation-type: Specify type of instrumentation.
47 [140273407924032] INFO perfrun.launcher <> - the option was added --altstack: Enable or disable usage of altstacks for profiling signal handlers.
47 [140273407924032] INFO perfrun.launcher <> - the option was added --profiling-signal: BADMSG: perfrun1.ptracecollector::profiling-signal Alternate profiling signal.
47 [140273407924032] INFO perfrun.launcher <> - the option was added --memory-strategy: Specify a minimal memory object size to be traced and a hash table size for faster objects search; for example: --memory-strategy obj-size-min=1024,hash-table-size=4096.
47 [140273407924032] INFO perfrun.launcher <> - the option was added --gpu-profiling-type: Specify a type of deep GPU profiling: none, bblatency, memlatency, instcount.
47 [140273407924032] INFO perfrun.launcher <> - the option was added --opencl-trace-mode: Specify OpenCL kernel tracing modes: 'default' to trace OpenCL kernels for Intel Graphics Driver only; 'epoch' for any non-Intel graphics, where OpenCL kernels will be traced and OpenCL profiling API timestamps will be interpreted as Unux Epoch time in nanoseconds; 'completion' to trace OpenCL kernels for any Graphics Driver and bind OpenCL profiling API timestamps to the timestamp of OpenCL completion callback.
47 [140273407924032] INFO perfrun.launcher <> - the option was added --gpu-kernels-to-profile: Specify a comma-separated list of GPU kernel names and invocations to be profiled in the following format: kernel_name[#start_idx#step#stop_idx], where kernel_name is the name of GPU kernel; start_idx is the number of the first invocation; and stop_idx is the number of the last invocation to be profiled.
47 [140273407924032] INFO perfrun.launcher <> - the option was added --exprof-com-list: List available COM ports.
47 [140273407924032] INFO perfrun.launcher <> - the option was added --exprof-dvc-list: List available DvC IDs.
47 [140273407924032] INFO perfrun.launcher <> - the option was added --exprof-trace-channel: BADMSG: perfrun1.exprof::exprof-trace-channel
47 [140273407924032] INFO perfrun.launcher <> - the option was added --exprof-event-config: Specify ExactProfiling Event Classes.
48 [140273407924032] INFO perfrun.launcher <> - the option was added --ice-pmons-list: BADMSG: perfrun1.ice::ice-pmons-list
48 [140273407924032] INFO perfrun.launcher <> - the option was added --ice-pmons-config: BADMSG: perfrun1.ice::ice-pmons-config
48 [140273407924032] INFO perfrun.launcher <> - the option was added --parallel-fs-config: Specify parallel fs counters to collect.
48 [140273407924032] INFO perfrun.launcher <> - the option was added --pwr-config: BADMSG: perfrun1.vtsspp::pwr-config Specify power metrics configuration.
49 [140273407924032] INFO perfrun.launcher <> - create msngr2::ICliToolContext
49 [140273407924032] INFO perfrun.launcher <> - create file finder object
56 [140271143417600] INFO perfrun.launcher <> - plugin [remoteplug] was disabled because it doesn't support the given collection type.
56 [140271143417600] INFO perfrun.launcher <> - plugin [system] was disabled because it doesn't support the given collection type.
56 [140271143417600] INFO perfrun.vdso <> - dumping [vdso] pseudomodule
57 [140271143417600] INFO perfrun.launcher <> - plugin [itt] was disabled because it doesn't support the given collection type.
57 [140271143417600] INFO perfrun.launcher <> - plugin [ptracecollector] was disabled because it doesn't support the given collection type.
57 [140271143417600] INFO perfrun.launcher <> - plugin [gpu] was disabled because it doesn't support the given collection type.
57 [140271143417600] INFO perfrun.launcher <> - plugin [] was disabled because it doesn't support the given collection type.
57 [140271143417600] INFO perfrun.launcher <> - plugin [] was disabled because it doesn't support the given collection type.
57 [140271143417600] INFO perfrun.launcher <> - plugin [] was disabled because it doesn't support the given collection type.
57 [140271143417600] INFO perfrun.launcher <> - plugin [mrte] was disabled because it doesn't support the given collection type.
57 [140271143417600] INFO perfrun.launcher <> - plugin [emon] was disabled because it doesn't support the given collection type.
57 [140271143417600] INFO perfrun.launcher <> - plugin [cuscol] was disabled because it doesn't support the given collection type.
57 [140271143417600] INFO perfrun.launcher <> - plugin [stdsrc] was disabled because it doesn't support the given collection type.
57 [140271143417600] INFO perfrun.launcher <> - plugin [sep] was disabled because it doesn't support the given collection type.
57 [140271143417600] INFO perfrun.launcher <> - plugin [vtsspp] was disabled because it doesn't support the given collection type.
57 [140271143417600] INFO perfrun.launcher <> - plugin [perf] was disabled because it doesn't support the given collection type.
57 [140271143417600] INFO perfrun.launcher <> - plugin [tpss] was disabled because it doesn't support the given collection type.
57 [140271143417600] INFO perfrun.launcher <> - plugin [exprof] was disabled because it doesn't support the given collection type.
57 [140271143417600] INFO perfrun.launcher <> - plugin [media] was disabled because it doesn't support the given collection type.
57 [140271143417600] INFO perfrun.launcher <> - plugin [ice] was disabled because it doesn't support the given collection type.
57 [140271143417600] INFO perfrun.launcher <> - plugin [] was disabled because it doesn't support the given collection type.
57 [140271143417600] INFO perfrun.launcher <> - plugin [] was disabled because it doesn't support the given collection type.
57 [140271143417600] INFO perfrun.launcher <> - plugin [parallelfs] was disabled because it doesn't support the given collection type.
57 [140271143417600] INFO perfrun.launcher <> - plugin [power] was disabled because it doesn't support the given collection type.
57 [140273407924032] INFO perfrun.launcher <> - Application exit code: 0
57 [140273407924032] INFO perfrun.launcher <> - Exit code: 0
