12 [2122110720] INFO perfrun.launcher <> - Launcher main begin
18 [2122110720] INFO perfrun.launcher <> - MessageCatalogInit finished
18 [2122110720] INFO perfrun.launcher <> - Launcher instance created
18 [2122110720] INFO perfrun.launcher <> - argc = 6; cmdline = /gpfs/apps/MN4/INTEL/2020.0.088/vtune_profiler_2020.0.0.605129/bin32/amplxe-runss -dump-vdso -r /scratch/tmp/25157243/amplxe-tmp-bsc99397/amplxe-res-172781-450287610780436 --tmp-dir /scratch/tmp/25157243/amplxe-tmp-bsc99397 
34 [2122110720] INFO perfrun.launcher <> - plugin remoteplug has been added successfully
34 [2122110720] INFO perfrun.launcher <> - plugin  has been added successfully
34 [2122110720] INFO perfrun.launcher <> - plugin vdso has been added successfully
34 [2122110720] INFO perfrun.launcher <> - plugin  has been added successfully
34 [2122110720] INFO perfrun.launcher <> - plugin  has been added successfully
34 [2122110720] INFO perfrun.launcher <> - plugin  has been added successfully
34 [2122110720] INFO perfrun.launcher <> - plugin  has been added successfully
34 [2122110720] INFO perfrun.launcher <> - plugin  has been added successfully
34 [2122110720] INFO perfrun.launcher <> - plugin  has been added successfully
34 [2122110720] INFO perfrun.launcher <> - plugin  has been added successfully
34 [2122110720] INFO perfrun.launcher <> - plugin  has been added successfully
34 [2122110720] INFO perfrun.launcher <> - plugin  has been added successfully
34 [2122110720] INFO perfrun.launcher <> - plugin  has been added successfully
39 [2122110720] INFO perfrun.launcher <> - plugin  has been added successfully
39 [2122110720] INFO perfrun.launcher <> - plugin  has been added successfully
39 [2122110720] INFO perfrun.launcher <> - plugin  has been added successfully
39 [2122110720] INFO perfrun.launcher <> - plugin  has been added successfully
39 [2122110720] INFO perfrun.launcher <> - plugin  has been added successfully
39 [2122110720] INFO perfrun.launcher <> - plugin  has been added successfully
39 [2122110720] INFO perfrun.launcher <> - plugin  has been added successfully
39 [2122110720] INFO perfrun.launcher <> - plugin  has been added successfully
39 [2122110720] INFO perfrun.launcher <> - plugin  has been added successfully
39 [2122110720] INFO perfrun.launcher <> - plugin  has been added successfully
39 [2122110720] INFO perfrun.launcher <> - plugin  has been added successfully
39 [2122110720] FATAL perfrun.launcher <> - Messenger::say: Unknown critical error
