s \zeta_{Boozer}  \theta_{Boozer}(right-handed)  B[T]  (v_B.\nabla\psi)[A.U.]
  7.10000E-02  0.00000E+00  0.00000E+00  2.42138E+00  0.00000E+00 T
  7.10000E-02  0.00000E+00  1.96350E-01  2.42300E+00 -6.78929E-03 T
  7.10000E-02  0.00000E+00  3.92699E-01  2.42780E+00 -1.33088E-02 T
  7.10000E-02  0.00000E+00  5.89049E-01  2.43558E+00 -1.91200E-02 T
  7.10000E-02  0.00000E+00  7.85398E-01  2.44591E+00 -2.37293E-02 T
  7.10000E-02  0.00000E+00  9.81748E-01  2.45815E+00 -2.68848E-02 T
  7.10000E-02  0.00000E+00  1.17810E+00  2.47165E+00 -2.86933E-02 T
  7.10000E-02  0.00000E+00  1.37445E+00  2.48583E+00 -2.94012E-02 T
  7.10000E-02  0.00000E+00  1.57080E+00  2.50019E+00 -2.90967E-02 T
  7.10000E-02  0.00000E+00  1.76715E+00  2.51421E+00 -2.76929E-02 T
  7.10000E-02  0.00000E+00  1.96350E+00  2.52734E+00 -2.51951E-02 T
  7.10000E-02  0.00000E+00  2.15985E+00  2.53908E+00 -2.18928E-02 T
  7.10000E-02  0.00000E+00  2.35619E+00  2.54910E+00 -1.82010E-02 T
  7.10000E-02  0.00000E+00  2.55254E+00  2.55726E+00 -1.43108E-02 T
  7.10000E-02  0.00000E+00  2.74889E+00  2.56341E+00 -1.00701E-02 T
  7.10000E-02  0.00000E+00  2.94524E+00  2.56729E+00 -5.26528E-03 T
  7.10000E-02  0.00000E+00  3.14159E+00  2.56863E+00  2.38548E-09 T
  7.10000E-02  0.00000E+00  3.33794E+00  2.56729E+00  5.26528E-03 T
  7.10000E-02  0.00000E+00  3.53429E+00  2.56341E+00  1.00701E-02 T
  7.10000E-02  0.00000E+00  3.73064E+00  2.55726E+00  1.43108E-02 T
  7.10000E-02  0.00000E+00  3.92699E+00  2.54910E+00  1.82010E-02 T
  7.10000E-02  0.00000E+00  4.12334E+00  2.53908E+00  2.18928E-02 T
  7.10000E-02  0.00000E+00  4.31969E+00  2.52734E+00  2.51951E-02 T
  7.10000E-02  0.00000E+00  4.51604E+00  2.51421E+00  2.76929E-02 T
  7.10000E-02  0.00000E+00  4.71239E+00  2.50019E+00  2.90967E-02 T
  7.10000E-02  0.00000E+00  4.90874E+00  2.48583E+00  2.94012E-02 T
  7.10000E-02  0.00000E+00  5.10509E+00  2.47165E+00  2.86933E-02 T
  7.10000E-02  0.00000E+00  5.30144E+00  2.45815E+00  2.68848E-02 T
  7.10000E-02  0.00000E+00  5.49779E+00  2.44591E+00  2.37293E-02 T
  7.10000E-02  0.00000E+00  5.69414E+00  2.43558E+00  1.91200E-02 T
  7.10000E-02  0.00000E+00  5.89049E+00  2.42780E+00  1.33088E-02 T
  7.10000E-02  0.00000E+00  6.08684E+00  2.42300E+00  6.78929E-03 T
  7.10000E-02  3.92699E-02  0.00000E+00  2.42532E+00 -4.46677E-03 T
  7.10000E-02  3.92699E-02  1.96350E-01  2.42900E+00 -1.09345E-02 T
  7.10000E-02  3.92699E-02  3.92699E-01  2.43569E+00 -1.69724E-02 T
  7.10000E-02  3.92699E-02  5.89049E-01  2.44509E+00 -2.20737E-02 T
  7.10000E-02  3.92699E-02  7.85398E-01  2.45667E+00 -2.57889E-02 T
  7.10000E-02  3.92699E-02  9.81748E-01  2.46974E+00 -2.80094E-02 T
  7.10000E-02  3.92699E-02  1.17810E+00  2.48364E+00 -2.89579E-02 T
  7.10000E-02  3.92699E-02  1.37445E+00  2.49782E+00 -2.88822E-02 T
  7.10000E-02  3.92699E-02  1.57080E+00  2.51180E+00 -2.78084E-02 T
  7.10000E-02  3.92699E-02  1.76715E+00  2.52506E+00 -2.56389E-02 T
  7.10000E-02  3.92699E-02  1.96350E+00  2.53705E+00 -2.24518E-02 T
  7.10000E-02  3.92699E-02  2.15985E+00  2.54731E+00 -1.86080E-02 T
  7.10000E-02  3.92699E-02  2.35619E+00  2.55561E+00 -1.45025E-02 T
  7.10000E-02  3.92699E-02  2.55254E+00  2.56184E+00 -1.02433E-02 T
  7.10000E-02  3.92699E-02  2.74889E+00  2.56586E+00 -5.65193E-03 T
  7.10000E-02  3.92699E-02  2.94524E+00  2.56745E+00 -6.10637E-04 T
  7.10000E-02  3.92699E-02  3.14159E+00  2.56644E+00  4.63371E-03 T
  7.10000E-02  3.92699E-02  3.33794E+00  2.56284E+00  9.56797E-03 T
  7.10000E-02  3.92699E-02  3.53429E+00  2.55693E+00  1.38161E-02 T
  7.10000E-02  3.92699E-02  3.73064E+00  2.54908E+00  1.74015E-02 T
  7.10000E-02  3.92699E-02  3.92699E+00  2.53958E+00  2.05850E-02 T
  7.10000E-02  3.92699E-02  4.12334E+00  2.52861E+00  2.34741E-02 T
  7.10000E-02  3.92699E-02  4.31969E+00  2.51636E+00  2.58453E-02 T
  7.10000E-02  3.92699E-02  4.51604E+00  2.50322E+00  2.73474E-02 T
  7.10000E-02  3.92699E-02  4.71239E+00  2.48966E+00  2.78108E-02 T
  7.10000E-02  3.92699E-02  4.90874E+00  2.47619E+00  2.72930E-02 T
  7.10000E-02  3.92699E-02  5.10509E+00  2.46326E+00  2.58447E-02 T
  7.10000E-02  3.92699E-02  5.30144E+00  2.45135E+00  2.33275E-02 T
  7.10000E-02  3.92699E-02  5.49779E+00  2.44101E+00  1.95377E-02 T
  7.10000E-02  3.92699E-02  5.69414E+00  2.43282E+00  1.44922E-02 T
  7.10000E-02  3.92699E-02  5.89049E+00  2.42730E+00  8.52748E-03 T
  7.10000E-02  3.92699E-02  6.08684E+00  2.42476E+00  2.09690E-03 T
  7.10000E-02  7.85398E-02  0.00000E+00  2.41757E+00 -7.74620E-03 T
  7.10000E-02  7.85398E-02  1.96350E-01  2.42280E+00 -1.42258E-02 T
  7.10000E-02  7.85398E-02  3.92699E-01  2.43102E+00 -2.01524E-02 T
  7.10000E-02  7.85398E-02  5.89049E-01  2.44186E+00 -2.49215E-02 T
  7.10000E-02  7.85398E-02  7.85398E-01  2.45467E+00 -2.81091E-02 T
  7.10000E-02  7.85398E-02  9.81748E-01  2.46870E+00 -2.96970E-02 T
  7.10000E-02  7.85398E-02  1.17810E+00  2.48325E+00 -2.99521E-02 T
  7.10000E-02  7.85398E-02  1.37445E+00  2.49773E+00 -2.90976E-02 T
  7.10000E-02  7.85398E-02  1.57080E+00  2.51161E+00 -2.71555E-02 T
  7.10000E-02  7.85398E-02  1.76715E+00  2.52433E+00 -2.41203E-02 T
  7.10000E-02  7.85398E-02  1.96350E+00  2.53537E+00 -2.02135E-02 T
  7.10000E-02  7.85398E-02  2.15985E+00  2.54437E+00 -1.58674E-02 T
  7.10000E-02  7.85398E-02  2.35619E+00  2.55120E+00 -1.14217E-02 T
  7.10000E-02  7.85398E-02  2.55254E+00  2.55580E+00 -6.88268E-03 T
  7.10000E-02  7.85398E-02  2.74889E+00  2.55806E+00 -2.04669E-03 T
  7.10000E-02  7.85398E-02  2.94524E+00  2.55779E+00  3.12773E-03 T
  7.10000E-02  7.85398E-02  3.14159E+00  2.55491E+00  8.31371E-03 T
  7.10000E-02  7.85398E-02  3.33794E+00  2.54954E+00  1.30119E-02 T
  7.10000E-02  7.85398E-02  3.53429E+00  2.54202E+00  1.69329E-02 T
  7.10000E-02  7.85398E-02  3.73064E+00  2.53276E+00  2.01484E-02 T
  7.10000E-02  7.85398E-02  3.92699E+00  2.52207E+00  2.28655E-02 T
  7.10000E-02  7.85398E-02  4.12334E+00  2.51020E+00  2.51032E-02 T
  7.10000E-02  7.85398E-02  4.31969E+00  2.49744E+00  2.66369E-02 T
  7.10000E-02  7.85398E-02  4.51604E+00  2.48423E+00  2.72333E-02 T
  7.10000E-02  7.85398E-02  4.71239E+00  2.47103E+00  2.68648E-02 T
  7.10000E-02  7.85398E-02  4.90874E+00  2.45830E+00  2.56449E-02 T
  7.10000E-02  7.85398E-02  5.10509E+00  2.44641E+00  2.35950E-02 T
  7.10000E-02  7.85398E-02  5.30144E+00  2.43578E+00  2.05596E-02 T
  7.10000E-02  7.85398E-02  5.49779E+00  2.42692E+00  1.63894E-02 T
  7.10000E-02  7.85398E-02  5.69414E+00  2.42032E+00  1.11665E-02 T
  7.10000E-02  7.85398E-02  5.89049E+00  2.41641E+00  5.19903E-03 T
  7.10000E-02  7.85398E-02  6.08684E+00  2.41545E+00 -1.18321E-03 T
  7.10000E-02  1.17810E-01  0.00000E+00  2.39908E+00 -1.14492E-02 T
  7.10000E-02  1.17810E-01  1.96350E-01  2.40605E+00 -1.80199E-02 T
  7.10000E-02  1.17810E-01  3.92699E-01  2.41600E+00 -2.38120E-02 T
  7.10000E-02  1.17810E-01  5.89049E-01  2.42843E+00 -2.82153E-02 T
  7.10000E-02  1.17810E-01  7.85398E-01  2.44264E+00 -3.08965E-02 T
  7.10000E-02  1.17810E-01  9.81748E-01  2.45781E+00 -3.19178E-02 T
  7.10000E-02  1.17810E-01  1.17810E+00  2.47322E+00 -3.15346E-02 T
  7.10000E-02  1.17810E-01  1.37445E+00  2.48823E+00 -2.99104E-02 T
  7.10000E-02  1.17810E-01  1.57080E+00  2.50224E+00 -2.70724E-02 T
  7.10000E-02  1.17810E-01  1.76715E+00  2.51464E+00 -2.31252E-02 T
  7.10000E-02  1.17810E-01  1.96350E+00  2.52494E+00 -1.84234E-02 T
  7.10000E-02  1.17810E-01  2.15985E+00  2.53286E+00 -1.34485E-02 T
  7.10000E-02  1.17810E-01  2.35619E+00  2.53832E+00 -8.50014E-03 T
  7.10000E-02  1.17810E-01  2.55254E+00  2.54133E+00 -3.54845E-03 T
  7.10000E-02  1.17810E-01  2.74889E+00  2.54183E+00  1.56891E-03 T
  7.10000E-02  1.17810E-01  2.94524E+00  2.53974E+00  6.81520E-03 T
  7.10000E-02  1.17810E-01  3.14159E+00  2.53507E+00  1.18526E-02 T
  7.10000E-02  1.17810E-01  3.33794E+00  2.52805E+00  1.62753E-02 T
  7.10000E-02  1.17810E-01  3.53429E+00  2.51905E+00  1.99088E-02 T
  7.10000E-02  1.17810E-01  3.73064E+00  2.50847E+00  2.28498E-02 T
  7.10000E-02  1.17810E-01  3.92699E+00  2.49664E+00  2.52294E-02 T
  7.10000E-02  1.17810E-01  4.12334E+00  2.48384E+00  2.69909E-02 T
  7.10000E-02  1.17810E-01  4.31969E+00  2.47045E+00  2.79265E-02 T
  7.10000E-02  1.17810E-01  4.51604E+00  2.45691E+00  2.78926E-02 T
  7.10000E-02  1.17810E-01  4.71239E+00  2.44369E+00  2.69202E-02 T
  7.10000E-02  1.17810E-01  4.90874E+00  2.43121E+00  2.50974E-02 T
  7.10000E-02  1.17810E-01  5.10509E+00  2.41986E+00  2.23970E-02 T
  7.10000E-02  1.17810E-01  5.30144E+00  2.41008E+00  1.86869E-02 T
  7.10000E-02  1.17810E-01  5.49779E+00  2.40234E+00  1.39172E-02 T
  7.10000E-02  1.17810E-01  5.69414E+00  2.39708E+00  8.24805E-03 T
  7.10000E-02  1.17810E-01  5.89049E+00  2.39466E+00  1.96753E-03 T
  7.10000E-02  1.17810E-01  6.08684E+00  2.39529E+00 -4.67050E-03 T
  7.10000E-02  1.57080E-01  0.00000E+00  2.39936E+00 -1.53747E-02 T
  7.10000E-02  1.57080E-01  1.96350E-01  2.40796E+00 -2.09347E-02 T
  7.10000E-02  1.57080E-01  3.92699E-01  2.41901E+00 -2.55036E-02 T
  7.10000E-02  1.57080E-01  5.89049E-01  2.43197E+00 -2.86543E-02 T
  7.10000E-02  1.57080E-01  7.85398E-01  2.44614E+00 -3.02541E-02 T
  7.10000E-02  1.57080E-01  9.81748E-01  2.46081E+00 -3.04511E-02 T
  7.10000E-02  1.57080E-01  1.17810E+00  2.47537E+00 -2.94380E-02 T
  7.10000E-02  1.57080E-01  1.37445E+00  2.48924E+00 -2.72634E-02 T
  7.10000E-02  1.57080E-01  1.57080E+00  2.50182E+00 -2.39008E-02 T
  7.10000E-02  1.57080E-01  1.76715E+00  2.51253E+00 -1.94787E-02 T
  7.10000E-02  1.57080E-01  1.96350E+00  2.52092E+00 -1.43826E-02 T
  7.10000E-02  1.57080E-01  2.15985E+00  2.52673E+00 -9.08318E-03 T
  7.10000E-02  1.57080E-01  2.35619E+00  2.52994E+00 -3.86712E-03 T
  7.10000E-02  1.57080E-01  2.55254E+00  2.53059E+00  1.23771E-03 T
  7.10000E-02  1.57080E-01  2.74889E+00  2.52872E+00  6.26998E-03 T
  7.10000E-02  1.57080E-01  2.94524E+00  2.52440E+00  1.11019E-02 T
  7.10000E-02  1.57080E-01  3.14159E+00  2.51781E+00  1.54292E-02 T
  7.10000E-02  1.57080E-01  3.33794E+00  2.50928E+00  1.89857E-02 T
  7.10000E-02  1.57080E-01  3.53429E+00  2.49924E+00  2.17304E-02 T
  7.10000E-02  1.57080E-01  3.73064E+00  2.48807E+00  2.38020E-02 T
  7.10000E-02  1.57080E-01  3.92699E+00  2.47608E+00  2.53071E-02 T
  7.10000E-02  1.57080E-01  4.12334E+00  2.46356E+00  2.61884E-02 T
  7.10000E-02  1.57080E-01  4.31969E+00  2.45087E+00  2.62964E-02 T
  7.10000E-02  1.57080E-01  4.51604E+00  2.43839E+00  2.55442E-02 T
  7.10000E-02  1.57080E-01  4.71239E+00  2.42654E+00  2.39437E-02 T
  7.10000E-02  1.57080E-01  4.90874E+00  2.41570E+00  2.15059E-02 T
  7.10000E-02  1.57080E-01  5.10509E+00  2.40627E+00  1.81690E-02 T
  7.10000E-02  1.57080E-01  5.30144E+00  2.39868E+00  1.38766E-02 T
  7.10000E-02  1.57080E-01  5.49779E+00  2.39333E+00  8.71743E-03 T
  7.10000E-02  1.57080E-01  5.69414E+00  2.39058E+00  2.94666E-03 T
  7.10000E-02  1.57080E-01  5.89049E+00  2.39062E+00 -3.14242E-03 T
  7.10000E-02  1.57080E-01  6.08684E+00  2.39354E+00 -9.32353E-03 T
  7.10000E-02  1.96350E-01  0.00000E+00  2.40096E+00 -1.92524E-02 T
  7.10000E-02  1.96350E-01  1.96350E-01  2.41114E+00 -2.36774E-02 T
  7.10000E-02  1.96350E-01  3.92699E-01  2.42320E+00 -2.68885E-02 T
  7.10000E-02  1.96350E-01  5.89049E-01  2.43651E+00 -2.86704E-02 T
  7.10000E-02  1.96350E-01  7.85398E-01  2.45041E+00 -2.90821E-02 T
  7.10000E-02  1.96350E-01  9.81748E-01  2.46431E+00 -2.83416E-02 T
  7.10000E-02  1.96350E-01  1.17810E+00  2.47768E+00 -2.66017E-02 T
  7.10000E-02  1.96350E-01  1.37445E+00  2.49002E+00 -2.38534E-02 T
  7.10000E-02  1.96350E-01  1.57080E+00  2.50082E+00 -2.00560E-02 T
  7.10000E-02  1.96350E-01  1.76715E+00  2.50956E+00 -1.53429E-02 T
  7.10000E-02  1.96350E-01  1.96350E+00  2.51584E+00 -1.00683E-02 T
  7.10000E-02  1.96350E-01  2.15985E+00  2.51948E+00 -4.64161E-03 T
  7.10000E-02  1.96350E-01  2.35619E+00  2.52045E+00  6.72375E-04 T
  7.10000E-02  1.96350E-01  2.55254E+00  2.51885E+00  5.78052E-03 T
  7.10000E-02  1.96350E-01  2.74889E+00  2.51478E+00  1.06132E-02 T
  7.10000E-02  1.96350E-01  2.94524E+00  2.50844E+00  1.49899E-02 T
  7.10000E-02  1.96350E-01  3.14159E+00  2.50014E+00  1.86563E-02 T
  7.10000E-02  1.96350E-01  3.33794E+00  2.49028E+00  2.14456E-02 T
  7.10000E-02  1.96350E-01  3.53429E+00  2.47931E+00  2.33750E-02 T
  7.10000E-02  1.96350E-01  3.73064E+00  2.46764E+00  2.45760E-02 T
  7.10000E-02  1.96350E-01  3.92699E+00  2.45560E+00  2.51447E-02 T
  7.10000E-02  1.96350E-01  4.12334E+00  2.44350E+00  2.50729E-02 T
  7.10000E-02  1.96350E-01  4.31969E+00  2.43165E+00  2.43022E-02 T
  7.10000E-02  1.96350E-01  4.51604E+00  2.42040E+00  2.27974E-02 T
  7.10000E-02  1.96350E-01  4.71239E+00  2.41010E+00  2.05416E-02 T
  7.10000E-02  1.96350E-01  4.90874E+00  2.40108E+00  1.74866E-02 T
  7.10000E-02  1.96350E-01  5.10509E+00  2.39374E+00  1.35679E-02 T
  7.10000E-02  1.96350E-01  5.30144E+00  2.38846E+00  8.80469E-03 T
  7.10000E-02  1.96350E-01  5.49779E+00  2.38558E+00  3.37581E-03 T
  7.10000E-02  1.96350E-01  5.69414E+00  2.38535E+00 -2.42403E-03 T
  7.10000E-02  1.96350E-01  5.89049E+00  2.38787E+00 -8.30008E-03 T
  7.10000E-02  1.96350E-01  6.08684E+00  2.39311E+00 -1.40023E-02 T
  7.10000E-02  2.35619E-01  0.00000E+00  2.38614E+00 -2.28065E-02 T
  7.10000E-02  2.35619E-01  1.96350E-01  2.39780E+00 -2.66216E-02 T
  7.10000E-02  2.35619E-01  3.92699E-01  2.41099E+00 -2.90240E-02 T
  7.10000E-02  2.35619E-01  5.89049E-01  2.42505E+00 -2.99421E-02 T
  7.10000E-02  2.35619E-01  7.85398E-01  2.43930E+00 -2.95384E-02 T
  7.10000E-02  2.35619E-01  9.81748E-01  2.45317E+00 -2.80543E-02 T
  7.10000E-02  2.35619E-01  1.17810E+00  2.46617E+00 -2.56304E-02 T
  7.10000E-02  2.35619E-01  1.37445E+00  2.47783E+00 -2.22737E-02 T
  7.10000E-02  2.35619E-01  1.57080E+00  2.48768E+00 -1.79910E-02 T
  7.10000E-02  2.35619E-01  1.76715E+00  2.49528E+00 -1.29403E-02 T
  7.10000E-02  2.35619E-01  1.96350E+00  2.50028E+00 -7.44197E-03 T
  7.10000E-02  2.35619E-01  2.15985E+00  2.50256E+00 -1.84556E-03 T
  7.10000E-02  2.35619E-01  2.35619E+00  2.50212E+00  3.60418E-03 T
  7.10000E-02  2.35619E-01  2.55254E+00  2.49907E+00  8.77655E-03 T
  7.10000E-02  2.35619E-01  2.74889E+00  2.49358E+00  1.35581E-02 T
  7.10000E-02  2.35619E-01  2.94524E+00  2.48589E+00  1.77771E-02 T
  7.10000E-02  2.35619E-01  3.14159E+00  2.47635E+00  2.12352E-02 T
  7.10000E-02  2.35619E-01  3.33794E+00  2.46539E+00  2.38020E-02 T
  7.10000E-02  2.35619E-01  3.53429E+00  2.45346E+00  2.54657E-02 T
  7.10000E-02  2.35619E-01  3.73064E+00  2.44099E+00  2.62932E-02 T
  7.10000E-02  2.35619E-01  3.92699E+00  2.42838E+00  2.63539E-02 T
  7.10000E-02  2.35619E-01  4.12334E+00  2.41598E+00  2.56824E-02 T
  7.10000E-02  2.35619E-01  4.31969E+00  2.40412E+00  2.42880E-02 T
  7.10000E-02  2.35619E-01  4.51604E+00  2.39316E+00  2.21641E-02 T
  7.10000E-02  2.35619E-01  4.71239E+00  2.38341E+00  1.92761E-02 T
  7.10000E-02  2.35619E-01  4.90874E+00  2.37524E+00  1.55665E-02 T
  7.10000E-02  2.35619E-01  5.10509E+00  2.36902E+00  1.10131E-02 T
  7.10000E-02  2.35619E-01  5.30144E+00  2.36510E+00  5.70590E-03 T
  7.10000E-02  2.35619E-01  5.49779E+00  2.36380E+00 -1.33544E-04 T
  7.10000E-02  2.35619E-01  5.69414E+00  2.36527E+00 -6.21143E-03 T
  7.10000E-02  2.35619E-01  5.89049E+00  2.36956E+00 -1.22284E-02 T
  7.10000E-02  2.35619E-01  6.08684E+00  2.37659E+00 -1.78788E-02 T
  7.10000E-02  2.74889E-01  0.00000E+00  2.37921E+00 -2.37911E-02 T
  7.10000E-02  2.74889E-01  1.96350E-01  2.39107E+00 -2.66367E-02 T
  7.10000E-02  2.74889E-01  3.92699E-01  2.40403E+00 -2.81981E-02 T
  7.10000E-02  2.74889E-01  5.89049E-01  2.41749E+00 -2.84907E-02 T
  7.10000E-02  2.74889E-01  7.85398E-01  2.43090E+00 -2.76637E-02 T
  7.10000E-02  2.74889E-01  9.81748E-01  2.44375E+00 -2.58699E-02 T
  7.10000E-02  2.74889E-01  1.17810E+00  2.45558E+00 -2.31660E-02 T
  7.10000E-02  2.74889E-01  1.37445E+00  2.46593E+00 -1.95336E-02 T
  7.10000E-02  2.74889E-01  1.57080E+00  2.47434E+00 -1.50013E-02 T
  7.10000E-02  2.74889E-01  1.76715E+00  2.48038E+00 -9.75203E-03 T
  7.10000E-02  2.74889E-01  1.96350E+00  2.48377E+00 -4.11770E-03 T
  7.10000E-02  2.74889E-01  2.15985E+00  2.48439E+00  1.52901E-03 T
  7.10000E-02  2.74889E-01  2.35619E+00  2.48232E+00  6.88976E-03 T
  7.10000E-02  2.74889E-01  2.55254E+00  2.47776E+00  1.17771E-02 T
  7.10000E-02  2.74889E-01  2.74889E+00  2.47097E+00  1.60724E-02 T
  7.10000E-02  2.74889E-01  2.94524E+00  2.46228E+00  1.96704E-02 T
  7.10000E-02  2.74889E-01  3.14159E+00  2.45208E+00  2.24687E-02 T
  7.10000E-02  2.74889E-01  3.33794E+00  2.44079E+00  2.43974E-02 T
  7.10000E-02  2.74889E-01  3.53429E+00  2.42884E+00  2.54483E-02 T
  7.10000E-02  2.74889E-01  3.73064E+00  2.41665E+00  2.56699E-02 T
  7.10000E-02  2.74889E-01  3.92699E+00  2.40460E+00  2.51352E-02 T
  7.10000E-02  2.74889E-01  4.12334E+00  2.39302E+00  2.39029E-02 T
  7.10000E-02  2.74889E-01  4.31969E+00  2.38224E+00  2.19912E-02 T
  7.10000E-02  2.74889E-01  4.51604E+00  2.37256E+00  1.93721E-02 T
  7.10000E-02  2.74889E-01  4.71239E+00  2.36430E+00  1.59953E-02 T
  7.10000E-02  2.74889E-01  4.90874E+00  2.35782E+00  1.18423E-02 T
  7.10000E-02  2.74889E-01  5.10509E+00  2.35344E+00  6.98517E-03 T
  7.10000E-02  2.74889E-01  5.30144E+00  2.35144E+00  1.60727E-03 T
  7.10000E-02  2.74889E-01  5.49779E+00  2.35200E+00 -4.03282E-03 T
  7.10000E-02  2.74889E-01  5.69414E+00  2.35517E+00 -9.66107E-03 T
  7.10000E-02  2.74889E-01  5.89049E+00  2.36089E+00 -1.50152E-02 T
  7.10000E-02  2.74889E-01  6.08684E+00  2.36901E+00 -1.98243E-02 T
  7.10000E-02  3.14159E-01  0.00000E+00  2.37928E+00 -2.35065E-02 T
  7.10000E-02  3.14159E-01  1.96350E-01  2.39067E+00 -2.49620E-02 T
  7.10000E-02  3.14159E-01  3.92699E-01  2.40257E+00 -2.54659E-02 T
  7.10000E-02  3.14159E-01  5.89049E-01  2.41456E+00 -2.50955E-02 T
  7.10000E-02  3.14159E-01  7.85398E-01  2.42624E+00 -2.39350E-02 T
  7.10000E-02  3.14159E-01  9.81748E-01  2.43724E+00 -2.20033E-02 T
  7.10000E-02  3.14159E-01  1.17810E+00  2.44716E+00 -1.92339E-02 T
  7.10000E-02  3.14159E-01  1.37445E+00  2.45557E+00 -1.55377E-02 T
  7.10000E-02  3.14159E-01  1.57080E+00  2.46199E+00 -1.09209E-02 T
  7.10000E-02  3.14159E-01  1.76715E+00  2.46600E+00 -5.57361E-03 T
  7.10000E-02  3.14159E-01  1.96350E+00  2.46732E+00  1.34218E-04 T
  7.10000E-02  3.14159E-01  2.15985E+00  2.46589E+00  5.75503E-03 T
  7.10000E-02  3.14159E-01  2.35619E+00  2.46183E+00  1.08967E-02 T
  7.10000E-02  3.14159E-01  2.55254E+00  2.45548E+00  1.53068E-02 T
  7.10000E-02  3.14159E-01  2.74889E+00  2.44722E+00  1.88705E-02 T
  7.10000E-02  3.14159E-01  2.94524E+00  2.43749E+00  2.15518E-02 T
  7.10000E-02  3.14159E-01  3.14159E+00  2.42673E+00  2.33392E-02 T
  7.10000E-02  3.14159E-01  3.33794E+00  2.41539E+00  2.42361E-02 T
  7.10000E-02  3.14159E-01  3.53429E+00  2.40388E+00  2.42853E-02 T
  7.10000E-02  3.14159E-01  3.73064E+00  2.39258E+00  2.35816E-02 T
  7.10000E-02  3.14159E-01  3.92699E+00  2.38182E+00  2.22400E-02 T
  7.10000E-02  3.14159E-01  4.12334E+00  2.37186E+00  2.03339E-02 T
  7.10000E-02  3.14159E-01  4.31969E+00  2.36297E+00  1.78517E-02 T
  7.10000E-02  3.14159E-01  4.51604E+00  2.35540E+00  1.47167E-02 T
  7.10000E-02  3.14159E-01  4.71239E+00  2.34946E+00  1.08669E-02 T
  7.10000E-02  3.14159E-01  4.90874E+00  2.34547E+00  6.34339E-03 T
  7.10000E-02  3.14159E-01  5.10509E+00  2.34369E+00  1.32961E-03 T
  7.10000E-02  3.14159E-01  5.30144E+00  2.34428E+00 -3.88430E-03 T
  7.10000E-02  3.14159E-01  5.49779E+00  2.34725E+00 -8.98042E-03 T
  7.10000E-02  3.14159E-01  5.69414E+00  2.35250E+00 -1.36811E-02 T
  7.10000E-02  3.14159E-01  5.89049E+00  2.35980E+00 -1.77716E-02 T
  7.10000E-02  3.14159E-01  6.08684E+00  2.36885E+00 -2.10877E-02 T
  7.10000E-02  3.53429E-01  0.00000E+00  2.36869E+00 -2.34987E-02 T
  7.10000E-02  3.53429E-01  1.96350E-01  2.37975E+00 -2.38316E-02 T
  7.10000E-02  3.53429E-01  3.92699E-01  2.39085E+00 -2.34773E-02 T
  7.10000E-02  3.53429E-01  5.89049E-01  2.40171E+00 -2.25575E-02 T
  7.10000E-02  3.53429E-01  7.85398E-01  2.41205E+00 -2.11128E-02 T
  7.10000E-02  3.53429E-01  9.81748E-01  2.42161E+00 -1.90783E-02 T
  7.10000E-02  3.53429E-01  1.17810E+00  2.43007E+00 -1.63079E-02 T
  7.10000E-02  3.53429E-01  1.37445E+00  2.43702E+00 -1.26557E-02 T
  7.10000E-02  3.53429E-01  1.57080E+00  2.44203E+00 -8.08967E-03 T
  7.10000E-02  3.53429E-01  1.76715E+00  2.44466E+00 -2.78175E-03 T
  7.10000E-02  3.53429E-01  1.96350E+00  2.44464E+00  2.89006E-03 T
  7.10000E-02  3.53429E-01  2.15985E+00  2.44190E+00  8.44314E-03 T
  7.10000E-02  3.53429E-01  2.35619E+00  2.43664E+00  1.34414E-02 T
  7.10000E-02  3.53429E-01  2.55254E+00  2.42918E+00  1.76042E-02 T
  7.10000E-02  3.53429E-01  2.74889E+00  2.42000E+00  2.08140E-02 T
  7.10000E-02  3.53429E-01  2.94524E+00  2.40956E+00  2.30454E-02 T
  7.10000E-02  3.53429E-01  3.14159E+00  2.39835E+00  2.42965E-02 T
  7.10000E-02  3.53429E-01  3.33794E+00  2.38683E+00  2.45820E-02 T
  7.10000E-02  3.53429E-01  3.53429E+00  2.37545E+00  2.39725E-02 T
  7.10000E-02  3.53429E-01  3.73064E+00  2.36459E+00  2.26112E-02 T
  7.10000E-02  3.53429E-01  3.92699E+00  2.35454E+00  2.06601E-02 T
  7.10000E-02  3.53429E-01  4.12334E+00  2.34556E+00  1.82080E-02 T
  7.10000E-02  3.53429E-01  4.31969E+00  2.33785E+00  1.52224E-02 T
  7.10000E-02  3.53429E-01  4.51604E+00  2.33167E+00  1.15985E-02 T
  7.10000E-02  3.53429E-01  4.71239E+00  2.32733E+00  7.27695E-03 T
  7.10000E-02  3.53429E-01  4.90874E+00  2.32511E+00  2.34873E-03 T
  7.10000E-02  3.53429E-01  5.10509E+00  2.32524E+00 -2.92169E-03 T
  7.10000E-02  3.53429E-01  5.30144E+00  2.32778E+00 -8.15848E-03 T
  7.10000E-02  3.53429E-01  5.49779E+00  2.33263E+00 -1.29737E-02 T
  7.10000E-02  3.53429E-01  5.69414E+00  2.33955E+00 -1.70511E-02 T
  7.10000E-02  3.53429E-01  5.89049E+00  2.34816E+00 -2.01922E-02 T
  7.10000E-02  3.53429E-01  6.08684E+00  2.35802E+00 -2.23267E-02 T
  7.10000E-02  3.92699E-01  0.00000E+00  2.35563E+00 -2.15281E-02 T
  7.10000E-02  3.92699E-01  1.96350E-01  2.36555E+00 -2.11828E-02 T
  7.10000E-02  3.92699E-01  3.92699E-01  2.37525E+00 -2.04202E-02 T
  7.10000E-02  3.92699E-01  5.89049E-01  2.38455E+00 -1.93302E-02 T
  7.10000E-02  3.92699E-01  7.85398E-01  2.39329E+00 -1.78852E-02 T
  7.10000E-02  3.92699E-01  9.81748E-01  2.40128E+00 -1.59550E-02 T
  7.10000E-02  3.92699E-01  1.17810E+00  2.40823E+00 -1.33554E-02 T
  7.10000E-02  3.92699E-01  1.37445E+00  2.41377E+00 -9.92989E-03 T
  7.10000E-02  3.92699E-01  1.57080E+00  2.41750E+00 -5.65440E-03 T
  7.10000E-02  3.92699E-01  1.76715E+00  2.41903E+00 -7.14003E-04 T
  7.10000E-02  3.92699E-01  1.96350E+00  2.41813E+00  4.50810E-03 T
  7.10000E-02  3.92699E-01  2.15985E+00  2.41478E+00  9.54449E-03 T
  7.10000E-02  3.92699E-01  2.35619E+00  2.40918E+00  1.39989E-02 T
  7.10000E-02  3.92699E-01  2.55254E+00  2.40167E+00  1.76430E-02 T
  7.10000E-02  3.92699E-01  2.74889E+00  2.39268E+00  2.04008E-02 T
  7.10000E-02  3.92699E-01  2.94524E+00  2.38265E+00  2.22584E-02 T
  7.10000E-02  3.92699E-01  3.14159E+00  2.37200E+00  2.31966E-02 T
  7.10000E-02  3.92699E-01  3.33794E+00  2.36119E+00  2.32032E-02 T
  7.10000E-02  3.92699E-01  3.53429E+00  2.35062E+00  2.23298E-02 T
  7.10000E-02  3.92699E-01  3.73064E+00  2.34069E+00  2.07117E-02 T
  7.10000E-02  3.92699E-01  3.92699E+00  2.33167E+00  1.85057E-02 T
  7.10000E-02  3.92699E-01  4.12334E+00  2.32382E+00  1.57945E-02 T
  7.10000E-02  3.92699E-01  4.31969E+00  2.31734E+00  1.25488E-02 T
  7.10000E-02  3.92699E-01  4.51604E+00  2.31249E+00  8.68904E-03 T
  7.10000E-02  3.92699E-01  4.71239E+00  2.30954E+00  4.20639E-03 T
  7.10000E-02  3.92699E-01  4.90874E+00  2.30874E+00 -7.45636E-04 T
  7.10000E-02  3.92699E-01  5.10509E+00  2.31024E+00 -5.84537E-03 T
  7.10000E-02  3.92699E-01  5.30144E+00  2.31401E+00 -1.06772E-02 T
  7.10000E-02  3.92699E-01  5.49779E+00  2.31984E+00 -1.48398E-02 T
  7.10000E-02  3.92699E-01  5.69414E+00  2.32738E+00 -1.80431E-02 T
  7.10000E-02  3.92699E-01  5.89049E+00  2.33617E+00 -2.01666E-02 T
  7.10000E-02  3.92699E-01  6.08684E+00  2.34573E+00 -2.12664E-02 T
  7.10000E-02  4.31969E-01  0.00000E+00  2.34616E+00 -1.75610E-02 T
  7.10000E-02  4.31969E-01  1.96350E-01  2.35409E+00 -1.67624E-02 T
  7.10000E-02  4.31969E-01  3.92699E-01  2.36163E+00 -1.57946E-02 T
  7.10000E-02  4.31969E-01  5.89049E-01  2.36871E+00 -1.46264E-02 T
  7.10000E-02  4.31969E-01  7.85398E-01  2.37519E+00 -1.31250E-02 T
  7.10000E-02  4.31969E-01  9.81748E-01  2.38087E+00 -1.11125E-02 T
  7.10000E-02  4.31969E-01  1.17810E+00  2.38547E+00 -8.42927E-03 T
  7.10000E-02  4.31969E-01  1.37445E+00  2.38864E+00 -5.00659E-03 T
  7.10000E-02  4.31969E-01  1.57080E+00  2.39006E+00 -9.38727E-04 T
  7.10000E-02  4.31969E-01  1.76715E+00  2.38947E+00  3.48736E-03 T
  7.10000E-02  4.31969E-01  1.96350E+00  2.38680E+00  7.84833E-03 T
  7.10000E-02  4.31969E-01  2.15985E+00  2.38219E+00  1.17211E-02 T
  7.10000E-02  4.31969E-01  2.35619E+00  2.37596E+00  1.48261E-02 T
  7.10000E-02  4.31969E-01  2.55254E+00  2.36850E+00  1.70847E-02 T
  7.10000E-02  4.31969E-01  2.74889E+00  2.36019E+00  1.85589E-02 T
  7.10000E-02  4.31969E-01  2.94524E+00  2.35140E+00  1.93338E-02 T
  7.10000E-02  4.31969E-01  3.14159E+00  2.34244E+00  1.94412E-02 T
  7.10000E-02  4.31969E-01  3.33794E+00  2.33362E+00  1.88735E-02 T
  7.10000E-02  4.31969E-01  3.53429E+00  2.32525E+00  1.76459E-02 T
  7.10000E-02  4.31969E-01  3.73064E+00  2.31760E+00  1.58268E-02 T
  7.10000E-02  4.31969E-01  3.92699E+00  2.31092E+00  1.35018E-02 T
  7.10000E-02  4.31969E-01  4.12334E+00  2.30541E+00  1.07118E-02 T
  7.10000E-02  4.31969E-01  4.31969E+00  2.30129E+00  7.43861E-03 T
  7.10000E-02  4.31969E-01  4.51604E+00  2.29876E+00  3.66449E-03 T
  7.10000E-02  4.31969E-01  4.71239E+00  2.29804E+00 -5.33953E-04 T
  7.10000E-02  4.31969E-01  4.90874E+00  2.29928E+00 -4.92828E-03 T
  7.10000E-02  4.31969E-01  5.10509E+00  2.30247E+00 -9.15928E-03 T
  7.10000E-02  4.31969E-01  5.30144E+00  2.30748E+00 -1.28276E-02 T
  7.10000E-02  4.31969E-01  5.49779E+00  2.31396E+00 -1.56104E-02 T
  7.10000E-02  4.31969E-01  5.69414E+00  2.32151E+00 -1.73542E-02 T
  7.10000E-02  4.31969E-01  5.89049E+00  2.32964E+00 -1.81087E-02 T
  7.10000E-02  4.31969E-01  6.08684E+00  2.33795E+00 -1.80857E-02 T
  7.10000E-02  4.71239E-01  0.00000E+00  2.33855E+00 -1.48306E-02 T
  7.10000E-02  4.71239E-01  1.96350E-01  2.34508E+00 -1.35698E-02 T
  7.10000E-02  4.71239E-01  3.92699E-01  2.35103E+00 -1.22101E-02 T
  7.10000E-02  4.71239E-01  5.89049E-01  2.35632E+00 -1.06219E-02 T
  7.10000E-02  4.71239E-01  7.85398E-01  2.36079E+00 -8.62473E-03 T
  7.10000E-02  4.71239E-01  9.81748E-01  2.36422E+00 -6.06339E-03 T
  7.10000E-02  4.71239E-01  1.17810E+00  2.36632E+00 -2.87293E-03 T
  7.10000E-02  4.71239E-01  1.37445E+00  2.36680E+00  8.70454E-04 T
  7.10000E-02  4.71239E-01  1.57080E+00  2.36546E+00  4.92313E-03 T
  7.10000E-02  4.71239E-01  1.76715E+00  2.36225E+00  8.89960E-03 T
  7.10000E-02  4.71239E-01  1.96350E+00  2.35729E+00  1.23674E-02 T
  7.10000E-02  4.71239E-01  2.15985E+00  2.35093E+00  1.49851E-02 T
  7.10000E-02  4.71239E-01  2.35619E+00  2.34361E+00  1.66129E-02 T
  7.10000E-02  4.71239E-01  2.55254E+00  2.33579E+00  1.73280E-02 T
  7.10000E-02  4.71239E-01  2.74889E+00  2.32783E+00  1.73345E-02 T
  7.10000E-02  4.71239E-01  2.94524E+00  2.32002E+00  1.68317E-02 T
  7.10000E-02  4.71239E-01  3.14159E+00  2.31255E+00  1.59277E-02 T
  7.10000E-02  4.71239E-01  3.33794E+00  2.30561E+00  1.46385E-02 T
  7.10000E-02  4.71239E-01  3.53429E+00  2.29936E+00  1.29443E-02 T
  7.10000E-02  4.71239E-01  3.73064E+00  2.29398E+00  1.08369E-02 T
  7.10000E-02  4.71239E-01  3.92699E+00  2.28965E+00  8.32337E-03 T
  7.10000E-02  4.71239E-01  4.12334E+00  2.28655E+00  5.40519E-03 T
  7.10000E-02  4.71239E-01  4.31969E+00  2.28486E+00  2.08024E-03 T
  7.10000E-02  4.71239E-01  4.51604E+00  2.28474E+00 -1.61047E-03 T
  7.10000E-02  4.71239E-01  4.71239E+00  2.28634E+00 -5.51726E-03 T
  7.10000E-02  4.71239E-01  4.90874E+00  2.28969E+00 -9.35215E-03 T
  7.10000E-02  4.71239E-01  5.10509E+00  2.29468E+00 -1.27332E-02 T
  7.10000E-02  4.71239E-01  5.30144E+00  2.30104E+00 -1.52951E-02 T
  7.10000E-02  4.71239E-01  5.49779E+00  2.30835E+00 -1.68143E-02 T
  7.10000E-02  4.71239E-01  5.69414E+00  2.31613E+00 -1.72860E-02 T
  7.10000E-02  4.71239E-01  5.89049E+00  2.32394E+00 -1.69104E-02 T
  7.10000E-02  4.71239E-01  6.08684E+00  2.33148E+00 -1.59967E-02 T
  7.10000E-02  5.10509E-01  0.00000E+00  2.33518E+00 -1.23875E-02 T
  7.10000E-02  5.10509E-01  1.96350E-01  2.34055E+00 -1.10326E-02 T
  7.10000E-02  5.10509E-01  3.92699E-01  2.34530E+00 -9.60405E-03 T
  7.10000E-02  5.10509E-01  5.89049E-01  2.34935E+00 -7.89830E-03 T
  7.10000E-02  5.10509E-01  7.85398E-01  2.35251E+00 -5.71189E-03 T
  7.10000E-02  5.10509E-01  9.81748E-01  2.35453E+00 -2.92148E-03 T
  7.10000E-02  5.10509E-01  1.17810E+00  2.35512E+00  4.61830E-04 T
  7.10000E-02  5.10509E-01  1.37445E+00  2.35404E+00  4.26959E-03 T
  7.10000E-02  5.10509E-01  1.57080E+00  2.35116E+00  8.19091E-03 T
  7.10000E-02  5.10509E-01  1.76715E+00  2.34652E+00  1.18300E-02 T
  7.10000E-02  5.10509E-01  1.96350E+00  2.34037E+00  1.48002E-02 T
  7.10000E-02  5.10509E-01  2.15985E+00  2.33307E+00  1.68282E-02 T
  7.10000E-02  5.10509E-01  2.35619E+00  2.32511E+00  1.78244E-02 T
  7.10000E-02  5.10509E-01  2.55254E+00  2.31694E+00  1.78837E-02 T
  7.10000E-02  5.10509E-01  2.74889E+00  2.30895E+00  1.72104E-02 T
  7.10000E-02  5.10509E-01  2.94524E+00  2.30141E+00  1.60095E-02 T
  7.10000E-02  5.10509E-01  3.14159E+00  2.29454E+00  1.44057E-02 T
  7.10000E-02  5.10509E-01  3.33794E+00  2.28849E+00  1.24317E-02 T
  7.10000E-02  5.10509E-01  3.53429E+00  2.28342E+00  1.00764E-02 T
  7.10000E-02  5.10509E-01  3.73064E+00  2.27950E+00  7.34316E-03 T
  7.10000E-02  5.10509E-01  3.92699E+00  2.27689E+00  4.27342E-03 T
  7.10000E-02  5.10509E-01  4.12334E+00  2.27572E+00  9.33134E-04 T
  7.10000E-02  5.10509E-01  4.31969E+00  2.27609E+00 -2.59957E-03 T
  7.10000E-02  5.10509E-01  4.51604E+00  2.27806E+00 -6.21244E-03 T
  7.10000E-02  5.10509E-01  4.71239E+00  2.28163E+00 -9.71342E-03 T
  7.10000E-02  5.10509E-01  4.90874E+00  2.28671E+00 -1.28131E-02 T
  7.10000E-02  5.10509E-01  5.10509E+00  2.29303E+00 -1.51799E-02 T
  7.10000E-02  5.10509E-01  5.30144E+00  2.30023E+00 -1.65579E-02 T
  7.10000E-02  5.10509E-01  5.49779E+00  2.30783E+00 -1.68815E-02 T
  7.10000E-02  5.10509E-01  5.69414E+00  2.31539E+00 -1.63114E-02 T
  7.10000E-02  5.10509E-01  5.89049E+00  2.32257E+00 -1.51655E-02 T
  7.10000E-02  5.10509E-01  6.08684E+00  2.32919E+00 -1.37818E-02 T
  7.10000E-02  5.49779E-01  0.00000E+00  2.33673E+00 -7.53095E-03 T
  7.10000E-02  5.49779E-01  1.96350E-01  2.33992E+00 -6.39680E-03 T
  7.10000E-02  5.49779E-01  3.92699E-01  2.34260E+00 -5.21496E-03 T
  7.10000E-02  5.49779E-01  5.89049E-01  2.34467E+00 -3.71925E-03 T
  7.10000E-02  5.49779E-01  7.85398E-01  2.34594E+00 -1.71141E-03 T
  7.10000E-02  5.49779E-01  9.81748E-01  2.34616E+00  8.68182E-04 T
  7.10000E-02  5.49779E-01  1.17810E+00  2.34507E+00  3.91648E-03 T
  7.10000E-02  5.49779E-01  1.37445E+00  2.34252E+00  7.19321E-03 T
  7.10000E-02  5.49779E-01  1.57080E+00  2.33847E+00  1.03805E-02 T
  7.10000E-02  5.49779E-01  1.76715E+00  2.33305E+00  1.31512E-02 T
  7.10000E-02  5.49779E-01  1.96350E+00  2.32653E+00  1.52285E-02 T
  7.10000E-02  5.49779E-01  2.15985E+00  2.31927E+00  1.64318E-02 T
  7.10000E-02  5.49779E-01  2.35619E+00  2.31171E+00  1.67077E-02 T
  7.10000E-02  5.49779E-01  2.55254E+00  2.30424E+00  1.61320E-02 T
  7.10000E-02  5.49779E-01  2.74889E+00  2.29721E+00  1.48654E-02 T
  7.10000E-02  5.49779E-01  2.94524E+00  2.29090E+00  1.30753E-02 T
  7.10000E-02  5.49779E-01  3.14159E+00  2.28551E+00  1.08660E-02 T
  7.10000E-02  5.49779E-01  3.33794E+00  2.28120E+00  8.26823E-03 T
  7.10000E-02  5.49779E-01  3.53429E+00  2.27816E+00  5.29485E-03 T
  7.10000E-02  5.49779E-01  3.73064E+00  2.27651E+00  2.01093E-03 T
  7.10000E-02  5.49779E-01  3.92699E+00  2.27638E+00 -1.44164E-03 T
  7.10000E-02  5.49779E-01  4.12334E+00  2.27780E+00 -4.87849E-03 T
  7.10000E-02  5.49779E-01  4.31969E+00  2.28072E+00 -8.11963E-03 T
  7.10000E-02  5.49779E-01  4.51604E+00  2.28502E+00 -1.09968E-02 T
  7.10000E-02  5.49779E-01  4.71239E+00  2.29051E+00 -1.33242E-02 T
  7.10000E-02  5.49779E-01  4.90874E+00  2.29689E+00 -1.48893E-02 T
  7.10000E-02  5.49779E-01  5.10509E+00  2.30380E+00 -1.55110E-02 T
  7.10000E-02  5.49779E-01  5.30144E+00  2.31078E+00 -1.51434E-02 T
  7.10000E-02  5.49779E-01  5.49779E+00  2.31741E+00 -1.39460E-02 T
  7.10000E-02  5.49779E-01  5.69414E+00  2.32339E+00 -1.22551E-02 T
  7.10000E-02  5.49779E-01  5.89049E+00  2.32857E+00 -1.04596E-02 T
  7.10000E-02  5.49779E-01  6.08684E+00  2.33298E+00 -8.85166E-03 T
  7.10000E-02  5.89049E-01  0.00000E+00  2.34048E+00 -2.87725E-03 T
  7.10000E-02  5.89049E-01  1.96350E-01  2.34146E+00 -1.37589E-03 T
  7.10000E-02  5.89049E-01  3.92699E-01  2.34173E+00  2.29437E-04 T
  7.10000E-02  5.89049E-01  5.89049E-01  2.34119E+00  2.16672E-03 T
  7.10000E-02  5.89049E-01  7.85398E-01  2.33967E+00  4.52056E-03 T
  7.10000E-02  5.89049E-01  9.81748E-01  2.33699E+00  7.18984E-03 T
  7.10000E-02  5.89049E-01  1.17810E+00  2.33307E+00  9.91912E-03 T
  7.10000E-02  5.89049E-01  1.37445E+00  2.32795E+00  1.23897E-02 T
  7.10000E-02  5.89049E-01  1.57080E+00  2.32182E+00  1.43206E-02 T
  7.10000E-02  5.89049E-01  1.76715E+00  2.31500E+00  1.55277E-02 T
  7.10000E-02  5.89049E-01  1.96350E+00  2.30783E+00  1.59273E-02 T
  7.10000E-02  5.89049E-01  2.15985E+00  2.30069E+00  1.55175E-02 T
  7.10000E-02  5.89049E-01  2.35619E+00  2.29392E+00  1.43699E-02 T
  7.10000E-02  5.89049E-01  2.55254E+00  2.28783E+00  1.26261E-02 T
  7.10000E-02  5.89049E-01  2.74889E+00  2.28264E+00  1.04658E-02 T
  7.10000E-02  5.89049E-01  2.94524E+00  2.27849E+00  8.03692E-03 T
  7.10000E-02  5.89049E-01  3.14159E+00  2.27548E+00  5.39433E-03 T
  7.10000E-02  5.89049E-01  3.33794E+00  2.27370E+00  2.50756E-03 T
  7.10000E-02  5.89049E-01  3.53429E+00  2.27328E+00 -6.55008E-04 T
  7.10000E-02  5.89049E-01  3.73064E+00  2.27432E+00 -4.03188E-03 T
  7.10000E-02  5.89049E-01  3.92699E+00  2.27689E+00 -7.44154E-03 T
  7.10000E-02  5.89049E-01  4.12334E+00  2.28094E+00 -1.06349E-02 T
  7.10000E-02  5.89049E-01  4.31969E+00  2.28635E+00 -1.33670E-02 T
  7.10000E-02  5.89049E-01  4.51604E+00  2.29285E+00 -1.54262E-02 T
  7.10000E-02  5.89049E-01  4.71239E+00  2.30011E+00 -1.66248E-02 T
  7.10000E-02  5.89049E-01  4.90874E+00  2.30771E+00 -1.68096E-02 T
  7.10000E-02  5.89049E-01  5.10509E+00  2.31518E+00 -1.59270E-02 T
  7.10000E-02  5.89049E-01  5.30144E+00  2.32205E+00 -1.41037E-02 T
  7.10000E-02  5.89049E-01  5.49779E+00  2.32794E+00 -1.16619E-02 T
  7.10000E-02  5.89049E-01  5.69414E+00  2.33268E+00 -9.03089E-03 T
  7.10000E-02  5.89049E-01  5.89049E+00  2.33624E+00 -6.59252E-03 T
  7.10000E-02  5.89049E-01  6.08684E+00  2.33879E+00 -4.54902E-03 T
  7.10000E-02  6.28319E-01  0.00000E+00  2.34228E+00  1.11247E-09 T
  7.10000E-02  6.28319E-01  1.96350E-01  2.34183E+00  1.97134E-03 T
  7.10000E-02  6.28319E-01  3.92699E-01  2.34042E+00  4.18843E-03 T
  7.10000E-02  6.28319E-01  5.89049E-01  2.33792E+00  6.77595E-03 T
  7.10000E-02  6.28319E-01  7.85398E-01  2.33416E+00  9.65674E-03 T
  7.10000E-02  6.28319E-01  9.81748E-01  2.32907E+00  1.25501E-02 T
  7.10000E-02  6.28319E-01  1.17810E+00  2.32274E+00  1.50617E-02 T
  7.10000E-02  6.28319E-01  1.37445E+00  2.31545E+00  1.68261E-02 T
  7.10000E-02  6.28319E-01  1.57080E+00  2.30759E+00  1.76226E-02 T
  7.10000E-02  6.28319E-01  1.76715E+00  2.29963E+00  1.74048E-02 T
  7.10000E-02  6.28319E-01  1.96350E+00  2.29201E+00  1.62538E-02 T
  7.10000E-02  6.28319E-01  2.15985E+00  2.28512E+00  1.43186E-02 T
  7.10000E-02  6.28319E-01  2.35619E+00  2.27925E+00  1.17912E-02 T
  7.10000E-02  6.28319E-01  2.55254E+00  2.27462E+00  8.90252E-03 T
  7.10000E-02  6.28319E-01  2.74889E+00  2.27132E+00  5.88701E-03 T
  7.10000E-02  6.28319E-01  2.94524E+00  2.26936E+00  2.90816E-03 T
  7.10000E-02  6.28319E-01  3.14159E+00  2.26871E+00 -3.67745E-09 T
  7.10000E-02  6.28319E-01  3.33794E+00  2.26936E+00 -2.90817E-03 T
  7.10000E-02  6.28319E-01  3.53429E+00  2.27132E+00 -5.88702E-03 T
  7.10000E-02  6.28319E-01  3.73064E+00  2.27462E+00 -8.90253E-03 T
  7.10000E-02  6.28319E-01  3.92699E+00  2.27925E+00 -1.17913E-02 T
  7.10000E-02  6.28319E-01  4.12334E+00  2.28512E+00 -1.43186E-02 T
  7.10000E-02  6.28319E-01  4.31969E+00  2.29201E+00 -1.62538E-02 T
  7.10000E-02  6.28319E-01  4.51604E+00  2.29963E+00 -1.74048E-02 T
  7.10000E-02  6.28319E-01  4.71239E+00  2.30759E+00 -1.76226E-02 T
  7.10000E-02  6.28319E-01  4.90874E+00  2.31545E+00 -1.68261E-02 T
  7.10000E-02  6.28319E-01  5.10509E+00  2.32274E+00 -1.50617E-02 T
  7.10000E-02  6.28319E-01  5.30144E+00  2.32907E+00 -1.25501E-02 T
  7.10000E-02  6.28319E-01  5.49779E+00  2.33416E+00 -9.65674E-03 T
  7.10000E-02  6.28319E-01  5.69414E+00  2.33792E+00 -6.77594E-03 T
  7.10000E-02  6.28319E-01  5.89049E+00  2.34042E+00 -4.18843E-03 T
  7.10000E-02  6.28319E-01  6.08684E+00  2.34183E+00 -1.97133E-03 T
  7.10000E-02  6.67588E-01  0.00000E+00  2.34048E+00  2.87725E-03 T
  7.10000E-02  6.67588E-01  1.96350E-01  2.33879E+00  4.54902E-03 T
  7.10000E-02  6.67588E-01  3.92699E-01  2.33624E+00  6.59252E-03 T
  7.10000E-02  6.67588E-01  5.89049E-01  2.33268E+00  9.03090E-03 T
  7.10000E-02  6.67588E-01  7.85398E-01  2.32794E+00  1.16619E-02 T
  7.10000E-02  6.67588E-01  9.81748E-01  2.32205E+00  1.41037E-02 T
  7.10000E-02  6.67588E-01  1.17810E+00  2.31518E+00  1.59270E-02 T
  7.10000E-02  6.67588E-01  1.37445E+00  2.30771E+00  1.68096E-02 T
  7.10000E-02  6.67588E-01  1.57080E+00  2.30011E+00  1.66248E-02 T
  7.10000E-02  6.67588E-01  1.76715E+00  2.29285E+00  1.54262E-02 T
  7.10000E-02  6.67588E-01  1.96350E+00  2.28635E+00  1.33670E-02 T
  7.10000E-02  6.67588E-01  2.15985E+00  2.28094E+00  1.06349E-02 T
  7.10000E-02  6.67588E-01  2.35619E+00  2.27689E+00  7.44153E-03 T
  7.10000E-02  6.67588E-01  2.55254E+00  2.27432E+00  4.03188E-03 T
  7.10000E-02  6.67588E-01  2.74889E+00  2.27328E+00  6.55000E-04 T
  7.10000E-02  6.67588E-01  2.94524E+00  2.27370E+00 -2.50756E-03 T
  7.10000E-02  6.67588E-01  3.14159E+00  2.27548E+00 -5.39434E-03 T
  7.10000E-02  6.67588E-01  3.33794E+00  2.27849E+00 -8.03693E-03 T
  7.10000E-02  6.67588E-01  3.53429E+00  2.28264E+00 -1.04658E-02 T
  7.10000E-02  6.67588E-01  3.73064E+00  2.28783E+00 -1.26261E-02 T
  7.10000E-02  6.67588E-01  3.92699E+00  2.29392E+00 -1.43699E-02 T
  7.10000E-02  6.67588E-01  4.12334E+00  2.30069E+00 -1.55175E-02 T
  7.10000E-02  6.67588E-01  4.31969E+00  2.30783E+00 -1.59273E-02 T
  7.10000E-02  6.67588E-01  4.51604E+00  2.31500E+00 -1.55277E-02 T
  7.10000E-02  6.67588E-01  4.71239E+00  2.32182E+00 -1.43206E-02 T
  7.10000E-02  6.67588E-01  4.90874E+00  2.32795E+00 -1.23897E-02 T
  7.10000E-02  6.67588E-01  5.10509E+00  2.33307E+00 -9.91911E-03 T
  7.10000E-02  6.67588E-01  5.30144E+00  2.33699E+00 -7.18983E-03 T
  7.10000E-02  6.67588E-01  5.49779E+00  2.33967E+00 -4.52055E-03 T
  7.10000E-02  6.67588E-01  5.69414E+00  2.34119E+00 -2.16672E-03 T
  7.10000E-02  6.67588E-01  5.89049E+00  2.34173E+00 -2.29431E-04 T
  7.10000E-02  6.67588E-01  6.08684E+00  2.34146E+00  1.37590E-03 T
  7.10000E-02  7.06858E-01  0.00000E+00  2.33673E+00  7.53095E-03 T
  7.10000E-02  7.06858E-01  1.96350E-01  2.33298E+00  8.85167E-03 T
  7.10000E-02  7.06858E-01  3.92699E-01  2.32857E+00  1.04596E-02 T
  7.10000E-02  7.06858E-01  5.89049E-01  2.32339E+00  1.22551E-02 T
  7.10000E-02  7.06858E-01  7.85398E-01  2.31741E+00  1.39460E-02 T
  7.10000E-02  7.06858E-01  9.81748E-01  2.31078E+00  1.51434E-02 T
  7.10000E-02  7.06858E-01  1.17810E+00  2.30380E+00  1.55110E-02 T
  7.10000E-02  7.06858E-01  1.37445E+00  2.29689E+00  1.48893E-02 T
  7.10000E-02  7.06858E-01  1.57080E+00  2.29051E+00  1.33242E-02 T
  7.10000E-02  7.06858E-01  1.76715E+00  2.28502E+00  1.09968E-02 T
  7.10000E-02  7.06858E-01  1.96350E+00  2.28072E+00  8.11962E-03 T
  7.10000E-02  7.06858E-01  2.15985E+00  2.27780E+00  4.87848E-03 T
  7.10000E-02  7.06858E-01  2.35619E+00  2.27638E+00  1.44163E-03 T
  7.10000E-02  7.06858E-01  2.55254E+00  2.27651E+00 -2.01093E-03 T
  7.10000E-02  7.06858E-01  2.74889E+00  2.27816E+00 -5.29486E-03 T
  7.10000E-02  7.06858E-01  2.94524E+00  2.28120E+00 -8.26824E-03 T
  7.10000E-02  7.06858E-01  3.14159E+00  2.28551E+00 -1.08660E-02 T
  7.10000E-02  7.06858E-01  3.33794E+00  2.29090E+00 -1.30753E-02 T
  7.10000E-02  7.06858E-01  3.53429E+00  2.29721E+00 -1.48654E-02 T
  7.10000E-02  7.06858E-01  3.73064E+00  2.30424E+00 -1.61320E-02 T
  7.10000E-02  7.06858E-01  3.92699E+00  2.31171E+00 -1.67077E-02 T
  7.10000E-02  7.06858E-01  4.12334E+00  2.31927E+00 -1.64318E-02 T
  7.10000E-02  7.06858E-01  4.31969E+00  2.32653E+00 -1.52285E-02 T
  7.10000E-02  7.06858E-01  4.51604E+00  2.33305E+00 -1.31512E-02 T
  7.10000E-02  7.06858E-01  4.71239E+00  2.33847E+00 -1.03805E-02 T
  7.10000E-02  7.06858E-01  4.90874E+00  2.34252E+00 -7.19320E-03 T
  7.10000E-02  7.06858E-01  5.10509E+00  2.34507E+00 -3.91647E-03 T
  7.10000E-02  7.06858E-01  5.30144E+00  2.34616E+00 -8.68175E-04 T
  7.10000E-02  7.06858E-01  5.49779E+00  2.34594E+00  1.71142E-03 T
  7.10000E-02  7.06858E-01  5.69414E+00  2.34467E+00  3.71926E-03 T
  7.10000E-02  7.06858E-01  5.89049E+00  2.34260E+00  5.21497E-03 T
  7.10000E-02  7.06858E-01  6.08684E+00  2.33992E+00  6.39680E-03 T
  7.10000E-02  7.46128E-01  0.00000E+00  2.33518E+00  1.23876E-02 T
  7.10000E-02  7.46128E-01  1.96350E-01  2.32919E+00  1.37818E-02 T
  7.10000E-02  7.46128E-01  3.92699E-01  2.32257E+00  1.51655E-02 T
  7.10000E-02  7.46128E-01  5.89049E-01  2.31539E+00  1.63114E-02 T
  7.10000E-02  7.46128E-01  7.85398E-01  2.30783E+00  1.68815E-02 T
  7.10000E-02  7.46128E-01  9.81748E-01  2.30023E+00  1.65579E-02 T
  7.10000E-02  7.46128E-01  1.17810E+00  2.29303E+00  1.51799E-02 T
  7.10000E-02  7.46128E-01  1.37445E+00  2.28671E+00  1.28131E-02 T
  7.10000E-02  7.46128E-01  1.57080E+00  2.28163E+00  9.71342E-03 T
  7.10000E-02  7.46128E-01  1.76715E+00  2.27806E+00  6.21243E-03 T
  7.10000E-02  7.46128E-01  1.96350E+00  2.27609E+00  2.59957E-03 T
  7.10000E-02  7.46128E-01  2.15985E+00  2.27572E+00 -9.33141E-04 T
  7.10000E-02  7.46128E-01  2.35619E+00  2.27689E+00 -4.27343E-03 T
  7.10000E-02  7.46128E-01  2.55254E+00  2.27950E+00 -7.34317E-03 T
  7.10000E-02  7.46128E-01  2.74889E+00  2.28342E+00 -1.00764E-02 T
  7.10000E-02  7.46128E-01  2.94524E+00  2.28849E+00 -1.24317E-02 T
  7.10000E-02  7.46128E-01  3.14159E+00  2.29454E+00 -1.44057E-02 T
  7.10000E-02  7.46128E-01  3.33794E+00  2.30141E+00 -1.60095E-02 T
  7.10000E-02  7.46128E-01  3.53429E+00  2.30895E+00 -1.72104E-02 T
  7.10000E-02  7.46128E-01  3.73064E+00  2.31694E+00 -1.78837E-02 T
  7.10000E-02  7.46128E-01  3.92699E+00  2.32511E+00 -1.78244E-02 T
  7.10000E-02  7.46128E-01  4.12334E+00  2.33307E+00 -1.68282E-02 T
  7.10000E-02  7.46128E-01  4.31969E+00  2.34037E+00 -1.48002E-02 T
  7.10000E-02  7.46128E-01  4.51604E+00  2.34652E+00 -1.18300E-02 T
  7.10000E-02  7.46128E-01  4.71239E+00  2.35116E+00 -8.19091E-03 T
  7.10000E-02  7.46128E-01  4.90874E+00  2.35404E+00 -4.26959E-03 T
  7.10000E-02  7.46128E-01  5.10509E+00  2.35512E+00 -4.61824E-04 T
  7.10000E-02  7.46128E-01  5.30144E+00  2.35453E+00  2.92148E-03 T
  7.10000E-02  7.46128E-01  5.49779E+00  2.35251E+00  5.71190E-03 T
  7.10000E-02  7.46128E-01  5.69414E+00  2.34935E+00  7.89830E-03 T
  7.10000E-02  7.46128E-01  5.89049E+00  2.34530E+00  9.60406E-03 T
  7.10000E-02  7.46128E-01  6.08684E+00  2.34055E+00  1.10326E-02 T
  7.10000E-02  7.85398E-01  0.00000E+00  2.33855E+00  1.48306E-02 T
  7.10000E-02  7.85398E-01  1.96350E-01  2.33148E+00  1.59967E-02 T
  7.10000E-02  7.85398E-01  3.92699E-01  2.32394E+00  1.69104E-02 T
  7.10000E-02  7.85398E-01  5.89049E-01  2.31613E+00  1.72860E-02 T
  7.10000E-02  7.85398E-01  7.85398E-01  2.30835E+00  1.68143E-02 T
  7.10000E-02  7.85398E-01  9.81748E-01  2.30104E+00  1.52951E-02 T
  7.10000E-02  7.85398E-01  1.17810E+00  2.29468E+00  1.27332E-02 T
  7.10000E-02  7.85398E-01  1.37445E+00  2.28969E+00  9.35214E-03 T
  7.10000E-02  7.85398E-01  1.57080E+00  2.28634E+00  5.51725E-03 T
  7.10000E-02  7.85398E-01  1.76715E+00  2.28474E+00  1.61046E-03 T
  7.10000E-02  7.85398E-01  1.96350E+00  2.28486E+00 -2.08024E-03 T
  7.10000E-02  7.85398E-01  2.15985E+00  2.28655E+00 -5.40520E-03 T
  7.10000E-02  7.85398E-01  2.35619E+00  2.28965E+00 -8.32338E-03 T
  7.10000E-02  7.85398E-01  2.55254E+00  2.29398E+00 -1.08369E-02 T
  7.10000E-02  7.85398E-01  2.74889E+00  2.29936E+00 -1.29443E-02 T
  7.10000E-02  7.85398E-01  2.94524E+00  2.30561E+00 -1.46385E-02 T
  7.10000E-02  7.85398E-01  3.14159E+00  2.31255E+00 -1.59277E-02 T
  7.10000E-02  7.85398E-01  3.33794E+00  2.32002E+00 -1.68317E-02 T
  7.10000E-02  7.85398E-01  3.53429E+00  2.32783E+00 -1.73345E-02 T
  7.10000E-02  7.85398E-01  3.73064E+00  2.33579E+00 -1.73280E-02 T
  7.10000E-02  7.85398E-01  3.92699E+00  2.34361E+00 -1.66129E-02 T
  7.10000E-02  7.85398E-01  4.12334E+00  2.35093E+00 -1.49851E-02 T
  7.10000E-02  7.85398E-01  4.31969E+00  2.35729E+00 -1.23674E-02 T
  7.10000E-02  7.85398E-01  4.51604E+00  2.36225E+00 -8.89960E-03 T
  7.10000E-02  7.85398E-01  4.71239E+00  2.36546E+00 -4.92313E-03 T
  7.10000E-02  7.85398E-01  4.90874E+00  2.36680E+00 -8.70446E-04 T
  7.10000E-02  7.85398E-01  5.10509E+00  2.36632E+00  2.87294E-03 T
  7.10000E-02  7.85398E-01  5.30144E+00  2.36422E+00  6.06339E-03 T
  7.10000E-02  7.85398E-01  5.49779E+00  2.36079E+00  8.62473E-03 T
  7.10000E-02  7.85398E-01  5.69414E+00  2.35632E+00  1.06219E-02 T
  7.10000E-02  7.85398E-01  5.89049E+00  2.35103E+00  1.22101E-02 T
  7.10000E-02  7.85398E-01  6.08684E+00  2.34508E+00  1.35698E-02 T
  7.10000E-02  8.24668E-01  0.00000E+00  2.34616E+00  1.75610E-02 T
  7.10000E-02  8.24668E-01  1.96350E-01  2.33795E+00  1.80857E-02 T
  7.10000E-02  8.24668E-01  3.92699E-01  2.32964E+00  1.81087E-02 T
  7.10000E-02  8.24668E-01  5.89049E-01  2.32151E+00  1.73542E-02 T
  7.10000E-02  8.24668E-01  7.85398E-01  2.31396E+00  1.56104E-02 T
  7.10000E-02  8.24668E-01  9.81748E-01  2.30748E+00  1.28276E-02 T
  7.10000E-02  8.24668E-01  1.17810E+00  2.30247E+00  9.15927E-03 T
  7.10000E-02  8.24668E-01  1.37445E+00  2.29928E+00  4.92827E-03 T
  7.10000E-02  8.24668E-01  1.57080E+00  2.29804E+00  5.33945E-04 T
  7.10000E-02  8.24668E-01  1.76715E+00  2.29876E+00 -3.66450E-03 T
  7.10000E-02  8.24668E-01  1.96350E+00  2.30129E+00 -7.43862E-03 T
  7.10000E-02  8.24668E-01  2.15985E+00  2.30541E+00 -1.07118E-02 T
  7.10000E-02  8.24668E-01  2.35619E+00  2.31092E+00 -1.35018E-02 T
  7.10000E-02  8.24668E-01  2.55254E+00  2.31760E+00 -1.58268E-02 T
  7.10000E-02  8.24668E-01  2.74889E+00  2.32525E+00 -1.76459E-02 T
  7.10000E-02  8.24668E-01  2.94524E+00  2.33362E+00 -1.88735E-02 T
  7.10000E-02  8.24668E-01  3.14159E+00  2.34244E+00 -1.94412E-02 T
  7.10000E-02  8.24668E-01  3.33794E+00  2.35140E+00 -1.93338E-02 T
  7.10000E-02  8.24668E-01  3.53429E+00  2.36019E+00 -1.85589E-02 T
  7.10000E-02  8.24668E-01  3.73064E+00  2.36850E+00 -1.70847E-02 T
  7.10000E-02  8.24668E-01  3.92699E+00  2.37596E+00 -1.48261E-02 T
  7.10000E-02  8.24668E-01  4.12334E+00  2.38219E+00 -1.17211E-02 T
  7.10000E-02  8.24668E-01  4.31969E+00  2.38680E+00 -7.84832E-03 T
  7.10000E-02  8.24668E-01  4.51604E+00  2.38947E+00 -3.48735E-03 T
  7.10000E-02  8.24668E-01  4.71239E+00  2.39006E+00  9.38736E-04 T
  7.10000E-02  8.24668E-01  4.90874E+00  2.38864E+00  5.00660E-03 T
  7.10000E-02  8.24668E-01  5.10509E+00  2.38547E+00  8.42928E-03 T
  7.10000E-02  8.24668E-01  5.30144E+00  2.38087E+00  1.11125E-02 T
  7.10000E-02  8.24668E-01  5.49779E+00  2.37519E+00  1.31250E-02 T
  7.10000E-02  8.24668E-01  5.69414E+00  2.36871E+00  1.46264E-02 T
  7.10000E-02  8.24668E-01  5.89049E+00  2.36163E+00  1.57946E-02 T
  7.10000E-02  8.24668E-01  6.08684E+00  2.35409E+00  1.67624E-02 T
  7.10000E-02  8.63938E-01  0.00000E+00  2.35563E+00  2.15281E-02 T
  7.10000E-02  8.63938E-01  1.96350E-01  2.34573E+00  2.12664E-02 T
  7.10000E-02  8.63938E-01  3.92699E-01  2.33617E+00  2.01666E-02 T
  7.10000E-02  8.63938E-01  5.89049E-01  2.32738E+00  1.80431E-02 T
  7.10000E-02  8.63938E-01  7.85398E-01  2.31984E+00  1.48398E-02 T
  7.10000E-02  8.63938E-01  9.81748E-01  2.31401E+00  1.06772E-02 T
  7.10000E-02  8.63938E-01  1.17810E+00  2.31024E+00  5.84536E-03 T
  7.10000E-02  8.63938E-01  1.37445E+00  2.30874E+00  7.45628E-04 T
  7.10000E-02  8.63938E-01  1.57080E+00  2.30954E+00 -4.20640E-03 T
  7.10000E-02  8.63938E-01  1.76715E+00  2.31249E+00 -8.68904E-03 T
  7.10000E-02  8.63938E-01  1.96350E+00  2.31734E+00 -1.25488E-02 T
  7.10000E-02  8.63938E-01  2.15985E+00  2.32382E+00 -1.57945E-02 T
  7.10000E-02  8.63938E-01  2.35619E+00  2.33167E+00 -1.85057E-02 T
  7.10000E-02  8.63938E-01  2.55254E+00  2.34069E+00 -2.07118E-02 T
  7.10000E-02  8.63938E-01  2.74889E+00  2.35062E+00 -2.23298E-02 T
  7.10000E-02  8.63938E-01  2.94524E+00  2.36119E+00 -2.32032E-02 T
  7.10000E-02  8.63938E-01  3.14159E+00  2.37200E+00 -2.31966E-02 T
  7.10000E-02  8.63938E-01  3.33794E+00  2.38265E+00 -2.22584E-02 T
  7.10000E-02  8.63938E-01  3.53429E+00  2.39268E+00 -2.04008E-02 T
  7.10000E-02  8.63938E-01  3.73064E+00  2.40167E+00 -1.76430E-02 T
  7.10000E-02  8.63938E-01  3.92699E+00  2.40918E+00 -1.39989E-02 T
  7.10000E-02  8.63938E-01  4.12334E+00  2.41478E+00 -9.54449E-03 T
  7.10000E-02  8.63938E-01  4.31969E+00  2.41813E+00 -4.50810E-03 T
  7.10000E-02  8.63938E-01  4.51604E+00  2.41903E+00  7.14010E-04 T
  7.10000E-02  8.63938E-01  4.71239E+00  2.41750E+00  5.65441E-03 T
  7.10000E-02  8.63938E-01  4.90874E+00  2.41377E+00  9.92990E-03 T
  7.10000E-02  8.63938E-01  5.10509E+00  2.40823E+00  1.33554E-02 T
  7.10000E-02  8.63938E-01  5.30144E+00  2.40128E+00  1.59550E-02 T
  7.10000E-02  8.63938E-01  5.49779E+00  2.39329E+00  1.78852E-02 T
  7.10000E-02  8.63938E-01  5.69414E+00  2.38455E+00  1.93302E-02 T
  7.10000E-02  8.63938E-01  5.89049E+00  2.37525E+00  2.04202E-02 T
  7.10000E-02  8.63938E-01  6.08684E+00  2.36555E+00  2.11828E-02 T
  7.10000E-02  9.03208E-01  0.00000E+00  2.36869E+00  2.34987E-02 T
  7.10000E-02  9.03208E-01  1.96350E-01  2.35802E+00  2.23267E-02 T
  7.10000E-02  9.03208E-01  3.92699E-01  2.34816E+00  2.01922E-02 T
  7.10000E-02  9.03208E-01  5.89049E-01  2.33955E+00  1.70511E-02 T
  7.10000E-02  9.03208E-01  7.85398E-01  2.33263E+00  1.29737E-02 T
  7.10000E-02  9.03208E-01  9.81748E-01  2.32778E+00  8.15847E-03 T
  7.10000E-02  9.03208E-01  1.17810E+00  2.32524E+00  2.92168E-03 T
  7.10000E-02  9.03208E-01  1.37445E+00  2.32511E+00 -2.34873E-03 T
  7.10000E-02  9.03208E-01  1.57080E+00  2.32733E+00 -7.27696E-03 T
  7.10000E-02  9.03208E-01  1.76715E+00  2.33167E+00 -1.15985E-02 T
  7.10000E-02  9.03208E-01  1.96350E+00  2.33785E+00 -1.52224E-02 T
  7.10000E-02  9.03208E-01  2.15985E+00  2.34556E+00 -1.82080E-02 T
  7.10000E-02  9.03208E-01  2.35619E+00  2.35454E+00 -2.06601E-02 T
  7.10000E-02  9.03208E-01  2.55254E+00  2.36459E+00 -2.26112E-02 T
  7.10000E-02  9.03208E-01  2.74889E+00  2.37545E+00 -2.39725E-02 T
  7.10000E-02  9.03208E-01  2.94524E+00  2.38683E+00 -2.45820E-02 T
  7.10000E-02  9.03208E-01  3.14159E+00  2.39835E+00 -2.42965E-02 T
  7.10000E-02  9.03208E-01  3.33794E+00  2.40956E+00 -2.30453E-02 T
  7.10000E-02  9.03208E-01  3.53429E+00  2.42000E+00 -2.08140E-02 T
  7.10000E-02  9.03208E-01  3.73064E+00  2.42918E+00 -1.76042E-02 T
  7.10000E-02  9.03208E-01  3.92699E+00  2.43664E+00 -1.34414E-02 T
  7.10000E-02  9.03208E-01  4.12334E+00  2.44190E+00 -8.44314E-03 T
  7.10000E-02  9.03208E-01  4.31969E+00  2.44464E+00 -2.89006E-03 T
  7.10000E-02  9.03208E-01  4.51604E+00  2.44466E+00  2.78176E-03 T
  7.10000E-02  9.03208E-01  4.71239E+00  2.44203E+00  8.08968E-03 T
  7.10000E-02  9.03208E-01  4.90874E+00  2.43702E+00  1.26557E-02 T
  7.10000E-02  9.03208E-01  5.10509E+00  2.43007E+00  1.63079E-02 T
  7.10000E-02  9.03208E-01  5.30144E+00  2.42161E+00  1.90783E-02 T
  7.10000E-02  9.03208E-01  5.49779E+00  2.41205E+00  2.11128E-02 T
  7.10000E-02  9.03208E-01  5.69414E+00  2.40171E+00  2.25575E-02 T
  7.10000E-02  9.03208E-01  5.89049E+00  2.39085E+00  2.34773E-02 T
  7.10000E-02  9.03208E-01  6.08684E+00  2.37975E+00  2.38316E-02 T
  7.10000E-02  9.42478E-01  0.00000E+00  2.37928E+00  2.35065E-02 T
  7.10000E-02  9.42478E-01  1.96350E-01  2.36885E+00  2.10877E-02 T
  7.10000E-02  9.42478E-01  3.92699E-01  2.35980E+00  1.77716E-02 T
  7.10000E-02  9.42478E-01  5.89049E-01  2.35250E+00  1.36811E-02 T
  7.10000E-02  9.42478E-01  7.85398E-01  2.34725E+00  8.98041E-03 T
  7.10000E-02  9.42478E-01  9.81748E-01  2.34428E+00  3.88429E-03 T
  7.10000E-02  9.42478E-01  1.17810E+00  2.34369E+00 -1.32961E-03 T
  7.10000E-02  9.42478E-01  1.37445E+00  2.34547E+00 -6.34340E-03 T
  7.10000E-02  9.42478E-01  1.57080E+00  2.34946E+00 -1.08669E-02 T
  7.10000E-02  9.42478E-01  1.76715E+00  2.35540E+00 -1.47167E-02 T
  7.10000E-02  9.42478E-01  1.96350E+00  2.36297E+00 -1.78517E-02 T
  7.10000E-02  9.42478E-01  2.15985E+00  2.37186E+00 -2.03339E-02 T
  7.10000E-02  9.42478E-01  2.35619E+00  2.38182E+00 -2.22400E-02 T
  7.10000E-02  9.42478E-01  2.55254E+00  2.39258E+00 -2.35816E-02 T
  7.10000E-02  9.42478E-01  2.74889E+00  2.40388E+00 -2.42853E-02 T
  7.10000E-02  9.42478E-01  2.94524E+00  2.41539E+00 -2.42361E-02 T
  7.10000E-02  9.42478E-01  3.14159E+00  2.42673E+00 -2.33392E-02 T
  7.10000E-02  9.42478E-01  3.33794E+00  2.43749E+00 -2.15518E-02 T
  7.10000E-02  9.42478E-01  3.53429E+00  2.44722E+00 -1.88705E-02 T
  7.10000E-02  9.42478E-01  3.73064E+00  2.45548E+00 -1.53068E-02 T
  7.10000E-02  9.42478E-01  3.92699E+00  2.46183E+00 -1.08967E-02 T
  7.10000E-02  9.42478E-01  4.12334E+00  2.46589E+00 -5.75503E-03 T
  7.10000E-02  9.42478E-01  4.31969E+00  2.46732E+00 -1.34210E-04 T
  7.10000E-02  9.42478E-01  4.51604E+00  2.46600E+00  5.57362E-03 T
  7.10000E-02  9.42478E-01  4.71239E+00  2.46199E+00  1.09209E-02 T
  7.10000E-02  9.42478E-01  4.90874E+00  2.45557E+00  1.55377E-02 T
  7.10000E-02  9.42478E-01  5.10509E+00  2.44716E+00  1.92339E-02 T
  7.10000E-02  9.42478E-01  5.30144E+00  2.43724E+00  2.20033E-02 T
  7.10000E-02  9.42478E-01  5.49779E+00  2.42624E+00  2.39350E-02 T
  7.10000E-02  9.42478E-01  5.69414E+00  2.41456E+00  2.50955E-02 T
  7.10000E-02  9.42478E-01  5.89049E+00  2.40257E+00  2.54659E-02 T
  7.10000E-02  9.42478E-01  6.08684E+00  2.39067E+00  2.49620E-02 T
  7.10000E-02  9.81748E-01  0.00000E+00  2.37921E+00  2.37911E-02 T
  7.10000E-02  9.81748E-01  1.96350E-01  2.36901E+00  1.98243E-02 T
  7.10000E-02  9.81748E-01  3.92699E-01  2.36089E+00  1.50152E-02 T
  7.10000E-02  9.81748E-01  5.89049E-01  2.35517E+00  9.66107E-03 T
  7.10000E-02  9.81748E-01  7.85398E-01  2.35200E+00  4.03281E-03 T
  7.10000E-02  9.81748E-01  9.81748E-01  2.35144E+00 -1.60728E-03 T
  7.10000E-02  9.81748E-01  1.17810E+00  2.35344E+00 -6.98518E-03 T
  7.10000E-02  9.81748E-01  1.37445E+00  2.35782E+00 -1.18423E-02 T
  7.10000E-02  9.81748E-01  1.57080E+00  2.36430E+00 -1.59953E-02 T
  7.10000E-02  9.81748E-01  1.76715E+00  2.37256E+00 -1.93721E-02 T
  7.10000E-02  9.81748E-01  1.96350E+00  2.38224E+00 -2.19913E-02 T
  7.10000E-02  9.81748E-01  2.15985E+00  2.39302E+00 -2.39029E-02 T
  7.10000E-02  9.81748E-01  2.35619E+00  2.40460E+00 -2.51352E-02 T
  7.10000E-02  9.81748E-01  2.55254E+00  2.41665E+00 -2.56699E-02 T
  7.10000E-02  9.81748E-01  2.74889E+00  2.42884E+00 -2.54483E-02 T
  7.10000E-02  9.81748E-01  2.94524E+00  2.44079E+00 -2.43974E-02 T
  7.10000E-02  9.81748E-01  3.14159E+00  2.45208E+00 -2.24687E-02 T
  7.10000E-02  9.81748E-01  3.33794E+00  2.46228E+00 -1.96704E-02 T
  7.10000E-02  9.81748E-01  3.53429E+00  2.47097E+00 -1.60724E-02 T
  7.10000E-02  9.81748E-01  3.73064E+00  2.47776E+00 -1.17771E-02 T
  7.10000E-02  9.81748E-01  3.92699E+00  2.48232E+00 -6.88975E-03 T
  7.10000E-02  9.81748E-01  4.12334E+00  2.48439E+00 -1.52900E-03 T
  7.10000E-02  9.81748E-01  4.31969E+00  2.48377E+00  4.11771E-03 T
  7.10000E-02  9.81748E-01  4.51604E+00  2.48038E+00  9.75204E-03 T
  7.10000E-02  9.81748E-01  4.71239E+00  2.47434E+00  1.50013E-02 T
  7.10000E-02  9.81748E-01  4.90874E+00  2.46593E+00  1.95336E-02 T
  7.10000E-02  9.81748E-01  5.10509E+00  2.45558E+00  2.31660E-02 T
  7.10000E-02  9.81748E-01  5.30144E+00  2.44375E+00  2.58699E-02 T
  7.10000E-02  9.81748E-01  5.49779E+00  2.43090E+00  2.76637E-02 T
  7.10000E-02  9.81748E-01  5.69414E+00  2.41749E+00  2.84907E-02 T
  7.10000E-02  9.81748E-01  5.89049E+00  2.40403E+00  2.81981E-02 T
  7.10000E-02  9.81748E-01  6.08684E+00  2.39107E+00  2.66367E-02 T
  7.10000E-02  1.02102E+00  0.00000E+00  2.38614E+00  2.28065E-02 T
  7.10000E-02  1.02102E+00  1.96350E-01  2.37659E+00  1.78787E-02 T
  7.10000E-02  1.02102E+00  3.92699E-01  2.36956E+00  1.22284E-02 T
  7.10000E-02  1.02102E+00  5.89049E-01  2.36527E+00  6.21142E-03 T
  7.10000E-02  1.02102E+00  7.85398E-01  2.36380E+00  1.33536E-04 T
  7.10000E-02  1.02102E+00  9.81748E-01  2.36510E+00 -5.70591E-03 T
  7.10000E-02  1.02102E+00  1.17810E+00  2.36902E+00 -1.10131E-02 T
  7.10000E-02  1.02102E+00  1.37445E+00  2.37524E+00 -1.55665E-02 T
  7.10000E-02  1.02102E+00  1.57080E+00  2.38341E+00 -1.92761E-02 T
  7.10000E-02  1.02102E+00  1.76715E+00  2.39316E+00 -2.21641E-02 T
  7.10000E-02  1.02102E+00  1.96350E+00  2.40412E+00 -2.42880E-02 T
  7.10000E-02  1.02102E+00  2.15985E+00  2.41598E+00 -2.56824E-02 T
  7.10000E-02  1.02102E+00  2.35619E+00  2.42838E+00 -2.63539E-02 T
  7.10000E-02  1.02102E+00  2.55254E+00  2.44099E+00 -2.62932E-02 T
  7.10000E-02  1.02102E+00  2.74889E+00  2.45346E+00 -2.54657E-02 T
  7.10000E-02  1.02102E+00  2.94524E+00  2.46539E+00 -2.38020E-02 T
  7.10000E-02  1.02102E+00  3.14159E+00  2.47635E+00 -2.12352E-02 T
  7.10000E-02  1.02102E+00  3.33794E+00  2.48589E+00 -1.77771E-02 T
  7.10000E-02  1.02102E+00  3.53429E+00  2.49358E+00 -1.35581E-02 T
  7.10000E-02  1.02102E+00  3.73064E+00  2.49907E+00 -8.77655E-03 T
  7.10000E-02  1.02102E+00  3.92699E+00  2.50212E+00 -3.60418E-03 T
  7.10000E-02  1.02102E+00  4.12334E+00  2.50256E+00  1.84557E-03 T
  7.10000E-02  1.02102E+00  4.31969E+00  2.50028E+00  7.44197E-03 T
  7.10000E-02  1.02102E+00  4.51604E+00  2.49528E+00  1.29403E-02 T
  7.10000E-02  1.02102E+00  4.71239E+00  2.48768E+00  1.79910E-02 T
  7.10000E-02  1.02102E+00  4.90874E+00  2.47783E+00  2.22737E-02 T
  7.10000E-02  1.02102E+00  5.10509E+00  2.46617E+00  2.56304E-02 T
  7.10000E-02  1.02102E+00  5.30144E+00  2.45317E+00  2.80543E-02 T
  7.10000E-02  1.02102E+00  5.49779E+00  2.43930E+00  2.95384E-02 T
  7.10000E-02  1.02102E+00  5.69414E+00  2.42505E+00  2.99421E-02 T
  7.10000E-02  1.02102E+00  5.89049E+00  2.41099E+00  2.90240E-02 T
  7.10000E-02  1.02102E+00  6.08684E+00  2.39780E+00  2.66216E-02 T
  7.10000E-02  1.06029E+00  0.00000E+00  2.40096E+00  1.92524E-02 T
  7.10000E-02  1.06029E+00  1.96350E-01  2.39311E+00  1.40022E-02 T
  7.10000E-02  1.06029E+00  3.92699E-01  2.38787E+00  8.30007E-03 T
  7.10000E-02  1.06029E+00  5.89049E-01  2.38535E+00  2.42402E-03 T
  7.10000E-02  1.06029E+00  7.85398E-01  2.38558E+00 -3.37582E-03 T
  7.10000E-02  1.06029E+00  9.81748E-01  2.38846E+00 -8.80469E-03 T
  7.10000E-02  1.06029E+00  1.17810E+00  2.39374E+00 -1.35679E-02 T
  7.10000E-02  1.06029E+00  1.37445E+00  2.40108E+00 -1.74866E-02 T
  7.10000E-02  1.06029E+00  1.57080E+00  2.41010E+00 -2.05416E-02 T
  7.10000E-02  1.06029E+00  1.76715E+00  2.42040E+00 -2.27974E-02 T
  7.10000E-02  1.06029E+00  1.96350E+00  2.43165E+00 -2.43022E-02 T
  7.10000E-02  1.06029E+00  2.15985E+00  2.44350E+00 -2.50729E-02 T
  7.10000E-02  1.06029E+00  2.35619E+00  2.45560E+00 -2.51447E-02 T
  7.10000E-02  1.06029E+00  2.55254E+00  2.46764E+00 -2.45760E-02 T
  7.10000E-02  1.06029E+00  2.74889E+00  2.47931E+00 -2.33750E-02 T
  7.10000E-02  1.06029E+00  2.94524E+00  2.49028E+00 -2.14456E-02 T
  7.10000E-02  1.06029E+00  3.14159E+00  2.50014E+00 -1.86563E-02 T
  7.10000E-02  1.06029E+00  3.33794E+00  2.50844E+00 -1.49899E-02 T
  7.10000E-02  1.06029E+00  3.53429E+00  2.51478E+00 -1.06132E-02 T
  7.10000E-02  1.06029E+00  3.73064E+00  2.51885E+00 -5.78051E-03 T
  7.10000E-02  1.06029E+00  3.92699E+00  2.52045E+00 -6.72367E-04 T
  7.10000E-02  1.06029E+00  4.12334E+00  2.51948E+00  4.64162E-03 T
  7.10000E-02  1.06029E+00  4.31969E+00  2.51584E+00  1.00683E-02 T
  7.10000E-02  1.06029E+00  4.51604E+00  2.50956E+00  1.53429E-02 T
  7.10000E-02  1.06029E+00  4.71239E+00  2.50082E+00  2.00560E-02 T
  7.10000E-02  1.06029E+00  4.90874E+00  2.49002E+00  2.38534E-02 T
  7.10000E-02  1.06029E+00  5.10509E+00  2.47768E+00  2.66017E-02 T
  7.10000E-02  1.06029E+00  5.30144E+00  2.46431E+00  2.83416E-02 T
  7.10000E-02  1.06029E+00  5.49779E+00  2.45041E+00  2.90821E-02 T
  7.10000E-02  1.06029E+00  5.69414E+00  2.43651E+00  2.86704E-02 T
  7.10000E-02  1.06029E+00  5.89049E+00  2.42320E+00  2.68885E-02 T
  7.10000E-02  1.06029E+00  6.08684E+00  2.41114E+00  2.36774E-02 T
  7.10000E-02  1.09956E+00  0.00000E+00  2.39936E+00  1.53747E-02 T
  7.10000E-02  1.09956E+00  1.96350E-01  2.39354E+00  9.32352E-03 T
  7.10000E-02  1.09956E+00  3.92699E-01  2.39062E+00  3.14241E-03 T
  7.10000E-02  1.09956E+00  5.89049E-01  2.39058E+00 -2.94668E-03 T
  7.10000E-02  1.09956E+00  7.85398E-01  2.39333E+00 -8.71744E-03 T
  7.10000E-02  1.09956E+00  9.81748E-01  2.39868E+00 -1.38766E-02 T
  7.10000E-02  1.09956E+00  1.17810E+00  2.40627E+00 -1.81690E-02 T
  7.10000E-02  1.09956E+00  1.37445E+00  2.41570E+00 -2.15059E-02 T
  7.10000E-02  1.09956E+00  1.57080E+00  2.42654E+00 -2.39437E-02 T
  7.10000E-02  1.09956E+00  1.76715E+00  2.43839E+00 -2.55442E-02 T
  7.10000E-02  1.09956E+00  1.96350E+00  2.45087E+00 -2.62964E-02 T
  7.10000E-02  1.09956E+00  2.15985E+00  2.46356E+00 -2.61884E-02 T
  7.10000E-02  1.09956E+00  2.35619E+00  2.47608E+00 -2.53071E-02 T
  7.10000E-02  1.09956E+00  2.55254E+00  2.48807E+00 -2.38020E-02 T
  7.10000E-02  1.09956E+00  2.74889E+00  2.49924E+00 -2.17304E-02 T
  7.10000E-02  1.09956E+00  2.94524E+00  2.50928E+00 -1.89857E-02 T
  7.10000E-02  1.09956E+00  3.14159E+00  2.51781E+00 -1.54292E-02 T
  7.10000E-02  1.09956E+00  3.33794E+00  2.52440E+00 -1.11019E-02 T
  7.10000E-02  1.09956E+00  3.53429E+00  2.52872E+00 -6.26997E-03 T
  7.10000E-02  1.09956E+00  3.73064E+00  2.53059E+00 -1.23770E-03 T
  7.10000E-02  1.09956E+00  3.92699E+00  2.52994E+00  3.86713E-03 T
  7.10000E-02  1.09956E+00  4.12334E+00  2.52673E+00  9.08318E-03 T
  7.10000E-02  1.09956E+00  4.31969E+00  2.52092E+00  1.43826E-02 T
  7.10000E-02  1.09956E+00  4.51604E+00  2.51253E+00  1.94787E-02 T
  7.10000E-02  1.09956E+00  4.71239E+00  2.50182E+00  2.39008E-02 T
  7.10000E-02  1.09956E+00  4.90874E+00  2.48924E+00  2.72634E-02 T
  7.10000E-02  1.09956E+00  5.10509E+00  2.47537E+00  2.94380E-02 T
  7.10000E-02  1.09956E+00  5.30144E+00  2.46081E+00  3.04511E-02 T
  7.10000E-02  1.09956E+00  5.49779E+00  2.44614E+00  3.02541E-02 T
  7.10000E-02  1.09956E+00  5.69414E+00  2.43197E+00  2.86543E-02 T
  7.10000E-02  1.09956E+00  5.89049E+00  2.41901E+00  2.55036E-02 T
  7.10000E-02  1.09956E+00  6.08684E+00  2.40796E+00  2.09347E-02 T
  7.10000E-02  1.13883E+00  0.00000E+00  2.39908E+00  1.14492E-02 T
  7.10000E-02  1.13883E+00  1.96350E-01  2.39529E+00  4.67049E-03 T
  7.10000E-02  1.13883E+00  3.92699E-01  2.39466E+00 -1.96754E-03 T
  7.10000E-02  1.13883E+00  5.89049E-01  2.39708E+00 -8.24806E-03 T
  7.10000E-02  1.13883E+00  7.85398E-01  2.40234E+00 -1.39172E-02 T
  7.10000E-02  1.13883E+00  9.81748E-01  2.41008E+00 -1.86869E-02 T
  7.10000E-02  1.13883E+00  1.17810E+00  2.41986E+00 -2.23970E-02 T
  7.10000E-02  1.13883E+00  1.37445E+00  2.43121E+00 -2.50974E-02 T
  7.10000E-02  1.13883E+00  1.57080E+00  2.44369E+00 -2.69202E-02 T
  7.10000E-02  1.13883E+00  1.76715E+00  2.45691E+00 -2.78926E-02 T
  7.10000E-02  1.13883E+00  1.96350E+00  2.47045E+00 -2.79265E-02 T
  7.10000E-02  1.13883E+00  2.15985E+00  2.48384E+00 -2.69909E-02 T
  7.10000E-02  1.13883E+00  2.35619E+00  2.49664E+00 -2.52294E-02 T
  7.10000E-02  1.13883E+00  2.55254E+00  2.50847E+00 -2.28498E-02 T
  7.10000E-02  1.13883E+00  2.74889E+00  2.51905E+00 -1.99088E-02 T
  7.10000E-02  1.13883E+00  2.94524E+00  2.52805E+00 -1.62753E-02 T
  7.10000E-02  1.13883E+00  3.14159E+00  2.53507E+00 -1.18526E-02 T
  7.10000E-02  1.13883E+00  3.33794E+00  2.53974E+00 -6.81519E-03 T
  7.10000E-02  1.13883E+00  3.53429E+00  2.54183E+00 -1.56891E-03 T
  7.10000E-02  1.13883E+00  3.73064E+00  2.54133E+00  3.54846E-03 T
  7.10000E-02  1.13883E+00  3.92699E+00  2.53832E+00  8.50015E-03 T
  7.10000E-02  1.13883E+00  4.12334E+00  2.53286E+00  1.34485E-02 T
  7.10000E-02  1.13883E+00  4.31969E+00  2.52494E+00  1.84234E-02 T
  7.10000E-02  1.13883E+00  4.51604E+00  2.51464E+00  2.31252E-02 T
  7.10000E-02  1.13883E+00  4.71239E+00  2.50224E+00  2.70724E-02 T
  7.10000E-02  1.13883E+00  4.90874E+00  2.48823E+00  2.99104E-02 T
  7.10000E-02  1.13883E+00  5.10509E+00  2.47322E+00  3.15346E-02 T
  7.10000E-02  1.13883E+00  5.30144E+00  2.45781E+00  3.19178E-02 T
  7.10000E-02  1.13883E+00  5.49779E+00  2.44264E+00  3.08965E-02 T
  7.10000E-02  1.13883E+00  5.69414E+00  2.42843E+00  2.82153E-02 T
  7.10000E-02  1.13883E+00  5.89049E+00  2.41600E+00  2.38120E-02 T
  7.10000E-02  1.13883E+00  6.08684E+00  2.40605E+00  1.80199E-02 T
  7.10000E-02  1.17810E+00  0.00000E+00  2.41757E+00  7.74619E-03 T
  7.10000E-02  1.17810E+00  1.96350E-01  2.41545E+00  1.18320E-03 T
  7.10000E-02  1.17810E+00  3.92699E-01  2.41641E+00 -5.19904E-03 T
  7.10000E-02  1.17810E+00  5.89049E-01  2.42032E+00 -1.11665E-02 T
  7.10000E-02  1.17810E+00  7.85398E-01  2.42692E+00 -1.63894E-02 T
  7.10000E-02  1.17810E+00  9.81748E-01  2.43578E+00 -2.05596E-02 T
  7.10000E-02  1.17810E+00  1.17810E+00  2.44641E+00 -2.35950E-02 T
  7.10000E-02  1.17810E+00  1.37445E+00  2.45830E+00 -2.56449E-02 T
  7.10000E-02  1.17810E+00  1.57080E+00  2.47103E+00 -2.68648E-02 T
  7.10000E-02  1.17810E+00  1.76715E+00  2.48423E+00 -2.72333E-02 T
  7.10000E-02  1.17810E+00  1.96350E+00  2.49744E+00 -2.66369E-02 T
  7.10000E-02  1.17810E+00  2.15985E+00  2.51020E+00 -2.51032E-02 T
  7.10000E-02  1.17810E+00  2.35619E+00  2.52207E+00 -2.28655E-02 T
  7.10000E-02  1.17810E+00  2.55254E+00  2.53276E+00 -2.01484E-02 T
  7.10000E-02  1.17810E+00  2.74889E+00  2.54202E+00 -1.69329E-02 T
  7.10000E-02  1.17810E+00  2.94524E+00  2.54954E+00 -1.30119E-02 T
  7.10000E-02  1.17810E+00  3.14159E+00  2.55491E+00 -8.31370E-03 T
  7.10000E-02  1.17810E+00  3.33794E+00  2.55779E+00 -3.12772E-03 T
  7.10000E-02  1.17810E+00  3.53429E+00  2.55806E+00  2.04670E-03 T
  7.10000E-02  1.17810E+00  3.73064E+00  2.55580E+00  6.88269E-03 T
  7.10000E-02  1.17810E+00  3.92699E+00  2.55120E+00  1.14217E-02 T
  7.10000E-02  1.17810E+00  4.12334E+00  2.54437E+00  1.58674E-02 T
  7.10000E-02  1.17810E+00  4.31969E+00  2.53537E+00  2.02135E-02 T
  7.10000E-02  1.17810E+00  4.51604E+00  2.52433E+00  2.41203E-02 T
  7.10000E-02  1.17810E+00  4.71239E+00  2.51161E+00  2.71555E-02 T
  7.10000E-02  1.17810E+00  4.90874E+00  2.49773E+00  2.90976E-02 T
  7.10000E-02  1.17810E+00  5.10509E+00  2.48325E+00  2.99521E-02 T
  7.10000E-02  1.17810E+00  5.30144E+00  2.46870E+00  2.96970E-02 T
  7.10000E-02  1.17810E+00  5.49779E+00  2.45467E+00  2.81091E-02 T
  7.10000E-02  1.17810E+00  5.69414E+00  2.44186E+00  2.49215E-02 T
  7.10000E-02  1.17810E+00  5.89049E+00  2.43102E+00  2.01523E-02 T
  7.10000E-02  1.17810E+00  6.08684E+00  2.42280E+00  1.42258E-02 T
  7.10000E-02  1.21737E+00  0.00000E+00  2.42532E+00  4.46676E-03 T
  7.10000E-02  1.21737E+00  1.96350E-01  2.42476E+00 -2.09691E-03 T
  7.10000E-02  1.21737E+00  3.92699E-01  2.42730E+00 -8.52749E-03 T
  7.10000E-02  1.21737E+00  5.89049E-01  2.43282E+00 -1.44922E-02 T
  7.10000E-02  1.21737E+00  7.85398E-01  2.44101E+00 -1.95377E-02 T
  7.10000E-02  1.21737E+00  9.81748E-01  2.45135E+00 -2.33275E-02 T
  7.10000E-02  1.21737E+00  1.17810E+00  2.46326E+00 -2.58447E-02 T
  7.10000E-02  1.21737E+00  1.37445E+00  2.47619E+00 -2.72930E-02 T
  7.10000E-02  1.21737E+00  1.57080E+00  2.48966E+00 -2.78108E-02 T
  7.10000E-02  1.21737E+00  1.76715E+00  2.50322E+00 -2.73474E-02 T
  7.10000E-02  1.21737E+00  1.96350E+00  2.51636E+00 -2.58453E-02 T
  7.10000E-02  1.21737E+00  2.15985E+00  2.52861E+00 -2.34741E-02 T
  7.10000E-02  1.21737E+00  2.35619E+00  2.53958E+00 -2.05850E-02 T
  7.10000E-02  1.21737E+00  2.55254E+00  2.54908E+00 -1.74015E-02 T
  7.10000E-02  1.21737E+00  2.74889E+00  2.55693E+00 -1.38161E-02 T
  7.10000E-02  1.21737E+00  2.94524E+00  2.56284E+00 -9.56797E-03 T
  7.10000E-02  1.21737E+00  3.14159E+00  2.56644E+00 -4.63370E-03 T
  7.10000E-02  1.21737E+00  3.33794E+00  2.56745E+00  6.10645E-04 T
  7.10000E-02  1.21737E+00  3.53429E+00  2.56586E+00  5.65194E-03 T
  7.10000E-02  1.21737E+00  3.73064E+00  2.56184E+00  1.02433E-02 T
  7.10000E-02  1.21737E+00  3.92699E+00  2.55561E+00  1.45025E-02 T
  7.10000E-02  1.21737E+00  4.12334E+00  2.54731E+00  1.86080E-02 T
  7.10000E-02  1.21737E+00  4.31969E+00  2.53705E+00  2.24518E-02 T
  7.10000E-02  1.21737E+00  4.51604E+00  2.52506E+00  2.56389E-02 T
  7.10000E-02  1.21737E+00  4.71239E+00  2.51180E+00  2.78084E-02 T
  7.10000E-02  1.21737E+00  4.90874E+00  2.49782E+00  2.88822E-02 T
  7.10000E-02  1.21737E+00  5.10509E+00  2.48364E+00  2.89579E-02 T
  7.10000E-02  1.21737E+00  5.30144E+00  2.46974E+00  2.80094E-02 T
  7.10000E-02  1.21737E+00  5.49779E+00  2.45667E+00  2.57889E-02 T
  7.10000E-02  1.21737E+00  5.69414E+00  2.44509E+00  2.20737E-02 T
  7.10000E-02  1.21737E+00  5.89049E+00  2.43569E+00  1.69724E-02 T
  7.10000E-02  1.21737E+00  6.08684E+00  2.42900E+00  1.09345E-02 T
