s \zeta_{Boozer}  \theta_{Boozer}(right-handed)  B[T]  (v_B.\nabla\psi)[A.U.]
  6.50000E-01  0.00000E+00  0.00000E+00  2.31591E+00  0.00000E+00 F
  6.50000E-01  0.00000E+00  1.96350E-01  2.32140E+00 -2.59185E-02 F
  6.50000E-01  0.00000E+00  3.92699E-01  2.34033E+00 -5.55212E-02 F
  6.50000E-01  0.00000E+00  5.89049E-01  2.37108E+00 -7.67238E-02 F
  6.50000E-01  0.00000E+00  7.85398E-01  2.41129E+00 -9.28699E-02 F
  6.50000E-01  0.00000E+00  9.81748E-01  2.45682E+00 -9.55563E-02 F
  6.50000E-01  0.00000E+00  1.17810E+00  2.50188E+00 -8.79329E-02 F
  6.50000E-01  0.00000E+00  1.37445E+00  2.54201E+00 -7.43370E-02 F
  6.50000E-01  0.00000E+00  1.57080E+00  2.57742E+00 -6.81628E-02 F
  6.50000E-01  0.00000E+00  1.76715E+00  2.61165E+00 -6.62461E-02 F
  6.50000E-01  0.00000E+00  1.96350E+00  2.64545E+00 -6.49629E-02 F
  6.50000E-01  0.00000E+00  2.15985E+00  2.67913E+00 -6.35556E-02 F
  6.50000E-01  0.00000E+00  2.35619E+00  2.71171E+00 -5.88430E-02 F
  6.50000E-01  0.00000E+00  2.55254E+00  2.74095E+00 -4.97235E-02 F
  6.50000E-01  0.00000E+00  2.74889E+00  2.76461E+00 -3.74050E-02 F
  6.50000E-01  0.00000E+00  2.94524E+00  2.78089E+00 -2.15218E-02 F
  6.50000E-01  0.00000E+00  3.14159E+00  2.78697E+00  1.02668E-08 F
  6.50000E-01  0.00000E+00  3.33794E+00  2.78089E+00  2.15218E-02 F
  6.50000E-01  0.00000E+00  3.53429E+00  2.76461E+00  3.74050E-02 F
  6.50000E-01  0.00000E+00  3.73064E+00  2.74095E+00  4.97235E-02 F
  6.50000E-01  0.00000E+00  3.92699E+00  2.71171E+00  5.88430E-02 F
  6.50000E-01  0.00000E+00  4.12334E+00  2.67913E+00  6.35556E-02 F
  6.50000E-01  0.00000E+00  4.31969E+00  2.64545E+00  6.49629E-02 F
  6.50000E-01  0.00000E+00  4.51604E+00  2.61165E+00  6.62461E-02 F
  6.50000E-01  0.00000E+00  4.71239E+00  2.57742E+00  6.81628E-02 F
  6.50000E-01  0.00000E+00  4.90874E+00  2.54201E+00  7.43370E-02 F
  6.50000E-01  0.00000E+00  5.10509E+00  2.50188E+00  8.79329E-02 F
  6.50000E-01  0.00000E+00  5.30144E+00  2.45682E+00  9.55563E-02 F
  6.50000E-01  0.00000E+00  5.49779E+00  2.41129E+00  9.28699E-02 F
  6.50000E-01  0.00000E+00  5.69414E+00  2.37108E+00  7.67237E-02 F
  6.50000E-01  0.00000E+00  5.89049E+00  2.34033E+00  5.55212E-02 F
  6.50000E-01  0.00000E+00  6.08684E+00  2.32140E+00  2.59185E-02 F
  6.50000E-01  3.92699E-02  0.00000E+00  2.33421E+00 -1.72400E-02 F
  6.50000E-01  3.92699E-02  1.96350E-01  2.34823E+00 -4.48086E-02 F
  6.50000E-01  3.92699E-02  3.92699E-01  2.37522E+00 -6.96099E-02 F
  6.50000E-01  3.92699E-02  5.89049E-01  2.41172E+00 -8.47509E-02 F
  6.50000E-01  3.92699E-02  7.85398E-01  2.45447E+00 -9.26455E-02 F
  6.50000E-01  3.92699E-02  9.81748E-01  2.49976E+00 -9.26289E-02 F
  6.50000E-01  3.92699E-02  1.17810E+00  2.54405E+00 -8.45089E-02 F
  6.50000E-01  3.92699E-02  1.37445E+00  2.58332E+00 -7.22812E-02 F
  6.50000E-01  3.92699E-02  1.57080E+00  2.61857E+00 -6.64453E-02 F
  6.50000E-01  3.92699E-02  1.76715E+00  2.65166E+00 -6.14831E-02 F
  6.50000E-01  3.92699E-02  1.96350E+00  2.68284E+00 -5.78052E-02 F
  6.50000E-01  3.92699E-02  2.15985E+00  2.71248E+00 -5.38685E-02 F
  6.50000E-01  3.92699E-02  2.35619E+00  2.73981E+00 -4.76583E-02 F
  6.50000E-01  3.92699E-02  2.55254E+00  2.76279E+00 -3.65399E-02 F
  6.50000E-01  3.92699E-02  2.74889E+00  2.77875E+00 -2.16535E-02 F
  6.50000E-01  3.92699E-02  2.94524E+00  2.78550E+00 -1.92475E-03 F
  6.50000E-01  3.92699E-02  3.14159E+00  2.77996E+00  2.22354E-02 F
  6.50000E-01  3.92699E-02  3.33794E+00  2.76221E+00  4.15519E-02 F
  6.50000E-01  3.92699E-02  3.53429E+00  2.73652E+00  5.24157E-02 F
  6.50000E-01  3.92699E-02  3.73064E+00  2.70692E+00  5.76167E-02 F
  6.50000E-01  3.92699E-02  3.92699E+00  2.67594E+00  5.92655E-02 F
  6.50000E-01  3.92699E-02  4.12334E+00  2.64471E+00  6.04810E-02 F
  6.50000E-01  3.92699E-02  4.31969E+00  2.61305E+00  6.21359E-02 F
  6.50000E-01  3.92699E-02  4.51604E+00  2.58099E+00  6.36771E-02 F
  6.50000E-01  3.92699E-02  4.71239E+00  2.54837E+00  6.61785E-02 F
  6.50000E-01  3.92699E-02  4.90874E+00  2.51418E+00  7.21470E-02 F
  6.50000E-01  3.92699E-02  5.10509E+00  2.47698E+00  7.91884E-02 F
  6.50000E-01  3.92699E-02  5.30144E+00  2.43784E+00  8.23509E-02 F
  6.50000E-01  3.92699E-02  5.49779E+00  2.39950E+00  7.66708E-02 F
  6.50000E-01  3.92699E-02  5.69414E+00  2.36744E+00  5.97896E-02 F
  6.50000E-01  3.92699E-02  5.89049E+00  2.34395E+00  4.04684E-02 F
  6.50000E-01  3.92699E-02  6.08684E+00  2.33216E+00  9.67975E-03 F
  6.50000E-01  7.85398E-02  0.00000E+00  2.32928E+00 -2.53756E-02 F
  6.50000E-01  7.85398E-02  1.96350E-01  2.34893E+00 -6.14687E-02 F
  6.50000E-01  7.85398E-02  3.92699E-01  2.38504E+00 -9.08580E-02 F
  6.50000E-01  7.85398E-02  5.89049E-01  2.43154E+00 -1.03683E-01 F
  6.50000E-01  7.85398E-02  7.85398E-01  2.48236E+00 -1.05386E-01 F
  6.50000E-01  7.85398E-02  9.81748E-01  2.53292E+00 -9.85569E-02 F
  6.50000E-01  7.85398E-02  1.17810E+00  2.57883E+00 -8.36254E-02 F
  6.50000E-01  7.85398E-02  1.37445E+00  2.61805E+00 -7.15004E-02 F
  6.50000E-01  7.85398E-02  1.57080E+00  2.65311E+00 -6.40074E-02 F
  6.50000E-01  7.85398E-02  1.76715E+00  2.68459E+00 -5.63081E-02 F
  6.50000E-01  7.85398E-02  1.96350E+00  2.71252E+00 -4.88064E-02 F
  6.50000E-01  7.85398E-02  2.15985E+00  2.73619E+00 -3.96846E-02 F
  6.50000E-01  7.85398E-02  2.35619E+00  2.75526E+00 -3.10158E-02 F
  6.50000E-01  7.85398E-02  2.55254E+00  2.76938E+00 -2.05984E-02 F
  6.50000E-01  7.85398E-02  2.74889E+00  2.77703E+00 -6.64767E-03 F
  6.50000E-01  7.85398E-02  2.94524E+00  2.77529E+00  1.43062E-02 F
  6.50000E-01  7.85398E-02  3.14159E+00  2.76084E+00  3.84874E-02 F
  6.50000E-01  7.85398E-02  3.33794E+00  2.73490E+00  5.60860E-02 F
  6.50000E-01  7.85398E-02  3.53429E+00  2.70236E+00  6.44296E-02 F
  6.50000E-01  7.85398E-02  3.73064E+00  2.66789E+00  6.51684E-02 F
  6.50000E-01  7.85398E-02  3.92699E+00  2.63500E+00  6.08783E-02 F
  6.50000E-01  7.85398E-02  4.12334E+00  2.60432E+00  5.94537E-02 F
  6.50000E-01  7.85398E-02  4.31969E+00  2.57337E+00  6.27353E-02 F
  6.50000E-01  7.85398E-02  4.51604E+00  2.54073E+00  6.74848E-02 F
  6.50000E-01  7.85398E-02  4.71239E+00  2.50591E+00  7.30986E-02 F
  6.50000E-01  7.85398E-02  4.90874E+00  2.46903E+00  7.73005E-02 F
  6.50000E-01  7.85398E-02  5.10509E+00  2.43203E+00  7.53381E-02 F
  6.50000E-01  7.85398E-02  5.30144E+00  2.39778E+00  6.84503E-02 F
  6.50000E-01  7.85398E-02  5.49779E+00  2.36875E+00  5.41007E-02 F
  6.50000E-01  7.85398E-02  5.69414E+00  2.34732E+00  4.01138E-02 F
  6.50000E-01  7.85398E-02  5.89049E+00  2.33123E+00  2.80096E-02 F
  6.50000E-01  7.85398E-02  6.08684E+00  2.32407E+00  2.08101E-03 F
  6.50000E-01  1.17810E-01  0.00000E+00  2.29826E+00 -3.59432E-02 F
  6.50000E-01  1.17810E-01  1.96350E-01  2.32395E+00 -7.87781E-02 F
  6.50000E-01  1.17810E-01  3.92699E-01  2.36879E+00 -1.11954E-01 F
  6.50000E-01  1.17810E-01  5.89049E-01  2.42492E+00 -1.23714E-01 F
  6.50000E-01  1.17810E-01  7.85398E-01  2.48437E+00 -1.20897E-01 F
  6.50000E-01  1.17810E-01  9.81748E-01  2.54079E+00 -1.05987E-01 F
  6.50000E-01  1.17810E-01  1.17810E+00  2.58902E+00 -8.60599E-02 F
  6.50000E-01  1.17810E-01  1.37445E+00  2.62969E+00 -7.41783E-02 F
  6.50000E-01  1.17810E-01  1.57080E+00  2.66616E+00 -6.60699E-02 F
  6.50000E-01  1.17810E-01  1.76715E+00  2.69879E+00 -5.77841E-02 F
  6.50000E-01  1.17810E-01  1.96350E+00  2.72679E+00 -4.63991E-02 F
  6.50000E-01  1.17810E-01  2.15985E+00  2.74759E+00 -3.07462E-02 F
  6.50000E-01  1.17810E-01  2.35619E+00  2.76011E+00 -1.59957E-02 F
  6.50000E-01  1.17810E-01  2.55254E+00  2.76529E+00 -3.19830E-03 F
  6.50000E-01  1.17810E-01  2.74889E+00  2.76326E+00  1.13280E-02 F
  6.50000E-01  1.17810E-01  2.94524E+00  2.75221E+00  3.00401E-02 F
  6.50000E-01  1.17810E-01  3.14159E+00  2.73078E+00  4.91344E-02 F
  6.50000E-01  1.17810E-01  3.33794E+00  2.70059E+00  6.27838E-02 F
  6.50000E-01  1.17810E-01  3.53429E+00  2.66576E+00  6.81530E-02 F
  6.50000E-01  1.17810E-01  3.73064E+00  2.63033E+00  6.73886E-02 F
  6.50000E-01  1.17810E-01  3.92699E+00  2.59649E+00  6.46862E-02 F
  6.50000E-01  1.17810E-01  4.12334E+00  2.56378E+00  6.51274E-02 F
  6.50000E-01  1.17810E-01  4.31969E+00  2.53040E+00  6.88323E-02 F
  6.50000E-01  1.17810E-01  4.51604E+00  2.49488E+00  7.56526E-02 F
  6.50000E-01  1.17810E-01  4.71239E+00  2.45621E+00  8.31565E-02 F
  6.50000E-01  1.17810E-01  4.90874E+00  2.41531E+00  8.68324E-02 F
  6.50000E-01  1.17810E-01  5.10509E+00  2.37519E+00  8.22836E-02 F
  6.50000E-01  1.17810E-01  5.30144E+00  2.34002E+00  6.75327E-02 F
  6.50000E-01  1.17810E-01  5.49779E+00  2.31489E+00  4.19516E-02 F
  6.50000E-01  1.17810E-01  5.69414E+00  2.29991E+00  2.72343E-02 F
  6.50000E-01  1.17810E-01  5.89049E+00  2.28989E+00  1.47334E-02 F
  6.50000E-01  1.17810E-01  6.08684E+00  2.28858E+00 -9.14690E-03 F
  6.50000E-01  1.57080E-01  0.00000E+00  2.32260E+00 -5.24044E-02 F
  6.50000E-01  1.57080E-01  1.96350E-01  2.35423E+00 -8.47430E-02 F
  6.50000E-01  1.57080E-01  3.92699E-01  2.39876E+00 -1.03244E-01 F
  6.50000E-01  1.57080E-01  5.89049E-01  2.44974E+00 -1.09474E-01 F
  6.50000E-01  1.57080E-01  7.85398E-01  2.50256E+00 -1.06207E-01 F
  6.50000E-01  1.57080E-01  9.81748E-01  2.55265E+00 -9.45921E-02 F
  6.50000E-01  1.57080E-01  1.17810E+00  2.59696E+00 -8.12877E-02 F
  6.50000E-01  1.57080E-01  1.37445E+00  2.63649E+00 -7.33436E-02 F
  6.50000E-01  1.57080E-01  1.57080E+00  2.67302E+00 -6.66419E-02 F
  6.50000E-01  1.57080E-01  1.76715E+00  2.70602E+00 -5.76538E-02 F
  6.50000E-01  1.57080E-01  1.96350E+00  2.73307E+00 -4.24106E-02 F
  6.50000E-01  1.57080E-01  2.15985E+00  2.75047E+00 -2.18771E-02 F
  6.50000E-01  1.57080E-01  2.35619E+00  2.75686E+00 -2.24971E-03 F
  6.50000E-01  1.57080E-01  2.55254E+00  2.75328E+00  1.53671E-02 F
  6.50000E-01  1.57080E-01  2.74889E+00  2.74024E+00  3.29369E-02 F
  6.50000E-01  1.57080E-01  2.94524E+00  2.71830E+00  4.82797E-02 F
  6.50000E-01  1.57080E-01  3.14159E+00  2.68966E+00  5.86656E-02 F
  6.50000E-01  1.57080E-01  3.33794E+00  2.65748E+00  6.28201E-02 F
  6.50000E-01  1.57080E-01  3.53429E+00  2.62522E+00  6.07657E-02 F
  6.50000E-01  1.57080E-01  3.73064E+00  2.59514E+00  5.68019E-02 F
  6.50000E-01  1.57080E-01  3.92699E+00  2.56674E+00  5.61141E-02 F
  6.50000E-01  1.57080E-01  4.12334E+00  2.53781E+00  5.98127E-02 F
  6.50000E-01  1.57080E-01  4.31969E+00  2.50692E+00  6.51799E-02 F
  6.50000E-01  1.57080E-01  4.51604E+00  2.47339E+00  7.21124E-02 F
  6.50000E-01  1.57080E-01  4.71239E+00  2.43718E+00  7.74230E-02 F
  6.50000E-01  1.57080E-01  4.90874E+00  2.40013E+00  7.77075E-02 F
  6.50000E-01  1.57080E-01  5.10509E+00  2.36466E+00  7.31394E-02 F
  6.50000E-01  1.57080E-01  5.30144E+00  2.33368E+00  5.84877E-02 F
  6.50000E-01  1.57080E-01  5.49779E+00  2.31284E+00  3.31423E-02 F
  6.50000E-01  1.57080E-01  5.69414E+00  2.30158E+00  1.81469E-02 F
  6.50000E-01  1.57080E-01  5.89049E+00  2.29755E+00 -2.95424E-03 F
  6.50000E-01  1.57080E-01  6.08684E+00  2.30481E+00 -2.78202E-02 F
  6.50000E-01  1.96350E-01  0.00000E+00  2.35318E+00 -7.13899E-02 F
  6.50000E-01  1.96350E-01  1.96350E-01  2.39092E+00 -8.80516E-02 F
  6.50000E-01  1.96350E-01  3.92699E-01  2.43371E+00 -9.14863E-02 F
  6.50000E-01  1.96350E-01  5.89049E-01  2.47792E+00 -9.13618E-02 F
  6.50000E-01  1.96350E-01  7.85398E-01  2.52197E+00 -8.76267E-02 F
  6.50000E-01  1.96350E-01  9.81748E-01  2.56423E+00 -8.12356E-02 F
  6.50000E-01  1.96350E-01  1.17810E+00  2.60364E+00 -7.44691E-02 F
  6.50000E-01  1.96350E-01  1.37445E+00  2.64076E+00 -6.98628E-02 F
  6.50000E-01  1.96350E-01  1.57080E+00  2.67580E+00 -6.38812E-02 F
  6.50000E-01  1.96350E-01  1.76715E+00  2.70699E+00 -5.29705E-02 F
  6.50000E-01  1.96350E-01  1.96350E+00  2.73062E+00 -3.44318E-02 F
  6.50000E-01  1.96350E-01  2.15985E+00  2.74317E+00 -1.21741E-02 F
  6.50000E-01  1.96350E-01  2.35619E+00  2.74388E+00  9.38438E-03 F
  6.50000E-01  1.96350E-01  2.55254E+00  2.73313E+00  3.05102E-02 F
  6.50000E-01  1.96350E-01  2.74889E+00  2.71156E+00  4.95971E-02 F
  6.50000E-01  1.96350E-01  2.94524E+00  2.68123E+00  6.39760E-02 F
  6.50000E-01  1.96350E-01  3.14159E+00  2.64570E+00  7.02912E-02 F
  6.50000E-01  1.96350E-01  3.33794E+00  2.60988E+00  6.71247E-02 F
  6.50000E-01  1.96350E-01  3.53429E+00  2.57781E+00  5.85039E-02 F
  6.50000E-01  1.96350E-01  3.73064E+00  2.55030E+00  5.15896E-02 F
  6.50000E-01  1.96350E-01  3.92699E+00  2.52500E+00  5.12450E-02 F
  6.50000E-01  1.96350E-01  4.12334E+00  2.49843E+00  5.70923E-02 F
  6.50000E-01  1.96350E-01  4.31969E+00  2.46898E+00  6.35057E-02 F
  6.50000E-01  1.96350E-01  4.51604E+00  2.43711E+00  6.83903E-02 F
  6.50000E-01  1.96350E-01  4.71239E+00  2.40427E+00  6.87703E-02 F
  6.50000E-01  1.96350E-01  4.90874E+00  2.37302E+00  6.39103E-02 F
  6.50000E-01  1.96350E-01  5.10509E+00  2.34505E+00  5.61913E-02 F
  6.50000E-01  1.96350E-01  5.30144E+00  2.32267E+00  3.94972E-02 F
  6.50000E-01  1.96350E-01  5.49779E+00  2.30953E+00  1.94923E-02 F
  6.50000E-01  1.96350E-01  5.69414E+00  2.30408E+00  3.49474E-03 F
  6.50000E-01  1.96350E-01  5.89049E+00  2.30854E+00 -2.46453E-02 F
  6.50000E-01  1.96350E-01  6.08684E+00  2.32567E+00 -4.89799E-02 F
  6.50000E-01  2.35619E-01  0.00000E+00  2.34170E+00 -9.09466E-02 F
  6.50000E-01  2.35619E-01  1.96350E-01  2.38666E+00 -9.96291E-02 F
  6.50000E-01  2.35619E-01  3.92699E-01  2.43301E+00 -9.51330E-02 F
  6.50000E-01  2.35619E-01  5.89049E-01  2.47693E+00 -8.69702E-02 F
  6.50000E-01  2.35619E-01  7.85398E-01  2.51784E+00 -8.03669E-02 F
  6.50000E-01  2.35619E-01  9.81748E-01  2.55660E+00 -7.53856E-02 F
  6.50000E-01  2.35619E-01  1.17810E+00  2.59389E+00 -7.26016E-02 F
  6.50000E-01  2.35619E-01  1.37445E+00  2.63064E+00 -7.03597E-02 F
  6.50000E-01  2.35619E-01  1.57080E+00  2.66595E+00 -6.46739E-02 F
  6.50000E-01  2.35619E-01  1.76715E+00  2.69698E+00 -5.14406E-02 F
  6.50000E-01  2.35619E-01  1.96350E+00  2.71851E+00 -2.83083E-02 F
  6.50000E-01  2.35619E-01  2.15985E+00  2.72672E+00 -2.78149E-03 F
  6.50000E-01  2.35619E-01  2.35619E+00  2.72209E+00  1.95591E-02 F
  6.50000E-01  2.35619E-01  2.55254E+00  2.70635E+00  3.90414E-02 F
  6.50000E-01  2.35619E-01  2.74889E+00  2.68119E+00  5.57332E-02 F
  6.50000E-01  2.35619E-01  2.94524E+00  2.64813E+00  7.00323E-02 F
  6.50000E-01  2.35619E-01  3.14159E+00  2.60952E+00  7.81452E-02 F
  6.50000E-01  2.35619E-01  3.33794E+00  2.56966E+00  7.72459E-02 F
  6.50000E-01  2.35619E-01  3.53429E+00  2.53239E+00  7.13840E-02 F
  6.50000E-01  2.35619E-01  3.73064E+00  2.49833E+00  6.71162E-02 F
  6.50000E-01  2.35619E-01  3.92699E+00  2.46589E+00  6.66219E-02 F
  6.50000E-01  2.35619E-01  4.12334E+00  2.43352E+00  6.79808E-02 F
  6.50000E-01  2.35619E-01  4.31969E+00  2.40091E+00  6.96470E-02 F
  6.50000E-01  2.35619E-01  4.51604E+00  2.36784E+00  7.10038E-02 F
  6.50000E-01  2.35619E-01  4.71239E+00  2.33599E+00  6.57079E-02 F
  6.50000E-01  2.35619E-01  4.90874E+00  2.30817E+00  5.59790E-02 F
  6.50000E-01  2.35619E-01  5.10509E+00  2.28579E+00  4.19530E-02 F
  6.50000E-01  2.35619E-01  5.30144E+00  2.27173E+00  2.03692E-02 F
  6.50000E-01  2.35619E-01  5.49779E+00  2.26665E+00  4.10642E-03 F
  6.50000E-01  2.35619E-01  5.69414E+00  2.26810E+00 -1.28512E-02 F
  6.50000E-01  2.35619E-01  5.89049E+00  2.28022E+00 -4.20890E-02 F
  6.50000E-01  2.35619E-01  6.08684E+00  2.30519E+00 -6.80894E-02 F
  6.50000E-01  2.74889E-01  0.00000E+00  2.35060E+00 -8.85919E-02 F
  6.50000E-01  2.74889E-01  1.96350E-01  2.39228E+00 -8.83199E-02 F
  6.50000E-01  2.74889E-01  3.92699E-01  2.43228E+00 -8.00119E-02 F
  6.50000E-01  2.74889E-01  5.89049E-01  2.46884E+00 -7.28707E-02 F
  6.50000E-01  2.74889E-01  7.85398E-01  2.50384E+00 -7.11430E-02 F
  6.50000E-01  2.74889E-01  9.81748E-01  2.53909E+00 -7.16133E-02 F
  6.50000E-01  2.74889E-01  1.17810E+00  2.57567E+00 -7.41584E-02 F
  6.50000E-01  2.74889E-01  1.37445E+00  2.61369E+00 -7.43771E-02 F
  6.50000E-01  2.74889E-01  1.57080E+00  2.65100E+00 -6.86055E-02 F
  6.50000E-01  2.74889E-01  1.76715E+00  2.68296E+00 -5.09806E-02 F
  6.50000E-01  2.74889E-01  1.96350E+00  2.70221E+00 -2.03041E-02 F
  6.50000E-01  2.74889E-01  2.15985E+00  2.70410E+00  1.22644E-02 F
  6.50000E-01  2.74889E-01  2.35619E+00  2.69088E+00  3.58992E-02 F
  6.50000E-01  2.74889E-01  2.55254E+00  2.66788E+00  5.03005E-02 F
  6.50000E-01  2.74889E-01  2.74889E+00  2.63906E+00  5.99859E-02 F
  6.50000E-01  2.74889E-01  2.94524E+00  2.60600E+00  6.80985E-02 F
  6.50000E-01  2.74889E-01  3.14159E+00  2.56995E+00  7.31322E-02 F
  6.50000E-01  2.74889E-01  3.33794E+00  2.53290E+00  7.41264E-02 F
  6.50000E-01  2.74889E-01  3.53429E+00  2.49661E+00  7.27573E-02 F
  6.50000E-01  2.74889E-01  3.73064E+00  2.46152E+00  7.15095E-02 F
  6.50000E-01  2.74889E-01  3.92699E+00  2.42743E+00  7.04219E-02 F
  6.50000E-01  2.74889E-01  4.12334E+00  2.39470E+00  6.75495E-02 F
  6.50000E-01  2.74889E-01  4.31969E+00  2.36374E+00  6.55044E-02 F
  6.50000E-01  2.74889E-01  4.51604E+00  2.33391E+00  6.29940E-02 F
  6.50000E-01  2.74889E-01  4.71239E+00  2.30698E+00  5.44106E-02 F
  6.50000E-01  2.74889E-01  4.90874E+00  2.28490E+00  4.32648E-02 F
  6.50000E-01  2.74889E-01  5.10509E+00  2.26871E+00  2.81542E-02 F
  6.50000E-01  2.74889E-01  5.30144E+00  2.26044E+00  9.09118E-03 F
  6.50000E-01  2.74889E-01  5.49779E+00  2.25991E+00 -6.00807E-03 F
  6.50000E-01  2.74889E-01  5.69414E+00  2.26643E+00 -2.52855E-02 F
  6.50000E-01  2.74889E-01  5.89049E+00  2.28374E+00 -5.22851E-02 F
  6.50000E-01  2.74889E-01  6.08684E+00  2.31269E+00 -7.49092E-02 F
  6.50000E-01  3.14159E-01  0.00000E+00  2.37650E+00 -6.65152E-02 F
  6.50000E-01  3.14159E-01  1.96350E-01  2.40584E+00 -5.84183E-02 F
  6.50000E-01  3.14159E-01  3.92699E-01  2.43215E+00 -5.34085E-02 F
  6.50000E-01  3.14159E-01  5.89049E-01  2.45817E+00 -5.64544E-02 F
  6.50000E-01  3.14159E-01  7.85398E-01  2.48757E+00 -6.48468E-02 F
  6.50000E-01  3.14159E-01  9.81748E-01  2.52140E+00 -7.23828E-02 F
  6.50000E-01  3.14159E-01  1.17810E+00  2.55877E+00 -7.67696E-02 F
  6.50000E-01  3.14159E-01  1.37445E+00  2.59775E+00 -7.63103E-02 F
  6.50000E-01  3.14159E-01  1.57080E+00  2.63512E+00 -6.70928E-02 F
  6.50000E-01  3.14159E-01  1.76715E+00  2.66452E+00 -4.33433E-02 F
  6.50000E-01  3.14159E-01  1.96350E+00  2.67806E+00 -6.89791E-03 F
  6.50000E-01  3.14159E-01  2.15985E+00  2.67168E+00  2.99870E-02 F
  6.50000E-01  3.14159E-01  2.35619E+00  2.64862E+00  5.62465E-02 F
  6.50000E-01  3.14159E-01  2.55254E+00  2.61542E+00  7.03049E-02 F
  6.50000E-01  3.14159E-01  2.74889E+00  2.57810E+00  7.48251E-02 F
  6.50000E-01  3.14159E-01  2.94524E+00  2.54080E+00  7.25771E-02 F
  6.50000E-01  3.14159E-01  3.14159E+00  2.50640E+00  6.59261E-02 F
  6.50000E-01  3.14159E-01  3.33794E+00  2.47590E+00  5.90011E-02 F
  6.50000E-01  3.14159E-01  3.53429E+00  2.44862E+00  5.43801E-02 F
  6.50000E-01  3.14159E-01  3.73064E+00  2.42314E+00  5.25777E-02 F
  6.50000E-01  3.14159E-01  3.92699E+00  2.39824E+00  5.28698E-02 F
  6.50000E-01  3.14159E-01  4.12334E+00  2.37324E+00  5.38871E-02 F
  6.50000E-01  3.14159E-01  4.31969E+00  2.34811E+00  5.42422E-02 F
  6.50000E-01  3.14159E-01  4.51604E+00  2.32374E+00  5.13717E-02 F
  6.50000E-01  3.14159E-01  4.71239E+00  2.30161E+00  4.57751E-02 F
  6.50000E-01  3.14159E-01  4.90874E+00  2.28294E+00  3.61731E-02 F
  6.50000E-01  3.14159E-01  5.10509E+00  2.27019E+00  1.96165E-02 F
  6.50000E-01  3.14159E-01  5.30144E+00  2.26636E+00 -2.96107E-03 F
  6.50000E-01  3.14159E-01  5.49779E+00  2.27267E+00 -2.48531E-02 F
  6.50000E-01  3.14159E-01  5.69414E+00  2.28849E+00 -4.59044E-02 F
  6.50000E-01  3.14159E-01  5.89049E+00  2.31352E+00 -6.34768E-02 F
  6.50000E-01  3.14159E-01  6.08684E+00  2.34451E+00 -7.01260E-02 F
  6.50000E-01  3.53429E-01  0.00000E+00  2.37691E+00 -5.15047E-02 F
  6.50000E-01  3.53429E-01  1.96350E-01  2.39791E+00 -3.94833E-02 F
  6.50000E-01  3.53429E-01  3.92699E-01  2.41560E+00 -3.72258E-02 F
  6.50000E-01  3.53429E-01  5.89049E-01  2.43510E+00 -4.64062E-02 F
  6.50000E-01  3.53429E-01  7.85398E-01  2.46101E+00 -6.16516E-02 F
  6.50000E-01  3.53429E-01  9.81748E-01  2.49435E+00 -7.44284E-02 F
  6.50000E-01  3.53429E-01  1.17810E+00  2.53272E+00 -7.97023E-02 F
  6.50000E-01  3.53429E-01  1.37445E+00  2.57239E+00 -7.72293E-02 F
  6.50000E-01  3.53429E-01  1.57080E+00  2.60885E+00 -6.38949E-02 F
  6.50000E-01  3.53429E-01  1.76715E+00  2.63526E+00 -3.63064E-02 F
  6.50000E-01  3.53429E-01  1.96350E+00  2.64443E+00  1.66261E-03 F
  6.50000E-01  3.53429E-01  2.15985E+00  2.63401E+00  3.72928E-02 F
  6.50000E-01  3.53429E-01  2.35619E+00  2.60734E+00  6.51278E-02 F
  6.50000E-01  3.53429E-01  2.55254E+00  2.56894E+00  8.42956E-02 F
  6.50000E-01  3.53429E-01  2.74889E+00  2.52433E+00  9.19918E-02 F
  6.50000E-01  3.53429E-01  2.94524E+00  2.48002E+00  8.63891E-02 F
  6.50000E-01  3.53429E-01  3.14159E+00  2.44133E+00  7.32277E-02 F
  6.50000E-01  3.53429E-01  3.33794E+00  2.40984E+00  5.92248E-02 F
  6.50000E-01  3.53429E-01  3.53429E+00  2.38460E+00  4.89751E-02 F
  6.50000E-01  3.53429E-01  3.73064E+00  2.36319E+00  4.34473E-02 F
  6.50000E-01  3.53429E-01  3.92699E+00  2.34374E+00  4.13884E-02 F
  6.50000E-01  3.53429E-01  4.12334E+00  2.32444E+00  4.34552E-02 F
  6.50000E-01  3.53429E-01  4.31969E+00  2.30381E+00  4.72367E-02 F
  6.50000E-01  3.53429E-01  4.51604E+00  2.28209E+00  4.86999E-02 F
  6.50000E-01  3.53429E-01  4.71239E+00  2.26085E+00  4.53546E-02 F
  6.50000E-01  3.53429E-01  4.90874E+00  2.24329E+00  3.21206E-02 F
  6.50000E-01  3.53429E-01  5.10509E+00  2.23426E+00  7.12963E-03 F
  6.50000E-01  3.53429E-01  5.30144E+00  2.23801E+00 -2.42567E-02 F
  6.50000E-01  3.53429E-01  5.49779E+00  2.25482E+00 -5.06721E-02 F
  6.50000E-01  3.53429E-01  5.69414E+00  2.28197E+00 -6.99127E-02 F
  6.50000E-01  3.53429E-01  5.89049E+00  2.31565E+00 -7.65913E-02 F
  6.50000E-01  3.53429E-01  6.08684E+00  2.34920E+00 -6.77540E-02 F
  6.50000E-01  3.92699E-01  0.00000E+00  2.36875E+00 -3.02597E-02 F
  6.50000E-01  3.92699E-01  1.96350E-01  2.37958E+00 -1.84793E-02 F
  6.50000E-01  3.92699E-01  3.92699E-01  2.38827E+00 -2.12858E-02 F
  6.50000E-01  3.92699E-01  5.89049E-01  2.40184E+00 -3.80955E-02 F
  6.50000E-01  3.92699E-01  7.85398E-01  2.42489E+00 -5.90909E-02 F
  6.50000E-01  3.92699E-01  9.81748E-01  2.45766E+00 -7.64576E-02 F
  6.50000E-01  3.92699E-01  1.17810E+00  2.49712E+00 -8.38666E-02 F
  6.50000E-01  3.92699E-01  1.37445E+00  2.53802E+00 -7.95642E-02 F
  6.50000E-01  3.92699E-01  1.57080E+00  2.57406E+00 -6.15145E-02 F
  6.50000E-01  3.92699E-01  1.76715E+00  2.59749E+00 -2.86772E-02 F
  6.50000E-01  3.92699E-01  1.96350E+00  2.60227E+00  9.34983E-03 F
  6.50000E-01  3.92699E-01  2.15985E+00  2.58963E+00  3.83654E-02 F
  6.50000E-01  3.92699E-01  2.35619E+00  2.56476E+00  5.90113E-02 F
  6.50000E-01  3.92699E-01  2.55254E+00  2.53098E+00  7.54335E-02 F
  6.50000E-01  3.92699E-01  2.74889E+00  2.49087E+00  8.56814E-02 F
  6.50000E-01  3.92699E-01  2.94524E+00  2.44898E+00  8.55604E-02 F
  6.50000E-01  3.92699E-01  3.14159E+00  2.40955E+00  7.89466E-02 F
  6.50000E-01  3.92699E-01  3.33794E+00  2.37495E+00  6.78410E-02 F
  6.50000E-01  3.92699E-01  3.53429E+00  2.34621E+00  5.65128E-02 F
  6.50000E-01  3.92699E-01  3.73064E+00  2.32250E+00  4.73739E-02 F
  6.50000E-01  3.92699E-01  3.92699E+00  2.30243E+00  4.17241E-02 F
  6.50000E-01  3.92699E-01  4.12334E+00  2.28416E+00  4.00694E-02 F
  6.50000E-01  3.92699E-01  4.31969E+00  2.26608E+00  4.10123E-02 F
  6.50000E-01  3.92699E-01  4.51604E+00  2.24793E+00  4.02563E-02 F
  6.50000E-01  3.92699E-01  4.71239E+00  2.23128E+00  3.43324E-02 F
  6.50000E-01  3.92699E-01  4.90874E+00  2.21915E+00  1.92195E-02 F
  6.50000E-01  3.92699E-01  5.10509E+00  2.21637E+00 -8.30528E-03 F
  6.50000E-01  3.92699E-01  5.30144E+00  2.22711E+00 -4.05187E-02 F
  6.50000E-01  3.92699E-01  5.49779E+00  2.25087E+00 -6.60393E-02 F
  6.50000E-01  3.92699E-01  5.69414E+00  2.28396E+00 -8.00433E-02 F
  6.50000E-01  3.92699E-01  5.89049E+00  2.31978E+00 -7.50165E-02 F
  6.50000E-01  3.92699E-01  6.08684E+00  2.34963E+00 -5.34759E-02 F
  6.50000E-01  4.31969E-01  0.00000E+00  2.36251E+00 -4.85931E-04 F
  6.50000E-01  4.31969E-01  1.96350E-01  2.36166E+00  8.17842E-04 F
  6.50000E-01  4.31969E-01  3.92699E-01  2.36473E+00 -1.68779E-02 F
  6.50000E-01  4.31969E-01  5.89049E-01  2.37877E+00 -4.33712E-02 F
  6.50000E-01  4.31969E-01  7.85398E-01  2.40452E+00 -6.51768E-02 F
  6.50000E-01  4.31969E-01  9.81748E-01  2.43909E+00 -7.82799E-02 F
  6.50000E-01  4.31969E-01  1.17810E+00  2.47743E+00 -7.84856E-02 F
  6.50000E-01  4.31969E-01  1.37445E+00  2.51342E+00 -6.60892E-02 F
  6.50000E-01  4.31969E-01  1.57080E+00  2.53979E+00 -3.73608E-02 F
  6.50000E-01  4.31969E-01  1.76715E+00  2.54849E+00  3.30190E-03 F
  6.50000E-01  4.31969E-01  1.96350E+00  2.53750E+00  3.81301E-02 F
  6.50000E-01  4.31969E-01  2.15985E+00  2.51366E+00  5.50993E-02 F
  6.50000E-01  4.31969E-01  2.35619E+00  2.48542E+00  5.83916E-02 F
  6.50000E-01  4.31969E-01  2.55254E+00  2.45743E+00  5.69626E-02 F
  6.50000E-01  4.31969E-01  2.74889E+00  2.43019E+00  5.67767E-02 F
  6.50000E-01  4.31969E-01  2.94524E+00  2.40319E+00  5.69950E-02 F
  6.50000E-01  4.31969E-01  3.14159E+00  2.37662E+00  5.57702E-02 F
  6.50000E-01  4.31969E-01  3.33794E+00  2.35150E+00  5.23447E-02 F
  6.50000E-01  4.31969E-01  3.53429E+00  2.32828E+00  4.85819E-02 F
  6.50000E-01  4.31969E-01  3.73064E+00  2.30724E+00  4.39337E-02 F
  6.50000E-01  4.31969E-01  3.92699E+00  2.28825E+00  4.03602E-02 F
  6.50000E-01  4.31969E-01  4.12334E+00  2.27099E+00  3.67879E-02 F
  6.50000E-01  4.31969E-01  4.31969E+00  2.25539E+00  3.33114E-02 F
  6.50000E-01  4.31969E-01  4.51604E+00  2.24184E+00  2.73579E-02 F
  6.50000E-01  4.31969E-01  4.71239E+00  2.23210E+00  1.58030E-02 F
  6.50000E-01  4.31969E-01  4.90874E+00  2.22916E+00 -3.68360E-03 F
  6.50000E-01  4.31969E-01  5.10509E+00  2.23615E+00 -2.85928E-02 F
  6.50000E-01  4.31969E-01  5.30144E+00  2.25411E+00 -5.20069E-02 F
  6.50000E-01  4.31969E-01  5.49779E+00  2.28110E+00 -6.74964E-02 F
  6.50000E-01  4.31969E-01  5.69414E+00  2.31257E+00 -6.91755E-02 F
  6.50000E-01  4.31969E-01  5.89049E+00  2.34093E+00 -5.17845E-02 F
  6.50000E-01  4.31969E-01  6.08684E+00  2.35804E+00 -2.18590E-02 F
  6.50000E-01  4.71239E-01  0.00000E+00  2.36170E+00  7.76860E-03 F
  6.50000E-01  4.71239E-01  1.96350E-01  2.35934E+00 -1.23570E-03 F
  6.50000E-01  4.71239E-01  3.92699E-01  2.36572E+00 -2.81810E-02 F
  6.50000E-01  4.71239E-01  5.89049E-01  2.38561E+00 -5.55478E-02 F
  6.50000E-01  4.71239E-01  7.85398E-01  2.41591E+00 -7.06107E-02 F
  6.50000E-01  4.71239E-01  9.81748E-01  2.45006E+00 -6.95908E-02 F
  6.50000E-01  4.71239E-01  1.17810E+00  2.48076E+00 -5.57427E-02 F
  6.50000E-01  4.71239E-01  1.37445E+00  2.50254E+00 -3.08877E-02 F
  6.50000E-01  4.71239E-01  1.57080E+00  2.50851E+00  8.56805E-03 F
  6.50000E-01  4.71239E-01  1.76715E+00  2.49362E+00  5.09624E-02 F
  6.50000E-01  4.71239E-01  1.96350E+00  2.46141E+00  7.76689E-02 F
  6.50000E-01  4.71239E-01  2.15985E+00  2.42236E+00  8.18096E-02 F
  6.50000E-01  4.71239E-01  2.35619E+00  2.38621E+00  6.92198E-02 F
  6.50000E-01  4.71239E-01  2.55254E+00  2.35856E+00  4.92362E-02 F
  6.50000E-01  4.71239E-01  2.74889E+00  2.34003E+00  3.22366E-02 F
  6.50000E-01  4.71239E-01  2.94524E+00  2.32754E+00  2.38398E-02 F
  6.50000E-01  4.71239E-01  3.14159E+00  2.31703E+00  2.33151E-02 F
  6.50000E-01  4.71239E-01  3.33794E+00  2.30550E+00  2.81456E-02 F
  6.50000E-01  4.71239E-01  3.53429E+00  2.29148E+00  3.35724E-02 F
  6.50000E-01  4.71239E-01  3.73064E+00  2.27563E+00  3.70076E-02 F
  6.50000E-01  4.71239E-01  3.92699E+00  2.25858E+00  3.91371E-02 F
  6.50000E-01  4.71239E-01  4.12334E+00  2.24149E+00  3.75710E-02 F
  6.50000E-01  4.71239E-01  4.31969E+00  2.22618E+00  3.12548E-02 F
  6.50000E-01  4.71239E-01  4.51604E+00  2.21513E+00  1.80954E-02 F
  6.50000E-01  4.71239E-01  4.71239E+00  2.21173E+00 -3.93945E-03 F
  6.50000E-01  4.71239E-01  4.90874E+00  2.21930E+00 -3.08763E-02 F
  6.50000E-01  4.71239E-01  5.10509E+00  2.23823E+00 -5.46900E-02 F
  6.50000E-01  4.71239E-01  5.30144E+00  2.26632E+00 -7.05802E-02 F
  6.50000E-01  4.71239E-01  5.49779E+00  2.29914E+00 -7.34695E-02 F
  6.50000E-01  4.71239E-01  5.69414E+00  2.33046E+00 -6.19109E-02 F
  6.50000E-01  4.71239E-01  5.89049E+00  2.35348E+00 -3.61031E-02 F
  6.50000E-01  4.71239E-01  6.08684E+00  2.36299E+00 -6.04279E-03 F
  6.50000E-01  5.10509E-01  0.00000E+00  2.35842E+00  1.03062E-02 F
  6.50000E-01  5.10509E-01  1.96350E-01  2.35643E+00 -4.83331E-03 F
  6.50000E-01  5.10509E-01  3.92699E-01  2.36519E+00 -3.41499E-02 F
  6.50000E-01  5.10509E-01  5.89049E-01  2.38777E+00 -6.07270E-02 F
  6.50000E-01  5.10509E-01  7.85398E-01  2.41956E+00 -7.04627E-02 F
  6.50000E-01  5.10509E-01  9.81748E-01  2.45145E+00 -6.02567E-02 F
  6.50000E-01  5.10509E-01  1.17810E+00  2.47589E+00 -3.95243E-02 F
  6.50000E-01  5.10509E-01  1.37445E+00  2.48819E+00 -9.11443E-03 F
  6.50000E-01  5.10509E-01  1.57080E+00  2.48348E+00  2.89072E-02 F
  6.50000E-01  5.10509E-01  1.76715E+00  2.46055E+00  6.40950E-02 F
  6.50000E-01  5.10509E-01  1.96350E+00  2.42421E+00  8.41900E-02 F
  6.50000E-01  5.10509E-01  2.15985E+00  2.38344E+00  8.58965E-02 F
  6.50000E-01  5.10509E-01  2.35619E+00  2.34577E+00  7.47713E-02 F
  6.50000E-01  5.10509E-01  2.55254E+00  2.31542E+00  5.73034E-02 F
  6.50000E-01  5.10509E-01  2.74889E+00  2.29373E+00  3.89310E-02 F
  6.50000E-01  5.10509E-01  2.94524E+00  2.27933E+00  2.68021E-02 F
  6.50000E-01  5.10509E-01  3.14159E+00  2.26835E+00  2.36568E-02 F
  6.50000E-01  5.10509E-01  3.33794E+00  2.25745E+00  2.58711E-02 F
  6.50000E-01  5.10509E-01  3.53429E+00  2.24534E+00  2.87459E-02 F
  6.50000E-01  5.10509E-01  3.73064E+00  2.23234E+00  3.00184E-02 F
  6.50000E-01  5.10509E-01  3.92699E+00  2.21960E+00  2.75525E-02 F
  6.50000E-01  5.10509E-01  4.12334E+00  2.20872E+00  2.22063E-02 F
  6.50000E-01  5.10509E-01  4.31969E+00  2.20076E+00  1.37798E-02 F
  6.50000E-01  5.10509E-01  4.51604E+00  2.19773E+00 -1.20890E-03 F
  6.50000E-01  5.10509E-01  4.71239E+00  2.20325E+00 -2.57620E-02 F
  6.50000E-01  5.10509E-01  4.90874E+00  2.22059E+00 -5.37516E-02 F
  6.50000E-01  5.10509E-01  5.10509E+00  2.24922E+00 -7.47982E-02 F
  6.50000E-01  5.10509E-01  5.30144E+00  2.28447E+00 -8.06256E-02 F
  6.50000E-01  5.10509E-01  5.49779E+00  2.31900E+00 -6.97508E-02 F
  6.50000E-01  5.10509E-01  5.69414E+00  2.34602E+00 -4.65913E-02 F
  6.50000E-01  5.10509E-01  5.89049E+00  2.36083E+00 -1.72585E-02 F
  6.50000E-01  5.10509E-01  6.08684E+00  2.36294E+00  5.78178E-03 F
  6.50000E-01  5.49779E-01  0.00000E+00  2.34337E+00  1.52004E-02 F
  6.50000E-01  5.49779E-01  1.96350E-01  2.34155E+00 -8.71746E-03 F
  6.50000E-01  5.49779E-01  3.92699E-01  2.35218E+00 -3.72969E-02 F
  6.50000E-01  5.49779E-01  5.89049E-01  2.37492E+00 -5.84845E-02 F
  6.50000E-01  5.49779E-01  7.85398E-01  2.40412E+00 -6.27562E-02 F
  6.50000E-01  5.49779E-01  9.81748E-01  2.43137E+00 -4.97886E-02 F
  6.50000E-01  5.49779E-01  1.17810E+00  2.45004E+00 -2.68331E-02 F
  6.50000E-01  5.49779E-01  1.37445E+00  2.45608E+00  2.39425E-03 F
  6.50000E-01  5.49779E-01  1.57080E+00  2.44760E+00  3.25246E-02 F
  6.50000E-01  5.49779E-01  1.76715E+00  2.42587E+00  5.64834E-02 F
  6.50000E-01  5.49779E-01  1.96350E+00  2.39606E+00  6.73130E-02 F
  6.50000E-01  5.49779E-01  2.15985E+00  2.36403E+00  6.86158E-02 F
  6.50000E-01  5.49779E-01  2.35619E+00  2.33316E+00  6.46760E-02 F
  6.50000E-01  5.49779E-01  2.55254E+00  2.30518E+00  5.75889E-02 F
  6.50000E-01  5.49779E-01  2.74889E+00  2.28162E+00  4.66202E-02 F
  6.50000E-01  5.49779E-01  2.94524E+00  2.26319E+00  3.66599E-02 F
  6.50000E-01  5.49779E-01  3.14159E+00  2.24845E+00  3.03883E-02 F
  6.50000E-01  5.49779E-01  3.33794E+00  2.23599E+00  2.64252E-02 F
  6.50000E-01  5.49779E-01  3.53429E+00  2.22530E+00  2.20786E-02 F
  6.50000E-01  5.49779E-01  3.73064E+00  2.21711E+00  1.48595E-02 F
  6.50000E-01  5.49779E-01  3.92699E+00  2.21276E+00  5.03665E-03 F
  6.50000E-01  5.49779E-01  4.12334E+00  2.21270E+00 -4.97171E-03 F
  6.50000E-01  5.49779E-01  4.31969E+00  2.21762E+00 -1.84098E-02 F
  6.50000E-01  5.49779E-01  4.51604E+00  2.22934E+00 -3.58051E-02 F
  6.50000E-01  5.49779E-01  4.71239E+00  2.24925E+00 -5.46016E-02 F
  6.50000E-01  5.49779E-01  4.90874E+00  2.27690E+00 -6.82980E-02 F
  6.50000E-01  5.49779E-01  5.10509E+00  2.30855E+00 -6.99817E-02 F
  6.50000E-01  5.49779E-01  5.30144E+00  2.33832E+00 -5.85702E-02 F
  6.50000E-01  5.49779E-01  5.49779E+00  2.36050E+00 -3.56965E-02 F
  6.50000E-01  5.49779E-01  5.69414E+00  2.36999E+00 -4.77135E-03 F
  6.50000E-01  5.49779E-01  5.89049E+00  2.36582E+00  2.05136E-02 F
  6.50000E-01  5.49779E-01  6.08684E+00  2.35383E+00  2.76044E-02 F
  6.50000E-01  5.89049E-01  0.00000E+00  2.35965E+00  7.84002E-03 F
  6.50000E-01  5.89049E-01  1.96350E-01  2.36193E+00 -1.75111E-02 F
  6.50000E-01  5.89049E-01  3.92699E-01  2.37497E+00 -3.65583E-02 F
  6.50000E-01  5.89049E-01  5.89049E-01  2.39376E+00 -4.13108E-02 F
  6.50000E-01  5.89049E-01  7.85398E-01  2.41175E+00 -3.27376E-02 F
  6.50000E-01  5.89049E-01  9.81748E-01  2.42266E+00 -1.14060E-02 F
  6.50000E-01  5.89049E-01  1.17810E+00  2.42148E+00  1.68564E-02 F
  6.50000E-01  5.89049E-01  1.37445E+00  2.40664E+00  4.53830E-02 F
  6.50000E-01  5.89049E-01  1.57080E+00  2.37966E+00  6.75052E-02 F
  6.50000E-01  5.89049E-01  1.76715E+00  2.34645E+00  7.20858E-02 F
  6.50000E-01  5.89049E-01  1.96350E+00  2.31573E+00  6.07810E-02 F
  6.50000E-01  5.89049E-01  2.15985E+00  2.29151E+00  4.62664E-02 F
  6.50000E-01  5.89049E-01  2.35619E+00  2.27380E+00  3.34673E-02 F
  6.50000E-01  5.89049E-01  2.55254E+00  2.26081E+00  2.56684E-02 F
  6.50000E-01  5.89049E-01  2.74889E+00  2.25044E+00  2.17235E-02 F
  6.50000E-01  5.89049E-01  2.94524E+00  2.24118E+00  2.05964E-02 F
  6.50000E-01  5.89049E-01  3.14159E+00  2.23210E+00  2.10748E-02 F
  6.50000E-01  5.89049E-01  3.33794E+00  2.22254E+00  2.24475E-02 F
  6.50000E-01  5.89049E-01  3.53429E+00  2.21309E+00  1.99039E-02 F
  6.50000E-01  5.89049E-01  3.73064E+00  2.20629E+00  1.01419E-02 F
  6.50000E-01  5.89049E-01  3.92699E+00  2.20521E+00 -5.86263E-03 F
  6.50000E-01  5.89049E-01  4.12334E+00  2.21195E+00 -2.59383E-02 F
  6.50000E-01  5.89049E-01  4.31969E+00  2.22826E+00 -4.90421E-02 F
  6.50000E-01  5.89049E-01  4.51604E+00  2.25468E+00 -7.03840E-02 F
  6.50000E-01  5.89049E-01  4.71239E+00  2.28971E+00 -8.47594E-02 F
  6.50000E-01  5.89049E-01  4.90874E+00  2.32847E+00 -8.30012E-02 F
  6.50000E-01  5.89049E-01  5.10509E+00  2.36305E+00 -6.53228E-02 F
  6.50000E-01  5.89049E-01  5.30144E+00  2.38800E+00 -4.09405E-02 F
  6.50000E-01  5.89049E-01  5.49779E+00  2.40041E+00 -1.08587E-02 F
  6.50000E-01  5.89049E-01  5.69414E+00  2.39818E+00  1.90361E-02 F
  6.50000E-01  5.89049E-01  5.89049E+00  2.38474E+00  3.50832E-02 F
  6.50000E-01  5.89049E-01  6.08684E+00  2.36873E+00  2.97722E-02 F
  6.50000E-01  6.28319E-01  0.00000E+00  2.38255E+00 -2.74988E-09 F
  6.50000E-01  6.28319E-01  1.96350E-01  2.38810E+00 -2.27536E-02 F
  6.50000E-01  6.28319E-01  3.92699E-01  2.40184E+00 -3.24351E-02 F
  6.50000E-01  6.28319E-01  5.89049E-01  2.41567E+00 -2.34712E-02 F
  6.50000E-01  6.28319E-01  7.85398E-01  2.42207E+00 -1.55634E-03 F
  6.50000E-01  6.28319E-01  9.81748E-01  2.41580E+00  2.86105E-02 F
  6.50000E-01  6.28319E-01  1.17810E+00  2.39496E+00  5.94004E-02 F
  6.50000E-01  6.28319E-01  1.37445E+00  2.36058E+00  8.66437E-02 F
  6.50000E-01  6.28319E-01  1.57080E+00  2.31719E+00  9.83285E-02 F
  6.50000E-01  6.28319E-01  1.76715E+00  2.27511E+00  8.46249E-02 F
  6.50000E-01  6.28319E-01  1.96350E+00  2.24324E+00  5.85710E-02 F
  6.50000E-01  6.28319E-01  2.15985E+00  2.22323E+00  3.32032E-02 F
  6.50000E-01  6.28319E-01  2.35619E+00  2.21344E+00  1.29599E-02 F
  6.50000E-01  6.28319E-01  2.55254E+00  2.21086E+00  9.96314E-05 F
  6.50000E-01  6.28319E-01  2.74889E+00  2.21234E+00 -5.75752E-03 F
  6.50000E-01  6.28319E-01  2.94524E+00  2.21495E+00 -5.31779E-03 F
  6.50000E-01  6.28319E-01  3.14159E+00  2.21623E+00 -8.39650E-09 F
  6.50000E-01  6.28319E-01  3.33794E+00  2.21495E+00  5.31777E-03 F
  6.50000E-01  6.28319E-01  3.53429E+00  2.21234E+00  5.75749E-03 F
  6.50000E-01  6.28319E-01  3.73064E+00  2.21086E+00 -9.96542E-05 F
  6.50000E-01  6.28319E-01  3.92699E+00  2.21344E+00 -1.29599E-02 F
  6.50000E-01  6.28319E-01  4.12334E+00  2.22323E+00 -3.32032E-02 F
  6.50000E-01  6.28319E-01  4.31969E+00  2.24324E+00 -5.85710E-02 F
  6.50000E-01  6.28319E-01  4.51604E+00  2.27511E+00 -8.46249E-02 F
  6.50000E-01  6.28319E-01  4.71239E+00  2.31719E+00 -9.83285E-02 F
  6.50000E-01  6.28319E-01  4.90874E+00  2.36058E+00 -8.66437E-02 F
  6.50000E-01  6.28319E-01  5.10509E+00  2.39496E+00 -5.94004E-02 F
  6.50000E-01  6.28319E-01  5.30144E+00  2.41580E+00 -2.86104E-02 F
  6.50000E-01  6.28319E-01  5.49779E+00  2.42207E+00  1.55638E-03 F
  6.50000E-01  6.28319E-01  5.69414E+00  2.41567E+00  2.34713E-02 F
  6.50000E-01  6.28319E-01  5.89049E+00  2.40184E+00  3.24352E-02 F
  6.50000E-01  6.28319E-01  6.08684E+00  2.38810E+00  2.27536E-02 F
  6.50000E-01  6.67588E-01  0.00000E+00  2.35965E+00 -7.84003E-03 F
  6.50000E-01  6.67588E-01  1.96350E-01  2.36873E+00 -2.97722E-02 F
  6.50000E-01  6.67588E-01  3.92699E-01  2.38474E+00 -3.50832E-02 F
  6.50000E-01  6.67588E-01  5.89049E-01  2.39818E+00 -1.90361E-02 F
  6.50000E-01  6.67588E-01  7.85398E-01  2.40041E+00  1.08588E-02 F
  6.50000E-01  6.67588E-01  9.81748E-01  2.38800E+00  4.09405E-02 F
  6.50000E-01  6.67588E-01  1.17810E+00  2.36305E+00  6.53228E-02 F
  6.50000E-01  6.67588E-01  1.37445E+00  2.32847E+00  8.30012E-02 F
  6.50000E-01  6.67588E-01  1.57080E+00  2.28971E+00  8.47593E-02 F
  6.50000E-01  6.67588E-01  1.76715E+00  2.25468E+00  7.03839E-02 F
  6.50000E-01  6.67588E-01  1.96350E+00  2.22826E+00  4.90421E-02 F
  6.50000E-01  6.67588E-01  2.15985E+00  2.21195E+00  2.59382E-02 F
  6.50000E-01  6.67588E-01  2.35619E+00  2.20521E+00  5.86261E-03 F
  6.50000E-01  6.67588E-01  2.55254E+00  2.20629E+00 -1.01419E-02 F
  6.50000E-01  6.67588E-01  2.74889E+00  2.21309E+00 -1.99039E-02 F
  6.50000E-01  6.67588E-01  2.94524E+00  2.22254E+00 -2.24475E-02 F
  6.50000E-01  6.67588E-01  3.14159E+00  2.23210E+00 -2.10749E-02 F
  6.50000E-01  6.67588E-01  3.33794E+00  2.24118E+00 -2.05964E-02 F
  6.50000E-01  6.67588E-01  3.53429E+00  2.25044E+00 -2.17235E-02 F
  6.50000E-01  6.67588E-01  3.73064E+00  2.26081E+00 -2.56684E-02 F
  6.50000E-01  6.67588E-01  3.92699E+00  2.27380E+00 -3.34674E-02 F
  6.50000E-01  6.67588E-01  4.12334E+00  2.29151E+00 -4.62665E-02 F
  6.50000E-01  6.67588E-01  4.31969E+00  2.31573E+00 -6.07810E-02 F
  6.50000E-01  6.67588E-01  4.51604E+00  2.34645E+00 -7.20858E-02 F
  6.50000E-01  6.67588E-01  4.71239E+00  2.37966E+00 -6.75051E-02 F
  6.50000E-01  6.67588E-01  4.90874E+00  2.40664E+00 -4.53830E-02 F
  6.50000E-01  6.67588E-01  5.10509E+00  2.42148E+00 -1.68564E-02 F
  6.50000E-01  6.67588E-01  5.30144E+00  2.42266E+00  1.14060E-02 F
  6.50000E-01  6.67588E-01  5.49779E+00  2.41175E+00  3.27376E-02 F
  6.50000E-01  6.67588E-01  5.69414E+00  2.39376E+00  4.13108E-02 F
  6.50000E-01  6.67588E-01  5.89049E+00  2.37497E+00  3.65583E-02 F
  6.50000E-01  6.67588E-01  6.08684E+00  2.36193E+00  1.75111E-02 F
  6.50000E-01  7.06858E-01  0.00000E+00  2.34337E+00 -1.52004E-02 F
  6.50000E-01  7.06858E-01  1.96350E-01  2.35383E+00 -2.76044E-02 F
  6.50000E-01  7.06858E-01  3.92699E-01  2.36582E+00 -2.05136E-02 F
  6.50000E-01  7.06858E-01  5.89049E-01  2.36999E+00  4.77142E-03 F
  6.50000E-01  7.06858E-01  7.85398E-01  2.36050E+00  3.56966E-02 F
  6.50000E-01  7.06858E-01  9.81748E-01  2.33832E+00  5.85702E-02 F
  6.50000E-01  7.06858E-01  1.17810E+00  2.30855E+00  6.99817E-02 F
  6.50000E-01  7.06858E-01  1.37445E+00  2.27690E+00  6.82980E-02 F
  6.50000E-01  7.06858E-01  1.57080E+00  2.24925E+00  5.46016E-02 F
  6.50000E-01  7.06858E-01  1.76715E+00  2.22934E+00  3.58051E-02 F
  6.50000E-01  7.06858E-01  1.96350E+00  2.21762E+00  1.84098E-02 F
  6.50000E-01  7.06858E-01  2.15985E+00  2.21270E+00  4.97168E-03 F
  6.50000E-01  7.06858E-01  2.35619E+00  2.21276E+00 -5.03668E-03 F
  6.50000E-01  7.06858E-01  2.55254E+00  2.21711E+00 -1.48595E-02 F
  6.50000E-01  7.06858E-01  2.74889E+00  2.22530E+00 -2.20787E-02 F
  6.50000E-01  7.06858E-01  2.94524E+00  2.23599E+00 -2.64252E-02 F
  6.50000E-01  7.06858E-01  3.14159E+00  2.24845E+00 -3.03883E-02 F
  6.50000E-01  7.06858E-01  3.33794E+00  2.26319E+00 -3.66599E-02 F
  6.50000E-01  7.06858E-01  3.53429E+00  2.28162E+00 -4.66203E-02 F
  6.50000E-01  7.06858E-01  3.73064E+00  2.30518E+00 -5.75889E-02 F
  6.50000E-01  7.06858E-01  3.92699E+00  2.33316E+00 -6.46760E-02 F
  6.50000E-01  7.06858E-01  4.12334E+00  2.36403E+00 -6.86159E-02 F
  6.50000E-01  7.06858E-01  4.31969E+00  2.39606E+00 -6.73130E-02 F
  6.50000E-01  7.06858E-01  4.51604E+00  2.42587E+00 -5.64833E-02 F
  6.50000E-01  7.06858E-01  4.71239E+00  2.44760E+00 -3.25245E-02 F
  6.50000E-01  7.06858E-01  4.90874E+00  2.45608E+00 -2.39420E-03 F
  6.50000E-01  7.06858E-01  5.10509E+00  2.45004E+00  2.68332E-02 F
  6.50000E-01  7.06858E-01  5.30144E+00  2.43137E+00  4.97887E-02 F
  6.50000E-01  7.06858E-01  5.49779E+00  2.40412E+00  6.27562E-02 F
  6.50000E-01  7.06858E-01  5.69414E+00  2.37492E+00  5.84845E-02 F
  6.50000E-01  7.06858E-01  5.89049E+00  2.35218E+00  3.72968E-02 F
  6.50000E-01  7.06858E-01  6.08684E+00  2.34155E+00  8.71743E-03 F
  6.50000E-01  7.46128E-01  0.00000E+00  2.35842E+00 -1.03062E-02 F
  6.50000E-01  7.46128E-01  1.96350E-01  2.36294E+00 -5.78175E-03 F
  6.50000E-01  7.46128E-01  3.92699E-01  2.36083E+00  1.72585E-02 F
  6.50000E-01  7.46128E-01  5.89049E-01  2.34602E+00  4.65914E-02 F
  6.50000E-01  7.46128E-01  7.85398E-01  2.31900E+00  6.97508E-02 F
  6.50000E-01  7.46128E-01  9.81748E-01  2.28447E+00  8.06256E-02 F
  6.50000E-01  7.46128E-01  1.17810E+00  2.24922E+00  7.47982E-02 F
  6.50000E-01  7.46128E-01  1.37445E+00  2.22059E+00  5.37515E-02 F
  6.50000E-01  7.46128E-01  1.57080E+00  2.20325E+00  2.57619E-02 F
  6.50000E-01  7.46128E-01  1.76715E+00  2.19773E+00  1.20886E-03 F
  6.50000E-01  7.46128E-01  1.96350E+00  2.20076E+00 -1.37798E-02 F
  6.50000E-01  7.46128E-01  2.15985E+00  2.20872E+00 -2.22063E-02 F
  6.50000E-01  7.46128E-01  2.35619E+00  2.21960E+00 -2.75525E-02 F
  6.50000E-01  7.46128E-01  2.55254E+00  2.23234E+00 -3.00184E-02 F
  6.50000E-01  7.46128E-01  2.74889E+00  2.24534E+00 -2.87459E-02 F
  6.50000E-01  7.46128E-01  2.94524E+00  2.25745E+00 -2.58710E-02 F
  6.50000E-01  7.46128E-01  3.14159E+00  2.26835E+00 -2.36568E-02 F
  6.50000E-01  7.46128E-01  3.33794E+00  2.27933E+00 -2.68021E-02 F
  6.50000E-01  7.46128E-01  3.53429E+00  2.29373E+00 -3.89310E-02 F
  6.50000E-01  7.46128E-01  3.73064E+00  2.31542E+00 -5.73034E-02 F
  6.50000E-01  7.46128E-01  3.92699E+00  2.34577E+00 -7.47713E-02 F
  6.50000E-01  7.46128E-01  4.12334E+00  2.38344E+00 -8.58965E-02 F
  6.50000E-01  7.46128E-01  4.31969E+00  2.42421E+00 -8.41900E-02 F
  6.50000E-01  7.46128E-01  4.51604E+00  2.46055E+00 -6.40949E-02 F
  6.50000E-01  7.46128E-01  4.71239E+00  2.48348E+00 -2.89072E-02 F
  6.50000E-01  7.46128E-01  4.90874E+00  2.48819E+00  9.11447E-03 F
  6.50000E-01  7.46128E-01  5.10509E+00  2.47589E+00  3.95243E-02 F
  6.50000E-01  7.46128E-01  5.30144E+00  2.45145E+00  6.02567E-02 F
  6.50000E-01  7.46128E-01  5.49779E+00  2.41956E+00  7.04627E-02 F
  6.50000E-01  7.46128E-01  5.69414E+00  2.38777E+00  6.07270E-02 F
  6.50000E-01  7.46128E-01  5.89049E+00  2.36519E+00  3.41499E-02 F
  6.50000E-01  7.46128E-01  6.08684E+00  2.35643E+00  4.83329E-03 F
  6.50000E-01  7.85398E-01  0.00000E+00  2.36170E+00 -7.76860E-03 F
  6.50000E-01  7.85398E-01  1.96350E-01  2.36299E+00  6.04282E-03 F
  6.50000E-01  7.85398E-01  3.92699E-01  2.35348E+00  3.61032E-02 F
  6.50000E-01  7.85398E-01  5.89049E-01  2.33046E+00  6.19109E-02 F
  6.50000E-01  7.85398E-01  7.85398E-01  2.29914E+00  7.34695E-02 F
  6.50000E-01  7.85398E-01  9.81748E-01  2.26632E+00  7.05802E-02 F
  6.50000E-01  7.85398E-01  1.17810E+00  2.23823E+00  5.46899E-02 F
  6.50000E-01  7.85398E-01  1.37445E+00  2.21930E+00  3.08763E-02 F
  6.50000E-01  7.85398E-01  1.57080E+00  2.21173E+00  3.93941E-03 F
  6.50000E-01  7.85398E-01  1.76715E+00  2.21513E+00 -1.80954E-02 F
  6.50000E-01  7.85398E-01  1.96350E+00  2.22618E+00 -3.12548E-02 F
  6.50000E-01  7.85398E-01  2.15985E+00  2.24149E+00 -3.75710E-02 F
  6.50000E-01  7.85398E-01  2.35619E+00  2.25858E+00 -3.91371E-02 F
  6.50000E-01  7.85398E-01  2.55254E+00  2.27563E+00 -3.70076E-02 F
  6.50000E-01  7.85398E-01  2.74889E+00  2.29148E+00 -3.35724E-02 F
  6.50000E-01  7.85398E-01  2.94524E+00  2.30550E+00 -2.81456E-02 F
  6.50000E-01  7.85398E-01  3.14159E+00  2.31703E+00 -2.33151E-02 F
  6.50000E-01  7.85398E-01  3.33794E+00  2.32754E+00 -2.38399E-02 F
  6.50000E-01  7.85398E-01  3.53429E+00  2.34003E+00 -3.22367E-02 F
  6.50000E-01  7.85398E-01  3.73064E+00  2.35856E+00 -4.92362E-02 F
  6.50000E-01  7.85398E-01  3.92699E+00  2.38621E+00 -6.92198E-02 F
  6.50000E-01  7.85398E-01  4.12334E+00  2.42236E+00 -8.18096E-02 F
  6.50000E-01  7.85398E-01  4.31969E+00  2.46141E+00 -7.76688E-02 F
  6.50000E-01  7.85398E-01  4.51604E+00  2.49362E+00 -5.09623E-02 F
  6.50000E-01  7.85398E-01  4.71239E+00  2.50851E+00 -8.56798E-03 F
  6.50000E-01  7.85398E-01  4.90874E+00  2.50254E+00  3.08878E-02 F
  6.50000E-01  7.85398E-01  5.10509E+00  2.48076E+00  5.57427E-02 F
  6.50000E-01  7.85398E-01  5.30144E+00  2.45006E+00  6.95908E-02 F
  6.50000E-01  7.85398E-01  5.49779E+00  2.41591E+00  7.06107E-02 F
  6.50000E-01  7.85398E-01  5.69414E+00  2.38561E+00  5.55478E-02 F
  6.50000E-01  7.85398E-01  5.89049E+00  2.36572E+00  2.81810E-02 F
  6.50000E-01  7.85398E-01  6.08684E+00  2.35934E+00  1.23568E-03 F
  6.50000E-01  8.24668E-01  0.00000E+00  2.36251E+00  4.85951E-04 F
  6.50000E-01  8.24668E-01  1.96350E-01  2.35804E+00  2.18591E-02 F
  6.50000E-01  8.24668E-01  3.92699E-01  2.34093E+00  5.17845E-02 F
  6.50000E-01  8.24668E-01  5.89049E-01  2.31257E+00  6.91755E-02 F
  6.50000E-01  8.24668E-01  7.85398E-01  2.28110E+00  6.74964E-02 F
  6.50000E-01  8.24668E-01  9.81748E-01  2.25411E+00  5.20068E-02 F
  6.50000E-01  8.24668E-01  1.17810E+00  2.23615E+00  2.85927E-02 F
  6.50000E-01  8.24668E-01  1.37445E+00  2.22916E+00  3.68356E-03 F
  6.50000E-01  8.24668E-01  1.57080E+00  2.23210E+00 -1.58031E-02 F
  6.50000E-01  8.24668E-01  1.76715E+00  2.24184E+00 -2.73579E-02 F
  6.50000E-01  8.24668E-01  1.96350E+00  2.25539E+00 -3.33114E-02 F
  6.50000E-01  8.24668E-01  2.15985E+00  2.27099E+00 -3.67879E-02 F
  6.50000E-01  8.24668E-01  2.35619E+00  2.28825E+00 -4.03602E-02 F
  6.50000E-01  8.24668E-01  2.55254E+00  2.30724E+00 -4.39337E-02 F
  6.50000E-01  8.24668E-01  2.74889E+00  2.32828E+00 -4.85819E-02 F
  6.50000E-01  8.24668E-01  2.94524E+00  2.35150E+00 -5.23447E-02 F
  6.50000E-01  8.24668E-01  3.14159E+00  2.37662E+00 -5.57702E-02 F
  6.50000E-01  8.24668E-01  3.33794E+00  2.40319E+00 -5.69950E-02 F
  6.50000E-01  8.24668E-01  3.53429E+00  2.43019E+00 -5.67767E-02 F
  6.50000E-01  8.24668E-01  3.73064E+00  2.45743E+00 -5.69627E-02 F
  6.50000E-01  8.24668E-01  3.92699E+00  2.48542E+00 -5.83916E-02 F
  6.50000E-01  8.24668E-01  4.12334E+00  2.51366E+00 -5.50993E-02 F
  6.50000E-01  8.24668E-01  4.31969E+00  2.53750E+00 -3.81301E-02 F
  6.50000E-01  8.24668E-01  4.51604E+00  2.54849E+00 -3.30182E-03 F
  6.50000E-01  8.24668E-01  4.71239E+00  2.53979E+00  3.73609E-02 F
  6.50000E-01  8.24668E-01  4.90874E+00  2.51342E+00  6.60892E-02 F
  6.50000E-01  8.24668E-01  5.10509E+00  2.47743E+00  7.84856E-02 F
  6.50000E-01  8.24668E-01  5.30144E+00  2.43909E+00  7.82799E-02 F
  6.50000E-01  8.24668E-01  5.49779E+00  2.40452E+00  6.51768E-02 F
  6.50000E-01  8.24668E-01  5.69414E+00  2.37877E+00  4.33711E-02 F
  6.50000E-01  8.24668E-01  5.89049E+00  2.36473E+00  1.68779E-02 F
  6.50000E-01  8.24668E-01  6.08684E+00  2.36166E+00 -8.17843E-04 F
  6.50000E-01  8.63938E-01  0.00000E+00  2.36875E+00  3.02598E-02 F
  6.50000E-01  8.63938E-01  1.96350E-01  2.34963E+00  5.34759E-02 F
  6.50000E-01  8.63938E-01  3.92699E-01  2.31978E+00  7.50166E-02 F
  6.50000E-01  8.63938E-01  5.89049E-01  2.28396E+00  8.00433E-02 F
  6.50000E-01  8.63938E-01  7.85398E-01  2.25087E+00  6.60393E-02 F
  6.50000E-01  8.63938E-01  9.81748E-01  2.22711E+00  4.05186E-02 F
  6.50000E-01  8.63938E-01  1.17810E+00  2.21637E+00  8.30523E-03 F
  6.50000E-01  8.63938E-01  1.37445E+00  2.21915E+00 -1.92196E-02 F
  6.50000E-01  8.63938E-01  1.57080E+00  2.23128E+00 -3.43324E-02 F
  6.50000E-01  8.63938E-01  1.76715E+00  2.24793E+00 -4.02564E-02 F
  6.50000E-01  8.63938E-01  1.96350E+00  2.26608E+00 -4.10123E-02 F
  6.50000E-01  8.63938E-01  2.15985E+00  2.28416E+00 -4.00694E-02 F
  6.50000E-01  8.63938E-01  2.35619E+00  2.30243E+00 -4.17241E-02 F
  6.50000E-01  8.63938E-01  2.55254E+00  2.32250E+00 -4.73739E-02 F
  6.50000E-01  8.63938E-01  2.74889E+00  2.34621E+00 -5.65128E-02 F
  6.50000E-01  8.63938E-01  2.94524E+00  2.37495E+00 -6.78411E-02 F
  6.50000E-01  8.63938E-01  3.14159E+00  2.40955E+00 -7.89466E-02 F
  6.50000E-01  8.63938E-01  3.33794E+00  2.44898E+00 -8.55605E-02 F
  6.50000E-01  8.63938E-01  3.53429E+00  2.49087E+00 -8.56815E-02 F
  6.50000E-01  8.63938E-01  3.73064E+00  2.53098E+00 -7.54335E-02 F
  6.50000E-01  8.63938E-01  3.92699E+00  2.56476E+00 -5.90113E-02 F
  6.50000E-01  8.63938E-01  4.12334E+00  2.58963E+00 -3.83654E-02 F
  6.50000E-01  8.63938E-01  4.31969E+00  2.60227E+00 -9.34979E-03 F
  6.50000E-01  8.63938E-01  4.51604E+00  2.59749E+00  2.86772E-02 F
  6.50000E-01  8.63938E-01  4.71239E+00  2.57406E+00  6.15145E-02 F
  6.50000E-01  8.63938E-01  4.90874E+00  2.53802E+00  7.95643E-02 F
  6.50000E-01  8.63938E-01  5.10509E+00  2.49712E+00  8.38666E-02 F
  6.50000E-01  8.63938E-01  5.30144E+00  2.45766E+00  7.64576E-02 F
  6.50000E-01  8.63938E-01  5.49779E+00  2.42489E+00  5.90909E-02 F
  6.50000E-01  8.63938E-01  5.69414E+00  2.40184E+00  3.80955E-02 F
  6.50000E-01  8.63938E-01  5.89049E+00  2.38827E+00  2.12858E-02 F
  6.50000E-01  8.63938E-01  6.08684E+00  2.37958E+00  1.84793E-02 F
  6.50000E-01  9.03208E-01  0.00000E+00  2.37691E+00  5.15047E-02 F
  6.50000E-01  9.03208E-01  1.96350E-01  2.34920E+00  6.77541E-02 F
  6.50000E-01  9.03208E-01  3.92699E-01  2.31565E+00  7.65913E-02 F
  6.50000E-01  9.03208E-01  5.89049E-01  2.28197E+00  6.99127E-02 F
  6.50000E-01  9.03208E-01  7.85398E-01  2.25482E+00  5.06720E-02 F
  6.50000E-01  9.03208E-01  9.81748E-01  2.23801E+00  2.42567E-02 F
  6.50000E-01  9.03208E-01  1.17810E+00  2.23426E+00 -7.12967E-03 F
  6.50000E-01  9.03208E-01  1.37445E+00  2.24329E+00 -3.21206E-02 F
  6.50000E-01  9.03208E-01  1.57080E+00  2.26085E+00 -4.53546E-02 F
  6.50000E-01  9.03208E-01  1.76715E+00  2.28209E+00 -4.86999E-02 F
  6.50000E-01  9.03208E-01  1.96350E+00  2.30381E+00 -4.72367E-02 F
  6.50000E-01  9.03208E-01  2.15985E+00  2.32444E+00 -4.34552E-02 F
  6.50000E-01  9.03208E-01  2.35619E+00  2.34374E+00 -4.13884E-02 F
  6.50000E-01  9.03208E-01  2.55254E+00  2.36319E+00 -4.34473E-02 F
  6.50000E-01  9.03208E-01  2.74889E+00  2.38460E+00 -4.89751E-02 F
  6.50000E-01  9.03208E-01  2.94524E+00  2.40984E+00 -5.92248E-02 F
  6.50000E-01  9.03208E-01  3.14159E+00  2.44133E+00 -7.32277E-02 F
  6.50000E-01  9.03208E-01  3.33794E+00  2.48002E+00 -8.63891E-02 F
  6.50000E-01  9.03208E-01  3.53429E+00  2.52433E+00 -9.19918E-02 F
  6.50000E-01  9.03208E-01  3.73064E+00  2.56894E+00 -8.42956E-02 F
  6.50000E-01  9.03208E-01  3.92699E+00  2.60734E+00 -6.51278E-02 F
  6.50000E-01  9.03208E-01  4.12334E+00  2.63401E+00 -3.72928E-02 F
  6.50000E-01  9.03208E-01  4.31969E+00  2.64443E+00 -1.66258E-03 F
  6.50000E-01  9.03208E-01  4.51604E+00  2.63526E+00  3.63065E-02 F
  6.50000E-01  9.03208E-01  4.71239E+00  2.60885E+00  6.38950E-02 F
  6.50000E-01  9.03208E-01  4.90874E+00  2.57239E+00  7.72293E-02 F
  6.50000E-01  9.03208E-01  5.10509E+00  2.53272E+00  7.97023E-02 F
  6.50000E-01  9.03208E-01  5.30144E+00  2.49435E+00  7.44284E-02 F
  6.50000E-01  9.03208E-01  5.49779E+00  2.46101E+00  6.16516E-02 F
  6.50000E-01  9.03208E-01  5.69414E+00  2.43510E+00  4.64062E-02 F
  6.50000E-01  9.03208E-01  5.89049E+00  2.41560E+00  3.72258E-02 F
  6.50000E-01  9.03208E-01  6.08684E+00  2.39791E+00  3.94833E-02 F
  6.50000E-01  9.42478E-01  0.00000E+00  2.37650E+00  6.65152E-02 F
  6.50000E-01  9.42478E-01  1.96350E-01  2.34451E+00  7.01260E-02 F
  6.50000E-01  9.42478E-01  3.92699E-01  2.31352E+00  6.34768E-02 F
  6.50000E-01  9.42478E-01  5.89049E-01  2.28849E+00  4.59044E-02 F
  6.50000E-01  9.42478E-01  7.85398E-01  2.27267E+00  2.48530E-02 F
  6.50000E-01  9.42478E-01  9.81748E-01  2.26636E+00  2.96103E-03 F
  6.50000E-01  9.42478E-01  1.17810E+00  2.27019E+00 -1.96165E-02 F
  6.50000E-01  9.42478E-01  1.37445E+00  2.28294E+00 -3.61731E-02 F
  6.50000E-01  9.42478E-01  1.57080E+00  2.30161E+00 -4.57751E-02 F
  6.50000E-01  9.42478E-01  1.76715E+00  2.32374E+00 -5.13717E-02 F
  6.50000E-01  9.42478E-01  1.96350E+00  2.34811E+00 -5.42423E-02 F
  6.50000E-01  9.42478E-01  2.15985E+00  2.37324E+00 -5.38872E-02 F
  6.50000E-01  9.42478E-01  2.35619E+00  2.39824E+00 -5.28698E-02 F
  6.50000E-01  9.42478E-01  2.55254E+00  2.42314E+00 -5.25777E-02 F
  6.50000E-01  9.42478E-01  2.74889E+00  2.44862E+00 -5.43801E-02 F
  6.50000E-01  9.42478E-01  2.94524E+00  2.47590E+00 -5.90011E-02 F
  6.50000E-01  9.42478E-01  3.14159E+00  2.50640E+00 -6.59261E-02 F
  6.50000E-01  9.42478E-01  3.33794E+00  2.54080E+00 -7.25771E-02 F
  6.50000E-01  9.42478E-01  3.53429E+00  2.57810E+00 -7.48251E-02 F
  6.50000E-01  9.42478E-01  3.73064E+00  2.61542E+00 -7.03049E-02 F
  6.50000E-01  9.42478E-01  3.92699E+00  2.64862E+00 -5.62464E-02 F
  6.50000E-01  9.42478E-01  4.12334E+00  2.67168E+00 -2.99869E-02 F
  6.50000E-01  9.42478E-01  4.31969E+00  2.67806E+00  6.89796E-03 F
  6.50000E-01  9.42478E-01  4.51604E+00  2.66452E+00  4.33433E-02 F
  6.50000E-01  9.42478E-01  4.71239E+00  2.63512E+00  6.70928E-02 F
  6.50000E-01  9.42478E-01  4.90874E+00  2.59775E+00  7.63103E-02 F
  6.50000E-01  9.42478E-01  5.10509E+00  2.55877E+00  7.67696E-02 F
  6.50000E-01  9.42478E-01  5.30144E+00  2.52140E+00  7.23828E-02 F
  6.50000E-01  9.42478E-01  5.49779E+00  2.48757E+00  6.48468E-02 F
  6.50000E-01  9.42478E-01  5.69414E+00  2.45817E+00  5.64544E-02 F
  6.50000E-01  9.42478E-01  5.89049E+00  2.43215E+00  5.34085E-02 F
  6.50000E-01  9.42478E-01  6.08684E+00  2.40584E+00  5.84183E-02 F
  6.50000E-01  9.81748E-01  0.00000E+00  2.35060E+00  8.85919E-02 F
  6.50000E-01  9.81748E-01  1.96350E-01  2.31269E+00  7.49092E-02 F
  6.50000E-01  9.81748E-01  3.92699E-01  2.28374E+00  5.22851E-02 F
  6.50000E-01  9.81748E-01  5.89049E-01  2.26643E+00  2.52855E-02 F
  6.50000E-01  9.81748E-01  7.85398E-01  2.25991E+00  6.00804E-03 F
  6.50000E-01  9.81748E-01  9.81748E-01  2.26044E+00 -9.09120E-03 F
  6.50000E-01  9.81748E-01  1.17810E+00  2.26871E+00 -2.81543E-02 F
  6.50000E-01  9.81748E-01  1.37445E+00  2.28490E+00 -4.32648E-02 F
  6.50000E-01  9.81748E-01  1.57080E+00  2.30698E+00 -5.44106E-02 F
  6.50000E-01  9.81748E-01  1.76715E+00  2.33391E+00 -6.29941E-02 F
  6.50000E-01  9.81748E-01  1.96350E+00  2.36374E+00 -6.55044E-02 F
  6.50000E-01  9.81748E-01  2.15985E+00  2.39470E+00 -6.75495E-02 F
  6.50000E-01  9.81748E-01  2.35619E+00  2.42743E+00 -7.04219E-02 F
  6.50000E-01  9.81748E-01  2.55254E+00  2.46152E+00 -7.15095E-02 F
  6.50000E-01  9.81748E-01  2.74889E+00  2.49661E+00 -7.27573E-02 F
  6.50000E-01  9.81748E-01  2.94524E+00  2.53290E+00 -7.41264E-02 F
  6.50000E-01  9.81748E-01  3.14159E+00  2.56995E+00 -7.31322E-02 F
  6.50000E-01  9.81748E-01  3.33794E+00  2.60600E+00 -6.80985E-02 F
  6.50000E-01  9.81748E-01  3.53429E+00  2.63906E+00 -5.99859E-02 F
  6.50000E-01  9.81748E-01  3.73064E+00  2.66788E+00 -5.03005E-02 F
  6.50000E-01  9.81748E-01  3.92699E+00  2.69088E+00 -3.58991E-02 F
  6.50000E-01  9.81748E-01  4.12334E+00  2.70410E+00 -1.22643E-02 F
  6.50000E-01  9.81748E-01  4.31969E+00  2.70221E+00  2.03042E-02 F
  6.50000E-01  9.81748E-01  4.51604E+00  2.68296E+00  5.09807E-02 F
  6.50000E-01  9.81748E-01  4.71239E+00  2.65100E+00  6.86055E-02 F
  6.50000E-01  9.81748E-01  4.90874E+00  2.61369E+00  7.43771E-02 F
  6.50000E-01  9.81748E-01  5.10509E+00  2.57567E+00  7.41584E-02 F
  6.50000E-01  9.81748E-01  5.30144E+00  2.53909E+00  7.16133E-02 F
  6.50000E-01  9.81748E-01  5.49779E+00  2.50384E+00  7.11430E-02 F
  6.50000E-01  9.81748E-01  5.69414E+00  2.46884E+00  7.28707E-02 F
  6.50000E-01  9.81748E-01  5.89049E+00  2.43228E+00  8.00119E-02 F
  6.50000E-01  9.81748E-01  6.08684E+00  2.39228E+00  8.83199E-02 F
  6.50000E-01  1.02102E+00  0.00000E+00  2.34170E+00  9.09466E-02 F
  6.50000E-01  1.02102E+00  1.96350E-01  2.30519E+00  6.80894E-02 F
  6.50000E-01  1.02102E+00  3.92699E-01  2.28022E+00  4.20889E-02 F
  6.50000E-01  1.02102E+00  5.89049E-01  2.26810E+00  1.28512E-02 F
  6.50000E-01  1.02102E+00  7.85398E-01  2.26666E+00 -4.10644E-03 F
  6.50000E-01  1.02102E+00  9.81748E-01  2.27173E+00 -2.03692E-02 F
  6.50000E-01  1.02102E+00  1.17810E+00  2.28579E+00 -4.19530E-02 F
  6.50000E-01  1.02102E+00  1.37445E+00  2.30817E+00 -5.59791E-02 F
  6.50000E-01  1.02102E+00  1.57080E+00  2.33599E+00 -6.57079E-02 F
  6.50000E-01  1.02102E+00  1.76715E+00  2.36784E+00 -7.10038E-02 F
  6.50000E-01  1.02102E+00  1.96350E+00  2.40091E+00 -6.96470E-02 F
  6.50000E-01  1.02102E+00  2.15985E+00  2.43352E+00 -6.79808E-02 F
  6.50000E-01  1.02102E+00  2.35619E+00  2.46589E+00 -6.66219E-02 F
  6.50000E-01  1.02102E+00  2.55254E+00  2.49833E+00 -6.71162E-02 F
  6.50000E-01  1.02102E+00  2.74889E+00  2.53239E+00 -7.13840E-02 F
  6.50000E-01  1.02102E+00  2.94524E+00  2.56966E+00 -7.72459E-02 F
  6.50000E-01  1.02102E+00  3.14159E+00  2.60952E+00 -7.81452E-02 F
  6.50000E-01  1.02102E+00  3.33794E+00  2.64813E+00 -7.00323E-02 F
  6.50000E-01  1.02102E+00  3.53429E+00  2.68119E+00 -5.57332E-02 F
  6.50000E-01  1.02102E+00  3.73064E+00  2.70635E+00 -3.90414E-02 F
  6.50000E-01  1.02102E+00  3.92699E+00  2.72209E+00 -1.95590E-02 F
  6.50000E-01  1.02102E+00  4.12334E+00  2.72672E+00  2.78152E-03 F
  6.50000E-01  1.02102E+00  4.31969E+00  2.71851E+00  2.83083E-02 F
  6.50000E-01  1.02102E+00  4.51604E+00  2.69698E+00  5.14406E-02 F
  6.50000E-01  1.02102E+00  4.71239E+00  2.66595E+00  6.46739E-02 F
  6.50000E-01  1.02102E+00  4.90874E+00  2.63064E+00  7.03597E-02 F
  6.50000E-01  1.02102E+00  5.10509E+00  2.59389E+00  7.26016E-02 F
  6.50000E-01  1.02102E+00  5.30144E+00  2.55660E+00  7.53856E-02 F
  6.50000E-01  1.02102E+00  5.49779E+00  2.51784E+00  8.03669E-02 F
  6.50000E-01  1.02102E+00  5.69414E+00  2.47693E+00  8.69702E-02 F
  6.50000E-01  1.02102E+00  5.89049E+00  2.43301E+00  9.51330E-02 F
  6.50000E-01  1.02102E+00  6.08684E+00  2.38666E+00  9.96291E-02 F
  6.50000E-01  1.06029E+00  0.00000E+00  2.35318E+00  7.13899E-02 F
  6.50000E-01  1.06029E+00  1.96350E-01  2.32567E+00  4.89798E-02 F
  6.50000E-01  1.06029E+00  3.92699E-01  2.30854E+00  2.46452E-02 F
  6.50000E-01  1.06029E+00  5.89049E-01  2.30408E+00 -3.49477E-03 F
  6.50000E-01  1.06029E+00  7.85398E-01  2.30953E+00 -1.94923E-02 F
  6.50000E-01  1.06029E+00  9.81748E-01  2.32267E+00 -3.94972E-02 F
  6.50000E-01  1.06029E+00  1.17810E+00  2.34505E+00 -5.61913E-02 F
  6.50000E-01  1.06029E+00  1.37445E+00  2.37302E+00 -6.39103E-02 F
  6.50000E-01  1.06029E+00  1.57080E+00  2.40427E+00 -6.87703E-02 F
  6.50000E-01  1.06029E+00  1.76715E+00  2.43711E+00 -6.83903E-02 F
  6.50000E-01  1.06029E+00  1.96350E+00  2.46898E+00 -6.35057E-02 F
  6.50000E-01  1.06029E+00  2.15985E+00  2.49843E+00 -5.70923E-02 F
  6.50000E-01  1.06029E+00  2.35619E+00  2.52500E+00 -5.12450E-02 F
  6.50000E-01  1.06029E+00  2.55254E+00  2.55030E+00 -5.15896E-02 F
  6.50000E-01  1.06029E+00  2.74889E+00  2.57781E+00 -5.85039E-02 F
  6.50000E-01  1.06029E+00  2.94524E+00  2.60988E+00 -6.71247E-02 F
  6.50000E-01  1.06029E+00  3.14159E+00  2.64570E+00 -7.02912E-02 F
  6.50000E-01  1.06029E+00  3.33794E+00  2.68123E+00 -6.39760E-02 F
  6.50000E-01  1.06029E+00  3.53429E+00  2.71156E+00 -4.95971E-02 F
  6.50000E-01  1.06029E+00  3.73064E+00  2.73313E+00 -3.05102E-02 F
  6.50000E-01  1.06029E+00  3.92699E+00  2.74388E+00 -9.38436E-03 F
  6.50000E-01  1.06029E+00  4.12334E+00  2.74317E+00  1.21741E-02 F
  6.50000E-01  1.06029E+00  4.31969E+00  2.73062E+00  3.44318E-02 F
  6.50000E-01  1.06029E+00  4.51604E+00  2.70699E+00  5.29706E-02 F
  6.50000E-01  1.06029E+00  4.71239E+00  2.67580E+00  6.38812E-02 F
  6.50000E-01  1.06029E+00  4.90874E+00  2.64076E+00  6.98628E-02 F
  6.50000E-01  1.06029E+00  5.10509E+00  2.60364E+00  7.44691E-02 F
  6.50000E-01  1.06029E+00  5.30144E+00  2.56423E+00  8.12356E-02 F
  6.50000E-01  1.06029E+00  5.49779E+00  2.52197E+00  8.76267E-02 F
  6.50000E-01  1.06029E+00  5.69414E+00  2.47792E+00  9.13618E-02 F
  6.50000E-01  1.06029E+00  5.89049E+00  2.43371E+00  9.14863E-02 F
  6.50000E-01  1.06029E+00  6.08684E+00  2.39092E+00  8.80516E-02 F
  6.50000E-01  1.09956E+00  0.00000E+00  2.32260E+00  5.24044E-02 F
  6.50000E-01  1.09956E+00  1.96350E-01  2.30481E+00  2.78201E-02 F
  6.50000E-01  1.09956E+00  3.92699E-01  2.29755E+00  2.95420E-03 F
  6.50000E-01  1.09956E+00  5.89049E-01  2.30158E+00 -1.81469E-02 F
  6.50000E-01  1.09956E+00  7.85398E-01  2.31284E+00 -3.31423E-02 F
  6.50000E-01  1.09956E+00  9.81748E-01  2.33368E+00 -5.84877E-02 F
  6.50000E-01  1.09956E+00  1.17810E+00  2.36466E+00 -7.31394E-02 F
  6.50000E-01  1.09956E+00  1.37445E+00  2.40013E+00 -7.77076E-02 F
  6.50000E-01  1.09956E+00  1.57080E+00  2.43718E+00 -7.74230E-02 F
  6.50000E-01  1.09956E+00  1.76715E+00  2.47339E+00 -7.21124E-02 F
  6.50000E-01  1.09956E+00  1.96350E+00  2.50692E+00 -6.51799E-02 F
  6.50000E-01  1.09956E+00  2.15985E+00  2.53781E+00 -5.98127E-02 F
  6.50000E-01  1.09956E+00  2.35619E+00  2.56674E+00 -5.61141E-02 F
  6.50000E-01  1.09956E+00  2.55254E+00  2.59514E+00 -5.68019E-02 F
  6.50000E-01  1.09956E+00  2.74889E+00  2.62522E+00 -6.07657E-02 F
  6.50000E-01  1.09956E+00  2.94524E+00  2.65748E+00 -6.28201E-02 F
  6.50000E-01  1.09956E+00  3.14159E+00  2.68966E+00 -5.86656E-02 F
  6.50000E-01  1.09956E+00  3.33794E+00  2.71830E+00 -4.82796E-02 F
  6.50000E-01  1.09956E+00  3.53429E+00  2.74024E+00 -3.29368E-02 F
  6.50000E-01  1.09956E+00  3.73064E+00  2.75328E+00 -1.53670E-02 F
  6.50000E-01  1.09956E+00  3.92699E+00  2.75686E+00  2.24974E-03 F
  6.50000E-01  1.09956E+00  4.12334E+00  2.75047E+00  2.18771E-02 F
  6.50000E-01  1.09956E+00  4.31969E+00  2.73307E+00  4.24106E-02 F
  6.50000E-01  1.09956E+00  4.51604E+00  2.70602E+00  5.76539E-02 F
  6.50000E-01  1.09956E+00  4.71239E+00  2.67302E+00  6.66419E-02 F
  6.50000E-01  1.09956E+00  4.90874E+00  2.63649E+00  7.33436E-02 F
  6.50000E-01  1.09956E+00  5.10509E+00  2.59696E+00  8.12877E-02 F
  6.50000E-01  1.09956E+00  5.30144E+00  2.55265E+00  9.45922E-02 F
  6.50000E-01  1.09956E+00  5.49779E+00  2.50256E+00  1.06207E-01 F
  6.50000E-01  1.09956E+00  5.69414E+00  2.44974E+00  1.09474E-01 F
  6.50000E-01  1.09956E+00  5.89049E+00  2.39876E+00  1.03244E-01 F
  6.50000E-01  1.09956E+00  6.08684E+00  2.35423E+00  8.47429E-02 F
  6.50000E-01  1.13883E+00  0.00000E+00  2.29826E+00  3.59432E-02 F
  6.50000E-01  1.13883E+00  1.96350E-01  2.28858E+00  9.14687E-03 F
  6.50000E-01  1.13883E+00  3.92699E-01  2.28989E+00 -1.47335E-02 F
  6.50000E-01  1.13883E+00  5.89049E-01  2.29991E+00 -2.72344E-02 F
  6.50000E-01  1.13883E+00  7.85398E-01  2.31489E+00 -4.19516E-02 F
  6.50000E-01  1.13883E+00  9.81748E-01  2.34002E+00 -6.75327E-02 F
  6.50000E-01  1.13883E+00  1.17810E+00  2.37519E+00 -8.22836E-02 F
  6.50000E-01  1.13883E+00  1.37445E+00  2.41531E+00 -8.68324E-02 F
  6.50000E-01  1.13883E+00  1.57080E+00  2.45621E+00 -8.31565E-02 F
  6.50000E-01  1.13883E+00  1.76715E+00  2.49488E+00 -7.56526E-02 F
  6.50000E-01  1.13883E+00  1.96350E+00  2.53040E+00 -6.88323E-02 F
  6.50000E-01  1.13883E+00  2.15985E+00  2.56378E+00 -6.51274E-02 F
  6.50000E-01  1.13883E+00  2.35619E+00  2.59649E+00 -6.46862E-02 F
  6.50000E-01  1.13883E+00  2.55254E+00  2.63033E+00 -6.73886E-02 F
  6.50000E-01  1.13883E+00  2.74889E+00  2.66576E+00 -6.81530E-02 F
  6.50000E-01  1.13883E+00  2.94524E+00  2.70059E+00 -6.27838E-02 F
  6.50000E-01  1.13883E+00  3.14159E+00  2.73078E+00 -4.91344E-02 F
  6.50000E-01  1.13883E+00  3.33794E+00  2.75221E+00 -3.00401E-02 F
  6.50000E-01  1.13883E+00  3.53429E+00  2.76326E+00 -1.13280E-02 F
  6.50000E-01  1.13883E+00  3.73064E+00  2.76529E+00  3.19832E-03 F
  6.50000E-01  1.13883E+00  3.92699E+00  2.76011E+00  1.59957E-02 F
  6.50000E-01  1.13883E+00  4.12334E+00  2.74759E+00  3.07463E-02 F
  6.50000E-01  1.13883E+00  4.31969E+00  2.72679E+00  4.63991E-02 F
  6.50000E-01  1.13883E+00  4.51604E+00  2.69879E+00  5.77841E-02 F
  6.50000E-01  1.13883E+00  4.71239E+00  2.66616E+00  6.60699E-02 F
  6.50000E-01  1.13883E+00  4.90874E+00  2.62969E+00  7.41783E-02 F
  6.50000E-01  1.13883E+00  5.10509E+00  2.58902E+00  8.60599E-02 F
  6.50000E-01  1.13883E+00  5.30144E+00  2.54079E+00  1.05987E-01 F
  6.50000E-01  1.13883E+00  5.49779E+00  2.48437E+00  1.20897E-01 F
  6.50000E-01  1.13883E+00  5.69414E+00  2.42492E+00  1.23714E-01 F
  6.50000E-01  1.13883E+00  5.89049E+00  2.36879E+00  1.11954E-01 F
  6.50000E-01  1.13883E+00  6.08684E+00  2.32395E+00  7.87781E-02 F
  6.50000E-01  1.17810E+00  0.00000E+00  2.32928E+00  2.53756E-02 F
  6.50000E-01  1.17810E+00  1.96350E-01  2.32407E+00 -2.08104E-03 F
  6.50000E-01  1.17810E+00  3.92699E-01  2.33123E+00 -2.80097E-02 F
  6.50000E-01  1.17810E+00  5.89049E-01  2.34732E+00 -4.01138E-02 F
  6.50000E-01  1.17810E+00  7.85398E-01  2.36875E+00 -5.41007E-02 F
  6.50000E-01  1.17810E+00  9.81748E-01  2.39778E+00 -6.84503E-02 F
  6.50000E-01  1.17810E+00  1.17810E+00  2.43203E+00 -7.53381E-02 F
  6.50000E-01  1.17810E+00  1.37445E+00  2.46903E+00 -7.73005E-02 F
  6.50000E-01  1.17810E+00  1.57080E+00  2.50591E+00 -7.30986E-02 F
  6.50000E-01  1.17810E+00  1.76715E+00  2.54073E+00 -6.74848E-02 F
  6.50000E-01  1.17810E+00  1.96350E+00  2.57337E+00 -6.27353E-02 F
  6.50000E-01  1.17810E+00  2.15985E+00  2.60432E+00 -5.94537E-02 F
  6.50000E-01  1.17810E+00  2.35619E+00  2.63500E+00 -6.08783E-02 F
  6.50000E-01  1.17810E+00  2.55254E+00  2.66789E+00 -6.51684E-02 F
  6.50000E-01  1.17810E+00  2.74889E+00  2.70236E+00 -6.44296E-02 F
  6.50000E-01  1.17810E+00  2.94524E+00  2.73490E+00 -5.60860E-02 F
  6.50000E-01  1.17810E+00  3.14159E+00  2.76084E+00 -3.84874E-02 F
  6.50000E-01  1.17810E+00  3.33794E+00  2.77529E+00 -1.43061E-02 F
  6.50000E-01  1.17810E+00  3.53429E+00  2.77703E+00  6.64770E-03 F
  6.50000E-01  1.17810E+00  3.73064E+00  2.76938E+00  2.05984E-02 F
  6.50000E-01  1.17810E+00  3.92699E+00  2.75526E+00  3.10158E-02 F
  6.50000E-01  1.17810E+00  4.12334E+00  2.73619E+00  3.96846E-02 F
  6.50000E-01  1.17810E+00  4.31969E+00  2.71252E+00  4.88064E-02 F
  6.50000E-01  1.17810E+00  4.51604E+00  2.68459E+00  5.63081E-02 F
  6.50000E-01  1.17810E+00  4.71239E+00  2.65311E+00  6.40074E-02 F
  6.50000E-01  1.17810E+00  4.90874E+00  2.61805E+00  7.15004E-02 F
  6.50000E-01  1.17810E+00  5.10509E+00  2.57883E+00  8.36254E-02 F
  6.50000E-01  1.17810E+00  5.30144E+00  2.53292E+00  9.85569E-02 F
  6.50000E-01  1.17810E+00  5.49779E+00  2.48236E+00  1.05386E-01 F
  6.50000E-01  1.17810E+00  5.69414E+00  2.43154E+00  1.03683E-01 F
  6.50000E-01  1.17810E+00  5.89049E+00  2.38504E+00  9.08580E-02 F
  6.50000E-01  1.17810E+00  6.08684E+00  2.34893E+00  6.14687E-02 F
  6.50000E-01  1.21737E+00  0.00000E+00  2.33421E+00  1.72400E-02 F
  6.50000E-01  1.21737E+00  1.96350E-01  2.33216E+00 -9.67979E-03 F
  6.50000E-01  1.21737E+00  3.92699E-01  2.34395E+00 -4.04684E-02 F
  6.50000E-01  1.21737E+00  5.89049E-01  2.36744E+00 -5.97896E-02 F
  6.50000E-01  1.21737E+00  7.85398E-01  2.39950E+00 -7.66708E-02 F
  6.50000E-01  1.21737E+00  9.81748E-01  2.43784E+00 -8.23509E-02 F
  6.50000E-01  1.21737E+00  1.17810E+00  2.47698E+00 -7.91884E-02 F
  6.50000E-01  1.21737E+00  1.37445E+00  2.51418E+00 -7.21470E-02 F
  6.50000E-01  1.21737E+00  1.57080E+00  2.54837E+00 -6.61785E-02 F
  6.50000E-01  1.21737E+00  1.76715E+00  2.58099E+00 -6.36771E-02 F
  6.50000E-01  1.21737E+00  1.96350E+00  2.61305E+00 -6.21359E-02 F
  6.50000E-01  1.21737E+00  2.15985E+00  2.64471E+00 -6.04810E-02 F
  6.50000E-01  1.21737E+00  2.35619E+00  2.67594E+00 -5.92655E-02 F
  6.50000E-01  1.21737E+00  2.55254E+00  2.70692E+00 -5.76167E-02 F
  6.50000E-01  1.21737E+00  2.74889E+00  2.73652E+00 -5.24157E-02 F
  6.50000E-01  1.21737E+00  2.94524E+00  2.76221E+00 -4.15518E-02 F
  6.50000E-01  1.21737E+00  3.14159E+00  2.77996E+00 -2.22354E-02 F
  6.50000E-01  1.21737E+00  3.33794E+00  2.78550E+00  1.92479E-03 F
  6.50000E-01  1.21737E+00  3.53429E+00  2.77875E+00  2.16536E-02 F
  6.50000E-01  1.21737E+00  3.73064E+00  2.76279E+00  3.65400E-02 F
  6.50000E-01  1.21737E+00  3.92699E+00  2.73981E+00  4.76583E-02 F
  6.50000E-01  1.21737E+00  4.12334E+00  2.71248E+00  5.38685E-02 F
  6.50000E-01  1.21737E+00  4.31969E+00  2.68284E+00  5.78052E-02 F
  6.50000E-01  1.21737E+00  4.51604E+00  2.65166E+00  6.14831E-02 F
  6.50000E-01  1.21737E+00  4.71239E+00  2.61857E+00  6.64453E-02 F
  6.50000E-01  1.21737E+00  4.90874E+00  2.58332E+00  7.22812E-02 F
  6.50000E-01  1.21737E+00  5.10509E+00  2.54405E+00  8.45089E-02 F
  6.50000E-01  1.21737E+00  5.30144E+00  2.49976E+00  9.26289E-02 F
  6.50000E-01  1.21737E+00  5.49779E+00  2.45447E+00  9.26455E-02 F
  6.50000E-01  1.21737E+00  5.69414E+00  2.41172E+00  8.47509E-02 F
  6.50000E-01  1.21737E+00  5.89049E+00  2.37522E+00  6.96099E-02 F
  6.50000E-01  1.21737E+00  6.08684E+00  2.34823E+00  4.48086E-02 F
