s \zeta_{Boozer}  \theta_{Boozer}(right-handed)  B[T]  (v_B.\nabla\psi)[A.U.]
  9.50000E-01  0.00000E+00  0.00000E+00  2.28293E+00  0.00000E+00 F
  9.50000E-01  0.00000E+00  1.96350E-01  2.28895E+00 -2.96984E-02 F
  9.50000E-01  0.00000E+00  3.92699E-01  2.31112E+00 -6.78105E-02 F
  9.50000E-01  0.00000E+00  5.89049E-01  2.35054E+00 -1.05117E-01 F
  9.50000E-01  0.00000E+00  7.85398E-01  2.40636E+00 -1.27496E-01 F
  9.50000E-01  0.00000E+00  9.81748E-01  2.46483E+00 -1.13287E-01 F
  9.50000E-01  0.00000E+00  1.17810E+00  2.51437E+00 -8.84448E-02 F
  9.50000E-01  0.00000E+00  1.37445E+00  2.55169E+00 -6.34167E-02 F
  9.50000E-01  0.00000E+00  1.57080E+00  2.58147E+00 -5.85289E-02 F
  9.50000E-01  0.00000E+00  1.76715E+00  2.61320E+00 -6.67679E-02 F
  9.50000E-01  0.00000E+00  1.96350E+00  2.65096E+00 -8.03412E-02 F
  9.50000E-01  0.00000E+00  2.15985E+00  2.69704E+00 -9.36744E-02 F
  9.50000E-01  0.00000E+00  2.35619E+00  2.74721E+00 -9.08590E-02 F
  9.50000E-01  0.00000E+00  2.55254E+00  2.79259E+00 -7.51612E-02 F
  9.50000E-01  0.00000E+00  2.74889E+00  2.82923E+00 -5.71505E-02 F
  9.50000E-01  0.00000E+00  2.94524E+00  2.85459E+00 -3.20678E-02 F
  9.50000E-01  0.00000E+00  3.14159E+00  2.86373E+00  1.47156E-08 F
  9.50000E-01  0.00000E+00  3.33794E+00  2.85459E+00  3.20679E-02 F
  9.50000E-01  0.00000E+00  3.53429E+00  2.82923E+00  5.71506E-02 F
  9.50000E-01  0.00000E+00  3.73064E+00  2.79259E+00  7.51612E-02 F
  9.50000E-01  0.00000E+00  3.92699E+00  2.74721E+00  9.08590E-02 F
  9.50000E-01  0.00000E+00  4.12334E+00  2.69704E+00  9.36744E-02 F
  9.50000E-01  0.00000E+00  4.31969E+00  2.65096E+00  8.03411E-02 F
  9.50000E-01  0.00000E+00  4.51604E+00  2.61320E+00  6.67679E-02 F
  9.50000E-01  0.00000E+00  4.71239E+00  2.58147E+00  5.85289E-02 F
  9.50000E-01  0.00000E+00  4.90874E+00  2.55169E+00  6.34167E-02 F
  9.50000E-01  0.00000E+00  5.10509E+00  2.51437E+00  8.84448E-02 F
  9.50000E-01  0.00000E+00  5.30144E+00  2.46483E+00  1.13287E-01 F
  9.50000E-01  0.00000E+00  5.49779E+00  2.40636E+00  1.27496E-01 F
  9.50000E-01  0.00000E+00  5.69414E+00  2.35054E+00  1.05117E-01 F
  9.50000E-01  0.00000E+00  5.89049E+00  2.31112E+00  6.78104E-02 F
  9.50000E-01  0.00000E+00  6.08684E+00  2.28895E+00  2.96983E-02 F
  9.50000E-01  3.92699E-02  0.00000E+00  2.30877E+00 -1.93272E-02 F
  9.50000E-01  3.92699E-02  1.96350E-01  2.32622E+00 -5.87638E-02 F
  9.50000E-01  3.92699E-02  3.92699E-01  2.36046E+00 -8.67633E-02 F
  9.50000E-01  3.92699E-02  5.89049E-01  2.40651E+00 -1.10680E-01 F
  9.50000E-01  3.92699E-02  7.85398E-01  2.46254E+00 -1.18237E-01 F
  9.50000E-01  3.92699E-02  9.81748E-01  2.51743E+00 -1.05650E-01 F
  9.50000E-01  3.92699E-02  1.17810E+00  2.56641E+00 -8.95866E-02 F
  9.50000E-01  3.92699E-02  1.37445E+00  2.60749E+00 -7.36553E-02 F
  9.50000E-01  3.92699E-02  1.57080E+00  2.64343E+00 -6.65907E-02 F
  9.50000E-01  3.92699E-02  1.76715E+00  2.67680E+00 -6.15650E-02 F
  9.50000E-01  3.92699E-02  1.96350E+00  2.70922E+00 -6.26318E-02 F
  9.50000E-01  3.92699E-02  2.15985E+00  2.74509E+00 -7.19551E-02 F
  9.50000E-01  3.92699E-02  2.35619E+00  2.78543E+00 -7.35843E-02 F
  9.50000E-01  3.92699E-02  2.55254E+00  2.82221E+00 -5.82616E-02 F
  9.50000E-01  3.92699E-02  2.74889E+00  2.84910E+00 -3.73645E-02 F
  9.50000E-01  3.92699E-02  2.94524E+00  2.86146E+00 -4.18377E-03 F
  9.50000E-01  3.92699E-02  3.14159E+00  2.85284E+00  3.35861E-02 F
  9.50000E-01  3.92699E-02  3.33794E+00  2.82651E+00  5.86257E-02 F
  9.50000E-01  3.92699E-02  3.53429E+00  2.78989E+00  7.24736E-02 F
  9.50000E-01  3.92699E-02  3.73064E+00  2.74923E+00  7.53481E-02 F
  9.50000E-01  3.92699E-02  3.92699E+00  2.70942E+00  7.35042E-02 F
  9.50000E-01  3.92699E-02  4.12334E+00  2.67044E+00  7.40983E-02 F
  9.50000E-01  3.92699E-02  4.31969E+00  2.63243E+00  7.11672E-02 F
  9.50000E-01  3.92699E-02  4.51604E+00  2.59705E+00  6.68709E-02 F
  9.50000E-01  3.92699E-02  4.71239E+00  2.56378E+00  6.53348E-02 F
  9.50000E-01  3.92699E-02  4.90874E+00  2.52957E+00  7.36361E-02 F
  9.50000E-01  3.92699E-02  5.10509E+00  2.48956E+00  8.84966E-02 F
  9.50000E-01  3.92699E-02  5.30144E+00  2.44381E+00  9.99988E-02 F
  9.50000E-01  3.92699E-02  5.49779E+00  2.39500E+00  1.02053E-01 F
  9.50000E-01  3.92699E-02  5.69414E+00  2.35154E+00  8.18823E-02 F
  9.50000E-01  3.92699E-02  5.89049E+00  2.32053E+00  5.11889E-02 F
  9.50000E-01  3.92699E-02  6.08684E+00  2.30662E+00  1.05335E-02 F
  9.50000E-01  7.85398E-02  0.00000E+00  2.30477E+00 -2.95171E-02 F
  9.50000E-01  7.85398E-02  1.96350E-01  2.33001E+00 -8.21085E-02 F
  9.50000E-01  7.85398E-02  3.92699E-01  2.37751E+00 -1.20055E-01 F
  9.50000E-01  7.85398E-02  5.89049E-01  2.43988E+00 -1.39434E-01 F
  9.50000E-01  7.85398E-02  7.85398E-01  2.50571E+00 -1.27625E-01 F
  9.50000E-01  7.85398E-02  9.81748E-01  2.56457E+00 -1.09592E-01 F
  9.50000E-01  7.85398E-02  1.17810E+00  2.61552E+00 -9.01791E-02 F
  9.50000E-01  7.85398E-02  1.37445E+00  2.65791E+00 -7.53545E-02 F
  9.50000E-01  7.85398E-02  1.57080E+00  2.69529E+00 -6.73823E-02 F
  9.50000E-01  7.85398E-02  1.76715E+00  2.72954E+00 -6.13332E-02 F
  9.50000E-01  7.85398E-02  1.96350E+00  2.76065E+00 -5.38810E-02 F
  9.50000E-01  7.85398E-02  2.15985E+00  2.78866E+00 -5.01459E-02 F
  9.50000E-01  7.85398E-02  2.35619E+00  2.81573E+00 -4.69188E-02 F
  9.50000E-01  7.85398E-02  2.55254E+00  2.83854E+00 -3.39538E-02 F
  9.50000E-01  7.85398E-02  2.74889E+00  2.85237E+00 -1.38785E-02 F
  9.50000E-01  7.85398E-02  2.94524E+00  2.85123E+00  2.02808E-02 F
  9.50000E-01  7.85398E-02  3.14159E+00  2.82917E+00  5.73599E-02 F
  9.50000E-01  7.85398E-02  3.33794E+00  2.79048E+00  8.01139E-02 F
  9.50000E-01  7.85398E-02  3.53429E+00  2.74440E+00  8.68014E-02 F
  9.50000E-01  7.85398E-02  3.73064E+00  2.70006E+00  7.63060E-02 F
  9.50000E-01  7.85398E-02  3.92699E+00  2.66479E+00  5.83945E-02 F
  9.50000E-01  7.85398E-02  4.12334E+00  2.63644E+00  5.33682E-02 F
  9.50000E-01  7.85398E-02  4.31969E+00  2.60722E+00  6.17968E-02 F
  9.50000E-01  7.85398E-02  4.51604E+00  2.57202E+00  7.73236E-02 F
  9.50000E-01  7.85398E-02  4.71239E+00  2.52941E+00  9.18023E-02 F
  9.50000E-01  7.85398E-02  4.90874E+00  2.48243E+00  9.75422E-02 F
  9.50000E-01  7.85398E-02  5.10509E+00  2.43558E+00  9.57966E-02 F
  9.50000E-01  7.85398E-02  5.30144E+00  2.39131E+00  8.96228E-02 F
  9.50000E-01  7.85398E-02  5.49779E+00  2.35398E+00  6.80027E-02 F
  9.50000E-01  7.85398E-02  5.69414E+00  2.32776E+00  4.92176E-02 F
  9.50000E-01  7.85398E-02  5.89049E+00  2.30816E+00  3.39102E-02 F
  9.50000E-01  7.85398E-02  6.08684E+00  2.29962E+00  3.71907E-03 F
  9.50000E-01  1.17810E-01  0.00000E+00  2.26409E+00 -4.23487E-02 F
  9.50000E-01  1.17810E-01  1.96350E-01  2.29734E+00 -1.06769E-01 F
  9.50000E-01  1.17810E-01  3.92699E-01  2.35864E+00 -1.57447E-01 F
  9.50000E-01  1.17810E-01  5.89049E-01  2.43794E+00 -1.70802E-01 F
  9.50000E-01  1.17810E-01  7.85398E-01  2.51512E+00 -1.43315E-01 F
  9.50000E-01  1.17810E-01  9.81748E-01  2.57852E+00 -1.10256E-01 F
  9.50000E-01  1.17810E-01  1.17810E+00  2.62688E+00 -8.12343E-02 F
  9.50000E-01  1.17810E-01  1.37445E+00  2.66581E+00 -7.16921E-02 F
  9.50000E-01  1.17810E-01  1.57080E+00  2.70333E+00 -7.10534E-02 F
  9.50000E-01  1.17810E-01  1.76715E+00  2.74157E+00 -7.18956E-02 F
  9.50000E-01  1.17810E-01  1.96350E+00  2.77946E+00 -6.59173E-02 F
  9.50000E-01  1.17810E-01  2.15985E+00  2.81134E+00 -4.90062E-02 F
  9.50000E-01  1.17810E-01  2.35619E+00  2.83296E+00 -2.90240E-02 F
  9.50000E-01  1.17810E-01  2.55254E+00  2.84359E+00 -8.95758E-03 F
  9.50000E-01  1.17810E-01  2.74889E+00  2.84237E+00  1.41847E-02 F
  9.50000E-01  1.17810E-01  2.94524E+00  2.82688E+00  4.19190E-02 F
  9.50000E-01  1.17810E-01  3.14159E+00  2.79618E+00  6.84634E-02 F
  9.50000E-01  1.17810E-01  3.33794E+00  2.75356E+00  8.57577E-02 F
  9.50000E-01  1.17810E-01  3.53429E+00  2.70614E+00  8.89963E-02 F
  9.50000E-01  1.17810E-01  3.73064E+00  2.66095E+00  8.09726E-02 F
  9.50000E-01  1.17810E-01  3.92699E+00  2.62225E+00  6.85819E-02 F
  9.50000E-01  1.17810E-01  4.12334E+00  2.58878E+00  6.43241E-02 F
  9.50000E-01  1.17810E-01  4.31969E+00  2.55492E+00  7.13058E-02 F
  9.50000E-01  1.17810E-01  4.51604E+00  2.51622E+00  8.48948E-02 F
  9.50000E-01  1.17810E-01  4.71239E+00  2.47072E+00  1.01141E-01 F
  9.50000E-01  1.17810E-01  4.90874E+00  2.41872E+00  1.14096E-01 F
  9.50000E-01  1.17810E-01  5.10509E+00  2.36450E+00  1.14203E-01 F
  9.50000E-01  1.17810E-01  5.30144E+00  2.31550E+00  9.48752E-02 F
  9.50000E-01  1.17810E-01  5.49779E+00  2.28183E+00  5.26484E-02 F
  9.50000E-01  1.17810E-01  5.69414E+00  2.26549E+00  2.58205E-02 F
  9.50000E-01  1.17810E-01  5.89049E+00  2.25673E+00  1.27078E-02 F
  9.50000E-01  1.17810E-01  6.08684E+00  2.25499E+00 -5.17512E-03 F
  9.50000E-01  1.57080E-01  0.00000E+00  2.29940E+00 -6.64281E-02 F
  9.50000E-01  1.57080E-01  1.96350E-01  2.34003E+00 -1.10375E-01 F
  9.50000E-01  1.57080E-01  3.92699E-01  2.39901E+00 -1.40089E-01 F
  9.50000E-01  1.57080E-01  5.89049E-01  2.46747E+00 -1.40477E-01 F
  9.50000E-01  1.57080E-01  7.85398E-01  2.53146E+00 -1.19647E-01 F
  9.50000E-01  1.57080E-01  9.81748E-01  2.58614E+00 -9.76877E-02 F
  9.50000E-01  1.57080E-01  1.17810E+00  2.63105E+00 -7.98866E-02 F
  9.50000E-01  1.57080E-01  1.37445E+00  2.67133E+00 -7.66083E-02 F
  9.50000E-01  1.57080E-01  1.57080E+00  2.71186E+00 -7.65376E-02 F
  9.50000E-01  1.57080E-01  1.76715E+00  2.75260E+00 -7.49736E-02 F
  9.50000E-01  1.57080E-01  1.96350E+00  2.79143E+00 -6.51895E-02 F
  9.50000E-01  1.57080E-01  2.15985E+00  2.82097E+00 -4.01773E-02 F
  9.50000E-01  1.57080E-01  2.35619E+00  2.83522E+00 -1.13049E-02 F
  9.50000E-01  1.57080E-01  2.55254E+00  2.83338E+00  1.82525E-02 F
  9.50000E-01  1.57080E-01  2.74889E+00  2.81509E+00  4.69097E-02 F
  9.50000E-01  1.57080E-01  2.94524E+00  2.78335E+00  6.65473E-02 F
  9.50000E-01  1.57080E-01  3.14159E+00  2.74449E+00  7.51597E-02 F
  9.50000E-01  1.57080E-01  3.33794E+00  2.70388E+00  7.51688E-02 F
  9.50000E-01  1.57080E-01  3.53429E+00  2.66623E+00  6.66586E-02 F
  9.50000E-01  1.57080E-01  3.73064E+00  2.63400E+00  5.81759E-02 F
  9.50000E-01  1.57080E-01  3.92699E+00  2.60468E+00  5.71679E-02 F
  9.50000E-01  1.57080E-01  4.12334E+00  2.57437E+00  6.30064E-02 F
  9.50000E-01  1.57080E-01  4.31969E+00  2.54034E+00  7.29005E-02 F
  9.50000E-01  1.57080E-01  4.51604E+00  2.50168E+00  8.32014E-02 F
  9.50000E-01  1.57080E-01  4.71239E+00  2.45850E+00  9.46119E-02 F
  9.50000E-01  1.57080E-01  4.90874E+00  2.41046E+00  1.05068E-01 F
  9.50000E-01  1.57080E-01  5.10509E+00  2.36147E+00  1.01240E-01 F
  9.50000E-01  1.57080E-01  5.30144E+00  2.31888E+00  8.13690E-02 F
  9.50000E-01  1.57080E-01  5.49779E+00  2.28957E+00  4.72313E-02 F
  9.50000E-01  1.57080E-01  5.69414E+00  2.27500E+00  1.98307E-02 F
  9.50000E-01  1.57080E-01  5.89049E+00  2.27144E+00 -4.40774E-03 F
  9.50000E-01  1.57080E-01  6.08684E+00  2.27881E+00 -2.87102E-02 F
  9.50000E-01  1.96350E-01  0.00000E+00  2.34358E+00 -9.03378E-02 F
  9.50000E-01  1.96350E-01  1.96350E-01  2.39073E+00 -1.09535E-01 F
  9.50000E-01  1.96350E-01  3.92699E-01  2.44409E+00 -1.12875E-01 F
  9.50000E-01  1.96350E-01  5.89049E-01  2.49686E+00 -1.03551E-01 F
  9.50000E-01  1.96350E-01  7.85398E-01  2.54608E+00 -9.64387E-02 F
  9.50000E-01  1.96350E-01  9.81748E-01  2.59336E+00 -9.04518E-02 F
  9.50000E-01  1.96350E-01  1.17810E+00  2.63817E+00 -8.46269E-02 F
  9.50000E-01  1.96350E-01  1.37445E+00  2.68154E+00 -8.17547E-02 F
  9.50000E-01  1.96350E-01  1.57080E+00  2.72418E+00 -7.83852E-02 F
  9.50000E-01  1.96350E-01  1.76715E+00  2.76429E+00 -6.91506E-02 F
  9.50000E-01  1.96350E-01  1.96350E+00  2.79729E+00 -4.98989E-02 F
  9.50000E-01  1.96350E-01  2.15985E+00  2.81776E+00 -2.41312E-02 F
  9.50000E-01  1.96350E-01  2.35619E+00  2.82342E+00  4.98340E-03 F
  9.50000E-01  1.96350E-01  2.55254E+00  2.81078E+00  4.10455E-02 F
  9.50000E-01  1.96350E-01  2.74889E+00  2.77928E+00  7.21574E-02 F
  9.50000E-01  1.96350E-01  2.94524E+00  2.73441E+00  9.08753E-02 F
  9.50000E-01  1.96350E-01  3.14159E+00  2.68541E+00  9.00177E-02 F
  9.50000E-01  1.96350E-01  3.33794E+00  2.64201E+00  7.43179E-02 F
  9.50000E-01  1.96350E-01  3.53429E+00  2.60899E+00  5.39279E-02 F
  9.50000E-01  1.96350E-01  3.73064E+00  2.58540E+00  4.07366E-02 F
  9.50000E-01  1.96350E-01  3.92699E+00  2.56505E+00  4.23803E-02 F
  9.50000E-01  1.96350E-01  4.12334E+00  2.54030E+00  5.83111E-02 F
  9.50000E-01  1.96350E-01  4.31969E+00  2.50614E+00  7.91946E-02 F
  9.50000E-01  1.96350E-01  4.51604E+00  2.46399E+00  9.12933E-02 F
  9.50000E-01  1.96350E-01  4.71239E+00  2.41984E+00  9.15066E-02 F
  9.50000E-01  1.96350E-01  4.90874E+00  2.37781E+00  8.60736E-02 F
  9.50000E-01  1.96350E-01  5.10509E+00  2.34050E+00  7.39910E-02 F
  9.50000E-01  1.96350E-01  5.30144E+00  2.31050E+00  5.61228E-02 F
  9.50000E-01  1.96350E-01  5.49779E+00  2.29080E+00  3.03173E-02 F
  9.50000E-01  1.96350E-01  5.69414E+00  2.28323E+00  3.00034E-03 F
  9.50000E-01  1.96350E-01  5.89049E+00  2.28905E+00 -2.94521E-02 F
  9.50000E-01  1.96350E-01  6.08684E+00  2.30927E+00 -5.96636E-02 F
  9.50000E-01  2.35619E-01  0.00000E+00  2.33104E+00 -1.17995E-01 F
  9.50000E-01  2.35619E-01  1.96350E-01  2.38893E+00 -1.27252E-01 F
  9.50000E-01  2.35619E-01  3.92699E-01  2.44654E+00 -1.12639E-01 F
  9.50000E-01  2.35619E-01  5.89049E-01  2.49632E+00 -9.37943E-02 F
  9.50000E-01  2.35619E-01  7.85398E-01  2.53973E+00 -8.24643E-02 F
  9.50000E-01  2.35619E-01  9.81748E-01  2.57931E+00 -7.68349E-02 F
  9.50000E-01  2.35619E-01  1.17810E+00  2.61950E+00 -8.16021E-02 F
  9.50000E-01  2.35619E-01  1.37445E+00  2.66318E+00 -8.64166E-02 F
  9.50000E-01  2.35619E-01  1.57080E+00  2.70943E+00 -8.79852E-02 F
  9.50000E-01  2.35619E-01  1.76715E+00  2.75457E+00 -7.70957E-02 F
  9.50000E-01  2.35619E-01  1.96350E+00  2.78882E+00 -4.61624E-02 F
  9.50000E-01  2.35619E-01  2.15985E+00  2.80454E+00 -1.22144E-02 F
  9.50000E-01  2.35619E-01  2.35619E+00  2.80265E+00  1.97650E-02 F
  9.50000E-01  2.35619E-01  2.55254E+00  2.78265E+00  5.21324E-02 F
  9.50000E-01  2.35619E-01  2.74889E+00  2.74730E+00  7.73462E-02 F
  9.50000E-01  2.35619E-01  2.94524E+00  2.70016E+00  9.73219E-02 F
  9.50000E-01  2.35619E-01  3.14159E+00  2.64695E+00  1.02561E-01 F
  9.50000E-01  2.35619E-01  3.33794E+00  2.59596E+00  9.38923E-02 F
  9.50000E-01  2.35619E-01  3.53429E+00  2.55200E+00  8.01112E-02 F
  9.50000E-01  2.35619E-01  3.73064E+00  2.51481E+00  7.07855E-02 F
  9.50000E-01  2.35619E-01  3.92699E+00  2.48025E+00  7.22648E-02 F
  9.50000E-01  2.35619E-01  4.12334E+00  2.44303E+00  8.19619E-02 F
  9.50000E-01  2.35619E-01  4.31969E+00  2.40242E+00  8.78209E-02 F
  9.50000E-01  2.35619E-01  4.51604E+00  2.36075E+00  8.99124E-02 F
  9.50000E-01  2.35619E-01  4.71239E+00  2.31994E+00  8.63454E-02 F
  9.50000E-01  2.35619E-01  4.90874E+00  2.28346E+00  7.32905E-02 F
  9.50000E-01  2.35619E-01  5.10509E+00  2.25560E+00  5.05369E-02 F
  9.50000E-01  2.35619E-01  5.30144E+00  2.23918E+00  2.36592E-02 F
  9.50000E-01  2.35619E-01  5.49779E+00  2.23426E+00  1.56069E-04 F
  9.50000E-01  2.35619E-01  5.69414E+00  2.23832E+00 -1.96340E-02 F
  9.50000E-01  2.35619E-01  5.89049E+00  2.25350E+00 -5.10154E-02 F
  9.50000E-01  2.35619E-01  6.08684E+00  2.28418E+00 -8.67582E-02 F
  9.50000E-01  2.74889E-01  0.00000E+00  2.34542E+00 -1.14060E-01 F
  9.50000E-01  2.74889E-01  1.96350E-01  2.39812E+00 -1.07930E-01 F
  9.50000E-01  2.74889E-01  3.92699E-01  2.44411E+00 -8.49855E-02 F
  9.50000E-01  2.74889E-01  5.89049E-01  2.48132E+00 -7.17283E-02 F
  9.50000E-01  2.74889E-01  7.85398E-01  2.51536E+00 -6.73820E-02 F
  9.50000E-01  2.74889E-01  9.81748E-01  2.54912E+00 -7.09065E-02 F
  9.50000E-01  2.74889E-01  1.17810E+00  2.58831E+00 -8.49142E-02 F
  9.50000E-01  2.74889E-01  1.37445E+00  2.63512E+00 -9.70484E-02 F
  9.50000E-01  2.74889E-01  1.57080E+00  2.68780E+00 -1.02644E-01 F
  9.50000E-01  2.74889E-01  1.76715E+00  2.73974E+00 -8.71254E-02 F
  9.50000E-01  2.74889E-01  1.96350E+00  2.77550E+00 -4.13199E-02 F
  9.50000E-01  2.74889E-01  2.15985E+00  2.78400E+00  8.45981E-03 F
  9.50000E-01  2.74889E-01  2.35619E+00  2.76840E+00  4.67248E-02 F
  9.50000E-01  2.74889E-01  2.55254E+00  2.73649E+00  6.79813E-02 F
  9.50000E-01  2.74889E-01  2.74889E+00  2.69790E+00  7.59858E-02 F
  9.50000E-01  2.74889E-01  2.94524E+00  2.65601E+00  8.35189E-02 F
  9.50000E-01  2.74889E-01  3.14159E+00  2.61105E+00  8.97617E-02 F
  9.50000E-01  2.74889E-01  3.33794E+00  2.56505E+00  9.02649E-02 F
  9.50000E-01  2.74889E-01  3.53429E+00  2.52046E+00  8.85862E-02 F
  9.50000E-01  2.74889E-01  3.73064E+00  2.47713E+00  8.80191E-02 F
  9.50000E-01  2.74889E-01  3.92699E+00  2.43492E+00  8.69603E-02 F
  9.50000E-01  2.74889E-01  4.12334E+00  2.39435E+00  8.34701E-02 F
  9.50000E-01  2.74889E-01  4.31969E+00  2.35655E+00  7.94172E-02 F
  9.50000E-01  2.74889E-01  4.51604E+00  2.32011E+00  7.89959E-02 F
  9.50000E-01  2.74889E-01  4.71239E+00  2.28609E+00  6.92261E-02 F
  9.50000E-01  2.74889E-01  4.90874E+00  2.25929E+00  5.02778E-02 F
  9.50000E-01  2.74889E-01  5.10509E+00  2.24133E+00  3.13140E-02 F
  9.50000E-01  2.74889E-01  5.30144E+00  2.23180E+00  1.15611E-02 F
  9.50000E-01  2.74889E-01  5.49779E+00  2.23127E+00 -8.74021E-03 F
  9.50000E-01  2.74889E-01  5.69414E+00  2.23979E+00 -3.17466E-02 F
  9.50000E-01  2.74889E-01  5.89049E+00  2.26087E+00 -6.44760E-02 F
  9.50000E-01  2.74889E-01  6.08684E+00  2.29690E+00 -9.55186E-02 F
  9.50000E-01  3.14159E-01  0.00000E+00  2.37887E+00 -7.35248E-02 F
  9.50000E-01  3.14159E-01  1.96350E-01  2.40896E+00 -5.44208E-02 F
  9.50000E-01  3.14159E-01  3.92699E-01  2.43181E+00 -4.49429E-02 F
  9.50000E-01  3.14159E-01  5.89049E-01  2.45534E+00 -5.56696E-02 F
  9.50000E-01  3.14159E-01  7.85398E-01  2.48610E+00 -7.06996E-02 F
  9.50000E-01  3.14159E-01  9.81748E-01  2.52453E+00 -8.59405E-02 F
  9.50000E-01  3.14159E-01  1.17810E+00  2.57124E+00 -1.00041E-01 F
  9.50000E-01  3.14159E-01  1.37445E+00  2.62470E+00 -1.08253E-01 F
  9.50000E-01  3.14159E-01  1.57080E+00  2.68056E+00 -1.03083E-01 F
  9.50000E-01  3.14159E-01  1.76715E+00  2.72871E+00 -7.33447E-02 F
  9.50000E-01  3.14159E-01  1.96350E+00  2.75429E+00 -1.93599E-02 F
  9.50000E-01  3.14159E-01  2.15985E+00  2.74934E+00  3.66098E-02 F
  9.50000E-01  3.14159E-01  2.35619E+00  2.71682E+00  8.16930E-02 F
  9.50000E-01  3.14159E-01  2.55254E+00  2.66701E+00  1.01952E-01 F
  9.50000E-01  3.14159E-01  2.74889E+00  2.61440E+00  9.78993E-02 F
  9.50000E-01  3.14159E-01  2.94524E+00  2.56830E+00  8.28177E-02 F
  9.50000E-01  3.14159E-01  3.14159E+00  2.53034E+00  6.94730E-02 F
  9.50000E-01  3.14159E-01  3.33794E+00  2.49887E+00  5.83317E-02 F
  9.50000E-01  3.14159E-01  3.53429E+00  2.47222E+00  5.20909E-02 F
  9.50000E-01  3.14159E-01  3.73064E+00  2.44711E+00  5.30024E-02 F
  9.50000E-01  3.14159E-01  3.92699E+00  2.42045E+00  5.90790E-02 F
  9.50000E-01  3.14159E-01  4.12334E+00  2.39102E+00  6.51733E-02 F
  9.50000E-01  3.14159E-01  4.31969E+00  2.35969E+00  6.85668E-02 F
  9.50000E-01  3.14159E-01  4.51604E+00  2.32846E+00  6.58309E-02 F
  9.50000E-01  3.14159E-01  4.71239E+00  2.30018E+00  5.85604E-02 F
  9.50000E-01  3.14159E-01  4.90874E+00  2.27557E+00  5.04095E-02 F
  9.50000E-01  3.14159E-01  5.10509E+00  2.25635E+00  3.38355E-02 F
  9.50000E-01  3.14159E-01  5.30144E+00  2.24766E+00  3.51902E-03 F
  9.50000E-01  3.14159E-01  5.49779E+00  2.25374E+00 -3.04363E-02 F
  9.50000E-01  3.14159E-01  5.69414E+00  2.27394E+00 -5.93657E-02 F
  9.50000E-01  3.14159E-01  5.89049E+00  2.30517E+00 -7.71760E-02 F
  9.50000E-01  3.14159E-01  6.08684E+00  2.34204E+00 -8.25875E-02 F
  9.50000E-01  3.53429E-01  0.00000E+00  2.37861E+00 -4.84423E-02 F
  9.50000E-01  3.53429E-01  1.96350E-01  2.39542E+00 -2.58568E-02 F
  9.50000E-01  3.53429E-01  3.92699E-01  2.40615E+00 -2.36629E-02 F
  9.50000E-01  3.53429E-01  5.89049E-01  2.42142E+00 -4.35150E-02 F
  9.50000E-01  3.53429E-01  7.85398E-01  2.44866E+00 -7.04406E-02 F
  9.50000E-01  3.53429E-01  9.81748E-01  2.48900E+00 -9.52753E-02 F
  9.50000E-01  3.53429E-01  1.17810E+00  2.54082E+00 -1.13079E-01 F
  9.50000E-01  3.53429E-01  1.37445E+00  2.59987E+00 -1.17965E-01 F
  9.50000E-01  3.53429E-01  1.57080E+00  2.65743E+00 -1.01020E-01 F
  9.50000E-01  3.53429E-01  1.76715E+00  2.70078E+00 -6.01985E-02 F
  9.50000E-01  3.53429E-01  1.96350E+00  2.71871E+00 -6.67161E-03 F
  9.50000E-01  3.53429E-01  2.15985E+00  2.70795E+00  4.69182E-02 F
  9.50000E-01  3.53429E-01  2.35619E+00  2.66989E+00  9.53459E-02 F
  9.50000E-01  3.53429E-01  2.55254E+00  2.61132E+00  1.27248E-01 F
  9.50000E-01  3.53429E-01  2.74889E+00  2.54398E+00  1.33555E-01 F
  9.50000E-01  3.53429E-01  2.94524E+00  2.48278E+00  1.11023E-01 F
  9.50000E-01  3.53429E-01  3.14159E+00  2.43679E+00  7.95963E-02 F
  9.50000E-01  3.53429E-01  3.33794E+00  2.40554E+00  5.31858E-02 F
  9.50000E-01  3.53429E-01  3.53429E+00  2.38477E+00  3.74281E-02 F
  9.50000E-01  3.53429E-01  3.73064E+00  2.36801E+00  3.67283E-02 F
  9.50000E-01  3.53429E-01  3.92699E+00  2.34971E+00  4.19929E-02 F
  9.50000E-01  3.53429E-01  4.12334E+00  2.32953E+00  4.64403E-02 F
  9.50000E-01  3.53429E-01  4.31969E+00  2.30628E+00  5.64283E-02 F
  9.50000E-01  3.53429E-01  4.51604E+00  2.27869E+00  6.52842E-02 F
  9.50000E-01  3.53429E-01  4.71239E+00  2.24887E+00  6.74073E-02 F
  9.50000E-01  3.53429E-01  4.90874E+00  2.22130E+00  5.47113E-02 F
  9.50000E-01  3.53429E-01  5.10509E+00  2.20458E+00  1.83491E-02 F
  9.50000E-01  3.53429E-01  5.30144E+00  2.20744E+00 -3.16496E-02 F
  9.50000E-01  3.53429E-01  5.49779E+00  2.23057E+00 -7.19665E-02 F
  9.50000E-01  3.53429E-01  5.69414E+00  2.26816E+00 -9.45025E-02 F
  9.50000E-01  3.53429E-01  5.89049E+00  2.31094E+00 -9.20785E-02 F
  9.50000E-01  3.53429E-01  6.08684E+00  2.34960E+00 -7.53188E-02 F
  9.50000E-01  3.92699E-01  0.00000E+00  2.36803E+00 -1.43531E-02 F
  9.50000E-01  3.92699E-01  1.96350E-01  2.36939E+00  4.24850E-03 F
  9.50000E-01  3.92699E-01  3.92699E-01  2.36775E+00 -9.56049E-04 F
  9.50000E-01  3.92699E-01  5.89049E-01  2.37353E+00 -2.66353E-02 F
  9.50000E-01  3.92699E-01  7.85398E-01  2.39427E+00 -6.28662E-02 F
  9.50000E-01  3.92699E-01  9.81748E-01  2.43297E+00 -9.96235E-02 F
  9.50000E-01  3.92699E-01  1.17810E+00  2.48814E+00 -1.26404E-01 F
  9.50000E-01  3.92699E-01  1.37445E+00  2.55362E+00 -1.33993E-01 F
  9.50000E-01  3.92699E-01  1.57080E+00  2.61706E+00 -1.09797E-01 F
  9.50000E-01  3.92699E-01  1.76715E+00  2.66046E+00 -5.45057E-02 F
  9.50000E-01  3.92699E-01  1.96350E+00  2.67353E+00  2.59942E-03 F
  9.50000E-01  3.92699E-01  2.15985E+00  2.65995E+00  4.73690E-02 F
  9.50000E-01  3.92699E-01  2.35619E+00  2.62641E+00  7.98760E-02 F
  9.50000E-01  3.92699E-01  2.55254E+00  2.57887E+00  1.05811E-01 F
  9.50000E-01  3.92699E-01  2.74889E+00  2.52088E+00  1.22981E-01 F
  9.50000E-01  3.92699E-01  2.94524E+00  2.46069E+00  1.19755E-01 F
  9.50000E-01  3.92699E-01  3.14159E+00  2.40755E+00  1.01030E-01 F
  9.50000E-01  3.92699E-01  3.33794E+00  2.36547E+00  7.88194E-02 F
  9.50000E-01  3.92699E-01  3.53429E+00  2.33366E+00  5.99630E-02 F
  9.50000E-01  3.92699E-01  3.73064E+00  2.30936E+00  4.76987E-02 F
  9.50000E-01  3.92699E-01  3.92699E+00  2.28983E+00  3.95009E-02 F
  9.50000E-01  3.92699E-01  4.12334E+00  2.27238E+00  4.06770E-02 F
  9.50000E-01  3.92699E-01  4.31969E+00  2.25232E+00  4.93601E-02 F
  9.50000E-01  3.92699E-01  4.51604E+00  2.22995E+00  5.08420E-02 F
  9.50000E-01  3.92699E-01  4.71239E+00  2.20856E+00  4.68432E-02 F
  9.50000E-01  3.92699E-01  4.90874E+00  2.19027E+00  3.52948E-02 F
  9.50000E-01  3.92699E-01  5.10509E+00  2.18187E+00 -1.38239E-03 F
  9.50000E-01  3.92699E-01  5.30144E+00  2.19426E+00 -5.61644E-02 F
  9.50000E-01  3.92699E-01  5.49779E+00  2.22821E+00 -9.64137E-02 F
  9.50000E-01  3.92699E-01  5.69414E+00  2.27482E+00 -1.08730E-01 F
  9.50000E-01  3.92699E-01  5.89049E+00  2.32023E+00 -8.83959E-02 F
  9.50000E-01  3.92699E-01  6.08684E+00  2.35289E+00 -5.24479E-02 F
  9.50000E-01  4.31969E-01  0.00000E+00  2.34878E+00  3.96129E-02 F
  9.50000E-01  4.31969E-01  1.96350E-01  2.33094E+00  3.02907E-02 F
  9.50000E-01  4.31969E-01  3.92699E-01  2.32579E+00 -1.00647E-02 F
  9.50000E-01  4.31969E-01  5.89049E-01  2.34017E+00 -5.13524E-02 F
  9.50000E-01  4.31969E-01  7.85398E-01  2.37207E+00 -8.58142E-02 F
  9.50000E-01  4.31969E-01  9.81748E-01  2.41934E+00 -1.13365E-01 F
  9.50000E-01  4.31969E-01  1.17810E+00  2.47791E+00 -1.27851E-01 F
  9.50000E-01  4.31969E-01  1.37445E+00  2.54054E+00 -1.21369E-01 F
  9.50000E-01  4.31969E-01  1.57080E+00  2.59199E+00 -7.55291E-02 F
  9.50000E-01  4.31969E-01  1.76715E+00  2.61202E+00 -2.21717E-03 F
  9.50000E-01  4.31969E-01  1.96350E+00  2.59763E+00  5.30783E-02 F
  9.50000E-01  4.31969E-01  2.15985E+00  2.56355E+00  7.62678E-02 F
  9.50000E-01  4.31969E-01  2.35619E+00  2.52554E+00  7.28692E-02 F
  9.50000E-01  4.31969E-01  2.55254E+00  2.49173E+00  6.57039E-02 F
  9.50000E-01  4.31969E-01  2.74889E+00  2.45979E+00  6.68442E-02 F
  9.50000E-01  4.31969E-01  2.94524E+00  2.42669E+00  7.07526E-02 F
  9.50000E-01  4.31969E-01  3.14159E+00  2.39345E+00  6.85773E-02 F
  9.50000E-01  4.31969E-01  3.33794E+00  2.36284E+00  6.20424E-02 F
  9.50000E-01  4.31969E-01  3.53429E+00  2.33612E+00  5.40600E-02 F
  9.50000E-01  4.31969E-01  3.73064E+00  2.31243E+00  5.06561E-02 F
  9.50000E-01  4.31969E-01  3.92699E+00  2.28997E+00  4.82806E-02 F
  9.50000E-01  4.31969E-01  4.12334E+00  2.26937E+00  4.36431E-02 F
  9.50000E-01  4.31969E-01  4.31969E+00  2.25090E+00  4.00478E-02 F
  9.50000E-01  4.31969E-01  4.51604E+00  2.23359E+00  3.84567E-02 F
  9.50000E-01  4.31969E-01  4.71239E+00  2.21829E+00  2.93278E-02 F
  9.50000E-01  4.31969E-01  4.90874E+00  2.21015E+00  5.59432E-03 F
  9.50000E-01  4.31969E-01  5.10509E+00  2.21562E+00 -3.27677E-02 F
  9.50000E-01  4.31969E-01  5.30144E+00  2.23885E+00 -7.13663E-02 F
  9.50000E-01  4.31969E-01  5.49779E+00  2.27584E+00 -9.21790E-02 F
  9.50000E-01  4.31969E-01  5.69414E+00  2.31739E+00 -8.64602E-02 F
  9.50000E-01  4.31969E-01  5.89049E+00  2.34934E+00 -4.88400E-02 F
  9.50000E-01  4.31969E-01  6.08684E+00  2.36005E+00  3.06922E-03 F
  9.50000E-01  4.71239E-01  0.00000E+00  2.34135E+00  5.39689E-02 F
  9.50000E-01  4.71239E-01  1.96350E-01  2.32196E+00  2.17669E-02 F
  9.50000E-01  4.71239E-01  3.92699E-01  2.32635E+00 -4.17821E-02 F
  9.50000E-01  4.71239E-01  5.89049E-01  2.35766E+00 -8.97339E-02 F
  9.50000E-01  4.71239E-01  7.85398E-01  2.40581E+00 -1.12578E-01 F
  9.50000E-01  4.71239E-01  9.81748E-01  2.46079E+00 -1.14348E-01 F
  9.50000E-01  4.71239E-01  1.17810E+00  2.51375E+00 -1.00002E-01 F
  9.50000E-01  4.71239E-01  1.37445E+00  2.55556E+00 -6.27343E-02 F
  9.50000E-01  4.71239E-01  1.57080E+00  2.57070E+00  7.08965E-03 F
  9.50000E-01  4.71239E-01  1.76715E+00  2.54739E+00  8.26957E-02 F
  9.50000E-01  4.71239E-01  1.96350E+00  2.49413E+00  1.25661E-01 F
  9.50000E-01  4.71239E-01  2.15985E+00  2.43152E+00  1.26091E-01 F
  9.50000E-01  4.71239E-01  2.35619E+00  2.37935E+00  9.09454E-02 F
  9.50000E-01  4.71239E-01  2.55254E+00  2.34736E+00  4.76060E-02 F
  9.50000E-01  4.71239E-01  2.74889E+00  2.33355E+00  1.55233E-02 F
  9.50000E-01  4.71239E-01  2.94524E+00  2.32983E+00  4.35314E-03 F
  9.50000E-01  4.71239E-01  3.14159E+00  2.32656E+00  1.26192E-02 F
  9.50000E-01  4.71239E-01  3.33794E+00  2.31719E+00  2.80143E-02 F
  9.50000E-01  4.71239E-01  3.53429E+00  2.30205E+00  3.81308E-02 F
  9.50000E-01  4.71239E-01  3.73064E+00  2.28273E+00  4.78172E-02 F
  9.50000E-01  4.71239E-01  3.92699E+00  2.25955E+00  5.55060E-02 F
  9.50000E-01  4.71239E-01  4.12334E+00  2.23413E+00  5.89103E-02 F
  9.50000E-01  4.71239E-01  4.31969E+00  2.20897E+00  5.44697E-02 F
  9.50000E-01  4.71239E-01  4.51604E+00  2.18915E+00  3.43177E-02 F
  9.50000E-01  4.71239E-01  4.71239E+00  2.18158E+00 -6.29563E-04 F
  9.50000E-01  4.71239E-01  4.90874E+00  2.19028E+00 -4.01223E-02 F
  9.50000E-01  4.71239E-01  5.10509E+00  2.21616E+00 -7.85874E-02 F
  9.50000E-01  4.71239E-01  5.30144E+00  2.25651E+00 -1.01050E-01 F
  9.50000E-01  4.71239E-01  5.49779E+00  2.30215E+00 -9.91337E-02 F
  9.50000E-01  4.71239E-01  5.69414E+00  2.34225E+00 -7.21673E-02 F
  9.50000E-01  4.71239E-01  5.89049E+00  2.36474E+00 -2.27630E-02 F
  9.50000E-01  4.71239E-01  6.08684E+00  2.36268E+00  3.01455E-02 F
  9.50000E-01  5.10509E-01  0.00000E+00  2.33944E+00  5.12662E-02 F
  9.50000E-01  5.10509E-01  1.96350E-01  2.32168E+00  1.86753E-02 F
  9.50000E-01  5.10509E-01  3.92699E-01  2.32731E+00 -4.50091E-02 F
  9.50000E-01  5.10509E-01  5.89049E-01  2.36119E+00 -9.78250E-02 F
  9.50000E-01  5.10509E-01  7.85398E-01  2.41351E+00 -1.19725E-01 F
  9.50000E-01  5.10509E-01  9.81748E-01  2.46967E+00 -1.10306E-01 F
  9.50000E-01  5.10509E-01  1.17810E+00  2.51702E+00 -7.98036E-02 F
  9.50000E-01  5.10509E-01  1.37445E+00  2.54439E+00 -2.64111E-02 F
  9.50000E-01  5.10509E-01  1.57080E+00  2.54059E+00  4.22837E-02 F
  9.50000E-01  5.10509E-01  1.76715E+00  2.50443E+00  9.95335E-02 F
  9.50000E-01  5.10509E-01  1.96350E+00  2.44778E+00  1.28944E-01 F
  9.50000E-01  5.10509E-01  2.15985E+00  2.38501E+00  1.30925E-01 F
  9.50000E-01  5.10509E-01  2.35619E+00  2.32931E+00  1.05893E-01 F
  9.50000E-01  5.10509E-01  2.55254E+00  2.29022E+00  6.54087E-02 F
  9.50000E-01  5.10509E-01  2.74889E+00  2.26956E+00  2.93277E-02 F
  9.50000E-01  5.10509E-01  2.94524E+00  2.26112E+00  1.21381E-02 F
  9.50000E-01  5.10509E-01  3.14159E+00  2.25593E+00  1.36451E-02 F
  9.50000E-01  5.10509E-01  3.33794E+00  2.24805E+00  2.22193E-02 F
  9.50000E-01  5.10509E-01  3.53429E+00  2.23604E+00  3.29137E-02 F
  9.50000E-01  5.10509E-01  3.73064E+00  2.21921E+00  4.29503E-02 F
  9.50000E-01  5.10509E-01  3.92699E+00  2.20020E+00  4.27726E-02 F
  9.50000E-01  5.10509E-01  4.12334E+00  2.18325E+00  3.56902E-02 F
  9.50000E-01  5.10509E-01  4.31969E+00  2.16971E+00  2.69782E-02 F
  9.50000E-01  5.10509E-01  4.51604E+00  2.16165E+00  8.59326E-03 F
  9.50000E-01  5.10509E-01  4.71239E+00  2.16463E+00 -2.54968E-02 F
  9.50000E-01  5.10509E-01  4.90874E+00  2.18558E+00 -7.39526E-02 F
  9.50000E-01  5.10509E-01  5.10509E+00  2.22741E+00 -1.14995E-01 F
  9.50000E-01  5.10509E-01  5.30144E+00  2.28092E+00 -1.19959E-01 F
  9.50000E-01  5.10509E-01  5.49779E+00  2.32973E+00 -9.16490E-02 F
  9.50000E-01  5.10509E-01  5.69414E+00  2.36187E+00 -4.62972E-02 F
  9.50000E-01  5.10509E-01  5.89049E+00  2.37214E+00  1.43072E-03 F
  9.50000E-01  5.10509E-01  6.08684E+00  2.36193E+00  3.98412E-02 F
  9.50000E-01  5.49779E-01  0.00000E+00  2.31069E+00  3.78141E-02 F
  9.50000E-01  5.49779E-01  1.96350E-01  2.30208E+00 -1.93649E-03 F
  9.50000E-01  5.49779E-01  3.92699E-01  2.31405E+00 -5.11334E-02 F
  9.50000E-01  5.49779E-01  5.89049E-01  2.34719E+00 -9.07336E-02 F
  9.50000E-01  5.49779E-01  7.85398E-01  2.39459E+00 -1.08587E-01 F
  9.50000E-01  5.49779E-01  9.81748E-01  2.44495E+00 -9.88704E-02 F
  9.50000E-01  5.49779E-01  1.17810E+00  2.48526E+00 -6.37614E-02 F
  9.50000E-01  5.49779E-01  1.37445E+00  2.50397E+00 -1.10366E-02 F
  9.50000E-01  5.49779E-01  1.57080E+00  2.49616E+00  4.09975E-02 F
  9.50000E-01  5.49779E-01  1.76715E+00  2.46716E+00  7.40598E-02 F
  9.50000E-01  5.49779E-01  1.96350E+00  2.42785E+00  8.71295E-02 F
  9.50000E-01  5.49779E-01  2.15985E+00  2.38569E+00  9.01764E-02 F
  9.50000E-01  5.49779E-01  2.35619E+00  2.34422E+00  8.74573E-02 F
  9.50000E-01  5.49779E-01  2.55254E+00  2.30633E+00  7.70801E-02 F
  9.50000E-01  5.49779E-01  2.74889E+00  2.27537E+00  5.97679E-02 F
  9.50000E-01  5.49779E-01  2.94524E+00  2.25302E+00  4.14910E-02 F
  9.50000E-01  5.49779E-01  3.14159E+00  2.23719E+00  3.22625E-02 F
  9.50000E-01  5.49779E-01  3.33794E+00  2.22341E+00  3.13751E-02 F
  9.50000E-01  5.49779E-01  3.53429E+00  2.21003E+00  2.88798E-02 F
  9.50000E-01  5.49779E-01  3.73064E+00  2.19949E+00  1.90797E-02 F
  9.50000E-01  5.49779E-01  3.92699E+00  2.19347E+00  9.23014E-03 F
  9.50000E-01  5.49779E-01  4.12334E+00  2.19140E+00  9.53303E-05 F
  9.50000E-01  5.49779E-01  4.31969E+00  2.19440E+00 -1.59651E-02 F
  9.50000E-01  5.49779E-01  4.51604E+00  2.20666E+00 -4.18280E-02 F
  9.50000E-01  5.49779E-01  4.71239E+00  2.23129E+00 -7.15973E-02 F
  9.50000E-01  5.49779E-01  4.90874E+00  2.26902E+00 -9.68616E-02 F
  9.50000E-01  5.49779E-01  5.10509E+00  2.31424E+00 -9.94589E-02 F
  9.50000E-01  5.49779E-01  5.30144E+00  2.35524E+00 -7.53273E-02 F
  9.50000E-01  5.49779E-01  5.49779E+00  2.38037E+00 -3.00637E-02 F
  9.50000E-01  5.49779E-01  5.69414E+00  2.38231E+00  2.07337E-02 F
  9.50000E-01  5.49779E-01  5.89049E+00  2.36340E+00  5.67306E-02 F
  9.50000E-01  5.49779E-01  6.08684E+00  2.33443E+00  6.28008E-02 F
  9.50000E-01  5.89049E-01  0.00000E+00  2.32598E+00  5.37361E-03 F
  9.50000E-01  5.89049E-01  1.96350E-01  2.33526E+00 -4.26297E-02 F
  9.50000E-01  5.89049E-01  3.92699E-01  2.36163E+00 -6.72319E-02 F
  9.50000E-01  5.89049E-01  5.89049E-01  2.39418E+00 -7.01289E-02 F
  9.50000E-01  5.89049E-01  7.85398E-01  2.42631E+00 -6.35986E-02 F
  9.50000E-01  5.89049E-01  9.81748E-01  2.45151E+00 -3.77811E-02 F
  9.50000E-01  5.89049E-01  1.17810E+00  2.45935E+00  7.86402E-03 F
  9.50000E-01  5.89049E-01  1.37445E+00  2.44235E+00  6.29283E-02 F
  9.50000E-01  5.89049E-01  1.57080E+00  2.40166E+00  1.02793E-01 F
  9.50000E-01  5.89049E-01  1.76715E+00  2.35211E+00  1.02895E-01 F
  9.50000E-01  5.89049E-01  1.96350E+00  2.31061E+00  7.63339E-02 F
  9.50000E-01  5.89049E-01  2.15985E+00  2.28286E+00  4.79819E-02 F
  9.50000E-01  5.89049E-01  2.35619E+00  2.26589E+00  2.97308E-02 F
  9.50000E-01  5.89049E-01  2.55254E+00  2.25501E+00  2.09565E-02 F
  9.50000E-01  5.89049E-01  2.74889E+00  2.24582E+00  2.19629E-02 F
  9.50000E-01  5.89049E-01  2.94524E+00  2.23514E+00  2.65046E-02 F
  9.50000E-01  5.89049E-01  3.14159E+00  2.22293E+00  2.89489E-02 F
  9.50000E-01  5.89049E-01  3.33794E+00  2.20963E+00  3.29006E-02 F
  9.50000E-01  5.89049E-01  3.53429E+00  2.19433E+00  3.67983E-02 F
  9.50000E-01  5.89049E-01  3.73064E+00  2.17955E+00  2.97290E-02 F
  9.50000E-01  5.89049E-01  3.92699E+00  2.17112E+00  6.95020E-03 F
  9.50000E-01  5.89049E-01  4.12334E+00  2.17540E+00 -2.81576E-02 F
  9.50000E-01  5.89049E-01  4.31969E+00  2.19564E+00 -6.60495E-02 F
  9.50000E-01  5.89049E-01  4.51604E+00  2.23199E+00 -1.00193E-01 F
  9.50000E-01  5.89049E-01  4.71239E+00  2.28246E+00 -1.25012E-01 F
  9.50000E-01  5.89049E-01  4.90874E+00  2.33991E+00 -1.21779E-01 F
  9.50000E-01  5.89049E-01  5.10509E+00  2.38921E+00 -8.74481E-02 F
  9.50000E-01  5.89049E-01  5.30144E+00  2.42009E+00 -4.19668E-02 F
  9.50000E-01  5.89049E-01  5.49779E+00  2.42750E+00  1.13685E-02 F
  9.50000E-01  5.89049E-01  5.69414E+00  2.41067E+00  5.66961E-02 F
  9.50000E-01  5.89049E-01  5.89049E+00  2.37716E+00  8.12590E-02 F
  9.50000E-01  5.89049E-01  6.08684E+00  2.34182E+00  6.20020E-02 F
  9.50000E-01  6.28319E-01  0.00000E+00  2.35830E+00  2.31304E-09 F
  9.50000E-01  6.28319E-01  1.96350E-01  2.37200E+00 -5.57511E-02 F
  9.50000E-01  6.28319E-01  3.92699E-01  2.40422E+00 -7.32110E-02 F
  9.50000E-01  6.28319E-01  5.89049E-01  2.43527E+00 -5.47565E-02 F
  9.50000E-01  6.28319E-01  7.85398E-01  2.45489E+00 -2.44609E-02 F
  9.50000E-01  6.28319E-01  9.81748E-01  2.45564E+00  2.38915E-02 F
  9.50000E-01  6.28319E-01  1.17810E+00  2.43074E+00  8.06262E-02 F
  9.50000E-01  6.28319E-01  1.37445E+00  2.37893E+00  1.37177E-01 F
  9.50000E-01  6.28319E-01  1.57080E+00  2.30842E+00  1.59879E-01 F
  9.50000E-01  6.28319E-01  1.76715E+00  2.24263E+00  1.27366E-01 F
  9.50000E-01  6.28319E-01  1.96350E+00  2.19892E+00  7.25303E-02 F
  9.50000E-01  6.28319E-01  2.15985E+00  2.17857E+00  2.47546E-02 F
  9.50000E-01  6.28319E-01  2.35619E+00  2.17515E+00 -6.03023E-03 F
  9.50000E-01  6.28319E-01  2.55254E+00  2.18150E+00 -2.10416E-02 F
  9.50000E-01  6.28319E-01  2.74889E+00  2.19125E+00 -2.25788E-02 F
  9.50000E-01  6.28319E-01  2.94524E+00  2.19951E+00 -1.42345E-02 F
  9.50000E-01  6.28319E-01  3.14159E+00  2.20267E+00 -8.10207E-09 F
  9.50000E-01  6.28319E-01  3.33794E+00  2.19951E+00  1.42345E-02 F
  9.50000E-01  6.28319E-01  3.53429E+00  2.19125E+00  2.25788E-02 F
  9.50000E-01  6.28319E-01  3.73064E+00  2.18150E+00  2.10416E-02 F
  9.50000E-01  6.28319E-01  3.92699E+00  2.17515E+00  6.03021E-03 F
  9.50000E-01  6.28319E-01  4.12334E+00  2.17857E+00 -2.47546E-02 F
  9.50000E-01  6.28319E-01  4.31969E+00  2.19892E+00 -7.25303E-02 F
  9.50000E-01  6.28319E-01  4.51604E+00  2.24263E+00 -1.27366E-01 F
  9.50000E-01  6.28319E-01  4.71239E+00  2.30842E+00 -1.59879E-01 F
  9.50000E-01  6.28319E-01  4.90874E+00  2.37893E+00 -1.37177E-01 F
  9.50000E-01  6.28319E-01  5.10509E+00  2.43074E+00 -8.06261E-02 F
  9.50000E-01  6.28319E-01  5.30144E+00  2.45564E+00 -2.38914E-02 F
  9.50000E-01  6.28319E-01  5.49779E+00  2.45489E+00  2.44610E-02 F
  9.50000E-01  6.28319E-01  5.69414E+00  2.43527E+00  5.47565E-02 F
  9.50000E-01  6.28319E-01  5.89049E+00  2.40422E+00  7.32110E-02 F
  9.50000E-01  6.28319E-01  6.08684E+00  2.37200E+00  5.57510E-02 F
  9.50000E-01  6.67588E-01  0.00000E+00  2.32598E+00 -5.37363E-03 F
  9.50000E-01  6.67588E-01  1.96350E-01  2.34182E+00 -6.20021E-02 F
  9.50000E-01  6.67588E-01  3.92699E-01  2.37716E+00 -8.12590E-02 F
  9.50000E-01  6.67588E-01  5.89049E-01  2.41067E+00 -5.66961E-02 F
  9.50000E-01  6.67588E-01  7.85398E-01  2.42750E+00 -1.13684E-02 F
  9.50000E-01  6.67588E-01  9.81748E-01  2.42009E+00  4.19668E-02 F
  9.50000E-01  6.67588E-01  1.17810E+00  2.38921E+00  8.74481E-02 F
  9.50000E-01  6.67588E-01  1.37445E+00  2.33991E+00  1.21779E-01 F
  9.50000E-01  6.67588E-01  1.57080E+00  2.28246E+00  1.25012E-01 F
  9.50000E-01  6.67588E-01  1.76715E+00  2.23199E+00  1.00193E-01 F
  9.50000E-01  6.67588E-01  1.96350E+00  2.19564E+00  6.60495E-02 F
  9.50000E-01  6.67588E-01  2.15985E+00  2.17540E+00  2.81576E-02 F
  9.50000E-01  6.67588E-01  2.35619E+00  2.17112E+00 -6.95023E-03 F
  9.50000E-01  6.67588E-01  2.55254E+00  2.17955E+00 -2.97290E-02 F
  9.50000E-01  6.67588E-01  2.74889E+00  2.19433E+00 -3.67983E-02 F
  9.50000E-01  6.67588E-01  2.94524E+00  2.20963E+00 -3.29006E-02 F
  9.50000E-01  6.67588E-01  3.14159E+00  2.22293E+00 -2.89489E-02 F
  9.50000E-01  6.67588E-01  3.33794E+00  2.23514E+00 -2.65046E-02 F
  9.50000E-01  6.67588E-01  3.53429E+00  2.24582E+00 -2.19629E-02 F
  9.50000E-01  6.67588E-01  3.73064E+00  2.25501E+00 -2.09566E-02 F
  9.50000E-01  6.67588E-01  3.92699E+00  2.26589E+00 -2.97309E-02 F
  9.50000E-01  6.67588E-01  4.12334E+00  2.28286E+00 -4.79819E-02 F
  9.50000E-01  6.67588E-01  4.31969E+00  2.31061E+00 -7.63339E-02 F
  9.50000E-01  6.67588E-01  4.51604E+00  2.35211E+00 -1.02895E-01 F
  9.50000E-01  6.67588E-01  4.71239E+00  2.40166E+00 -1.02793E-01 F
  9.50000E-01  6.67588E-01  4.90874E+00  2.44235E+00 -6.29282E-02 F
  9.50000E-01  6.67588E-01  5.10509E+00  2.45935E+00 -7.86389E-03 F
  9.50000E-01  6.67588E-01  5.30144E+00  2.45151E+00  3.77812E-02 F
  9.50000E-01  6.67588E-01  5.49779E+00  2.42631E+00  6.35986E-02 F
  9.50000E-01  6.67588E-01  5.69414E+00  2.39418E+00  7.01290E-02 F
  9.50000E-01  6.67588E-01  5.89049E+00  2.36163E+00  6.72319E-02 F
  9.50000E-01  6.67588E-01  6.08684E+00  2.33526E+00  4.26296E-02 F
  9.50000E-01  7.06858E-01  0.00000E+00  2.31069E+00 -3.78141E-02 F
  9.50000E-01  7.06858E-01  1.96350E-01  2.33443E+00 -6.28008E-02 F
  9.50000E-01  7.06858E-01  3.92699E-01  2.36340E+00 -5.67305E-02 F
  9.50000E-01  7.06858E-01  5.89049E-01  2.38231E+00 -2.07336E-02 F
  9.50000E-01  7.06858E-01  7.85398E-01  2.38037E+00  3.00638E-02 F
  9.50000E-01  7.06858E-01  9.81748E-01  2.35524E+00  7.53274E-02 F
  9.50000E-01  7.06858E-01  1.17810E+00  2.31424E+00  9.94589E-02 F
  9.50000E-01  7.06858E-01  1.37445E+00  2.26902E+00  9.68616E-02 F
  9.50000E-01  7.06858E-01  1.57080E+00  2.23129E+00  7.15972E-02 F
  9.50000E-01  7.06858E-01  1.76715E+00  2.20666E+00  4.18279E-02 F
  9.50000E-01  7.06858E-01  1.96350E+00  2.19440E+00  1.59651E-02 F
  9.50000E-01  7.06858E-01  2.15985E+00  2.19140E+00 -9.53631E-05 F
  9.50000E-01  7.06858E-01  2.35619E+00  2.19347E+00 -9.23015E-03 F
  9.50000E-01  7.06858E-01  2.55254E+00  2.19949E+00 -1.90797E-02 F
  9.50000E-01  7.06858E-01  2.74889E+00  2.21003E+00 -2.88798E-02 F
  9.50000E-01  7.06858E-01  2.94524E+00  2.22341E+00 -3.13751E-02 F
  9.50000E-01  7.06858E-01  3.14159E+00  2.23719E+00 -3.22625E-02 F
  9.50000E-01  7.06858E-01  3.33794E+00  2.25302E+00 -4.14910E-02 F
  9.50000E-01  7.06858E-01  3.53429E+00  2.27537E+00 -5.97680E-02 F
  9.50000E-01  7.06858E-01  3.73064E+00  2.30633E+00 -7.70801E-02 F
  9.50000E-01  7.06858E-01  3.92699E+00  2.34422E+00 -8.74573E-02 F
  9.50000E-01  7.06858E-01  4.12334E+00  2.38569E+00 -9.01764E-02 F
  9.50000E-01  7.06858E-01  4.31969E+00  2.42785E+00 -8.71295E-02 F
  9.50000E-01  7.06858E-01  4.51604E+00  2.46716E+00 -7.40598E-02 F
  9.50000E-01  7.06858E-01  4.71239E+00  2.49616E+00 -4.09974E-02 F
  9.50000E-01  7.06858E-01  4.90874E+00  2.50397E+00  1.10366E-02 F
  9.50000E-01  7.06858E-01  5.10509E+00  2.48526E+00  6.37614E-02 F
  9.50000E-01  7.06858E-01  5.30144E+00  2.44495E+00  9.88704E-02 F
  9.50000E-01  7.06858E-01  5.49779E+00  2.39459E+00  1.08587E-01 F
  9.50000E-01  7.06858E-01  5.69414E+00  2.34719E+00  9.07336E-02 F
  9.50000E-01  7.06858E-01  5.89049E+00  2.31405E+00  5.11333E-02 F
  9.50000E-01  7.06858E-01  6.08684E+00  2.30208E+00  1.93641E-03 F
  9.50000E-01  7.46128E-01  0.00000E+00  2.33944E+00 -5.12662E-02 F
  9.50000E-01  7.46128E-01  1.96350E-01  2.36193E+00 -3.98411E-02 F
  9.50000E-01  7.46128E-01  3.92699E-01  2.37214E+00 -1.43064E-03 F
  9.50000E-01  7.46128E-01  5.89049E-01  2.36187E+00  4.62973E-02 F
  9.50000E-01  7.46128E-01  7.85398E-01  2.32973E+00  9.16491E-02 F
  9.50000E-01  7.46128E-01  9.81748E-01  2.28092E+00  1.19959E-01 F
  9.50000E-01  7.46128E-01  1.17810E+00  2.22741E+00  1.14995E-01 F
  9.50000E-01  7.46128E-01  1.37445E+00  2.18558E+00  7.39525E-02 F
  9.50000E-01  7.46128E-01  1.57080E+00  2.16463E+00  2.54967E-02 F
  9.50000E-01  7.46128E-01  1.76715E+00  2.16165E+00 -8.59331E-03 F
  9.50000E-01  7.46128E-01  1.96350E+00  2.16971E+00 -2.69783E-02 F
  9.50000E-01  7.46128E-01  2.15985E+00  2.18325E+00 -3.56902E-02 F
  9.50000E-01  7.46128E-01  2.35619E+00  2.20020E+00 -4.27727E-02 F
  9.50000E-01  7.46128E-01  2.55254E+00  2.21921E+00 -4.29503E-02 F
  9.50000E-01  7.46128E-01  2.74889E+00  2.23604E+00 -3.29137E-02 F
  9.50000E-01  7.46128E-01  2.94524E+00  2.24805E+00 -2.22193E-02 F
  9.50000E-01  7.46128E-01  3.14159E+00  2.25593E+00 -1.36451E-02 F
  9.50000E-01  7.46128E-01  3.33794E+00  2.26112E+00 -1.21380E-02 F
  9.50000E-01  7.46128E-01  3.53429E+00  2.26956E+00 -2.93277E-02 F
  9.50000E-01  7.46128E-01  3.73064E+00  2.29022E+00 -6.54087E-02 F
  9.50000E-01  7.46128E-01  3.92699E+00  2.32931E+00 -1.05893E-01 F
  9.50000E-01  7.46128E-01  4.12334E+00  2.38501E+00 -1.30925E-01 F
  9.50000E-01  7.46128E-01  4.31969E+00  2.44778E+00 -1.28944E-01 F
  9.50000E-01  7.46128E-01  4.51604E+00  2.50443E+00 -9.95335E-02 F
  9.50000E-01  7.46128E-01  4.71239E+00  2.54059E+00 -4.22837E-02 F
  9.50000E-01  7.46128E-01  4.90874E+00  2.54439E+00  2.64112E-02 F
  9.50000E-01  7.46128E-01  5.10509E+00  2.51702E+00  7.98036E-02 F
  9.50000E-01  7.46128E-01  5.30144E+00  2.46967E+00  1.10306E-01 F
  9.50000E-01  7.46128E-01  5.49779E+00  2.41351E+00  1.19725E-01 F
  9.50000E-01  7.46128E-01  5.69414E+00  2.36119E+00  9.78250E-02 F
  9.50000E-01  7.46128E-01  5.89049E+00  2.32731E+00  4.50090E-02 F
  9.50000E-01  7.46128E-01  6.08684E+00  2.32168E+00 -1.86754E-02 F
  9.50000E-01  7.85398E-01  0.00000E+00  2.34135E+00 -5.39689E-02 F
  9.50000E-01  7.85398E-01  1.96350E-01  2.36268E+00 -3.01454E-02 F
  9.50000E-01  7.85398E-01  3.92699E-01  2.36474E+00  2.27631E-02 F
  9.50000E-01  7.85398E-01  5.89049E-01  2.34225E+00  7.21673E-02 F
  9.50000E-01  7.85398E-01  7.85398E-01  2.30215E+00  9.91337E-02 F
  9.50000E-01  7.85398E-01  9.81748E-01  2.25651E+00  1.01050E-01 F
  9.50000E-01  7.85398E-01  1.17810E+00  2.21616E+00  7.85873E-02 F
  9.50000E-01  7.85398E-01  1.37445E+00  2.19028E+00  4.01223E-02 F
  9.50000E-01  7.85398E-01  1.57080E+00  2.18158E+00  6.29501E-04 F
  9.50000E-01  7.85398E-01  1.76715E+00  2.18915E+00 -3.43177E-02 F
  9.50000E-01  7.85398E-01  1.96350E+00  2.20897E+00 -5.44697E-02 F
  9.50000E-01  7.85398E-01  2.15985E+00  2.23413E+00 -5.89103E-02 F
  9.50000E-01  7.85398E-01  2.35619E+00  2.25955E+00 -5.55060E-02 F
  9.50000E-01  7.85398E-01  2.55254E+00  2.28273E+00 -4.78171E-02 F
  9.50000E-01  7.85398E-01  2.74889E+00  2.30205E+00 -3.81308E-02 F
  9.50000E-01  7.85398E-01  2.94524E+00  2.31719E+00 -2.80143E-02 F
  9.50000E-01  7.85398E-01  3.14159E+00  2.32656E+00 -1.26192E-02 F
  9.50000E-01  7.85398E-01  3.33794E+00  2.32983E+00 -4.35318E-03 F
  9.50000E-01  7.85398E-01  3.53429E+00  2.33355E+00 -1.55233E-02 F
  9.50000E-01  7.85398E-01  3.73064E+00  2.34736E+00 -4.76060E-02 F
  9.50000E-01  7.85398E-01  3.92699E+00  2.37935E+00 -9.09454E-02 F
  9.50000E-01  7.85398E-01  4.12334E+00  2.43152E+00 -1.26091E-01 F
  9.50000E-01  7.85398E-01  4.31969E+00  2.49413E+00 -1.25661E-01 F
  9.50000E-01  7.85398E-01  4.51604E+00  2.54739E+00 -8.26955E-02 F
  9.50000E-01  7.85398E-01  4.71239E+00  2.57070E+00 -7.08951E-03 F
  9.50000E-01  7.85398E-01  4.90874E+00  2.55556E+00  6.27344E-02 F
  9.50000E-01  7.85398E-01  5.10509E+00  2.51375E+00  1.00002E-01 F
  9.50000E-01  7.85398E-01  5.30144E+00  2.46079E+00  1.14348E-01 F
  9.50000E-01  7.85398E-01  5.49779E+00  2.40581E+00  1.12578E-01 F
  9.50000E-01  7.85398E-01  5.69414E+00  2.35766E+00  8.97338E-02 F
  9.50000E-01  7.85398E-01  5.89049E+00  2.32635E+00  4.17820E-02 F
  9.50000E-01  7.85398E-01  6.08684E+00  2.32196E+00 -2.17670E-02 F
  9.50000E-01  8.24668E-01  0.00000E+00  2.34878E+00 -3.96129E-02 F
  9.50000E-01  8.24668E-01  1.96350E-01  2.36005E+00 -3.06913E-03 F
  9.50000E-01  8.24668E-01  3.92699E-01  2.34934E+00  4.88401E-02 F
  9.50000E-01  8.24668E-01  5.89049E-01  2.31739E+00  8.64602E-02 F
  9.50000E-01  8.24668E-01  7.85398E-01  2.27584E+00  9.21789E-02 F
  9.50000E-01  8.24668E-01  9.81748E-01  2.23885E+00  7.13662E-02 F
  9.50000E-01  8.24668E-01  1.17810E+00  2.21562E+00  3.27676E-02 F
  9.50000E-01  8.24668E-01  1.37445E+00  2.21015E+00 -5.59439E-03 F
  9.50000E-01  8.24668E-01  1.57080E+00  2.21829E+00 -2.93278E-02 F
  9.50000E-01  8.24668E-01  1.76715E+00  2.23359E+00 -3.84567E-02 F
  9.50000E-01  8.24668E-01  1.96350E+00  2.25090E+00 -4.00478E-02 F
  9.50000E-01  8.24668E-01  2.15985E+00  2.26937E+00 -4.36431E-02 F
  9.50000E-01  8.24668E-01  2.35619E+00  2.28997E+00 -4.82806E-02 F
  9.50000E-01  8.24668E-01  2.55254E+00  2.31243E+00 -5.06561E-02 F
  9.50000E-01  8.24668E-01  2.74889E+00  2.33612E+00 -5.40600E-02 F
  9.50000E-01  8.24668E-01  2.94524E+00  2.36284E+00 -6.20424E-02 F
  9.50000E-01  8.24668E-01  3.14159E+00  2.39345E+00 -6.85774E-02 F
  9.50000E-01  8.24668E-01  3.33794E+00  2.42669E+00 -7.07526E-02 F
  9.50000E-01  8.24668E-01  3.53429E+00  2.45979E+00 -6.68443E-02 F
  9.50000E-01  8.24668E-01  3.73064E+00  2.49173E+00 -6.57039E-02 F
  9.50000E-01  8.24668E-01  3.92699E+00  2.52554E+00 -7.28692E-02 F
  9.50000E-01  8.24668E-01  4.12334E+00  2.56355E+00 -7.62678E-02 F
  9.50000E-01  8.24668E-01  4.31969E+00  2.59763E+00 -5.30782E-02 F
  9.50000E-01  8.24668E-01  4.51604E+00  2.61202E+00  2.21731E-03 F
  9.50000E-01  8.24668E-01  4.71239E+00  2.59199E+00  7.55292E-02 F
  9.50000E-01  8.24668E-01  4.90874E+00  2.54054E+00  1.21369E-01 F
  9.50000E-01  8.24668E-01  5.10509E+00  2.47791E+00  1.27851E-01 F
  9.50000E-01  8.24668E-01  5.30144E+00  2.41934E+00  1.13365E-01 F
  9.50000E-01  8.24668E-01  5.49779E+00  2.37207E+00  8.58142E-02 F
  9.50000E-01  8.24668E-01  5.69414E+00  2.34017E+00  5.13523E-02 F
  9.50000E-01  8.24668E-01  5.89049E+00  2.32579E+00  1.00646E-02 F
  9.50000E-01  8.24668E-01  6.08684E+00  2.33094E+00 -3.02907E-02 F
  9.50000E-01  8.63938E-01  0.00000E+00  2.36803E+00  1.43531E-02 F
  9.50000E-01  8.63938E-01  1.96350E-01  2.35289E+00  5.24480E-02 F
  9.50000E-01  8.63938E-01  3.92699E-01  2.32023E+00  8.83959E-02 F
  9.50000E-01  8.63938E-01  5.89049E-01  2.27482E+00  1.08730E-01 F
  9.50000E-01  8.63938E-01  7.85398E-01  2.22821E+00  9.64137E-02 F
  9.50000E-01  8.63938E-01  9.81748E-01  2.19426E+00  5.61643E-02 F
  9.50000E-01  8.63938E-01  1.17810E+00  2.18187E+00  1.38233E-03 F
  9.50000E-01  8.63938E-01  1.37445E+00  2.19027E+00 -3.52948E-02 F
  9.50000E-01  8.63938E-01  1.57080E+00  2.20856E+00 -4.68432E-02 F
  9.50000E-01  8.63938E-01  1.76715E+00  2.22995E+00 -5.08421E-02 F
  9.50000E-01  8.63938E-01  1.96350E+00  2.25232E+00 -4.93601E-02 F
  9.50000E-01  8.63938E-01  2.15985E+00  2.27238E+00 -4.06769E-02 F
  9.50000E-01  8.63938E-01  2.35619E+00  2.28983E+00 -3.95009E-02 F
  9.50000E-01  8.63938E-01  2.55254E+00  2.30936E+00 -4.76988E-02 F
  9.50000E-01  8.63938E-01  2.74889E+00  2.33366E+00 -5.99630E-02 F
  9.50000E-01  8.63938E-01  2.94524E+00  2.36547E+00 -7.88194E-02 F
  9.50000E-01  8.63938E-01  3.14159E+00  2.40755E+00 -1.01030E-01 F
  9.50000E-01  8.63938E-01  3.33794E+00  2.46069E+00 -1.19755E-01 F
  9.50000E-01  8.63938E-01  3.53429E+00  2.52088E+00 -1.22981E-01 F
  9.50000E-01  8.63938E-01  3.73064E+00  2.57887E+00 -1.05811E-01 F
  9.50000E-01  8.63938E-01  3.92699E+00  2.62641E+00 -7.98760E-02 F
  9.50000E-01  8.63938E-01  4.12334E+00  2.65995E+00 -4.73689E-02 F
  9.50000E-01  8.63938E-01  4.31969E+00  2.67353E+00 -2.59935E-03 F
  9.50000E-01  8.63938E-01  4.51604E+00  2.66046E+00  5.45057E-02 F
  9.50000E-01  8.63938E-01  4.71239E+00  2.61706E+00  1.09797E-01 F
  9.50000E-01  8.63938E-01  4.90874E+00  2.55362E+00  1.33993E-01 F
  9.50000E-01  8.63938E-01  5.10509E+00  2.48814E+00  1.26404E-01 F
  9.50000E-01  8.63938E-01  5.30144E+00  2.43297E+00  9.96235E-02 F
  9.50000E-01  8.63938E-01  5.49779E+00  2.39427E+00  6.28662E-02 F
  9.50000E-01  8.63938E-01  5.69414E+00  2.37353E+00  2.66352E-02 F
  9.50000E-01  8.63938E-01  5.89049E+00  2.36775E+00  9.56048E-04 F
  9.50000E-01  8.63938E-01  6.08684E+00  2.36939E+00 -4.24846E-03 F
  9.50000E-01  9.03208E-01  0.00000E+00  2.37861E+00  4.84424E-02 F
  9.50000E-01  9.03208E-01  1.96350E-01  2.34960E+00  7.53188E-02 F
  9.50000E-01  9.03208E-01  3.92699E-01  2.31094E+00  9.20785E-02 F
  9.50000E-01  9.03208E-01  5.89049E-01  2.26816E+00  9.45024E-02 F
  9.50000E-01  9.03208E-01  7.85398E-01  2.23057E+00  7.19665E-02 F
  9.50000E-01  9.03208E-01  9.81748E-01  2.20744E+00  3.16495E-02 F
  9.50000E-01  9.03208E-01  1.17810E+00  2.20458E+00 -1.83491E-02 F
  9.50000E-01  9.03208E-01  1.37445E+00  2.22130E+00 -5.47114E-02 F
  9.50000E-01  9.03208E-01  1.57080E+00  2.24887E+00 -6.74073E-02 F
  9.50000E-01  9.03208E-01  1.76715E+00  2.27869E+00 -6.52842E-02 F
  9.50000E-01  9.03208E-01  1.96350E+00  2.30628E+00 -5.64283E-02 F
  9.50000E-01  9.03208E-01  2.15985E+00  2.32953E+00 -4.64403E-02 F
  9.50000E-01  9.03208E-01  2.35619E+00  2.34971E+00 -4.19929E-02 F
  9.50000E-01  9.03208E-01  2.55254E+00  2.36801E+00 -3.67283E-02 F
  9.50000E-01  9.03208E-01  2.74889E+00  2.38477E+00 -3.74281E-02 F
  9.50000E-01  9.03208E-01  2.94524E+00  2.40554E+00 -5.31858E-02 F
  9.50000E-01  9.03208E-01  3.14159E+00  2.43679E+00 -7.95963E-02 F
  9.50000E-01  9.03208E-01  3.33794E+00  2.48278E+00 -1.11023E-01 F
  9.50000E-01  9.03208E-01  3.53429E+00  2.54398E+00 -1.33555E-01 F
  9.50000E-01  9.03208E-01  3.73064E+00  2.61132E+00 -1.27248E-01 F
  9.50000E-01  9.03208E-01  3.92699E+00  2.66989E+00 -9.53458E-02 F
  9.50000E-01  9.03208E-01  4.12334E+00  2.70795E+00 -4.69181E-02 F
  9.50000E-01  9.03208E-01  4.31969E+00  2.71871E+00  6.67166E-03 F
  9.50000E-01  9.03208E-01  4.51604E+00  2.70078E+00  6.01986E-02 F
  9.50000E-01  9.03208E-01  4.71239E+00  2.65743E+00  1.01020E-01 F
  9.50000E-01  9.03208E-01  4.90874E+00  2.59987E+00  1.17965E-01 F
  9.50000E-01  9.03208E-01  5.10509E+00  2.54082E+00  1.13079E-01 F
  9.50000E-01  9.03208E-01  5.30144E+00  2.48900E+00  9.52753E-02 F
  9.50000E-01  9.03208E-01  5.49779E+00  2.44866E+00  7.04406E-02 F
  9.50000E-01  9.03208E-01  5.69414E+00  2.42142E+00  4.35150E-02 F
  9.50000E-01  9.03208E-01  5.89049E+00  2.40615E+00  2.36629E-02 F
  9.50000E-01  9.03208E-01  6.08684E+00  2.39542E+00  2.58568E-02 F
  9.50000E-01  9.42478E-01  0.00000E+00  2.37887E+00  7.35248E-02 F
  9.50000E-01  9.42478E-01  1.96350E-01  2.34204E+00  8.25875E-02 F
  9.50000E-01  9.42478E-01  3.92699E-01  2.30517E+00  7.71760E-02 F
  9.50000E-01  9.42478E-01  5.89049E-01  2.27394E+00  5.93656E-02 F
  9.50000E-01  9.42478E-01  7.85398E-01  2.25374E+00  3.04362E-02 F
  9.50000E-01  9.42478E-01  9.81748E-01  2.24766E+00 -3.51907E-03 F
  9.50000E-01  9.42478E-01  1.17810E+00  2.25635E+00 -3.38356E-02 F
  9.50000E-01  9.42478E-01  1.37445E+00  2.27557E+00 -5.04095E-02 F
  9.50000E-01  9.42478E-01  1.57080E+00  2.30018E+00 -5.85604E-02 F
  9.50000E-01  9.42478E-01  1.76715E+00  2.32846E+00 -6.58309E-02 F
  9.50000E-01  9.42478E-01  1.96350E+00  2.35969E+00 -6.85668E-02 F
  9.50000E-01  9.42478E-01  2.15985E+00  2.39102E+00 -6.51733E-02 F
  9.50000E-01  9.42478E-01  2.35619E+00  2.42045E+00 -5.90790E-02 F
  9.50000E-01  9.42478E-01  2.55254E+00  2.44711E+00 -5.30024E-02 F
  9.50000E-01  9.42478E-01  2.74889E+00  2.47222E+00 -5.20909E-02 F
  9.50000E-01  9.42478E-01  2.94524E+00  2.49887E+00 -5.83317E-02 F
  9.50000E-01  9.42478E-01  3.14159E+00  2.53034E+00 -6.94731E-02 F
  9.50000E-01  9.42478E-01  3.33794E+00  2.56830E+00 -8.28177E-02 F
  9.50000E-01  9.42478E-01  3.53429E+00  2.61440E+00 -9.78993E-02 F
  9.50000E-01  9.42478E-01  3.73064E+00  2.66701E+00 -1.01952E-01 F
  9.50000E-01  9.42478E-01  3.92699E+00  2.71682E+00 -8.16929E-02 F
  9.50000E-01  9.42478E-01  4.12334E+00  2.74934E+00 -3.66097E-02 F
  9.50000E-01  9.42478E-01  4.31969E+00  2.75429E+00  1.93600E-02 F
  9.50000E-01  9.42478E-01  4.51604E+00  2.72871E+00  7.33447E-02 F
  9.50000E-01  9.42478E-01  4.71239E+00  2.68056E+00  1.03083E-01 F
  9.50000E-01  9.42478E-01  4.90874E+00  2.62470E+00  1.08253E-01 F
  9.50000E-01  9.42478E-01  5.10509E+00  2.57124E+00  1.00041E-01 F
  9.50000E-01  9.42478E-01  5.30144E+00  2.52453E+00  8.59404E-02 F
  9.50000E-01  9.42478E-01  5.49779E+00  2.48610E+00  7.06996E-02 F
  9.50000E-01  9.42478E-01  5.69414E+00  2.45534E+00  5.56695E-02 F
  9.50000E-01  9.42478E-01  5.89049E+00  2.43181E+00  4.49429E-02 F
  9.50000E-01  9.42478E-01  6.08684E+00  2.40896E+00  5.44208E-02 F
  9.50000E-01  9.81748E-01  0.00000E+00  2.34542E+00  1.14060E-01 F
  9.50000E-01  9.81748E-01  1.96350E-01  2.29690E+00  9.55186E-02 F
  9.50000E-01  9.81748E-01  3.92699E-01  2.26087E+00  6.44759E-02 F
  9.50000E-01  9.81748E-01  5.89049E-01  2.23979E+00  3.17465E-02 F
  9.50000E-01  9.81748E-01  7.85398E-01  2.23127E+00  8.74018E-03 F
  9.50000E-01  9.81748E-01  9.81748E-01  2.23180E+00 -1.15611E-02 F
  9.50000E-01  9.81748E-01  1.17810E+00  2.24133E+00 -3.13140E-02 F
  9.50000E-01  9.81748E-01  1.37445E+00  2.25929E+00 -5.02778E-02 F
  9.50000E-01  9.81748E-01  1.57080E+00  2.28609E+00 -6.92261E-02 F
  9.50000E-01  9.81748E-01  1.76715E+00  2.32011E+00 -7.89960E-02 F
  9.50000E-01  9.81748E-01  1.96350E+00  2.35655E+00 -7.94172E-02 F
  9.50000E-01  9.81748E-01  2.15985E+00  2.39435E+00 -8.34702E-02 F
  9.50000E-01  9.81748E-01  2.35619E+00  2.43492E+00 -8.69603E-02 F
  9.50000E-01  9.81748E-01  2.55254E+00  2.47713E+00 -8.80191E-02 F
  9.50000E-01  9.81748E-01  2.74889E+00  2.52046E+00 -8.85862E-02 F
  9.50000E-01  9.81748E-01  2.94524E+00  2.56505E+00 -9.02649E-02 F
  9.50000E-01  9.81748E-01  3.14159E+00  2.61105E+00 -8.97617E-02 F
  9.50000E-01  9.81748E-01  3.33794E+00  2.65601E+00 -8.35189E-02 F
  9.50000E-01  9.81748E-01  3.53429E+00  2.69790E+00 -7.59858E-02 F
  9.50000E-01  9.81748E-01  3.73064E+00  2.73649E+00 -6.79813E-02 F
  9.50000E-01  9.81748E-01  3.92699E+00  2.76840E+00 -4.67247E-02 F
  9.50000E-01  9.81748E-01  4.12334E+00  2.78400E+00 -8.45974E-03 F
  9.50000E-01  9.81748E-01  4.31969E+00  2.77550E+00  4.13199E-02 F
  9.50000E-01  9.81748E-01  4.51604E+00  2.73974E+00  8.71255E-02 F
  9.50000E-01  9.81748E-01  4.71239E+00  2.68780E+00  1.02644E-01 F
  9.50000E-01  9.81748E-01  4.90874E+00  2.63512E+00  9.70484E-02 F
  9.50000E-01  9.81748E-01  5.10509E+00  2.58831E+00  8.49141E-02 F
  9.50000E-01  9.81748E-01  5.30144E+00  2.54912E+00  7.09065E-02 F
  9.50000E-01  9.81748E-01  5.49779E+00  2.51536E+00  6.73820E-02 F
  9.50000E-01  9.81748E-01  5.69414E+00  2.48132E+00  7.17284E-02 F
  9.50000E-01  9.81748E-01  5.89049E+00  2.44411E+00  8.49856E-02 F
  9.50000E-01  9.81748E-01  6.08684E+00  2.39812E+00  1.07930E-01 F
  9.50000E-01  1.02102E+00  0.00000E+00  2.33104E+00  1.17995E-01 F
  9.50000E-01  1.02102E+00  1.96350E-01  2.28418E+00  8.67582E-02 F
  9.50000E-01  1.02102E+00  3.92699E-01  2.25350E+00  5.10154E-02 F
  9.50000E-01  1.02102E+00  5.89049E-01  2.23832E+00  1.96340E-02 F
  9.50000E-01  1.02102E+00  7.85398E-01  2.23426E+00 -1.56104E-04 F
  9.50000E-01  1.02102E+00  9.81748E-01  2.23918E+00 -2.36593E-02 F
  9.50000E-01  1.02102E+00  1.17810E+00  2.25560E+00 -5.05370E-02 F
  9.50000E-01  1.02102E+00  1.37445E+00  2.28346E+00 -7.32906E-02 F
  9.50000E-01  1.02102E+00  1.57080E+00  2.31994E+00 -8.63454E-02 F
  9.50000E-01  1.02102E+00  1.76715E+00  2.36075E+00 -8.99124E-02 F
  9.50000E-01  1.02102E+00  1.96350E+00  2.40242E+00 -8.78209E-02 F
  9.50000E-01  1.02102E+00  2.15985E+00  2.44303E+00 -8.19618E-02 F
  9.50000E-01  1.02102E+00  2.35619E+00  2.48025E+00 -7.22648E-02 F
  9.50000E-01  1.02102E+00  2.55254E+00  2.51481E+00 -7.07854E-02 F
  9.50000E-01  1.02102E+00  2.74889E+00  2.55200E+00 -8.01112E-02 F
  9.50000E-01  1.02102E+00  2.94524E+00  2.59596E+00 -9.38923E-02 F
  9.50000E-01  1.02102E+00  3.14159E+00  2.64695E+00 -1.02561E-01 F
  9.50000E-01  1.02102E+00  3.33794E+00  2.70016E+00 -9.73219E-02 F
  9.50000E-01  1.02102E+00  3.53429E+00  2.74730E+00 -7.73462E-02 F
  9.50000E-01  1.02102E+00  3.73064E+00  2.78265E+00 -5.21324E-02 F
  9.50000E-01  1.02102E+00  3.92699E+00  2.80265E+00 -1.97650E-02 F
  9.50000E-01  1.02102E+00  4.12334E+00  2.80454E+00  1.22145E-02 F
  9.50000E-01  1.02102E+00  4.31969E+00  2.78882E+00  4.61624E-02 F
  9.50000E-01  1.02102E+00  4.51604E+00  2.75457E+00  7.70957E-02 F
  9.50000E-01  1.02102E+00  4.71239E+00  2.70943E+00  8.79852E-02 F
  9.50000E-01  1.02102E+00  4.90874E+00  2.66318E+00  8.64166E-02 F
  9.50000E-01  1.02102E+00  5.10509E+00  2.61950E+00  8.16021E-02 F
  9.50000E-01  1.02102E+00  5.30144E+00  2.57931E+00  7.68350E-02 F
  9.50000E-01  1.02102E+00  5.49779E+00  2.53973E+00  8.24643E-02 F
  9.50000E-01  1.02102E+00  5.69414E+00  2.49632E+00  9.37944E-02 F
  9.50000E-01  1.02102E+00  5.89049E+00  2.44654E+00  1.12639E-01 F
  9.50000E-01  1.02102E+00  6.08684E+00  2.38893E+00  1.27252E-01 F
  9.50000E-01  1.06029E+00  0.00000E+00  2.34358E+00  9.03378E-02 F
  9.50000E-01  1.06029E+00  1.96350E-01  2.30927E+00  5.96635E-02 F
  9.50000E-01  1.06029E+00  3.92699E-01  2.28905E+00  2.94520E-02 F
  9.50000E-01  1.06029E+00  5.89049E-01  2.28323E+00 -3.00039E-03 F
  9.50000E-01  1.06029E+00  7.85398E-01  2.29080E+00 -3.03174E-02 F
  9.50000E-01  1.06029E+00  9.81748E-01  2.31050E+00 -5.61228E-02 F
  9.50000E-01  1.06029E+00  1.17810E+00  2.34050E+00 -7.39910E-02 F
  9.50000E-01  1.06029E+00  1.37445E+00  2.37781E+00 -8.60736E-02 F
  9.50000E-01  1.06029E+00  1.57080E+00  2.41984E+00 -9.15066E-02 F
  9.50000E-01  1.06029E+00  1.76715E+00  2.46399E+00 -9.12933E-02 F
  9.50000E-01  1.06029E+00  1.96350E+00  2.50614E+00 -7.91946E-02 F
  9.50000E-01  1.06029E+00  2.15985E+00  2.54030E+00 -5.83111E-02 F
  9.50000E-01  1.06029E+00  2.35619E+00  2.56505E+00 -4.23803E-02 F
  9.50000E-01  1.06029E+00  2.55254E+00  2.58540E+00 -4.07366E-02 F
  9.50000E-01  1.06029E+00  2.74889E+00  2.60899E+00 -5.39279E-02 F
  9.50000E-01  1.06029E+00  2.94524E+00  2.64201E+00 -7.43179E-02 F
  9.50000E-01  1.06029E+00  3.14159E+00  2.68541E+00 -9.00177E-02 F
  9.50000E-01  1.06029E+00  3.33794E+00  2.73441E+00 -9.08752E-02 F
  9.50000E-01  1.06029E+00  3.53429E+00  2.77929E+00 -7.21573E-02 F
  9.50000E-01  1.06029E+00  3.73064E+00  2.81078E+00 -4.10455E-02 F
  9.50000E-01  1.06029E+00  3.92699E+00  2.82342E+00 -4.98336E-03 F
  9.50000E-01  1.06029E+00  4.12334E+00  2.81776E+00  2.41313E-02 F
  9.50000E-01  1.06029E+00  4.31969E+00  2.79729E+00  4.98989E-02 F
  9.50000E-01  1.06029E+00  4.51604E+00  2.76429E+00  6.91506E-02 F
  9.50000E-01  1.06029E+00  4.71239E+00  2.72418E+00  7.83852E-02 F
  9.50000E-01  1.06029E+00  4.90874E+00  2.68154E+00  8.17547E-02 F
  9.50000E-01  1.06029E+00  5.10509E+00  2.63817E+00  8.46269E-02 F
  9.50000E-01  1.06029E+00  5.30144E+00  2.59336E+00  9.04519E-02 F
  9.50000E-01  1.06029E+00  5.49779E+00  2.54608E+00  9.64388E-02 F
  9.50000E-01  1.06029E+00  5.69414E+00  2.49686E+00  1.03551E-01 F
  9.50000E-01  1.06029E+00  5.89049E+00  2.44409E+00  1.12875E-01 F
  9.50000E-01  1.06029E+00  6.08684E+00  2.39073E+00  1.09535E-01 F
  9.50000E-01  1.09956E+00  0.00000E+00  2.29940E+00  6.64281E-02 F
  9.50000E-01  1.09956E+00  1.96350E-01  2.27881E+00  2.87102E-02 F
  9.50000E-01  1.09956E+00  3.92699E-01  2.27144E+00  4.40770E-03 F
  9.50000E-01  1.09956E+00  5.89049E-01  2.27500E+00 -1.98307E-02 F
  9.50000E-01  1.09956E+00  7.85398E-01  2.28957E+00 -4.72313E-02 F
  9.50000E-01  1.09956E+00  9.81748E-01  2.31888E+00 -8.13691E-02 F
  9.50000E-01  1.09956E+00  1.17810E+00  2.36147E+00 -1.01240E-01 F
  9.50000E-01  1.09956E+00  1.37445E+00  2.41046E+00 -1.05068E-01 F
  9.50000E-01  1.09956E+00  1.57080E+00  2.45850E+00 -9.46119E-02 F
  9.50000E-01  1.09956E+00  1.76715E+00  2.50168E+00 -8.32014E-02 F
  9.50000E-01  1.09956E+00  1.96350E+00  2.54034E+00 -7.29005E-02 F
  9.50000E-01  1.09956E+00  2.15985E+00  2.57437E+00 -6.30064E-02 F
  9.50000E-01  1.09956E+00  2.35619E+00  2.60468E+00 -5.71679E-02 F
  9.50000E-01  1.09956E+00  2.55254E+00  2.63400E+00 -5.81759E-02 F
  9.50000E-01  1.09956E+00  2.74889E+00  2.66623E+00 -6.66587E-02 F
  9.50000E-01  1.09956E+00  2.94524E+00  2.70388E+00 -7.51688E-02 F
  9.50000E-01  1.09956E+00  3.14159E+00  2.74449E+00 -7.51596E-02 F
  9.50000E-01  1.09956E+00  3.33794E+00  2.78335E+00 -6.65473E-02 F
  9.50000E-01  1.09956E+00  3.53429E+00  2.81509E+00 -4.69097E-02 F
  9.50000E-01  1.09956E+00  3.73064E+00  2.83338E+00 -1.82524E-02 F
  9.50000E-01  1.09956E+00  3.92699E+00  2.83522E+00  1.13049E-02 F
  9.50000E-01  1.09956E+00  4.12334E+00  2.82097E+00  4.01773E-02 F
  9.50000E-01  1.09956E+00  4.31969E+00  2.79143E+00  6.51895E-02 F
  9.50000E-01  1.09956E+00  4.51604E+00  2.75260E+00  7.49736E-02 F
  9.50000E-01  1.09956E+00  4.71239E+00  2.71186E+00  7.65376E-02 F
  9.50000E-01  1.09956E+00  4.90874E+00  2.67133E+00  7.66083E-02 F
  9.50000E-01  1.09956E+00  5.10509E+00  2.63105E+00  7.98866E-02 F
  9.50000E-01  1.09956E+00  5.30144E+00  2.58614E+00  9.76877E-02 F
  9.50000E-01  1.09956E+00  5.49779E+00  2.53146E+00  1.19647E-01 F
  9.50000E-01  1.09956E+00  5.69414E+00  2.46747E+00  1.40477E-01 F
  9.50000E-01  1.09956E+00  5.89049E+00  2.39901E+00  1.40089E-01 F
  9.50000E-01  1.09956E+00  6.08684E+00  2.34003E+00  1.10375E-01 F
  9.50000E-01  1.13883E+00  0.00000E+00  2.26409E+00  4.23486E-02 F
  9.50000E-01  1.13883E+00  1.96350E-01  2.25499E+00  5.17509E-03 F
  9.50000E-01  1.13883E+00  3.92699E-01  2.25673E+00 -1.27078E-02 F
  9.50000E-01  1.13883E+00  5.89049E-01  2.26549E+00 -2.58206E-02 F
  9.50000E-01  1.13883E+00  7.85398E-01  2.28183E+00 -5.26485E-02 F
  9.50000E-01  1.13883E+00  9.81748E-01  2.31550E+00 -9.48752E-02 F
  9.50000E-01  1.13883E+00  1.17810E+00  2.36450E+00 -1.14203E-01 F
  9.50000E-01  1.13883E+00  1.37445E+00  2.41872E+00 -1.14096E-01 F
  9.50000E-01  1.13883E+00  1.57080E+00  2.47072E+00 -1.01141E-01 F
  9.50000E-01  1.13883E+00  1.76715E+00  2.51622E+00 -8.48948E-02 F
  9.50000E-01  1.13883E+00  1.96350E+00  2.55492E+00 -7.13058E-02 F
  9.50000E-01  1.13883E+00  2.15985E+00  2.58878E+00 -6.43241E-02 F
  9.50000E-01  1.13883E+00  2.35619E+00  2.62225E+00 -6.85819E-02 F
  9.50000E-01  1.13883E+00  2.55254E+00  2.66095E+00 -8.09726E-02 F
  9.50000E-01  1.13883E+00  2.74889E+00  2.70614E+00 -8.89964E-02 F
  9.50000E-01  1.13883E+00  2.94524E+00  2.75356E+00 -8.57577E-02 F
  9.50000E-01  1.13883E+00  3.14159E+00  2.79618E+00 -6.84634E-02 F
  9.50000E-01  1.13883E+00  3.33794E+00  2.82688E+00 -4.19189E-02 F
  9.50000E-01  1.13883E+00  3.53429E+00  2.84237E+00 -1.41847E-02 F
  9.50000E-01  1.13883E+00  3.73064E+00  2.84359E+00  8.95762E-03 F
  9.50000E-01  1.13883E+00  3.92699E+00  2.83296E+00  2.90240E-02 F
  9.50000E-01  1.13883E+00  4.12334E+00  2.81134E+00  4.90063E-02 F
  9.50000E-01  1.13883E+00  4.31969E+00  2.77946E+00  6.59173E-02 F
  9.50000E-01  1.13883E+00  4.51604E+00  2.74157E+00  7.18956E-02 F
  9.50000E-01  1.13883E+00  4.71239E+00  2.70333E+00  7.10534E-02 F
  9.50000E-01  1.13883E+00  4.90874E+00  2.66581E+00  7.16921E-02 F
  9.50000E-01  1.13883E+00  5.10509E+00  2.62688E+00  8.12343E-02 F
  9.50000E-01  1.13883E+00  5.30144E+00  2.57852E+00  1.10256E-01 F
  9.50000E-01  1.13883E+00  5.49779E+00  2.51512E+00  1.43315E-01 F
  9.50000E-01  1.13883E+00  5.69414E+00  2.43794E+00  1.70802E-01 F
  9.50000E-01  1.13883E+00  5.89049E+00  2.35864E+00  1.57447E-01 F
  9.50000E-01  1.13883E+00  6.08684E+00  2.29734E+00  1.06769E-01 F
  9.50000E-01  1.17810E+00  0.00000E+00  2.30477E+00  2.95171E-02 F
  9.50000E-01  1.17810E+00  1.96350E-01  2.29962E+00 -3.71910E-03 F
  9.50000E-01  1.17810E+00  3.92699E-01  2.30816E+00 -3.39103E-02 F
  9.50000E-01  1.17810E+00  5.89049E-01  2.32776E+00 -4.92176E-02 F
  9.50000E-01  1.17810E+00  7.85398E-01  2.35398E+00 -6.80027E-02 F
  9.50000E-01  1.17810E+00  9.81748E-01  2.39131E+00 -8.96228E-02 F
  9.50000E-01  1.17810E+00  1.17810E+00  2.43558E+00 -9.57966E-02 F
  9.50000E-01  1.17810E+00  1.37445E+00  2.48243E+00 -9.75422E-02 F
  9.50000E-01  1.17810E+00  1.57080E+00  2.52941E+00 -9.18023E-02 F
  9.50000E-01  1.17810E+00  1.76715E+00  2.57202E+00 -7.73236E-02 F
  9.50000E-01  1.17810E+00  1.96350E+00  2.60722E+00 -6.17968E-02 F
  9.50000E-01  1.17810E+00  2.15985E+00  2.63644E+00 -5.33682E-02 F
  9.50000E-01  1.17810E+00  2.35619E+00  2.66479E+00 -5.83945E-02 F
  9.50000E-01  1.17810E+00  2.55254E+00  2.70006E+00 -7.63060E-02 F
  9.50000E-01  1.17810E+00  2.74889E+00  2.74440E+00 -8.68014E-02 F
  9.50000E-01  1.17810E+00  2.94524E+00  2.79048E+00 -8.01138E-02 F
  9.50000E-01  1.17810E+00  3.14159E+00  2.82917E+00 -5.73598E-02 F
  9.50000E-01  1.17810E+00  3.33794E+00  2.85123E+00 -2.02808E-02 F
  9.50000E-01  1.17810E+00  3.53429E+00  2.85237E+00  1.38786E-02 F
  9.50000E-01  1.17810E+00  3.73064E+00  2.83854E+00  3.39539E-02 F
  9.50000E-01  1.17810E+00  3.92699E+00  2.81573E+00  4.69189E-02 F
  9.50000E-01  1.17810E+00  4.12334E+00  2.78866E+00  5.01459E-02 F
  9.50000E-01  1.17810E+00  4.31969E+00  2.76065E+00  5.38810E-02 F
  9.50000E-01  1.17810E+00  4.51604E+00  2.72954E+00  6.13332E-02 F
  9.50000E-01  1.17810E+00  4.71239E+00  2.69529E+00  6.73823E-02 F
  9.50000E-01  1.17810E+00  4.90874E+00  2.65791E+00  7.53546E-02 F
  9.50000E-01  1.17810E+00  5.10509E+00  2.61552E+00  9.01791E-02 F
  9.50000E-01  1.17810E+00  5.30144E+00  2.56457E+00  1.09592E-01 F
  9.50000E-01  1.17810E+00  5.49779E+00  2.50571E+00  1.27625E-01 F
  9.50000E-01  1.17810E+00  5.69414E+00  2.43988E+00  1.39434E-01 F
  9.50000E-01  1.17810E+00  5.89049E+00  2.37751E+00  1.20055E-01 F
  9.50000E-01  1.17810E+00  6.08684E+00  2.33001E+00  8.21084E-02 F
  9.50000E-01  1.21737E+00  0.00000E+00  2.30877E+00  1.93272E-02 F
  9.50000E-01  1.21737E+00  1.96350E-01  2.30662E+00 -1.05335E-02 F
  9.50000E-01  1.21737E+00  3.92699E-01  2.32053E+00 -5.11890E-02 F
  9.50000E-01  1.21737E+00  5.89049E-01  2.35154E+00 -8.18824E-02 F
  9.50000E-01  1.21737E+00  7.85398E-01  2.39500E+00 -1.02053E-01 F
  9.50000E-01  1.21737E+00  9.81748E-01  2.44381E+00 -9.99988E-02 F
  9.50000E-01  1.21737E+00  1.17810E+00  2.48956E+00 -8.84966E-02 F
  9.50000E-01  1.21737E+00  1.37445E+00  2.52957E+00 -7.36361E-02 F
  9.50000E-01  1.21737E+00  1.57080E+00  2.56378E+00 -6.53348E-02 F
  9.50000E-01  1.21737E+00  1.76715E+00  2.59705E+00 -6.68709E-02 F
  9.50000E-01  1.21737E+00  1.96350E+00  2.63243E+00 -7.11672E-02 F
  9.50000E-01  1.21737E+00  2.15985E+00  2.67044E+00 -7.40984E-02 F
  9.50000E-01  1.21737E+00  2.35619E+00  2.70942E+00 -7.35042E-02 F
  9.50000E-01  1.21737E+00  2.55254E+00  2.74923E+00 -7.53481E-02 F
  9.50000E-01  1.21737E+00  2.74889E+00  2.78989E+00 -7.24736E-02 F
  9.50000E-01  1.21737E+00  2.94524E+00  2.82651E+00 -5.86257E-02 F
  9.50000E-01  1.21737E+00  3.14159E+00  2.85284E+00 -3.35861E-02 F
  9.50000E-01  1.21737E+00  3.33794E+00  2.86146E+00  4.18383E-03 F
  9.50000E-01  1.21737E+00  3.53429E+00  2.84910E+00  3.73646E-02 F
  9.50000E-01  1.21737E+00  3.73064E+00  2.82221E+00  5.82617E-02 F
  9.50000E-01  1.21737E+00  3.92699E+00  2.78543E+00  7.35843E-02 F
  9.50000E-01  1.21737E+00  4.12334E+00  2.74509E+00  7.19552E-02 F
  9.50000E-01  1.21737E+00  4.31969E+00  2.70922E+00  6.26318E-02 F
  9.50000E-01  1.21737E+00  4.51604E+00  2.67680E+00  6.15650E-02 F
  9.50000E-01  1.21737E+00  4.71239E+00  2.64343E+00  6.65907E-02 F
  9.50000E-01  1.21737E+00  4.90874E+00  2.60749E+00  7.36553E-02 F
  9.50000E-01  1.21737E+00  5.10509E+00  2.56641E+00  8.95866E-02 F
  9.50000E-01  1.21737E+00  5.30144E+00  2.51743E+00  1.05650E-01 F
  9.50000E-01  1.21737E+00  5.49779E+00  2.46254E+00  1.18237E-01 F
  9.50000E-01  1.21737E+00  5.69414E+00  2.40651E+00  1.10680E-01 F
  9.50000E-01  1.21737E+00  5.89049E+00  2.36046E+00  8.67632E-02 F
  9.50000E-01  1.21737E+00  6.08684E+00  2.32622E+00  5.87638E-02 F
