s E_r[V/m] (\Gamma_b/n_b[m/s]  Q_b/n_b/T_b[m/s] L_1^b[m^2/s] L_2^b[m^2/s]  Z_b n_b[10^{19}m^{-3}] dlnn_b/dr[m^{-1}] T_b[eV] dlnT_b/dr[m^{-1}], b=1,NBB), size(e\varphi_1/T_i) 
  7.50000E-01 -1.91900E+04  2.01523E-02  5.83550E-02  6.05812E-04  2.21513E-03  4.77830E+00 -2.52530E+00  2.69353E+02 -1.04592E+01 -1.00000E+00 -4.29136E-01 -9.98893E-01  2.42831E-02  9.10395E-02  4.77830E+00 -2.52530E+00  2.62711E+02 -1.30656E+01  1.00000E+00 -1.62954-131  0.00000E+00          NaN
  7.50000E-01 -1.84793E+04  1.95349E-02  5.67590E-02  6.05856E-04  2.21514E-03  4.77830E+00 -2.52530E+00  2.69353E+02 -1.04592E+01 -1.00000E+00 -4.07131E-01 -9.33390E-01  2.42855E-02  9.10407E-02  4.77830E+00 -2.52530E+00  2.62711E+02 -1.30656E+01  1.00000E+00 -1.62954-131  0.00000E+00          NaN
  7.50000E-01 -1.77686E+04  1.89168E-02  5.51628E-02  6.05900E-04  2.21516E-03  4.77830E+00 -2.52530E+00  2.69353E+02 -1.04592E+01 -1.00000E+00 -3.85125E-01 -8.67886E-01  2.42881E-02  9.10420E-02  4.77830E+00 -2.52530E+00  2.62711E+02 -1.30656E+01  1.00000E+00 -1.62954-131  0.00000E+00          NaN
  7.50000E-01 -1.70578E+04  1.82979E-02  5.35663E-02  6.05944E-04  2.21517E-03  4.77830E+00 -2.52530E+00  2.69353E+02 -1.04592E+01 -1.00000E+00 -3.63119E-01 -8.02381E-01  2.42908E-02  9.10434E-02  4.77830E+00 -2.52530E+00  2.62711E+02 -1.30656E+01  1.00000E+00 -1.62954-131  0.00000E+00          NaN
  7.50000E-01 -1.63471E+04  1.76783E-02  5.19697E-02  6.05987E-04  2.21518E-03  4.77830E+00 -2.52530E+00  2.69353E+02 -1.04592E+01 -1.00000E+00 -3.41110E-01 -7.36875E-01  2.42937E-02  9.10449E-02  4.77830E+00 -2.52530E+00  2.62711E+02 -1.30656E+01  1.00000E+00 -1.62954-131  0.00000E+00          NaN
  7.50000E-01 -1.56363E+04  1.70579E-02  5.03727E-02  6.06031E-04  2.21519E-03  4.77830E+00 -2.52530E+00  2.69353E+02 -1.04592E+01 -1.00000E+00 -3.19098E-01 -6.71366E-01  2.42968E-02  9.10464E-02  4.77830E+00 -2.52530E+00  2.62711E+02 -1.30656E+01  1.00000E+00 -1.62954-131  0.00000E+00          NaN
  7.50000E-01 -1.49256E+04  1.64368E-02  4.87756E-02  6.06076E-04  2.21521E-03  4.77830E+00 -2.52530E+00  2.69353E+02 -1.04592E+01 -1.00000E+00 -2.97081E-01 -6.05855E-01  2.43001E-02  9.10481E-02  4.77830E+00 -2.52530E+00  2.62711E+02 -1.30656E+01  1.00000E+00 -1.62954-131  0.00000E+00          NaN
  7.50000E-01 -1.42148E+04  1.58150E-02  4.71782E-02  6.06120E-04  2.21522E-03  4.77830E+00 -2.52530E+00  2.69353E+02 -1.04592E+01 -1.00000E+00 -2.75060E-01 -5.40340E-01  2.43036E-02  9.10499E-02  4.77830E+00 -2.52530E+00  2.62711E+02 -1.30656E+01  1.00000E+00 -1.62954-131  0.00000E+00          NaN
  7.50000E-01 -1.35041E+04  1.51924E-02  4.55807E-02  6.06165E-04  2.21523E-03  4.77830E+00 -2.52530E+00  2.69353E+02 -1.04592E+01 -1.00000E+00 -2.53031E-01 -4.74821E-01  2.43073E-02  9.10518E-02  4.77830E+00 -2.52530E+00  2.62711E+02 -1.30656E+01  1.00000E+00 -1.62954-131  0.00000E+00          NaN
  7.50000E-01 -1.27934E+04  1.45692E-02  4.39829E-02  6.06211E-04  2.21524E-03  4.77830E+00 -2.52530E+00  2.69353E+02 -1.04592E+01 -1.00000E+00 -2.30993E-01 -4.09296E-01  2.43113E-02  9.10538E-02  4.77830E+00 -2.52530E+00  2.62711E+02 -1.30656E+01  1.00000E+00 -1.62954-131  0.00000E+00          NaN
  7.50000E-01 -1.20826E+04  1.39451E-02  4.23849E-02  6.06258E-04  2.21526E-03  4.77830E+00 -2.52530E+00  2.69353E+02 -1.04592E+01 -1.00000E+00 -2.08943E-01 -3.43765E-01  2.43156E-02  9.10560E-02  4.77830E+00 -2.52530E+00  2.62711E+02 -1.30656E+01  1.00000E+00 -1.62954-131  0.00000E+00          NaN
  7.50000E-01 -1.13719E+04  1.33203E-02  4.07867E-02  6.06306E-04  2.21527E-03  4.77830E+00 -2.52530E+00  2.69353E+02 -1.04592E+01 -1.00000E+00 -1.86880E-01 -2.78225E-01  2.43201E-02  9.10583E-02  4.77830E+00 -2.52530E+00  2.62711E+02 -1.30656E+01  1.00000E+00 -1.62954-131  0.00000E+00          NaN
  7.50000E-01 -1.06611E+04  1.26946E-02  3.91882E-02  6.06356E-04  2.21528E-03  4.77830E+00 -2.52530E+00  2.69353E+02 -1.04592E+01 -1.00000E+00 -1.64801E-01 -2.12675E-01  2.43249E-02  9.10607E-02  4.77830E+00 -2.52530E+00  2.62711E+02 -1.30656E+01  1.00000E+00 -1.62954-131  0.00000E+00          NaN
  7.50000E-01 -9.95039E+03  1.20680E-02  3.75896E-02  6.06408E-04  2.21529E-03  4.77830E+00 -2.52530E+00  2.69353E+02 -1.04592E+01 -1.00000E+00 -1.42702E-01 -1.47113E-01  2.43300E-02  9.10632E-02  4.77830E+00 -2.52530E+00  2.62711E+02 -1.30656E+01  1.00000E+00 -1.62954-131  0.00000E+00          NaN
  7.50000E-01 -9.23965E+03  1.14405E-02  3.59908E-02  6.06463E-04  2.21530E-03  4.77830E+00 -2.52530E+00  2.69353E+02 -1.04592E+01 -1.00000E+00 -1.20580E-01 -8.15368E-02  2.43354E-02  9.10659E-02  4.77830E+00 -2.52530E+00  2.62711E+02 -1.30656E+01  1.00000E+00 -1.62954-131  0.00000E+00          NaN
  7.50000E-01 -8.52891E+03  1.08118E-02  3.43917E-02  6.06520E-04  2.21532E-03  4.77830E+00 -2.52530E+00  2.69353E+02 -1.04592E+01 -1.00000E+00 -9.84325E-02 -1.59452E-02  2.43411E-02  9.10686E-02  4.77830E+00 -2.52530E+00  2.62711E+02 -1.30656E+01  1.00000E+00 -1.62954-131  0.00000E+00          NaN
  7.50000E-01 -7.81817E+03  1.01819E-02  3.27924E-02  6.06582E-04  2.21533E-03  4.77830E+00 -2.52530E+00  2.69353E+02 -1.04592E+01 -1.00000E+00 -7.62560E-02  4.96641E-02  2.43471E-02  9.10715E-02  4.77830E+00 -2.52530E+00  2.62711E+02 -1.30656E+01  1.00000E+00 -1.62954-131  0.00000E+00          NaN
  7.50000E-01 -7.10742E+03  9.55038E-03  3.11928E-02  6.06649E-04  2.21534E-03  4.77830E+00 -2.52530E+00  2.69353E+02 -1.04592E+01 -1.00000E+00 -5.40478E-02  1.15293E-01  2.43535E-02  9.10745E-02  4.77830E+00 -2.52530E+00  2.62711E+02 -1.30656E+01  1.00000E+00 -1.62954-131  0.00000E+00          NaN
  7.50000E-01 -6.39668E+03  8.91707E-03  2.95929E-02  6.06721E-04  2.21535E-03  4.77830E+00 -2.52530E+00  2.69353E+02 -1.04592E+01 -1.00000E+00 -3.18055E-02  1.80944E-01  2.43601E-02  9.10776E-02  4.77830E+00 -2.52530E+00  2.62711E+02 -1.30656E+01  1.00000E+00 -1.62954-131  0.00000E+00          NaN
  7.50000E-01 -5.68594E+03  8.28155E-03  2.79927E-02  6.06799E-04  2.21537E-03  4.77830E+00 -2.52530E+00  2.69353E+02 -1.04592E+01 -1.00000E+00 -9.52753E-03  2.46618E-01  2.43671E-02  9.10807E-02  4.77830E+00 -2.52530E+00  2.62711E+02 -1.30656E+01  1.00000E+00 -1.62954-131  0.00000E+00          NaN
  7.50000E-01 -4.97520E+03  7.64334E-03  2.63921E-02  6.06883E-04  2.21538E-03  4.77830E+00 -2.52530E+00  2.69353E+02 -1.04592E+01 -1.00000E+00  1.27873E-02  3.12315E-01  2.43746E-02  9.10840E-02  4.77830E+00 -2.52530E+00  2.62711E+02 -1.30656E+01  1.00000E+00 -1.62954-131  0.00000E+00          NaN
  7.50000E-01 -4.26445E+03  7.00193E-03  2.47911E-02  6.06972E-04  2.21539E-03  4.77830E+00 -2.52530E+00  2.69353E+02 -1.04592E+01 -1.00000E+00  3.51407E-02  3.78038E-01  2.43825E-02  9.10872E-02  4.77830E+00 -2.52530E+00  2.62711E+02 -1.30656E+01  1.00000E+00 -1.62954-131  0.00000E+00          NaN
  7.50000E-01 -3.55371E+03  6.35681E-03  2.31897E-02  6.07066E-04  2.21541E-03  4.77830E+00 -2.52530E+00  2.69353E+02 -1.04592E+01 -1.00000E+00  5.75372E-02  4.43788E-01  2.43909E-02  9.10906E-02  4.77830E+00 -2.52530E+00  2.62711E+02 -1.30656E+01  1.00000E+00 -1.62954-131  0.00000E+00          NaN
  7.50000E-01 -2.84297E+03  5.70758E-03  2.15877E-02  6.07160E-04  2.21542E-03  4.77830E+00 -2.52530E+00  2.69353E+02 -1.04592E+01 -1.00000E+00  7.99887E-02  5.09569E-01  2.43999E-02  9.10940E-02  4.77830E+00 -2.52530E+00  2.62711E+02 -1.30656E+01  1.00000E+00 -1.62954-131  0.00000E+00          NaN
  7.50000E-01 -2.13223E+03  5.05414E-03  1.99852E-02  6.07249E-04  2.21543E-03  4.77830E+00 -2.52530E+00  2.69353E+02 -1.04592E+01 -1.00000E+00  1.02517E-01  5.75388E-01  2.44093E-02  9.10973E-02  4.77830E+00 -2.52530E+00  2.62711E+02 -1.30656E+01  1.00000E+00 -1.62954-131  0.00000E+00          NaN
  7.50000E-01 -1.42148E+03  4.39683E-03  1.83824E-02  6.07325E-04  2.21545E-03  4.77830E+00 -2.52530E+00  2.69353E+02 -1.04592E+01 -1.00000E+00  1.25140E-01  6.41257E-01  2.44185E-02  9.11003E-02  4.77830E+00 -2.52530E+00  2.62711E+02 -1.30656E+01  1.00000E+00 -1.62954-131  0.00000E+00          NaN
  7.50000E-01 -7.10742E+02  3.73648E-03  1.67794E-02  6.07382E-04  2.21546E-03  4.77830E+00 -2.52530E+00  2.69353E+02 -1.04592E+01 -1.00000E+00  1.47737E-01  7.07172E-01  2.44276E-02  9.11028E-02  4.77830E+00 -2.52530E+00  2.62711E+02 -1.30656E+01  1.00000E+00 -1.62954-131  0.00000E+00          NaN
  7.50000E-01 -2.30377E-13  3.03017E-03  1.51753E-02  6.07492E-04  2.21546E-03  4.77830E+00 -2.52530E+00  2.69353E+02 -1.04592E+01 -1.00000E+00  1.69878E-01  7.73116E-01  2.44374E-02  9.11046E-02  4.77830E+00 -2.52530E+00  2.62711E+02 -1.30656E+01  1.00000E+00 -1.62954-131  0.00000E+00          NaN
  7.50000E-01  7.10742E+02  2.42462E-03  1.35740E-02  6.07382E-04  2.21546E-03  4.77830E+00 -2.52530E+00  2.69353E+02 -1.04592E+01 -1.00000E+00  1.94634E-01  8.39346E-01  2.44276E-02  9.11028E-02  4.77830E+00 -2.52530E+00  2.62711E+02 -1.30656E+01  1.00000E+00 -1.62954-131  0.00000E+00          NaN
  7.50000E-01  1.42148E+03  1.77982E-03  1.19722E-02  6.07325E-04  2.21545E-03  4.77830E+00 -2.52530E+00  2.69353E+02 -1.04592E+01 -1.00000E+00  2.18467E-01  9.05506E-01  2.44185E-02  9.11003E-02  4.77830E+00 -2.52530E+00  2.62711E+02 -1.30656E+01  1.00000E+00 -1.62954-131  0.00000E+00          NaN
  7.50000E-01  2.13223E+03  1.14027E-03  1.03711E-02  6.07249E-04  2.21543E-03  4.77830E+00 -2.52530E+00  2.69353E+02 -1.04592E+01 -1.00000E+00  2.41973E-01  9.71611E-01  2.44093E-02  9.10973E-02  4.77830E+00 -2.52530E+00  2.62711E+02 -1.30656E+01  1.00000E+00 -1.62954-131  0.00000E+00          NaN
  7.50000E-01  2.84297E+03  5.05736E-04  8.77076E-03  6.07160E-04  2.21542E-03  4.77830E+00 -2.52530E+00  2.69353E+02 -1.04592E+01 -1.00000E+00  2.65280E-01  1.03766E+00  2.43999E-02  9.10940E-02  4.77830E+00 -2.52530E+00  2.62711E+02 -1.30656E+01  1.00000E+00 -1.62954-131  0.00000E+00          NaN
  7.50000E-01  3.55371E+03 -1.24570E-04  7.17097E-03  6.07066E-04  2.21541E-03  4.77830E+00 -2.52530E+00  2.69353E+02 -1.04592E+01 -1.00000E+00  2.88420E-01  1.10366E+00  2.43909E-02  9.10906E-02  4.77830E+00 -2.52530E+00  2.62711E+02 -1.30656E+01  1.00000E+00 -1.62954-131  0.00000E+00          NaN
  7.50000E-01  4.26445E+03 -7.51557E-04  5.57167E-03  6.06972E-04  2.21539E-03  4.77830E+00 -2.52530E+00  2.69353E+02 -1.04592E+01 -1.00000E+00  3.11418E-01  1.16961E+00  2.43825E-02  9.10872E-02  4.77830E+00 -2.52530E+00  2.62711E+02 -1.30656E+01  1.00000E+00 -1.62954-131  0.00000E+00          NaN
  7.50000E-01  4.97520E+03 -1.37611E-03  3.97273E-03  6.06883E-04  2.21538E-03  4.77830E+00 -2.52530E+00  2.69353E+02 -1.04592E+01 -1.00000E+00  3.34298E-01  1.23552E+00  2.43746E-02  9.10840E-02  4.77830E+00 -2.52530E+00  2.62711E+02 -1.30656E+01  1.00000E+00 -1.62954-131  0.00000E+00          NaN
  7.50000E-01  5.68594E+03 -1.99899E-03  2.37409E-03  6.06799E-04  2.21537E-03  4.77830E+00 -2.52530E+00  2.69353E+02 -1.04592E+01 -1.00000E+00  3.57078E-01  1.30139E+00  2.43671E-02  9.10807E-02  4.77830E+00 -2.52530E+00  2.62711E+02 -1.30656E+01  1.00000E+00 -1.62954-131  0.00000E+00          NaN
  7.50000E-01  6.39668E+03 -2.62074E-03  7.75660E-04  6.06721E-04  2.21535E-03  4.77830E+00 -2.52530E+00  2.69353E+02 -1.04592E+01 -1.00000E+00  3.79771E-01  1.36722E+00  2.43601E-02  9.10776E-02  4.77830E+00 -2.52530E+00  2.62711E+02 -1.30656E+01  1.00000E+00 -1.62954-131  0.00000E+00          NaN
  7.50000E-01  7.10742E+03 -3.24176E-03 -8.22585E-04  6.06649E-04  2.21534E-03  4.77830E+00 -2.52530E+00  2.69353E+02 -1.04592E+01 -1.00000E+00  4.02389E-01  1.43302E+00  2.43535E-02  9.10745E-02  4.77830E+00 -2.52530E+00  2.62711E+02 -1.30656E+01  1.00000E+00 -1.62954-131  0.00000E+00          NaN
  7.50000E-01  7.81817E+03 -3.86230E-03 -2.42067E-03  6.06582E-04  2.21533E-03  4.77830E+00 -2.52530E+00  2.69353E+02 -1.04592E+01 -1.00000E+00  4.24940E-01  1.49878E+00  2.43471E-02  9.10715E-02  4.77830E+00 -2.52530E+00  2.62711E+02 -1.30656E+01  1.00000E+00 -1.62954-131  0.00000E+00          NaN
  7.50000E-01  8.52891E+03 -4.48249E-03 -4.01862E-03  6.06520E-04  2.21532E-03  4.77830E+00 -2.52530E+00  2.69353E+02 -1.04592E+01 -1.00000E+00  4.47430E-01  1.56452E+00  2.43411E-02  9.10686E-02  4.77830E+00 -2.52530E+00  2.62711E+02 -1.30656E+01  1.00000E+00 -1.62954-131  0.00000E+00          NaN
  7.50000E-01  9.23965E+03 -5.10242E-03 -5.61642E-03  6.06463E-04  2.21530E-03  4.77830E+00 -2.52530E+00  2.69353E+02 -1.04592E+01 -1.00000E+00  4.69868E-01  1.63024E+00  2.43354E-02  9.10659E-02  4.77830E+00 -2.52530E+00  2.62711E+02 -1.30656E+01  1.00000E+00 -1.62954-131  0.00000E+00          NaN
  7.50000E-01  9.95039E+03 -5.72210E-03 -7.21409E-03  6.06408E-04  2.21529E-03  4.77830E+00 -2.52530E+00  2.69353E+02 -1.04592E+01 -1.00000E+00  4.92258E-01  1.69593E+00  2.43300E-02  9.10632E-02  4.77830E+00 -2.52530E+00  2.62711E+02 -1.30656E+01  1.00000E+00 -1.62954-131  0.00000E+00          NaN
  7.50000E-01  1.06611E+04 -6.34152E-03 -8.81160E-03  6.06356E-04  2.21528E-03  4.77830E+00 -2.52530E+00  2.69353E+02 -1.04592E+01 -1.00000E+00  5.14605E-01  1.76160E+00  2.43249E-02  9.10607E-02  4.77830E+00 -2.52530E+00  2.62711E+02 -1.30656E+01  1.00000E+00 -1.62954-131  0.00000E+00          NaN
  7.50000E-01  1.13719E+04 -6.96067E-03 -1.04090E-02  6.06306E-04  2.21527E-03  4.77830E+00 -2.52530E+00  2.69353E+02 -1.04592E+01 -1.00000E+00  5.36916E-01  1.82725E+00  2.43201E-02  9.10583E-02  4.77830E+00 -2.52530E+00  2.62711E+02 -1.30656E+01  1.00000E+00 -1.62954-131  0.00000E+00          NaN
  7.50000E-01  1.20826E+04 -7.57951E-03 -1.20061E-02  6.06258E-04  2.21526E-03  4.77830E+00 -2.52530E+00  2.69353E+02 -1.04592E+01 -1.00000E+00  5.59193E-01  1.89288E+00  2.43156E-02  9.10560E-02  4.77830E+00 -2.52530E+00  2.62711E+02 -1.30656E+01  1.00000E+00 -1.62954-131  0.00000E+00          NaN
  7.50000E-01  1.27934E+04 -8.19800E-03 -1.36032E-02  6.06211E-04  2.21524E-03  4.77830E+00 -2.52530E+00  2.69353E+02 -1.04592E+01 -1.00000E+00  5.81442E-01  1.95851E+00  2.43113E-02  9.10538E-02  4.77830E+00 -2.52530E+00  2.62711E+02 -1.30656E+01  1.00000E+00 -1.62954-131  0.00000E+00          NaN
  7.50000E-01  1.35041E+04 -8.81609E-03 -1.52000E-02  6.06165E-04  2.21523E-03  4.77830E+00 -2.52530E+00  2.69353E+02 -1.04592E+01 -1.00000E+00  6.03666E-01  2.02411E+00  2.43073E-02  9.10518E-02  4.77830E+00 -2.52530E+00  2.62711E+02 -1.30656E+01  1.00000E+00 -1.62954-131  0.00000E+00          NaN
  7.50000E-01  1.42148E+04 -9.43374E-03 -1.67967E-02  6.06120E-04  2.21522E-03  4.77830E+00 -2.52530E+00  2.69353E+02 -1.04592E+01 -1.00000E+00  6.25867E-01  2.08971E+00  2.43036E-02  9.10499E-02  4.77830E+00 -2.52530E+00  2.62711E+02 -1.30656E+01  1.00000E+00 -1.62954-131  0.00000E+00          NaN
  7.50000E-01  1.49256E+04 -1.00509E-02 -1.83931E-02  6.06076E-04  2.21521E-03  4.77830E+00 -2.52530E+00  2.69353E+02 -1.04592E+01 -1.00000E+00  6.48050E-01  2.15530E+00  2.43001E-02  9.10481E-02  4.77830E+00 -2.52530E+00  2.62711E+02 -1.30656E+01  1.00000E+00 -1.62954-131  0.00000E+00          NaN
  7.50000E-01  1.56363E+04 -1.06676E-02 -1.99893E-02  6.06031E-04  2.21519E-03  4.77830E+00 -2.52530E+00  2.69353E+02 -1.04592E+01 -1.00000E+00  6.70217E-01  2.22088E+00  2.42968E-02  9.10464E-02  4.77830E+00 -2.52530E+00  2.62711E+02 -1.30656E+01  1.00000E+00 -1.62954-131  0.00000E+00          NaN
  7.50000E-01 -5.68594E+03  8.28155E-03  2.79927E-02  6.06799E-04  2.21537E-03  4.77830E+00 -2.52530E+00  2.69353E+02 -1.04592E+01 -1.00000E+00 -9.52753E-03  2.46618E-01  2.43671E-02  9.10807E-02  4.77830E+00 -2.52530E+00  2.62711E+02 -1.30656E+01  1.00000E+00 -1.62954-131  0.00000E+00          NaN
  7.50000E-01 -4.97520E+03  7.64334E-03  2.63921E-02  6.06883E-04  2.21538E-03  4.77830E+00 -2.52530E+00  2.69353E+02 -1.04592E+01 -1.00000E+00  1.27873E-02  3.12315E-01  2.43746E-02  9.10840E-02  4.77830E+00 -2.52530E+00  2.62711E+02 -1.30656E+01  1.00000E+00 -1.62954-131  0.00000E+00          NaN
  7.50000E-01 -5.33057E+03  7.96281E-03  2.71925E-02  6.06840E-04  2.21537E-03  4.77830E+00 -2.52530E+00  2.69353E+02 -1.04592E+01 -1.00000E+00  1.62520E-03  2.79463E-01  2.43708E-02  9.10823E-02  4.77830E+00 -2.52530E+00  2.62711E+02 -1.30656E+01  1.00000E+00 -1.62954-131  0.00000E+00          NaN
  7.50000E-01 -5.15288E+03  7.80317E-03  2.67923E-02  6.06861E-04  2.21538E-03  4.77830E+00 -2.52530E+00  2.69353E+02 -1.04592E+01 -1.00000E+00  7.20506E-03  2.95888E-01  2.43727E-02  9.10831E-02  4.77830E+00 -2.52530E+00  2.62711E+02 -1.30656E+01  1.00000E+00 -1.62954-131  0.00000E+00          NaN
  7.50000E-01 -5.06404E+03  7.72328E-03  2.65922E-02  6.06872E-04  2.21538E-03  4.77830E+00 -2.52530E+00  2.69353E+02 -1.04592E+01 -1.00000E+00  9.99588E-03  3.04102E-01  2.43736E-02  9.10835E-02  4.77830E+00 -2.52530E+00  2.62711E+02 -1.30656E+01  1.00000E+00 -1.62954-131  0.00000E+00          NaN
