s \zeta_{Boozer}  \theta_{Boozer}(right-handed)  B[T]  (v_B.\nabla\psi)[A.U.]
  2.10000E-02  0.00000E+00  0.00000E+00  2.45320E+00  0.00000E+00 T
  2.10000E-02  0.00000E+00  1.96350E-01  2.45393E+00 -3.02249E-03 T
  2.10000E-02  0.00000E+00  3.92699E-01  2.45610E+00 -5.94775E-03 T
  2.10000E-02  0.00000E+00  5.89049E-01  2.45963E+00 -8.63621E-03 T
  2.10000E-02  0.00000E+00  7.85398E-01  2.46438E+00 -1.09220E-02 T
  2.10000E-02  0.00000E+00  9.81748E-01  2.47012E+00 -1.26745E-02 T
  2.10000E-02  0.00000E+00  1.17810E+00  2.47658E+00 -1.38379E-02 T
  2.10000E-02  0.00000E+00  1.37445E+00  2.48348E+00 -1.44128E-02 T
  2.10000E-02  0.00000E+00  1.57080E+00  2.49054E+00 -1.44129E-02 T
  2.10000E-02  0.00000E+00  1.76715E+00  2.49749E+00 -1.38567E-02 T
  2.10000E-02  0.00000E+00  1.96350E+00  2.50405E+00 -1.27967E-02 T
  2.10000E-02  0.00000E+00  2.15985E+00  2.51000E+00 -1.13322E-02 T
  2.10000E-02  0.00000E+00  2.35619E+00  2.51517E+00 -9.56769E-03 T
  2.10000E-02  0.00000E+00  2.55254E+00  2.51941E+00 -7.55132E-03 T
  2.10000E-02  0.00000E+00  2.74889E+00  2.52259E+00 -5.27054E-03 T
  2.10000E-02  0.00000E+00  2.94524E+00  2.52459E+00 -2.72388E-03 T
  2.10000E-02  0.00000E+00  3.14159E+00  2.52526E+00  1.22761E-09 T
  2.10000E-02  0.00000E+00  3.33794E+00  2.52459E+00  2.72388E-03 T
  2.10000E-02  0.00000E+00  3.53429E+00  2.52259E+00  5.27054E-03 T
  2.10000E-02  0.00000E+00  3.73064E+00  2.51941E+00  7.55132E-03 T
  2.10000E-02  0.00000E+00  3.92699E+00  2.51517E+00  9.56769E-03 T
  2.10000E-02  0.00000E+00  4.12334E+00  2.51000E+00  1.13322E-02 T
  2.10000E-02  0.00000E+00  4.31969E+00  2.50405E+00  1.27967E-02 T
  2.10000E-02  0.00000E+00  4.51604E+00  2.49749E+00  1.38567E-02 T
  2.10000E-02  0.00000E+00  4.71239E+00  2.49054E+00  1.44129E-02 T
  2.10000E-02  0.00000E+00  4.90874E+00  2.48348E+00  1.44128E-02 T
  2.10000E-02  0.00000E+00  5.10509E+00  2.47658E+00  1.38379E-02 T
  2.10000E-02  0.00000E+00  5.30144E+00  2.47012E+00  1.26745E-02 T
  2.10000E-02  0.00000E+00  5.49779E+00  2.46438E+00  1.09220E-02 T
  2.10000E-02  0.00000E+00  5.69414E+00  2.45963E+00  8.63621E-03 T
  2.10000E-02  0.00000E+00  5.89049E+00  2.45610E+00  5.94774E-03 T
  2.10000E-02  0.00000E+00  6.08684E+00  2.45393E+00  3.02249E-03 T
  2.10000E-02  3.92699E-02  0.00000E+00  2.45507E+00 -2.13503E-03 T
  2.10000E-02  3.92699E-02  1.96350E-01  2.45680E+00 -5.01685E-03 T
  2.10000E-02  3.92699E-02  3.92699E-01  2.45989E+00 -7.72231E-03 T
  2.10000E-02  3.92699E-02  5.89049E-01  2.46421E+00 -1.00953E-02 T
  2.10000E-02  3.92699E-02  7.85398E-01  2.46958E+00 -1.19903E-02 T
  2.10000E-02  3.92699E-02  9.81748E-01  2.47575E+00 -1.33230E-02 T
  2.10000E-02  3.92699E-02  1.17810E+00  2.48244E+00 -1.40708E-02 T
  2.10000E-02  3.92699E-02  1.37445E+00  2.48937E+00 -1.42341E-02 T
  2.10000E-02  3.92699E-02  1.57080E+00  2.49626E+00 -1.38181E-02 T
  2.10000E-02  3.92699E-02  1.76715E+00  2.50283E+00 -1.28595E-02 T
  2.10000E-02  3.92699E-02  1.96350E+00  2.50882E+00 -1.14529E-02 T
  2.10000E-02  3.92699E-02  2.15985E+00  2.51405E+00 -9.72292E-03 T
  2.10000E-02  3.92699E-02  2.35619E+00  2.51838E+00 -7.75474E-03 T
  2.10000E-02  3.92699E-02  2.55254E+00  2.52168E+00 -5.55777E-03 T
  2.10000E-02  3.92699E-02  2.74889E+00  2.52384E+00 -3.11457E-03 T
  2.10000E-02  3.92699E-02  2.94524E+00  2.52474E+00 -4.72715E-04 T
  2.10000E-02  3.92699E-02  3.14159E+00  2.52430E+00  2.21738E-03 T
  2.10000E-02  3.92699E-02  3.33794E+00  2.52256E+00  4.76404E-03 T
  2.10000E-02  3.92699E-02  3.53429E+00  2.51963E+00  7.03620E-03 T
  2.10000E-02  3.92699E-02  3.73064E+00  2.51565E+00  9.00509E-03 T
  2.10000E-02  3.92699E-02  3.92699E+00  2.51078E+00  1.06920E-02 T
  2.10000E-02  3.92699E-02  4.12334E+00  2.50516E+00  1.20872E-02 T
  2.10000E-02  3.92699E-02  4.31969E+00  2.49895E+00  1.31237E-02 T
  2.10000E-02  3.92699E-02  4.51604E+00  2.49236E+00  1.37198E-02 T
  2.10000E-02  3.92699E-02  4.71239E+00  2.48560E+00  1.38256E-02 T
  2.10000E-02  3.92699E-02  4.90874E+00  2.47894E+00  1.34215E-02 T
  2.10000E-02  3.92699E-02  5.10509E+00  2.47262E+00  1.24863E-02 T
  2.10000E-02  3.92699E-02  5.30144E+00  2.46691E+00  1.09952E-02 T
  2.10000E-02  3.92699E-02  5.49779E+00  2.46206E+00  8.96319E-03 T
  2.10000E-02  3.92699E-02  5.69414E+00  2.45831E+00  6.48455E-03 T
  2.10000E-02  3.92699E-02  5.89049E+00  2.45584E+00  3.71441E-03 T
  2.10000E-02  3.92699E-02  6.08684E+00  2.45475E+00  8.04936E-04 T
  2.10000E-02  7.85398E-02  0.00000E+00  2.44650E+00 -3.77890E-03 T
  2.10000E-02  7.85398E-02  1.96350E-01  2.44901E+00 -6.61472E-03 T
  2.10000E-02  7.85398E-02  3.92699E-01  2.45283E+00 -9.19626E-03 T
  2.10000E-02  7.85398E-02  5.89049E-01  2.45780E+00 -1.13605E-02 T
  2.10000E-02  7.85398E-02  7.85398E-01  2.46371E+00 -1.29900E-02 T
  2.10000E-02  7.85398E-02  9.81748E-01  2.47028E+00 -1.40313E-02 T
  2.10000E-02  7.85398E-02  1.17810E+00  2.47722E+00 -1.44653E-02 T
  2.10000E-02  7.85398E-02  1.37445E+00  2.48425E+00 -1.42810E-02 T
  2.10000E-02  7.85398E-02  1.57080E+00  2.49105E+00 -1.34950E-02 T
  2.10000E-02  7.85398E-02  1.76715E+00  2.49736E+00 -1.21883E-02 T
  2.10000E-02  7.85398E-02  1.96350E+00  2.50294E+00 -1.04978E-02 T
  2.10000E-02  7.85398E-02  2.15985E+00  2.50764E+00 -8.54733E-03 T
  2.10000E-02  7.85398E-02  2.35619E+00  2.51132E+00 -6.38259E-03 T
  2.10000E-02  7.85398E-02  2.55254E+00  2.51389E+00 -3.98745E-03 T
  2.10000E-02  7.85398E-02  2.74889E+00  2.51522E+00 -1.37307E-03 T
  2.10000E-02  7.85398E-02  2.94524E+00  2.51523E+00  1.34974E-03 T
  2.10000E-02  7.85398E-02  3.14159E+00  2.51390E+00  3.99332E-03 T
  2.10000E-02  7.85398E-02  3.33794E+00  2.51133E+00  6.38998E-03 T
  2.10000E-02  7.85398E-02  3.53429E+00  2.50766E+00  8.46565E-03 T
  2.10000E-02  7.85398E-02  3.73064E+00  2.50305E+00  1.02235E-02 T
  2.10000E-02  7.85398E-02  3.92699E+00  2.49766E+00  1.16693E-02 T
  2.10000E-02  7.85398E-02  4.12334E+00  2.49166E+00  1.27646E-02 T
  2.10000E-02  7.85398E-02  4.31969E+00  2.48524E+00  1.34475E-02 T
  2.10000E-02  7.85398E-02  4.51604E+00  2.47861E+00  1.36790E-02 T
  2.10000E-02  7.85398E-02  4.71239E+00  2.47200E+00  1.34495E-02 T
  2.10000E-02  7.85398E-02  4.90874E+00  2.46563E+00  1.27452E-02 T
  2.10000E-02  7.85398E-02  5.10509E+00  2.45974E+00  1.15293E-02 T
  2.10000E-02  7.85398E-02  5.30144E+00  2.45458E+00  9.77769E-03 T
  2.10000E-02  7.85398E-02  5.49779E+00  2.45039E+00  7.53440E-03 T
  2.10000E-02  7.85398E-02  5.69414E+00  2.44739E+00  4.92197E-03 T
  2.10000E-02  7.85398E-02  5.89049E+00  2.44569E+00  2.08990E-03 T
  2.10000E-02  7.85398E-02  6.08684E+00  2.44539E+00 -8.41039E-04 T
  2.10000E-02  1.17810E-01  0.00000E+00  2.42865E+00 -5.57340E-03 T
  2.10000E-02  1.17810E-01  1.96350E-01  2.43200E+00 -8.40582E-03 T
  2.10000E-02  1.17810E-01  3.92699E-01  2.43663E+00 -1.08878E-02 T
  2.10000E-02  1.17810E-01  5.89049E-01  2.44234E+00 -1.28729E-02 T
  2.10000E-02  1.17810E-01  7.85398E-01  2.44888E+00 -1.42739E-02 T
  2.10000E-02  1.17810E-01  9.81748E-01  2.45597E+00 -1.50457E-02 T
  2.10000E-02  1.17810E-01  1.17810E+00  2.46329E+00 -1.51540E-02 T
  2.10000E-02  1.17810E-01  1.37445E+00  2.47052E+00 -1.45866E-02 T
  2.10000E-02  1.17810E-01  1.57080E+00  2.47734E+00 -1.33980E-02 T
  2.10000E-02  1.17810E-01  1.76715E+00  2.48347E+00 -1.17242E-02 T
  2.10000E-02  1.17810E-01  1.96350E+00  2.48872E+00 -9.72578E-03 T
  2.10000E-02  1.17810E-01  2.15985E+00  2.49294E+00 -7.50182E-03 T
  2.10000E-02  1.17810E-01  2.35619E+00  2.49602E+00 -5.06550E-03 T
  2.10000E-02  1.17810E-01  2.55254E+00  2.49787E+00 -2.41180E-03 T
  2.10000E-02  1.17810E-01  2.74889E+00  2.49836E+00  3.90035E-04 T
  2.10000E-02  1.17810E-01  2.94524E+00  2.49749E+00  3.17704E-03 T
  2.10000E-02  1.17810E-01  3.14159E+00  2.49528E+00  5.76643E-03 T
  2.10000E-02  1.17810E-01  3.33794E+00  2.49189E+00  8.04512E-03 T
  2.10000E-02  1.17810E-01  3.53429E+00  2.48747E+00  9.98716E-03 T
  2.10000E-02  1.17810E-01  3.73064E+00  2.48219E+00  1.15953E-02 T
  2.10000E-02  1.17810E-01  3.92699E+00  2.47622E+00  1.28423E-02 T
  2.10000E-02  1.17810E-01  4.12334E+00  2.46977E+00  1.36733E-02 T
  2.10000E-02  1.17810E-01  4.31969E+00  2.46304E+00  1.40499E-02 T
  2.10000E-02  1.17810E-01  4.51604E+00  2.45625E+00  1.39692E-02 T
  2.10000E-02  1.17810E-01  4.71239E+00  2.44964E+00  1.34321E-02 T
  2.10000E-02  1.17810E-01  4.90874E+00  2.44341E+00  1.24093E-02 T
  2.10000E-02  1.17810E-01  5.10509E+00  2.43781E+00  1.08581E-02 T
  2.10000E-02  1.17810E-01  5.30144E+00  2.43310E+00  8.78258E-03 T
  2.10000E-02  1.17810E-01  5.49779E+00  2.42949E+00  6.26993E-03 T
  2.10000E-02  1.17810E-01  5.69414E+00  2.42716E+00  3.45964E-03 T
  2.10000E-02  1.17810E-01  5.89049E+00  2.42622E+00  4.82353E-04 T
  2.10000E-02  1.17810E-01  6.08684E+00  2.42671E+00 -2.56273E-03 T
  2.10000E-02  1.57080E-01  0.00000E+00  2.42435E+00 -7.43736E-03 T
  2.10000E-02  1.57080E-01  1.96350E-01  2.42848E+00 -9.86278E-03 T
  2.10000E-02  1.57080E-01  3.92699E-01  2.43369E+00 -1.18642E-02 T
  2.10000E-02  1.57080E-01  5.89049E-01  2.43974E+00 -1.33489E-02 T
  2.10000E-02  1.57080E-01  7.85398E-01  2.44639E+00 -1.42657E-02 T
  2.10000E-02  1.57080E-01  9.81748E-01  2.45335E+00 -1.45694E-02 T
  2.10000E-02  1.57080E-01  1.17810E+00  2.46032E+00 -1.42181E-02 T
  2.10000E-02  1.57080E-01  1.37445E+00  2.46698E+00 -1.32207E-02 T
  2.10000E-02  1.57080E-01  1.57080E+00  2.47304E+00 -1.16785E-02 T
  2.10000E-02  1.57080E-01  1.76715E+00  2.47826E+00 -9.75564E-03 T
  2.10000E-02  1.57080E-01  1.96350E+00  2.48249E+00 -7.59088E-03 T
  2.10000E-02  1.57080E-01  2.15985E+00  2.48563E+00 -5.23700E-03 T
  2.10000E-02  1.57080E-01  2.35619E+00  2.48757E+00 -2.69353E-03 T
  2.10000E-02  1.57080E-01  2.55254E+00  2.48823E+00  7.17010E-07 T
  2.10000E-02  1.57080E-01  2.74889E+00  2.48757E+00  2.71444E-03 T
  2.10000E-02  1.57080E-01  2.94524E+00  2.48561E+00  5.26687E-03 T
  2.10000E-02  1.57080E-01  3.14159E+00  2.48248E+00  7.51963E-03 T
  2.10000E-02  1.57080E-01  3.33794E+00  2.47834E+00  9.42270E-03 T
  2.10000E-02  1.57080E-01  3.53429E+00  2.47336E+00  1.09775E-02 T
  2.10000E-02  1.57080E-01  3.73064E+00  2.46773E+00  1.21724E-02 T
  2.10000E-02  1.57080E-01  3.92699E+00  2.46163E+00  1.29657E-02 T
  2.10000E-02  1.57080E-01  4.12334E+00  2.45527E+00  1.33228E-02 T
  2.10000E-02  1.57080E-01  4.31969E+00  2.44886E+00  1.32474E-02 T
  2.10000E-02  1.57080E-01  4.51604E+00  2.44260E+00  1.27598E-02 T
  2.10000E-02  1.57080E-01  4.71239E+00  2.43668E+00  1.18517E-02 T
  2.10000E-02  1.57080E-01  4.90874E+00  2.43133E+00  1.04811E-02 T
  2.10000E-02  1.57080E-01  5.10509E+00  2.42675E+00  8.62577E-03 T
  2.10000E-02  1.57080E-01  5.30144E+00  2.42318E+00  6.33761E-03 T
  2.10000E-02  1.57080E-01  5.49779E+00  2.42077E+00  3.73801E-03 T
  2.10000E-02  1.57080E-01  5.69414E+00  2.41965E+00  9.60416E-04 T
  2.10000E-02  1.57080E-01  5.89049E+00  2.41987E+00 -1.89191E-03 T
  2.10000E-02  1.57080E-01  6.08684E+00  2.42145E+00 -4.73010E-03 T
  2.10000E-02  1.96350E-01  0.00000E+00  2.42082E+00 -9.21678E-03 T
  2.10000E-02  1.96350E-01  1.96350E-01  2.42569E+00 -1.11713E-02 T
  2.10000E-02  1.96350E-01  3.92699E-01  2.43138E+00 -1.26463E-02 T
  2.10000E-02  1.96350E-01  5.89049E-01  2.43768E+00 -1.36007E-02 T
  2.10000E-02  1.96350E-01  7.85398E-01  2.44432E+00 -1.40019E-02 T
  2.10000E-02  1.96350E-01  9.81748E-01  2.45102E+00 -1.38022E-02 T
  2.10000E-02  1.96350E-01  1.17810E+00  2.45750E+00 -1.29764E-02 T
  2.10000E-02  1.96350E-01  1.37445E+00  2.46345E+00 -1.15802E-02 T
  2.10000E-02  1.96350E-01  1.57080E+00  2.46863E+00 -9.75544E-03 T
  2.10000E-02  1.96350E-01  1.76715E+00  2.47286E+00 -7.65719E-03 T
  2.10000E-02  1.96350E-01  1.96350E+00  2.47604E+00 -5.37186E-03 T
  2.10000E-02  1.96350E-01  2.15985E+00  2.47806E+00 -2.91269E-03 T
  2.10000E-02  1.96350E-01  2.35619E+00  2.47884E+00 -2.98393E-04 T
  2.10000E-02  1.96350E-01  2.55254E+00  2.47834E+00  2.37070E-03 T
  2.10000E-02  1.96350E-01  2.74889E+00  2.47656E+00  4.92184E-03 T
  2.10000E-02  1.96350E-01  2.94524E+00  2.47360E+00  7.19336E-03 T
  2.10000E-02  1.96350E-01  3.14159E+00  2.46963E+00  9.10368E-03 T
  2.10000E-02  1.96350E-01  3.33794E+00  2.46483E+00  1.06412E-02 T
  2.10000E-02  1.96350E-01  3.53429E+00  2.45939E+00  1.18027E-02 T
  2.10000E-02  1.96350E-01  3.73064E+00  2.45350E+00  1.25585E-02 T
  2.10000E-02  1.96350E-01  3.92699E+00  2.44736E+00  1.28778E-02 T
  2.10000E-02  1.96350E-01  4.12334E+00  2.44119E+00  1.27678E-02 T
  2.10000E-02  1.96350E-01  4.31969E+00  2.43519E+00  1.22666E-02 T
  2.10000E-02  1.96350E-01  4.51604E+00  2.42952E+00  1.13933E-02 T
  2.10000E-02  1.96350E-01  4.71239E+00  2.42438E+00  1.01200E-02 T
  2.10000E-02  1.96350E-01  4.90874E+00  2.41995E+00  8.40896E-03 T
  2.10000E-02  1.96350E-01  5.10509E+00  2.41645E+00  6.27757E-03 T
  2.10000E-02  1.96350E-01  5.30144E+00  2.41405E+00  3.82105E-03 T
  2.10000E-02  1.96350E-01  5.49779E+00  2.41286E+00  1.17100E-03 T
  2.10000E-02  1.96350E-01  5.69414E+00  2.41295E+00 -1.55801E-03 T
  2.10000E-02  1.96350E-01  5.89049E+00  2.41433E+00 -4.27415E-03 T
  2.10000E-02  1.96350E-01  6.08684E+00  2.41698E+00 -6.87250E-03 T
  2.10000E-02  2.35619E-01  0.00000E+00  2.40423E+00 -1.07807E-02 T
  2.10000E-02  2.35619E-01  1.96350E-01  2.40975E+00 -1.24827E-02 T
  2.10000E-02  2.35619E-01  3.92699E-01  2.41596E+00 -1.36647E-02 T
  2.10000E-02  2.35619E-01  5.89049E-01  2.42263E+00 -1.43026E-02 T
  2.10000E-02  2.35619E-01  7.85398E-01  2.42948E+00 -1.43541E-02 T
  2.10000E-02  2.35619E-01  9.81748E-01  2.43622E+00 -1.37745E-02 T
  2.10000E-02  2.35619E-01  1.17810E+00  2.44256E+00 -1.25796E-02 T
  2.10000E-02  2.35619E-01  1.37445E+00  2.44821E+00 -1.08807E-02 T
  2.10000E-02  2.35619E-01  1.57080E+00  2.45296E+00 -8.83787E-03 T
  2.10000E-02  2.35619E-01  1.76715E+00  2.45668E+00 -6.56897E-03 T
  2.10000E-02  2.35619E-01  1.96350E+00  2.45927E+00 -4.11063E-03 T
  2.10000E-02  2.35619E-01  2.15985E+00  2.46062E+00 -1.47204E-03 T
  2.10000E-02  2.35619E-01  2.35619E+00  2.46067E+00  1.27737E-03 T
  2.10000E-02  2.35619E-01  2.55254E+00  2.45939E+00  3.98307E-03 T
  2.10000E-02  2.35619E-01  2.74889E+00  2.45686E+00  6.46903E-03 T
  2.10000E-02  2.35619E-01  2.94524E+00  2.45321E+00  8.61971E-03 T
  2.10000E-02  2.35619E-01  3.14159E+00  2.44862E+00  1.03974E-02 T
  2.10000E-02  2.35619E-01  3.33794E+00  2.44327E+00  1.17909E-02 T
  2.10000E-02  2.35619E-01  3.53429E+00  2.43737E+00  1.27681E-02 T
  2.10000E-02  2.35619E-01  3.73064E+00  2.43113E+00  1.32863E-02 T
  2.10000E-02  2.35619E-01  3.92699E+00  2.42476E+00  1.33375E-02 T
  2.10000E-02  2.35619E-01  4.12334E+00  2.41849E+00  1.29598E-02 T
  2.10000E-02  2.35619E-01  4.31969E+00  2.41251E+00  1.21932E-02 T
  2.10000E-02  2.35619E-01  4.51604E+00  2.40700E+00  1.10327E-02 T
  2.10000E-02  2.35619E-01  4.71239E+00  2.40215E+00  9.43945E-03 T
  2.10000E-02  2.35619E-01  4.90874E+00  2.39817E+00  7.40403E-03 T
  2.10000E-02  2.35619E-01  5.10509E+00  2.39524E+00  4.99153E-03 T
  2.10000E-02  2.35619E-01  5.30144E+00  2.39351E+00  2.32281E-03 T
  2.10000E-02  2.35619E-01  5.49779E+00  2.39307E+00 -4.79060E-04 T
  2.10000E-02  2.35619E-01  5.69414E+00  2.39397E+00 -3.31156E-03 T
  2.10000E-02  2.35619E-01  5.89049E+00  2.39618E+00 -6.06694E-03 T
  2.10000E-02  2.35619E-01  6.08684E+00  2.39964E+00 -8.60623E-03 T
  2.10000E-02  2.74889E-01  0.00000E+00  2.39324E+00 -1.13865E-02 T
  2.10000E-02  2.74889E-01  1.96350E-01  2.39892E+00 -1.26873E-02 T
  2.10000E-02  2.74889E-01  3.92699E-01  2.40512E+00 -1.35030E-02 T
  2.10000E-02  2.74889E-01  5.89049E-01  2.41159E+00 -1.38002E-02 T
  2.10000E-02  2.74889E-01  7.85398E-01  2.41809E+00 -1.35195E-02 T
  2.10000E-02  2.74889E-01  9.81748E-01  2.42433E+00 -1.26314E-02 T
  2.10000E-02  2.74889E-01  1.17810E+00  2.43003E+00 -1.11972E-02 T
  2.10000E-02  2.74889E-01  1.37445E+00  2.43495E+00 -9.35617E-03 T
  2.10000E-02  2.74889E-01  1.57080E+00  2.43893E+00 -7.24275E-03 T
  2.10000E-02  2.74889E-01  1.76715E+00  2.44185E+00 -4.92008E-03 T
  2.10000E-02  2.74889E-01  1.96350E+00  2.44362E+00 -2.40100E-03 T
  2.10000E-02  2.74889E-01  2.15985E+00  2.44413E+00  2.68003E-04 T
  2.10000E-02  2.74889E-01  2.35619E+00  2.44336E+00  2.95514E-03 T
  2.10000E-02  2.74889E-01  2.55254E+00  2.44132E+00  5.48169E-03 T
  2.10000E-02  2.74889E-01  2.74889E+00  2.43815E+00  7.70752E-03 T
  2.10000E-02  2.74889E-01  2.94524E+00  2.43400E+00  9.57342E-03 T
  2.10000E-02  2.74889E-01  3.14159E+00  2.42906E+00  1.10657E-02 T
  2.10000E-02  2.74889E-01  3.33794E+00  2.42351E+00  1.21580E-02 T
  2.10000E-02  2.74889E-01  3.53429E+00  2.41756E+00  1.28027E-02 T
  2.10000E-02  2.74889E-01  3.73064E+00  2.41143E+00  1.29741E-02 T
  2.10000E-02  2.74889E-01  3.92699E+00  2.40535E+00  1.27001E-02 T
  2.10000E-02  2.74889E-01  4.12334E+00  2.39950E+00  1.20336E-02 T
  2.10000E-02  2.74889E-01  4.31969E+00  2.39407E+00  1.09969E-02 T
  2.10000E-02  2.74889E-01  4.51604E+00  2.38922E+00  9.56739E-03 T
  2.10000E-02  2.74889E-01  4.71239E+00  2.38515E+00  7.72507E-03 T
  2.10000E-02  2.74889E-01  4.90874E+00  2.38204E+00  5.51018E-03 T
  2.10000E-02  2.74889E-01  5.10509E+00  2.38004E+00  3.02579E-03 T
  2.10000E-02  2.74889E-01  5.30144E+00  2.37924E+00  3.90504E-04 T
  2.10000E-02  2.74889E-01  5.49779E+00  2.37968E+00 -2.29722E-03 T
  2.10000E-02  2.74889E-01  5.69414E+00  2.38138E+00 -4.94464E-03 T
  2.10000E-02  2.74889E-01  5.89049E+00  2.38428E+00 -7.43173E-03 T
  2.10000E-02  2.74889E-01  6.08684E+00  2.38829E+00 -9.61709E-03 T
  2.10000E-02  3.14159E-01  0.00000E+00  2.38703E+00 -1.15118E-02 T
  2.10000E-02  3.14159E-01  1.96350E-01  2.39263E+00 -1.22706E-02 T
  2.10000E-02  3.14159E-01  3.92699E-01  2.39850E+00 -1.26094E-02 T
  2.10000E-02  3.14159E-01  5.89049E-01  2.40443E+00 -1.24795E-02 T
  2.10000E-02  3.14159E-01  7.85398E-01  2.41020E+00 -1.18230E-02 T
  2.10000E-02  3.14159E-01  9.81748E-01  2.41554E+00 -1.06458E-02 T
  2.10000E-02  3.14159E-01  1.17810E+00  2.42022E+00 -9.04188E-03 T
  2.10000E-02  3.14159E-01  1.37445E+00  2.42408E+00 -7.13494E-03 T
  2.10000E-02  3.14159E-01  1.57080E+00  2.42698E+00 -5.00004E-03 T
  2.10000E-02  3.14159E-01  1.76715E+00  2.42881E+00 -2.65403E-03 T
  2.10000E-02  3.14159E-01  1.96350E+00  2.42948E+00 -1.25956E-04 T
  2.10000E-02  3.14159E-01  2.15985E+00  2.42892E+00  2.47310E-03 T
  2.10000E-02  3.14159E-01  2.35619E+00  2.42714E+00  4.96181E-03 T
  2.10000E-02  3.14159E-01  2.55254E+00  2.42424E+00  7.17157E-03 T
  2.10000E-02  3.14159E-01  2.74889E+00  2.42037E+00  9.01363E-03 T
  2.10000E-02  3.14159E-01  2.94524E+00  2.41573E+00  1.04676E-02 T
  2.10000E-02  3.14159E-01  3.14159E+00  2.41051E+00  1.15206E-02 T
  2.10000E-02  3.14159E-01  3.33794E+00  2.40490E+00  1.21355E-02 T
  2.10000E-02  3.14159E-01  3.53429E+00  2.39912E+00  1.22816E-02 T
  2.10000E-02  3.14159E-01  3.73064E+00  2.39340E+00  1.19773E-02 T
  2.10000E-02  3.14159E-01  3.92699E+00  2.38792E+00  1.12835E-02 T
  2.10000E-02  3.14159E-01  4.12334E+00  2.38287E+00  1.02487E-02 T
  2.10000E-02  3.14159E-01  4.31969E+00  2.37839E+00  8.87435E-03 T
  2.10000E-02  3.14159E-01  4.51604E+00  2.37463E+00  7.14343E-03 T
  2.10000E-02  3.14159E-01  4.71239E+00  2.37177E+00  5.08062E-03 T
  2.10000E-02  3.14159E-01  4.90874E+00  2.36994E+00  2.77521E-03 T
  2.10000E-02  3.14159E-01  5.10509E+00  2.36921E+00  3.44642E-04 T
  2.10000E-02  3.14159E-01  5.30144E+00  2.36962E+00 -2.11136E-03 T
  2.10000E-02  3.14159E-01  5.49779E+00  2.37117E+00 -4.51175E-03 T
  2.10000E-02  3.14159E-01  5.69414E+00  2.37380E+00 -6.76053E-03 T
  2.10000E-02  3.14159E-01  5.89049E+00  2.37743E+00 -8.73700E-03 T
  2.10000E-02  3.14159E-01  6.08684E+00  2.38190E+00 -1.03357E-02 T
  2.10000E-02  3.53429E-01  0.00000E+00  2.37227E+00 -1.16669E-02 T
  2.10000E-02  3.53429E-01  1.96350E-01  2.37781E+00 -1.20274E-02 T
  2.10000E-02  3.53429E-01  3.92699E-01  2.38344E+00 -1.19932E-02 T
  2.10000E-02  3.53429E-01  5.89049E-01  2.38897E+00 -1.15122E-02 T
  2.10000E-02  3.53429E-01  7.85398E-01  2.39417E+00 -1.05603E-02 T
  2.10000E-02  3.53429E-01  9.81748E-01  2.39883E+00 -9.19118E-03 T
  2.10000E-02  3.53429E-01  1.17810E+00  2.40278E+00 -7.50766E-03 T
  2.10000E-02  3.53429E-01  1.37445E+00  2.40587E+00 -5.58381E-03 T
  2.10000E-02  3.53429E-01  1.57080E+00  2.40801E+00 -3.43036E-03 T
  2.10000E-02  3.53429E-01  1.76715E+00  2.40908E+00 -1.04791E-03 T
  2.10000E-02  3.53429E-01  1.96350E+00  2.40898E+00  1.48931E-03 T
  2.10000E-02  3.53429E-01  2.15985E+00  2.40767E+00  4.01368E-03 T
  2.10000E-02  3.53429E-01  2.35619E+00  2.40522E+00  6.33330E-03 T
  2.10000E-02  3.53429E-01  2.55254E+00  2.40175E+00  8.31847E-03 T
  2.10000E-02  3.53429E-01  2.74889E+00  2.39744E+00  9.92124E-03 T
  2.10000E-02  3.53429E-01  2.94524E+00  2.39247E+00  1.11245E-02 T
  2.10000E-02  3.53429E-01  3.14159E+00  2.38705E+00  1.18936E-02 T
  2.10000E-02  3.53429E-01  3.33794E+00  2.38140E+00  1.21872E-02 T
  2.10000E-02  3.53429E-01  3.53429E+00  2.37573E+00  1.20044E-02 T
  2.10000E-02  3.53429E-01  3.73064E+00  2.37026E+00  1.13978E-02 T
  2.10000E-02  3.53429E-01  3.92699E+00  2.36518E+00  1.04297E-02 T
  2.10000E-02  3.53429E-01  4.12334E+00  2.36063E+00  9.12260E-03 T
  2.10000E-02  3.53429E-01  4.31969E+00  2.35677E+00  7.46575E-03 T
  2.10000E-02  3.53429E-01  4.51604E+00  2.35377E+00  5.47160E-03 T
  2.10000E-02  3.53429E-01  4.71239E+00  2.35175E+00  3.21576E-03 T
  2.10000E-02  3.53429E-01  4.90874E+00  2.35082E+00  8.16870E-04 T
  2.10000E-02  3.53429E-01  5.10509E+00  2.35100E+00 -1.61338E-03 T
  2.10000E-02  3.53429E-01  5.30144E+00  2.35230E+00 -3.98763E-03 T
  2.10000E-02  3.53429E-01  5.49779E+00  2.35467E+00 -6.21487E-03 T
  2.10000E-02  3.53429E-01  5.69414E+00  2.35801E+00 -8.17868E-03 T
  2.10000E-02  3.53429E-01  5.89049E+00  2.36218E+00 -9.76647E-03 T
  2.10000E-02  3.53429E-01  6.08684E+00  2.36700E+00 -1.09239E-02 T
  2.10000E-02  3.92699E-01  0.00000E+00  2.35589E+00 -1.09131E-02 T
  2.10000E-02  3.92699E-01  1.96350E-01  2.36098E+00 -1.10030E-02 T
  2.10000E-02  3.92699E-01  3.92699E-01  2.36603E+00 -1.07219E-02 T
  2.10000E-02  3.92699E-01  5.89049E-01  2.37088E+00 -1.00333E-02 T
  2.10000E-02  3.92699E-01  7.85398E-01  2.37531E+00 -8.96183E-03 T
  2.10000E-02  3.92699E-01  9.81748E-01  2.37919E+00 -7.59320E-03 T
  2.10000E-02  3.92699E-01  1.17810E+00  2.38237E+00 -6.00350E-03 T
  2.10000E-02  3.92699E-01  1.37445E+00  2.38477E+00 -4.20229E-03 T
  2.10000E-02  3.92699E-01  1.57080E+00  2.38627E+00 -2.16092E-03 T
  2.10000E-02  3.92699E-01  1.76715E+00  2.38676E+00  9.88833E-05 T
  2.10000E-02  3.92699E-01  1.96350E+00  2.38616E+00  2.45244E-03 T
  2.10000E-02  3.92699E-01  2.15985E+00  2.38448E+00  4.71405E-03 T
  2.10000E-02  3.92699E-01  2.35619E+00  2.38179E+00  6.72942E-03 T
  2.10000E-02  3.92699E-01  2.55254E+00  2.37823E+00  8.42471E-03 T
  2.10000E-02  3.92699E-01  2.74889E+00  2.37398E+00  9.77488E-03 T
  2.10000E-02  3.92699E-01  2.94524E+00  2.36918E+00  1.07460E-02 T
  2.10000E-02  3.92699E-01  3.14159E+00  2.36405E+00  1.12853E-02 T
  2.10000E-02  3.92699E-01  3.33794E+00  2.35878E+00  1.13639E-02 T
  2.10000E-02  3.92699E-01  3.53429E+00  2.35359E+00  1.10092E-02 T
  2.10000E-02  3.92699E-01  3.73064E+00  2.34866E+00  1.02784E-02 T
  2.10000E-02  3.92699E-01  3.92699E+00  2.34416E+00  9.20527E-03 T
  2.10000E-02  3.92699E-01  4.12334E+00  2.34024E+00  7.78464E-03 T
  2.10000E-02  3.92699E-01  4.31969E+00  2.33706E+00  6.01753E-03 T
  2.10000E-02  3.92699E-01  4.51604E+00  2.33476E+00  3.96165E-03 T
  2.10000E-02  3.92699E-01  4.71239E+00  2.33345E+00  1.72869E-03 T
  2.10000E-02  3.92699E-01  4.90874E+00  2.33318E+00 -5.64269E-04 T
  2.10000E-02  3.92699E-01  5.10509E+00  2.33396E+00 -2.82724E-03 T
  2.10000E-02  3.92699E-01  5.30144E+00  2.33576E+00 -4.97865E-03 T
  2.10000E-02  3.92699E-01  5.49779E+00  2.33850E+00 -6.91277E-03 T
  2.10000E-02  3.92699E-01  5.69414E+00  2.34206E+00 -8.51171E-03 T
  2.10000E-02  3.92699E-01  5.89049E+00  2.34626E+00 -9.70131E-03 T
  2.10000E-02  3.92699E-01  6.08684E+00  2.35093E+00 -1.04859E-02 T
  2.10000E-02  4.31969E-01  0.00000E+00  2.34178E+00 -9.22953E-03 T
  2.10000E-02  4.31969E-01  1.96350E-01  2.34598E+00 -8.96426E-03 T
  2.10000E-02  4.31969E-01  3.92699E-01  2.34999E+00 -8.37235E-03 T
  2.10000E-02  4.31969E-01  5.89049E-01  2.35365E+00 -7.45514E-03 T
  2.10000E-02  4.31969E-01  7.85398E-01  2.35684E+00 -6.28301E-03 T
  2.10000E-02  4.31969E-01  9.81748E-01  2.35944E+00 -4.94176E-03 T
  2.10000E-02  4.31969E-01  1.17810E+00  2.36139E+00 -3.45907E-03 T
  2.10000E-02  4.31969E-01  1.37445E+00  2.36262E+00 -1.80078E-03 T
  2.10000E-02  4.31969E-01  1.57080E+00  2.36303E+00  5.05663E-05 T
  2.10000E-02  4.31969E-01  1.76715E+00  2.36256E+00  2.01864E-03 T
  2.10000E-02  4.31969E-01  1.96350E+00  2.36117E+00  3.94231E-03 T
  2.10000E-02  4.31969E-01  2.15985E+00  2.35893E+00  5.66178E-03 T
  2.10000E-02  4.31969E-01  2.35619E+00  2.35597E+00  7.09198E-03 T
  2.10000E-02  4.31969E-01  2.55254E+00  2.35242E+00  8.21601E-03 T
  2.10000E-02  4.31969E-01  2.74889E+00  2.34843E+00  9.02531E-03 T
  2.10000E-02  4.31969E-01  2.94524E+00  2.34415E+00  9.48597E-03 T
  2.10000E-02  4.31969E-01  3.14159E+00  2.33975E+00  9.56597E-03 T
  2.10000E-02  4.31969E-01  3.33794E+00  2.33542E+00  9.27683E-03 T
  2.10000E-02  4.31969E-01  3.53429E+00  2.33129E+00  8.66804E-03 T
  2.10000E-02  4.31969E-01  3.73064E+00  2.32752E+00  7.77754E-03 T
  2.10000E-02  4.31969E-01  3.92699E+00  2.32423E+00  6.60163E-03 T
  2.10000E-02  4.31969E-01  4.12334E+00  2.32154E+00  5.12600E-03 T
  2.10000E-02  4.31969E-01  4.31969E+00  2.31960E+00  3.38302E-03 T
  2.10000E-02  4.31969E-01  4.51604E+00  2.31849E+00  1.46792E-03 T
  2.10000E-02  4.31969E-01  4.71239E+00  2.31827E+00 -5.03332E-04 T
  2.10000E-02  4.31969E-01  4.90874E+00  2.31894E+00 -2.44051E-03 T
  2.10000E-02  4.31969E-01  5.10509E+00  2.32048E+00 -4.27627E-03 T
  2.10000E-02  4.31969E-01  5.30144E+00  2.32281E+00 -5.92899E-03 T
  2.10000E-02  4.31969E-01  5.49779E+00  2.32584E+00 -7.29427E-03 T
  2.10000E-02  4.31969E-01  5.69414E+00  2.32942E+00 -8.29091E-03 T
  2.10000E-02  4.31969E-01  5.89049E+00  2.33337E+00 -8.91100E-03 T
  2.10000E-02  4.31969E-01  6.08684E+00  2.33753E+00 -9.20832E-03 T
  2.10000E-02  4.71239E-01  0.00000E+00  2.32955E+00 -7.91757E-03 T
  2.10000E-02  4.71239E-01  1.96350E-01  2.33303E+00 -7.24063E-03 T
  2.10000E-02  4.71239E-01  3.92699E-01  2.33614E+00 -6.27752E-03 T
  2.10000E-02  4.71239E-01  5.89049E-01  2.33875E+00 -5.08292E-03 T
  2.10000E-02  4.71239E-01  7.85398E-01  2.34078E+00 -3.75113E-03 T
  2.10000E-02  4.71239E-01  9.81748E-01  2.34219E+00 -2.33703E-03 T
  2.10000E-02  4.71239E-01  1.17810E+00  2.34292E+00 -8.21235E-04 T
  2.10000E-02  4.71239E-01  1.37445E+00  2.34292E+00  8.32918E-04 T
  2.10000E-02  4.71239E-01  1.57080E+00  2.34214E+00  2.58809E-03 T
  2.10000E-02  4.71239E-01  1.76715E+00  2.34055E+00  4.30706E-03 T
  2.10000E-02  4.71239E-01  1.96350E+00  2.33821E+00  5.82123E-03 T
  2.10000E-02  4.71239E-01  2.15985E+00  2.33525E+00  7.02188E-03 T
  2.10000E-02  4.71239E-01  2.35619E+00  2.33182E+00  7.88554E-03 T
  2.10000E-02  4.71239E-01  2.55254E+00  2.32808E+00  8.42538E-03 T
  2.10000E-02  4.71239E-01  2.74889E+00  2.32417E+00  8.63973E-03 T
  2.10000E-02  4.71239E-01  2.94524E+00  2.32025E+00  8.51665E-03 T
  2.10000E-02  4.71239E-01  3.14159E+00  2.31646E+00  8.07349E-03 T
  2.10000E-02  4.71239E-01  3.33794E+00  2.31294E+00  7.36607E-03 T
  2.10000E-02  4.71239E-01  3.53429E+00  2.30980E+00  6.44658E-03 T
  2.10000E-02  4.71239E-01  3.73064E+00  2.30712E+00  5.32110E-03 T
  2.10000E-02  4.71239E-01  3.92699E+00  2.30501E+00  3.96435E-03 T
  2.10000E-02  4.71239E-01  4.12334E+00  2.30357E+00  2.38002E-03 T
  2.10000E-02  4.71239E-01  4.31969E+00  2.30288E+00  6.38209E-04 T
  2.10000E-02  4.71239E-01  4.51604E+00  2.30300E+00 -1.15086E-03 T
  2.10000E-02  4.71239E-01  4.71239E+00  2.30392E+00 -2.89112E-03 T
  2.10000E-02  4.71239E-01  4.90874E+00  2.30560E+00 -4.51730E-03 T
  2.10000E-02  4.71239E-01  5.10509E+00  2.30798E+00 -5.96310E-03 T
  2.10000E-02  4.71239E-01  5.30144E+00  2.31096E+00 -7.13680E-03 T
  2.10000E-02  4.71239E-01  5.49779E+00  2.31440E+00 -7.95163E-03 T
  2.10000E-02  4.71239E-01  5.69414E+00  2.31813E+00 -8.38356E-03 T
  2.10000E-02  4.71239E-01  5.89049E+00  2.32198E+00 -8.48391E-03 T
  2.10000E-02  4.71239E-01  6.08684E+00  2.32583E+00 -8.32197E-03 T
  2.10000E-02  5.10509E-01  0.00000E+00  2.32362E+00 -6.79474E-03 T
  2.10000E-02  5.10509E-01  1.96350E-01  2.32652E+00 -5.86922E-03 T
  2.10000E-02  5.10509E-01  3.92699E-01  2.32895E+00 -4.72136E-03 T
  2.10000E-02  5.10509E-01  5.89049E-01  2.33082E+00 -3.43884E-03 T
  2.10000E-02  5.10509E-01  7.85398E-01  2.33208E+00 -2.09427E-03 T
  2.10000E-02  5.10509E-01  9.81748E-01  2.33272E+00 -6.83941E-04 T
  2.10000E-02  5.10509E-01  1.17810E+00  2.33269E+00  8.44446E-04 T
  2.10000E-02  5.10509E-01  1.37445E+00  2.33193E+00  2.49783E-03 T
  2.10000E-02  5.10509E-01  1.57080E+00  2.33040E+00  4.17692E-03 T
  2.10000E-02  5.10509E-01  1.76715E+00  2.32813E+00  5.71314E-03 T
  2.10000E-02  5.10509E-01  1.96350E+00  2.32522E+00  6.96307E-03 T
  2.10000E-02  5.10509E-01  2.15985E+00  2.32183E+00  7.86496E-03 T
  2.10000E-02  5.10509E-01  2.35619E+00  2.31811E+00  8.41490E-03 T
  2.10000E-02  5.10509E-01  2.55254E+00  2.31422E+00  8.61239E-03 T
  2.10000E-02  5.10509E-01  2.74889E+00  2.31033E+00  8.44705E-03 T
  2.10000E-02  5.10509E-01  2.94524E+00  2.30661E+00  7.93273E-03 T
  2.10000E-02  5.10509E-01  3.14159E+00  2.30319E+00  7.12969E-03 T
  2.10000E-02  5.10509E-01  3.33794E+00  2.30019E+00  6.11298E-03 T
  2.10000E-02  5.10509E-01  3.53429E+00  2.29770E+00  4.91947E-03 T
  2.10000E-02  5.10509E-01  3.73064E+00  2.29578E+00  3.53985E-03 T
  2.10000E-02  5.10509E-01  3.92699E+00  2.29453E+00  1.97011E-03 T
  2.10000E-02  5.10509E-01  4.12334E+00  2.29403E+00  2.64237E-04 T
  2.10000E-02  5.10509E-01  4.31969E+00  2.29430E+00 -1.47217E-03 T
  2.10000E-02  5.10509E-01  4.51604E+00  2.29534E+00 -3.13558E-03 T
  2.10000E-02  5.10509E-01  4.71239E+00  2.29710E+00 -4.65910E-03 T
  2.10000E-02  5.10509E-01  4.90874E+00  2.29952E+00 -5.99199E-03 T
  2.10000E-02  5.10509E-01  5.10509E+00  2.30248E+00 -7.06355E-03 T
  2.10000E-02  5.10509E-01  5.30144E+00  2.30585E+00 -7.79279E-03 T
  2.10000E-02  5.10509E-01  5.49779E+00  2.30948E+00 -8.14350E-03 T
  2.10000E-02  5.10509E-01  5.69414E+00  2.31319E+00 -8.15763E-03 T
  2.10000E-02  5.10509E-01  5.89049E+00  2.31685E+00 -7.91698E-03 T
  2.10000E-02  5.10509E-01  6.08684E+00  2.32036E+00 -7.46812E-03 T
  2.10000E-02  5.49779E-01  0.00000E+00  2.32361E+00 -4.46868E-03 T
  2.10000E-02  5.49779E-01  1.96350E-01  2.32541E+00 -3.41180E-03 T
  2.10000E-02  5.49779E-01  3.92699E-01  2.32671E+00 -2.25473E-03 T
  2.10000E-02  5.49779E-01  5.89049E-01  2.32747E+00 -1.08104E-03 T
  2.10000E-02  5.49779E-01  7.85398E-01  2.32769E+00  9.07483E-05 T
  2.10000E-02  5.49779E-01  9.81748E-01  2.32738E+00  1.31623E-03 T
  2.10000E-02  5.49779E-01  1.17810E+00  2.32647E+00  2.64540E-03 T
  2.10000E-02  5.49779E-01  1.37445E+00  2.32495E+00  4.03683E-03 T
  2.10000E-02  5.49779E-01  1.57080E+00  2.32280E+00  5.35569E-03 T
  2.10000E-02  5.49779E-01  1.76715E+00  2.32010E+00  6.45379E-03 T
  2.10000E-02  5.49779E-01  1.96350E+00  2.31697E+00  7.24541E-03 T
  2.10000E-02  5.49779E-01  2.15985E+00  2.31356E+00  7.70985E-03 T
  2.10000E-02  5.49779E-01  2.35619E+00  2.31001E+00  7.84220E-03 T
  2.10000E-02  5.49779E-01  2.55254E+00  2.30649E+00  7.62583E-03 T
  2.10000E-02  5.49779E-01  2.74889E+00  2.30316E+00  7.05860E-03 T
  2.10000E-02  5.49779E-01  2.94524E+00  2.30016E+00  6.18763E-03 T
  2.10000E-02  5.49779E-01  3.14159E+00  2.29760E+00  5.09539E-03 T
  2.10000E-02  5.49779E-01  3.33794E+00  2.29558E+00  3.84559E-03 T
  2.10000E-02  5.49779E-01  3.53429E+00  2.29416E+00  2.45404E-03 T
  2.10000E-02  5.49779E-01  3.73064E+00  2.29339E+00  9.23051E-04 T
  2.10000E-02  5.49779E-01  3.92699E+00  2.29334E+00 -6.99843E-04 T
  2.10000E-02  5.49779E-01  4.12334E+00  2.29402E+00 -2.30910E-03 T
  2.10000E-02  5.49779E-01  4.31969E+00  2.29540E+00 -3.78904E-03 T
  2.10000E-02  5.49779E-01  4.51604E+00  2.29741E+00 -5.06481E-03 T
  2.10000E-02  5.49779E-01  4.71239E+00  2.29993E+00 -6.10008E-03 T
  2.10000E-02  5.49779E-01  4.90874E+00  2.30287E+00 -6.85714E-03 T
  2.10000E-02  5.49779E-01  5.10509E+00  2.30609E+00 -7.28393E-03 T
  2.10000E-02  5.49779E-01  5.30144E+00  2.30942E+00 -7.35496E-03 T
  2.10000E-02  5.49779E-01  5.49779E+00  2.31271E+00 -7.11546E-03 T
  2.10000E-02  5.49779E-01  5.69414E+00  2.31585E+00 -6.66345E-03 T
  2.10000E-02  5.49779E-01  5.89049E+00  2.31875E+00 -6.07570E-03 T
  2.10000E-02  5.49779E-01  6.08684E+00  2.32136E+00 -5.35651E-03 T
  2.10000E-02  5.89049E-01  0.00000E+00  2.32401E+00 -1.92714E-03 T
  2.10000E-02  5.89049E-01  1.96350E-01  2.32459E+00 -6.09160E-04 T
  2.10000E-02  5.89049E-01  3.92699E-01  2.32457E+00  6.84583E-04 T
  2.10000E-02  5.89049E-01  5.89049E-01  2.32398E+00  1.89091E-03 T
  2.10000E-02  5.89049E-01  7.85398E-01  2.32286E+00  3.03058E-03 T
  2.10000E-02  5.89049E-01  9.81748E-01  2.32122E+00  4.15955E-03 T
  2.10000E-02  5.89049E-01  1.17810E+00  2.31907E+00  5.27662E-03 T
  2.10000E-02  5.89049E-01  1.37445E+00  2.31643E+00  6.28740E-03 T
  2.10000E-02  5.89049E-01  1.57080E+00  2.31339E+00  7.06019E-03 T
  2.10000E-02  5.89049E-01  1.76715E+00  2.31007E+00  7.50965E-03 T
  2.10000E-02  5.89049E-01  1.96350E+00  2.30662E+00  7.62298E-03 T
  2.10000E-02  5.89049E-01  2.15985E+00  2.30321E+00  7.41885E-03 T
  2.10000E-02  5.89049E-01  2.35619E+00  2.29996E+00  6.90474E-03 T
  2.10000E-02  5.89049E-01  2.55254E+00  2.29702E+00  6.08640E-03 T
  2.10000E-02  5.89049E-01  2.74889E+00  2.29451E+00  5.00618E-03 T
  2.10000E-02  5.89049E-01  2.94524E+00  2.29253E+00  3.74711E-03 T
  2.10000E-02  5.89049E-01  3.14159E+00  2.29115E+00  2.38601E-03 T
  2.10000E-02  5.89049E-01  3.33794E+00  2.29040E+00  9.50101E-04 T
  2.10000E-02  5.89049E-01  3.53429E+00  2.29031E+00 -5.66044E-04 T
  2.10000E-02  5.89049E-01  3.73064E+00  2.29092E+00 -2.13868E-03 T
  2.10000E-02  5.89049E-01  3.92699E+00  2.29223E+00 -3.67947E-03 T
  2.10000E-02  5.89049E-01  4.12334E+00  2.29421E+00 -5.06725E-03 T
  2.10000E-02  5.89049E-01  4.31969E+00  2.29676E+00 -6.20832E-03 T
  2.10000E-02  5.89049E-01  4.51604E+00  2.29976E+00 -7.05694E-03 T
  2.10000E-02  5.89049E-01  4.71239E+00  2.30308E+00 -7.58433E-03 T
  2.10000E-02  5.89049E-01  4.90874E+00  2.30657E+00 -7.75201E-03 T
  2.10000E-02  5.89049E-01  5.10509E+00  2.31005E+00 -7.53685E-03 T
  2.10000E-02  5.89049E-01  5.30144E+00  2.31335E+00 -6.98024E-03 T
  2.10000E-02  5.89049E-01  5.49779E+00  2.31635E+00 -6.19064E-03 T
  2.10000E-02  5.89049E-01  5.69414E+00  2.31896E+00 -5.27727E-03 T
  2.10000E-02  5.89049E-01  5.89049E+00  2.32114E+00 -4.27910E-03 T
  2.10000E-02  5.89049E-01  6.08684E+00  2.32285E+00 -3.16842E-03 T
  2.10000E-02  6.28319E-01  0.00000E+00  2.32342E+00  8.00715E-10 T
  2.10000E-02  6.28319E-01  1.96350E-01  2.32307E+00  1.49787E-03 T
  2.10000E-02  6.28319E-01  3.92699E-01  2.32206E+00  2.89400E-03 T
  2.10000E-02  6.28319E-01  5.89049E-01  2.32045E+00  4.15992E-03 T
  2.10000E-02  6.28319E-01  7.85398E-01  2.31829E+00  5.32927E-03 T
  2.10000E-02  6.28319E-01  9.81748E-01  2.31561E+00  6.41475E-03 T
  2.10000E-02  6.28319E-01  1.17810E+00  2.31248E+00  7.34697E-03 T
  2.10000E-02  6.28319E-01  1.37445E+00  2.30898E+00  8.00187E-03 T
  2.10000E-02  6.28319E-01  1.57080E+00  2.30528E+00  8.28355E-03 T
  2.10000E-02  6.28319E-01  1.76715E+00  2.30155E+00  8.17332E-03 T
  2.10000E-02  6.28319E-01  1.96350E+00  2.29795E+00  7.70526E-03 T
  2.10000E-02  6.28319E-01  2.15985E+00  2.29464E+00  6.91518E-03 T
  2.10000E-02  6.28319E-01  2.35619E+00  2.29176E+00  5.83064E-03 T
  2.10000E-02  6.28319E-01  2.55254E+00  2.28943E+00  4.50436E-03 T
  2.10000E-02  6.28319E-01  2.74889E+00  2.28773E+00  3.03166E-03 T
  2.10000E-02  6.28319E-01  2.94524E+00  2.28671E+00  1.51329E-03 T
  2.10000E-02  6.28319E-01  3.14159E+00  2.28637E+00 -1.69142E-09 T
  2.10000E-02  6.28319E-01  3.33794E+00  2.28671E+00 -1.51329E-03 T
  2.10000E-02  6.28319E-01  3.53429E+00  2.28773E+00 -3.03167E-03 T
  2.10000E-02  6.28319E-01  3.73064E+00  2.28943E+00 -4.50436E-03 T
  2.10000E-02  6.28319E-01  3.92699E+00  2.29176E+00 -5.83064E-03 T
  2.10000E-02  6.28319E-01  4.12334E+00  2.29464E+00 -6.91519E-03 T
  2.10000E-02  6.28319E-01  4.31969E+00  2.29795E+00 -7.70526E-03 T
  2.10000E-02  6.28319E-01  4.51604E+00  2.30155E+00 -8.17332E-03 T
  2.10000E-02  6.28319E-01  4.71239E+00  2.30528E+00 -8.28355E-03 T
  2.10000E-02  6.28319E-01  4.90874E+00  2.30898E+00 -8.00187E-03 T
  2.10000E-02  6.28319E-01  5.10509E+00  2.31248E+00 -7.34696E-03 T
  2.10000E-02  6.28319E-01  5.30144E+00  2.31561E+00 -6.41475E-03 T
  2.10000E-02  6.28319E-01  5.49779E+00  2.31829E+00 -5.32927E-03 T
  2.10000E-02  6.28319E-01  5.69414E+00  2.32045E+00 -4.15992E-03 T
  2.10000E-02  6.28319E-01  5.89049E+00  2.32206E+00 -2.89400E-03 T
  2.10000E-02  6.28319E-01  6.08684E+00  2.32307E+00 -1.49787E-03 T
  2.10000E-02  6.67588E-01  0.00000E+00  2.32401E+00  1.92714E-03 T
  2.10000E-02  6.67588E-01  1.96350E-01  2.32285E+00  3.16842E-03 T
  2.10000E-02  6.67588E-01  3.92699E-01  2.32114E+00  4.27910E-03 T
  2.10000E-02  6.67588E-01  5.89049E-01  2.31896E+00  5.27727E-03 T
  2.10000E-02  6.67588E-01  7.85398E-01  2.31635E+00  6.19064E-03 T
  2.10000E-02  6.67588E-01  9.81748E-01  2.31335E+00  6.98024E-03 T
  2.10000E-02  6.67588E-01  1.17810E+00  2.31005E+00  7.53685E-03 T
  2.10000E-02  6.67588E-01  1.37445E+00  2.30657E+00  7.75201E-03 T
  2.10000E-02  6.67588E-01  1.57080E+00  2.30308E+00  7.58433E-03 T
  2.10000E-02  6.67588E-01  1.76715E+00  2.29976E+00  7.05694E-03 T
  2.10000E-02  6.67588E-01  1.96350E+00  2.29676E+00  6.20832E-03 T
  2.10000E-02  6.67588E-01  2.15985E+00  2.29421E+00  5.06725E-03 T
  2.10000E-02  6.67588E-01  2.35619E+00  2.29223E+00  3.67946E-03 T
  2.10000E-02  6.67588E-01  2.55254E+00  2.29092E+00  2.13868E-03 T
  2.10000E-02  6.67588E-01  2.74889E+00  2.29031E+00  5.66040E-04 T
  2.10000E-02  6.67588E-01  2.94524E+00  2.29040E+00 -9.50105E-04 T
  2.10000E-02  6.67588E-01  3.14159E+00  2.29115E+00 -2.38601E-03 T
  2.10000E-02  6.67588E-01  3.33794E+00  2.29253E+00 -3.74712E-03 T
  2.10000E-02  6.67588E-01  3.53429E+00  2.29451E+00 -5.00618E-03 T
  2.10000E-02  6.67588E-01  3.73064E+00  2.29702E+00 -6.08640E-03 T
  2.10000E-02  6.67588E-01  3.92699E+00  2.29996E+00 -6.90474E-03 T
  2.10000E-02  6.67588E-01  4.12334E+00  2.30321E+00 -7.41885E-03 T
  2.10000E-02  6.67588E-01  4.31969E+00  2.30662E+00 -7.62298E-03 T
  2.10000E-02  6.67588E-01  4.51604E+00  2.31007E+00 -7.50965E-03 T
  2.10000E-02  6.67588E-01  4.71239E+00  2.31339E+00 -7.06019E-03 T
  2.10000E-02  6.67588E-01  4.90874E+00  2.31643E+00 -6.28739E-03 T
  2.10000E-02  6.67588E-01  5.10509E+00  2.31907E+00 -5.27662E-03 T
  2.10000E-02  6.67588E-01  5.30144E+00  2.32122E+00 -4.15954E-03 T
  2.10000E-02  6.67588E-01  5.49779E+00  2.32286E+00 -3.03057E-03 T
  2.10000E-02  6.67588E-01  5.69414E+00  2.32398E+00 -1.89091E-03 T
  2.10000E-02  6.67588E-01  5.89049E+00  2.32457E+00 -6.84579E-04 T
  2.10000E-02  6.67588E-01  6.08684E+00  2.32459E+00  6.09163E-04 T
  2.10000E-02  7.06858E-01  0.00000E+00  2.32361E+00  4.46868E-03 T
  2.10000E-02  7.06858E-01  1.96350E-01  2.32136E+00  5.35651E-03 T
  2.10000E-02  7.06858E-01  3.92699E-01  2.31875E+00  6.07571E-03 T
  2.10000E-02  7.06858E-01  5.89049E-01  2.31585E+00  6.66345E-03 T
  2.10000E-02  7.06858E-01  7.85398E-01  2.31271E+00  7.11546E-03 T
  2.10000E-02  7.06858E-01  9.81748E-01  2.30942E+00  7.35496E-03 T
  2.10000E-02  7.06858E-01  1.17810E+00  2.30609E+00  7.28393E-03 T
  2.10000E-02  7.06858E-01  1.37445E+00  2.30287E+00  6.85713E-03 T
  2.10000E-02  7.06858E-01  1.57080E+00  2.29993E+00  6.10008E-03 T
  2.10000E-02  7.06858E-01  1.76715E+00  2.29741E+00  5.06481E-03 T
  2.10000E-02  7.06858E-01  1.96350E+00  2.29540E+00  3.78903E-03 T
  2.10000E-02  7.06858E-01  2.15985E+00  2.29402E+00  2.30909E-03 T
  2.10000E-02  7.06858E-01  2.35619E+00  2.29334E+00  6.99839E-04 T
  2.10000E-02  7.06858E-01  2.55254E+00  2.29339E+00 -9.23055E-04 T
  2.10000E-02  7.06858E-01  2.74889E+00  2.29416E+00 -2.45404E-03 T
  2.10000E-02  7.06858E-01  2.94524E+00  2.29558E+00 -3.84559E-03 T
  2.10000E-02  7.06858E-01  3.14159E+00  2.29760E+00 -5.09539E-03 T
  2.10000E-02  7.06858E-01  3.33794E+00  2.30016E+00 -6.18763E-03 T
  2.10000E-02  7.06858E-01  3.53429E+00  2.30316E+00 -7.05860E-03 T
  2.10000E-02  7.06858E-01  3.73064E+00  2.30649E+00 -7.62583E-03 T
  2.10000E-02  7.06858E-01  3.92699E+00  2.31001E+00 -7.84220E-03 T
  2.10000E-02  7.06858E-01  4.12334E+00  2.31356E+00 -7.70985E-03 T
  2.10000E-02  7.06858E-01  4.31969E+00  2.31697E+00 -7.24540E-03 T
  2.10000E-02  7.06858E-01  4.51604E+00  2.32010E+00 -6.45379E-03 T
  2.10000E-02  7.06858E-01  4.71239E+00  2.32280E+00 -5.35568E-03 T
  2.10000E-02  7.06858E-01  4.90874E+00  2.32495E+00 -4.03682E-03 T
  2.10000E-02  7.06858E-01  5.10509E+00  2.32647E+00 -2.64540E-03 T
  2.10000E-02  7.06858E-01  5.30144E+00  2.32738E+00 -1.31622E-03 T
  2.10000E-02  7.06858E-01  5.49779E+00  2.32769E+00 -9.07448E-05 T
  2.10000E-02  7.06858E-01  5.69414E+00  2.32747E+00  1.08105E-03 T
  2.10000E-02  7.06858E-01  5.89049E+00  2.32671E+00  2.25474E-03 T
  2.10000E-02  7.06858E-01  6.08684E+00  2.32541E+00  3.41181E-03 T
  2.10000E-02  7.46128E-01  0.00000E+00  2.32362E+00  6.79474E-03 T
  2.10000E-02  7.46128E-01  1.96350E-01  2.32036E+00  7.46812E-03 T
  2.10000E-02  7.46128E-01  3.92699E-01  2.31685E+00  7.91698E-03 T
  2.10000E-02  7.46128E-01  5.89049E-01  2.31319E+00  8.15763E-03 T
  2.10000E-02  7.46128E-01  7.85398E-01  2.30948E+00  8.14350E-03 T
  2.10000E-02  7.46128E-01  9.81748E-01  2.30585E+00  7.79279E-03 T
  2.10000E-02  7.46128E-01  1.17810E+00  2.30248E+00  7.06355E-03 T
  2.10000E-02  7.46128E-01  1.37445E+00  2.29952E+00  5.99199E-03 T
  2.10000E-02  7.46128E-01  1.57080E+00  2.29710E+00  4.65910E-03 T
  2.10000E-02  7.46128E-01  1.76715E+00  2.29534E+00  3.13557E-03 T
  2.10000E-02  7.46128E-01  1.96350E+00  2.29430E+00  1.47216E-03 T
  2.10000E-02  7.46128E-01  2.15985E+00  2.29403E+00 -2.64240E-04 T
  2.10000E-02  7.46128E-01  2.35619E+00  2.29453E+00 -1.97011E-03 T
  2.10000E-02  7.46128E-01  2.55254E+00  2.29578E+00 -3.53985E-03 T
  2.10000E-02  7.46128E-01  2.74889E+00  2.29770E+00 -4.91947E-03 T
  2.10000E-02  7.46128E-01  2.94524E+00  2.30019E+00 -6.11298E-03 T
  2.10000E-02  7.46128E-01  3.14159E+00  2.30319E+00 -7.12969E-03 T
  2.10000E-02  7.46128E-01  3.33794E+00  2.30661E+00 -7.93273E-03 T
  2.10000E-02  7.46128E-01  3.53429E+00  2.31033E+00 -8.44705E-03 T
  2.10000E-02  7.46128E-01  3.73064E+00  2.31422E+00 -8.61239E-03 T
  2.10000E-02  7.46128E-01  3.92699E+00  2.31811E+00 -8.41490E-03 T
  2.10000E-02  7.46128E-01  4.12334E+00  2.32183E+00 -7.86496E-03 T
  2.10000E-02  7.46128E-01  4.31969E+00  2.32522E+00 -6.96307E-03 T
  2.10000E-02  7.46128E-01  4.51604E+00  2.32813E+00 -5.71313E-03 T
  2.10000E-02  7.46128E-01  4.71239E+00  2.33040E+00 -4.17692E-03 T
  2.10000E-02  7.46128E-01  4.90874E+00  2.33193E+00 -2.49783E-03 T
  2.10000E-02  7.46128E-01  5.10509E+00  2.33269E+00 -8.44443E-04 T
  2.10000E-02  7.46128E-01  5.30144E+00  2.33272E+00  6.83943E-04 T
  2.10000E-02  7.46128E-01  5.49779E+00  2.33208E+00  2.09427E-03 T
  2.10000E-02  7.46128E-01  5.69414E+00  2.33082E+00  3.43885E-03 T
  2.10000E-02  7.46128E-01  5.89049E+00  2.32895E+00  4.72137E-03 T
  2.10000E-02  7.46128E-01  6.08684E+00  2.32652E+00  5.86922E-03 T
  2.10000E-02  7.85398E-01  0.00000E+00  2.32955E+00  7.91757E-03 T
  2.10000E-02  7.85398E-01  1.96350E-01  2.32583E+00  8.32198E-03 T
  2.10000E-02  7.85398E-01  3.92699E-01  2.32198E+00  8.48391E-03 T
  2.10000E-02  7.85398E-01  5.89049E-01  2.31813E+00  8.38356E-03 T
  2.10000E-02  7.85398E-01  7.85398E-01  2.31440E+00  7.95163E-03 T
  2.10000E-02  7.85398E-01  9.81748E-01  2.31096E+00  7.13679E-03 T
  2.10000E-02  7.85398E-01  1.17810E+00  2.30798E+00  5.96310E-03 T
  2.10000E-02  7.85398E-01  1.37445E+00  2.30560E+00  4.51730E-03 T
  2.10000E-02  7.85398E-01  1.57080E+00  2.30392E+00  2.89112E-03 T
  2.10000E-02  7.85398E-01  1.76715E+00  2.30300E+00  1.15086E-03 T
  2.10000E-02  7.85398E-01  1.96350E+00  2.30288E+00 -6.38213E-04 T
  2.10000E-02  7.85398E-01  2.15985E+00  2.30357E+00 -2.38002E-03 T
  2.10000E-02  7.85398E-01  2.35619E+00  2.30501E+00 -3.96435E-03 T
  2.10000E-02  7.85398E-01  2.55254E+00  2.30712E+00 -5.32110E-03 T
  2.10000E-02  7.85398E-01  2.74889E+00  2.30980E+00 -6.44659E-03 T
  2.10000E-02  7.85398E-01  2.94524E+00  2.31294E+00 -7.36608E-03 T
  2.10000E-02  7.85398E-01  3.14159E+00  2.31646E+00 -8.07349E-03 T
  2.10000E-02  7.85398E-01  3.33794E+00  2.32025E+00 -8.51666E-03 T
  2.10000E-02  7.85398E-01  3.53429E+00  2.32417E+00 -8.63973E-03 T
  2.10000E-02  7.85398E-01  3.73064E+00  2.32808E+00 -8.42538E-03 T
  2.10000E-02  7.85398E-01  3.92699E+00  2.33182E+00 -7.88554E-03 T
  2.10000E-02  7.85398E-01  4.12334E+00  2.33525E+00 -7.02188E-03 T
  2.10000E-02  7.85398E-01  4.31969E+00  2.33821E+00 -5.82122E-03 T
  2.10000E-02  7.85398E-01  4.51604E+00  2.34055E+00 -4.30705E-03 T
  2.10000E-02  7.85398E-01  4.71239E+00  2.34214E+00 -2.58809E-03 T
  2.10000E-02  7.85398E-01  4.90874E+00  2.34292E+00 -8.32915E-04 T
  2.10000E-02  7.85398E-01  5.10509E+00  2.34292E+00  8.21238E-04 T
  2.10000E-02  7.85398E-01  5.30144E+00  2.34219E+00  2.33704E-03 T
  2.10000E-02  7.85398E-01  5.49779E+00  2.34078E+00  3.75113E-03 T
  2.10000E-02  7.85398E-01  5.69414E+00  2.33875E+00  5.08293E-03 T
  2.10000E-02  7.85398E-01  5.89049E+00  2.33614E+00  6.27752E-03 T
  2.10000E-02  7.85398E-01  6.08684E+00  2.33303E+00  7.24063E-03 T
  2.10000E-02  8.24668E-01  0.00000E+00  2.34178E+00  9.22953E-03 T
  2.10000E-02  8.24668E-01  1.96350E-01  2.33753E+00  9.20832E-03 T
  2.10000E-02  8.24668E-01  3.92699E-01  2.33337E+00  8.91100E-03 T
  2.10000E-02  8.24668E-01  5.89049E-01  2.32942E+00  8.29091E-03 T
  2.10000E-02  8.24668E-01  7.85398E-01  2.32584E+00  7.29427E-03 T
  2.10000E-02  8.24668E-01  9.81748E-01  2.32281E+00  5.92899E-03 T
  2.10000E-02  8.24668E-01  1.17810E+00  2.32048E+00  4.27627E-03 T
  2.10000E-02  8.24668E-01  1.37445E+00  2.31894E+00  2.44051E-03 T
  2.10000E-02  8.24668E-01  1.57080E+00  2.31827E+00  5.03328E-04 T
  2.10000E-02  8.24668E-01  1.76715E+00  2.31849E+00 -1.46793E-03 T
  2.10000E-02  8.24668E-01  1.96350E+00  2.31960E+00 -3.38303E-03 T
  2.10000E-02  8.24668E-01  2.15985E+00  2.32154E+00 -5.12600E-03 T
  2.10000E-02  8.24668E-01  2.35619E+00  2.32423E+00 -6.60164E-03 T
  2.10000E-02  8.24668E-01  2.55254E+00  2.32752E+00 -7.77754E-03 T
  2.10000E-02  8.24668E-01  2.74889E+00  2.33130E+00 -8.66805E-03 T
  2.10000E-02  8.24668E-01  2.94524E+00  2.33542E+00 -9.27683E-03 T
  2.10000E-02  8.24668E-01  3.14159E+00  2.33975E+00 -9.56597E-03 T
  2.10000E-02  8.24668E-01  3.33794E+00  2.34415E+00 -9.48597E-03 T
  2.10000E-02  8.24668E-01  3.53429E+00  2.34843E+00 -9.02531E-03 T
  2.10000E-02  8.24668E-01  3.73064E+00  2.35242E+00 -8.21601E-03 T
  2.10000E-02  8.24668E-01  3.92699E+00  2.35597E+00 -7.09197E-03 T
  2.10000E-02  8.24668E-01  4.12334E+00  2.35893E+00 -5.66177E-03 T
  2.10000E-02  8.24668E-01  4.31969E+00  2.36117E+00 -3.94230E-03 T
  2.10000E-02  8.24668E-01  4.51604E+00  2.36256E+00 -2.01863E-03 T
  2.10000E-02  8.24668E-01  4.71239E+00  2.36303E+00 -5.05622E-05 T
  2.10000E-02  8.24668E-01  4.90874E+00  2.36262E+00  1.80078E-03 T
  2.10000E-02  8.24668E-01  5.10509E+00  2.36139E+00  3.45907E-03 T
  2.10000E-02  8.24668E-01  5.30144E+00  2.35944E+00  4.94177E-03 T
  2.10000E-02  8.24668E-01  5.49779E+00  2.35684E+00  6.28301E-03 T
  2.10000E-02  8.24668E-01  5.69414E+00  2.35365E+00  7.45515E-03 T
  2.10000E-02  8.24668E-01  5.89049E+00  2.34999E+00  8.37236E-03 T
  2.10000E-02  8.24668E-01  6.08684E+00  2.34598E+00  8.96426E-03 T
  2.10000E-02  8.63938E-01  0.00000E+00  2.35589E+00  1.09131E-02 T
  2.10000E-02  8.63938E-01  1.96350E-01  2.35093E+00  1.04859E-02 T
  2.10000E-02  8.63938E-01  3.92699E-01  2.34626E+00  9.70131E-03 T
  2.10000E-02  8.63938E-01  5.89049E-01  2.34206E+00  8.51170E-03 T
  2.10000E-02  8.63938E-01  7.85398E-01  2.33850E+00  6.91277E-03 T
  2.10000E-02  8.63938E-01  9.81748E-01  2.33576E+00  4.97864E-03 T
  2.10000E-02  8.63938E-01  1.17810E+00  2.33396E+00  2.82723E-03 T
  2.10000E-02  8.63938E-01  1.37445E+00  2.33318E+00  5.64265E-04 T
  2.10000E-02  8.63938E-01  1.57080E+00  2.33345E+00 -1.72870E-03 T
  2.10000E-02  8.63938E-01  1.76715E+00  2.33476E+00 -3.96165E-03 T
  2.10000E-02  8.63938E-01  1.96350E+00  2.33706E+00 -6.01753E-03 T
  2.10000E-02  8.63938E-01  2.15985E+00  2.34024E+00 -7.78465E-03 T
  2.10000E-02  8.63938E-01  2.35619E+00  2.34416E+00 -9.20527E-03 T
  2.10000E-02  8.63938E-01  2.55254E+00  2.34866E+00 -1.02784E-02 T
  2.10000E-02  8.63938E-01  2.74889E+00  2.35359E+00 -1.10092E-02 T
  2.10000E-02  8.63938E-01  2.94524E+00  2.35878E+00 -1.13639E-02 T
  2.10000E-02  8.63938E-01  3.14159E+00  2.36405E+00 -1.12853E-02 T
  2.10000E-02  8.63938E-01  3.33794E+00  2.36918E+00 -1.07460E-02 T
  2.10000E-02  8.63938E-01  3.53429E+00  2.37398E+00 -9.77488E-03 T
  2.10000E-02  8.63938E-01  3.73064E+00  2.37823E+00 -8.42471E-03 T
  2.10000E-02  8.63938E-01  3.92699E+00  2.38179E+00 -6.72942E-03 T
  2.10000E-02  8.63938E-01  4.12334E+00  2.38448E+00 -4.71404E-03 T
  2.10000E-02  8.63938E-01  4.31969E+00  2.38616E+00 -2.45243E-03 T
  2.10000E-02  8.63938E-01  4.51604E+00  2.38676E+00 -9.88800E-05 T
  2.10000E-02  8.63938E-01  4.71239E+00  2.38627E+00  2.16093E-03 T
  2.10000E-02  8.63938E-01  4.90874E+00  2.38477E+00  4.20229E-03 T
  2.10000E-02  8.63938E-01  5.10509E+00  2.38237E+00  6.00350E-03 T
  2.10000E-02  8.63938E-01  5.30144E+00  2.37919E+00  7.59321E-03 T
  2.10000E-02  8.63938E-01  5.49779E+00  2.37531E+00  8.96183E-03 T
  2.10000E-02  8.63938E-01  5.69414E+00  2.37088E+00  1.00333E-02 T
  2.10000E-02  8.63938E-01  5.89049E+00  2.36603E+00  1.07220E-02 T
  2.10000E-02  8.63938E-01  6.08684E+00  2.36098E+00  1.10030E-02 T
  2.10000E-02  9.03208E-01  0.00000E+00  2.37227E+00  1.16669E-02 T
  2.10000E-02  9.03208E-01  1.96350E-01  2.36700E+00  1.09239E-02 T
  2.10000E-02  9.03208E-01  3.92699E-01  2.36218E+00  9.76647E-03 T
  2.10000E-02  9.03208E-01  5.89049E-01  2.35801E+00  8.17868E-03 T
  2.10000E-02  9.03208E-01  7.85398E-01  2.35467E+00  6.21486E-03 T
  2.10000E-02  9.03208E-01  9.81748E-01  2.35230E+00  3.98762E-03 T
  2.10000E-02  9.03208E-01  1.17810E+00  2.35100E+00  1.61338E-03 T
  2.10000E-02  9.03208E-01  1.37445E+00  2.35082E+00 -8.16873E-04 T
  2.10000E-02  9.03208E-01  1.57080E+00  2.35175E+00 -3.21576E-03 T
  2.10000E-02  9.03208E-01  1.76715E+00  2.35377E+00 -5.47160E-03 T
  2.10000E-02  9.03208E-01  1.96350E+00  2.35677E+00 -7.46576E-03 T
  2.10000E-02  9.03208E-01  2.15985E+00  2.36063E+00 -9.12260E-03 T
  2.10000E-02  9.03208E-01  2.35619E+00  2.36518E+00 -1.04297E-02 T
  2.10000E-02  9.03208E-01  2.55254E+00  2.37026E+00 -1.13978E-02 T
  2.10000E-02  9.03208E-01  2.74889E+00  2.37573E+00 -1.20044E-02 T
  2.10000E-02  9.03208E-01  2.94524E+00  2.38140E+00 -1.21872E-02 T
  2.10000E-02  9.03208E-01  3.14159E+00  2.38705E+00 -1.18936E-02 T
  2.10000E-02  9.03208E-01  3.33794E+00  2.39247E+00 -1.11245E-02 T
  2.10000E-02  9.03208E-01  3.53429E+00  2.39744E+00 -9.92124E-03 T
  2.10000E-02  9.03208E-01  3.73064E+00  2.40175E+00 -8.31846E-03 T
  2.10000E-02  9.03208E-01  3.92699E+00  2.40522E+00 -6.33330E-03 T
  2.10000E-02  9.03208E-01  4.12334E+00  2.40767E+00 -4.01368E-03 T
  2.10000E-02  9.03208E-01  4.31969E+00  2.40898E+00 -1.48930E-03 T
  2.10000E-02  9.03208E-01  4.51604E+00  2.40908E+00  1.04792E-03 T
  2.10000E-02  9.03208E-01  4.71239E+00  2.40801E+00  3.43036E-03 T
  2.10000E-02  9.03208E-01  4.90874E+00  2.40587E+00  5.58381E-03 T
  2.10000E-02  9.03208E-01  5.10509E+00  2.40278E+00  7.50767E-03 T
  2.10000E-02  9.03208E-01  5.30144E+00  2.39883E+00  9.19118E-03 T
  2.10000E-02  9.03208E-01  5.49779E+00  2.39417E+00  1.05603E-02 T
  2.10000E-02  9.03208E-01  5.69414E+00  2.38897E+00  1.15123E-02 T
  2.10000E-02  9.03208E-01  5.89049E+00  2.38344E+00  1.19932E-02 T
  2.10000E-02  9.03208E-01  6.08684E+00  2.37781E+00  1.20274E-02 T
  2.10000E-02  9.42478E-01  0.00000E+00  2.38703E+00  1.15118E-02 T
  2.10000E-02  9.42478E-01  1.96350E-01  2.38190E+00  1.03357E-02 T
  2.10000E-02  9.42478E-01  3.92699E-01  2.37743E+00  8.73699E-03 T
  2.10000E-02  9.42478E-01  5.89049E-01  2.37380E+00  6.76053E-03 T
  2.10000E-02  9.42478E-01  7.85398E-01  2.37117E+00  4.51174E-03 T
  2.10000E-02  9.42478E-01  9.81748E-01  2.36962E+00  2.11136E-03 T
  2.10000E-02  9.42478E-01  1.17810E+00  2.36921E+00 -3.44646E-04 T
  2.10000E-02  9.42478E-01  1.37445E+00  2.36994E+00 -2.77522E-03 T
  2.10000E-02  9.42478E-01  1.57080E+00  2.37177E+00 -5.08063E-03 T
  2.10000E-02  9.42478E-01  1.76715E+00  2.37463E+00 -7.14343E-03 T
  2.10000E-02  9.42478E-01  1.96350E+00  2.37839E+00 -8.87435E-03 T
  2.10000E-02  9.42478E-01  2.15985E+00  2.38287E+00 -1.02487E-02 T
  2.10000E-02  9.42478E-01  2.35619E+00  2.38792E+00 -1.12835E-02 T
  2.10000E-02  9.42478E-01  2.55254E+00  2.39340E+00 -1.19773E-02 T
  2.10000E-02  9.42478E-01  2.74889E+00  2.39912E+00 -1.22816E-02 T
  2.10000E-02  9.42478E-01  2.94524E+00  2.40490E+00 -1.21355E-02 T
  2.10000E-02  9.42478E-01  3.14159E+00  2.41051E+00 -1.15206E-02 T
  2.10000E-02  9.42478E-01  3.33794E+00  2.41573E+00 -1.04676E-02 T
  2.10000E-02  9.42478E-01  3.53429E+00  2.42037E+00 -9.01363E-03 T
  2.10000E-02  9.42478E-01  3.73064E+00  2.42424E+00 -7.17157E-03 T
  2.10000E-02  9.42478E-01  3.92699E+00  2.42714E+00 -4.96181E-03 T
  2.10000E-02  9.42478E-01  4.12334E+00  2.42892E+00 -2.47310E-03 T
  2.10000E-02  9.42478E-01  4.31969E+00  2.42948E+00  1.25960E-04 T
  2.10000E-02  9.42478E-01  4.51604E+00  2.42881E+00  2.65403E-03 T
  2.10000E-02  9.42478E-01  4.71239E+00  2.42698E+00  5.00004E-03 T
  2.10000E-02  9.42478E-01  4.90874E+00  2.42408E+00  7.13494E-03 T
  2.10000E-02  9.42478E-01  5.10509E+00  2.42022E+00  9.04188E-03 T
  2.10000E-02  9.42478E-01  5.30144E+00  2.41554E+00  1.06458E-02 T
  2.10000E-02  9.42478E-01  5.49779E+00  2.41020E+00  1.18230E-02 T
  2.10000E-02  9.42478E-01  5.69414E+00  2.40443E+00  1.24795E-02 T
  2.10000E-02  9.42478E-01  5.89049E+00  2.39850E+00  1.26094E-02 T
  2.10000E-02  9.42478E-01  6.08684E+00  2.39263E+00  1.22706E-02 T
  2.10000E-02  9.81748E-01  0.00000E+00  2.39324E+00  1.13865E-02 T
  2.10000E-02  9.81748E-01  1.96350E-01  2.38829E+00  9.61708E-03 T
  2.10000E-02  9.81748E-01  3.92699E-01  2.38428E+00  7.43173E-03 T
  2.10000E-02  9.81748E-01  5.89049E-01  2.38138E+00  4.94463E-03 T
  2.10000E-02  9.81748E-01  7.85398E-01  2.37968E+00  2.29722E-03 T
  2.10000E-02  9.81748E-01  9.81748E-01  2.37924E+00 -3.90509E-04 T
  2.10000E-02  9.81748E-01  1.17810E+00  2.38004E+00 -3.02579E-03 T
  2.10000E-02  9.81748E-01  1.37445E+00  2.38204E+00 -5.51019E-03 T
  2.10000E-02  9.81748E-01  1.57080E+00  2.38515E+00 -7.72507E-03 T
  2.10000E-02  9.81748E-01  1.76715E+00  2.38922E+00 -9.56739E-03 T
  2.10000E-02  9.81748E-01  1.96350E+00  2.39407E+00 -1.09969E-02 T
  2.10000E-02  9.81748E-01  2.15985E+00  2.39950E+00 -1.20336E-02 T
  2.10000E-02  9.81748E-01  2.35619E+00  2.40535E+00 -1.27001E-02 T
  2.10000E-02  9.81748E-01  2.55254E+00  2.41143E+00 -1.29741E-02 T
  2.10000E-02  9.81748E-01  2.74889E+00  2.41756E+00 -1.28027E-02 T
  2.10000E-02  9.81748E-01  2.94524E+00  2.42351E+00 -1.21580E-02 T
  2.10000E-02  9.81748E-01  3.14159E+00  2.42906E+00 -1.10657E-02 T
  2.10000E-02  9.81748E-01  3.33794E+00  2.43400E+00 -9.57342E-03 T
  2.10000E-02  9.81748E-01  3.53429E+00  2.43815E+00 -7.70751E-03 T
  2.10000E-02  9.81748E-01  3.73064E+00  2.44132E+00 -5.48169E-03 T
  2.10000E-02  9.81748E-01  3.92699E+00  2.44336E+00 -2.95514E-03 T
  2.10000E-02  9.81748E-01  4.12334E+00  2.44413E+00 -2.67999E-04 T
  2.10000E-02  9.81748E-01  4.31969E+00  2.44362E+00  2.40100E-03 T
  2.10000E-02  9.81748E-01  4.51604E+00  2.44185E+00  4.92008E-03 T
  2.10000E-02  9.81748E-01  4.71239E+00  2.43893E+00  7.24275E-03 T
  2.10000E-02  9.81748E-01  4.90874E+00  2.43495E+00  9.35618E-03 T
  2.10000E-02  9.81748E-01  5.10509E+00  2.43003E+00  1.11972E-02 T
  2.10000E-02  9.81748E-01  5.30144E+00  2.42433E+00  1.26314E-02 T
  2.10000E-02  9.81748E-01  5.49779E+00  2.41809E+00  1.35195E-02 T
  2.10000E-02  9.81748E-01  5.69414E+00  2.41159E+00  1.38002E-02 T
  2.10000E-02  9.81748E-01  5.89049E+00  2.40512E+00  1.35030E-02 T
  2.10000E-02  9.81748E-01  6.08684E+00  2.39892E+00  1.26873E-02 T
  2.10000E-02  1.02102E+00  0.00000E+00  2.40423E+00  1.07807E-02 T
  2.10000E-02  1.02102E+00  1.96350E-01  2.39964E+00  8.60623E-03 T
  2.10000E-02  1.02102E+00  3.92699E-01  2.39618E+00  6.06694E-03 T
  2.10000E-02  1.02102E+00  5.89049E-01  2.39397E+00  3.31155E-03 T
  2.10000E-02  1.02102E+00  7.85398E-01  2.39307E+00  4.79056E-04 T
  2.10000E-02  1.02102E+00  9.81748E-01  2.39351E+00 -2.32281E-03 T
  2.10000E-02  1.02102E+00  1.17810E+00  2.39524E+00 -4.99154E-03 T
  2.10000E-02  1.02102E+00  1.37445E+00  2.39817E+00 -7.40403E-03 T
  2.10000E-02  1.02102E+00  1.57080E+00  2.40215E+00 -9.43945E-03 T
  2.10000E-02  1.02102E+00  1.76715E+00  2.40700E+00 -1.10327E-02 T
  2.10000E-02  1.02102E+00  1.96350E+00  2.41251E+00 -1.21932E-02 T
  2.10000E-02  1.02102E+00  2.15985E+00  2.41849E+00 -1.29598E-02 T
  2.10000E-02  1.02102E+00  2.35619E+00  2.42476E+00 -1.33375E-02 T
  2.10000E-02  1.02102E+00  2.55254E+00  2.43113E+00 -1.32863E-02 T
  2.10000E-02  1.02102E+00  2.74889E+00  2.43737E+00 -1.27681E-02 T
  2.10000E-02  1.02102E+00  2.94524E+00  2.44327E+00 -1.17909E-02 T
  2.10000E-02  1.02102E+00  3.14159E+00  2.44862E+00 -1.03974E-02 T
  2.10000E-02  1.02102E+00  3.33794E+00  2.45321E+00 -8.61971E-03 T
  2.10000E-02  1.02102E+00  3.53429E+00  2.45686E+00 -6.46902E-03 T
  2.10000E-02  1.02102E+00  3.73064E+00  2.45939E+00 -3.98306E-03 T
  2.10000E-02  1.02102E+00  3.92699E+00  2.46067E+00 -1.27736E-03 T
  2.10000E-02  1.02102E+00  4.12334E+00  2.46062E+00  1.47205E-03 T
  2.10000E-02  1.02102E+00  4.31969E+00  2.45927E+00  4.11063E-03 T
  2.10000E-02  1.02102E+00  4.51604E+00  2.45668E+00  6.56897E-03 T
  2.10000E-02  1.02102E+00  4.71239E+00  2.45296E+00  8.83788E-03 T
  2.10000E-02  1.02102E+00  4.90874E+00  2.44821E+00  1.08807E-02 T
  2.10000E-02  1.02102E+00  5.10509E+00  2.44256E+00  1.25796E-02 T
  2.10000E-02  1.02102E+00  5.30144E+00  2.43622E+00  1.37745E-02 T
  2.10000E-02  1.02102E+00  5.49779E+00  2.42948E+00  1.43541E-02 T
  2.10000E-02  1.02102E+00  5.69414E+00  2.42263E+00  1.43026E-02 T
  2.10000E-02  1.02102E+00  5.89049E+00  2.41596E+00  1.36647E-02 T
  2.10000E-02  1.02102E+00  6.08684E+00  2.40975E+00  1.24827E-02 T
  2.10000E-02  1.06029E+00  0.00000E+00  2.42082E+00  9.21678E-03 T
  2.10000E-02  1.06029E+00  1.96350E-01  2.41698E+00  6.87250E-03 T
  2.10000E-02  1.06029E+00  3.92699E-01  2.41433E+00  4.27415E-03 T
  2.10000E-02  1.06029E+00  5.89049E-01  2.41295E+00  1.55800E-03 T
  2.10000E-02  1.06029E+00  7.85398E-01  2.41286E+00 -1.17101E-03 T
  2.10000E-02  1.06029E+00  9.81748E-01  2.41405E+00 -3.82105E-03 T
  2.10000E-02  1.06029E+00  1.17810E+00  2.41645E+00 -6.27757E-03 T
  2.10000E-02  1.06029E+00  1.37445E+00  2.41995E+00 -8.40896E-03 T
  2.10000E-02  1.06029E+00  1.57080E+00  2.42438E+00 -1.01200E-02 T
  2.10000E-02  1.06029E+00  1.76715E+00  2.42952E+00 -1.13933E-02 T
  2.10000E-02  1.06029E+00  1.96350E+00  2.43519E+00 -1.22666E-02 T
  2.10000E-02  1.06029E+00  2.15985E+00  2.44119E+00 -1.27678E-02 T
  2.10000E-02  1.06029E+00  2.35619E+00  2.44736E+00 -1.28778E-02 T
  2.10000E-02  1.06029E+00  2.55254E+00  2.45350E+00 -1.25585E-02 T
  2.10000E-02  1.06029E+00  2.74889E+00  2.45939E+00 -1.18027E-02 T
  2.10000E-02  1.06029E+00  2.94524E+00  2.46483E+00 -1.06412E-02 T
  2.10000E-02  1.06029E+00  3.14159E+00  2.46963E+00 -9.10368E-03 T
  2.10000E-02  1.06029E+00  3.33794E+00  2.47360E+00 -7.19336E-03 T
  2.10000E-02  1.06029E+00  3.53429E+00  2.47656E+00 -4.92184E-03 T
  2.10000E-02  1.06029E+00  3.73064E+00  2.47834E+00 -2.37069E-03 T
  2.10000E-02  1.06029E+00  3.92699E+00  2.47884E+00  2.98397E-04 T
  2.10000E-02  1.06029E+00  4.12334E+00  2.47806E+00  2.91269E-03 T
  2.10000E-02  1.06029E+00  4.31969E+00  2.47604E+00  5.37186E-03 T
  2.10000E-02  1.06029E+00  4.51604E+00  2.47286E+00  7.65719E-03 T
  2.10000E-02  1.06029E+00  4.71239E+00  2.46863E+00  9.75544E-03 T
  2.10000E-02  1.06029E+00  4.90874E+00  2.46345E+00  1.15802E-02 T
  2.10000E-02  1.06029E+00  5.10509E+00  2.45750E+00  1.29764E-02 T
  2.10000E-02  1.06029E+00  5.30144E+00  2.45102E+00  1.38022E-02 T
  2.10000E-02  1.06029E+00  5.49779E+00  2.44432E+00  1.40019E-02 T
  2.10000E-02  1.06029E+00  5.69414E+00  2.43768E+00  1.36007E-02 T
  2.10000E-02  1.06029E+00  5.89049E+00  2.43138E+00  1.26463E-02 T
  2.10000E-02  1.06029E+00  6.08684E+00  2.42569E+00  1.11713E-02 T
  2.10000E-02  1.09956E+00  0.00000E+00  2.42435E+00  7.43736E-03 T
  2.10000E-02  1.09956E+00  1.96350E-01  2.42145E+00  4.73010E-03 T
  2.10000E-02  1.09956E+00  3.92699E-01  2.41987E+00  1.89190E-03 T
  2.10000E-02  1.09956E+00  5.89049E-01  2.41965E+00 -9.60421E-04 T
  2.10000E-02  1.09956E+00  7.85398E-01  2.42077E+00 -3.73802E-03 T
  2.10000E-02  1.09956E+00  9.81748E-01  2.42318E+00 -6.33762E-03 T
  2.10000E-02  1.09956E+00  1.17810E+00  2.42675E+00 -8.62577E-03 T
  2.10000E-02  1.09956E+00  1.37445E+00  2.43133E+00 -1.04812E-02 T
  2.10000E-02  1.09956E+00  1.57080E+00  2.43668E+00 -1.18517E-02 T
  2.10000E-02  1.09956E+00  1.76715E+00  2.44260E+00 -1.27598E-02 T
  2.10000E-02  1.09956E+00  1.96350E+00  2.44886E+00 -1.32474E-02 T
  2.10000E-02  1.09956E+00  2.15985E+00  2.45527E+00 -1.33228E-02 T
  2.10000E-02  1.09956E+00  2.35619E+00  2.46163E+00 -1.29657E-02 T
  2.10000E-02  1.09956E+00  2.55254E+00  2.46773E+00 -1.21724E-02 T
  2.10000E-02  1.09956E+00  2.74889E+00  2.47336E+00 -1.09775E-02 T
  2.10000E-02  1.09956E+00  2.94524E+00  2.47834E+00 -9.42270E-03 T
  2.10000E-02  1.09956E+00  3.14159E+00  2.48248E+00 -7.51962E-03 T
  2.10000E-02  1.09956E+00  3.33794E+00  2.48561E+00 -5.26686E-03 T
  2.10000E-02  1.09956E+00  3.53429E+00  2.48757E+00 -2.71444E-03 T
  2.10000E-02  1.09956E+00  3.73064E+00  2.48823E+00 -7.12234E-07 T
  2.10000E-02  1.09956E+00  3.92699E+00  2.48757E+00  2.69353E-03 T
  2.10000E-02  1.09956E+00  4.12334E+00  2.48563E+00  5.23701E-03 T
  2.10000E-02  1.09956E+00  4.31969E+00  2.48249E+00  7.59088E-03 T
  2.10000E-02  1.09956E+00  4.51604E+00  2.47826E+00  9.75565E-03 T
  2.10000E-02  1.09956E+00  4.71239E+00  2.47304E+00  1.16785E-02 T
  2.10000E-02  1.09956E+00  4.90874E+00  2.46698E+00  1.32207E-02 T
  2.10000E-02  1.09956E+00  5.10509E+00  2.46032E+00  1.42181E-02 T
  2.10000E-02  1.09956E+00  5.30144E+00  2.45335E+00  1.45694E-02 T
  2.10000E-02  1.09956E+00  5.49779E+00  2.44639E+00  1.42657E-02 T
  2.10000E-02  1.09956E+00  5.69414E+00  2.43974E+00  1.33489E-02 T
  2.10000E-02  1.09956E+00  5.89049E+00  2.43369E+00  1.18642E-02 T
  2.10000E-02  1.09956E+00  6.08684E+00  2.42848E+00  9.86277E-03 T
  2.10000E-02  1.13883E+00  0.00000E+00  2.42865E+00  5.57340E-03 T
  2.10000E-02  1.13883E+00  1.96350E-01  2.42671E+00  2.56273E-03 T
  2.10000E-02  1.13883E+00  3.92699E-01  2.42622E+00 -4.82357E-04 T
  2.10000E-02  1.13883E+00  5.89049E-01  2.42716E+00 -3.45964E-03 T
  2.10000E-02  1.13883E+00  7.85398E-01  2.42949E+00 -6.26994E-03 T
  2.10000E-02  1.13883E+00  9.81748E-01  2.43310E+00 -8.78258E-03 T
  2.10000E-02  1.13883E+00  1.17810E+00  2.43781E+00 -1.08581E-02 T
  2.10000E-02  1.13883E+00  1.37445E+00  2.44341E+00 -1.24093E-02 T
  2.10000E-02  1.13883E+00  1.57080E+00  2.44964E+00 -1.34321E-02 T
  2.10000E-02  1.13883E+00  1.76715E+00  2.45625E+00 -1.39692E-02 T
  2.10000E-02  1.13883E+00  1.96350E+00  2.46304E+00 -1.40499E-02 T
  2.10000E-02  1.13883E+00  2.15985E+00  2.46977E+00 -1.36733E-02 T
  2.10000E-02  1.13883E+00  2.35619E+00  2.47622E+00 -1.28423E-02 T
  2.10000E-02  1.13883E+00  2.55254E+00  2.48219E+00 -1.15953E-02 T
  2.10000E-02  1.13883E+00  2.74889E+00  2.48747E+00 -9.98716E-03 T
  2.10000E-02  1.13883E+00  2.94524E+00  2.49189E+00 -8.04512E-03 T
  2.10000E-02  1.13883E+00  3.14159E+00  2.49528E+00 -5.76643E-03 T
  2.10000E-02  1.13883E+00  3.33794E+00  2.49749E+00 -3.17704E-03 T
  2.10000E-02  1.13883E+00  3.53429E+00  2.49836E+00 -3.90031E-04 T
  2.10000E-02  1.13883E+00  3.73064E+00  2.49787E+00  2.41180E-03 T
  2.10000E-02  1.13883E+00  3.92699E+00  2.49602E+00  5.06551E-03 T
  2.10000E-02  1.13883E+00  4.12334E+00  2.49294E+00  7.50182E-03 T
  2.10000E-02  1.13883E+00  4.31969E+00  2.48872E+00  9.72578E-03 T
  2.10000E-02  1.13883E+00  4.51604E+00  2.48347E+00  1.17242E-02 T
  2.10000E-02  1.13883E+00  4.71239E+00  2.47734E+00  1.33980E-02 T
  2.10000E-02  1.13883E+00  4.90874E+00  2.47052E+00  1.45866E-02 T
  2.10000E-02  1.13883E+00  5.10509E+00  2.46329E+00  1.51540E-02 T
  2.10000E-02  1.13883E+00  5.30144E+00  2.45597E+00  1.50457E-02 T
  2.10000E-02  1.13883E+00  5.49779E+00  2.44888E+00  1.42739E-02 T
  2.10000E-02  1.13883E+00  5.69414E+00  2.44234E+00  1.28729E-02 T
  2.10000E-02  1.13883E+00  5.89049E+00  2.43663E+00  1.08878E-02 T
  2.10000E-02  1.13883E+00  6.08684E+00  2.43200E+00  8.40582E-03 T
  2.10000E-02  1.17810E+00  0.00000E+00  2.44650E+00  3.77890E-03 T
  2.10000E-02  1.17810E+00  1.96350E-01  2.44539E+00  8.41035E-04 T
  2.10000E-02  1.17810E+00  3.92699E-01  2.44569E+00 -2.08990E-03 T
  2.10000E-02  1.17810E+00  5.89049E-01  2.44739E+00 -4.92197E-03 T
  2.10000E-02  1.17810E+00  7.85398E-01  2.45039E+00 -7.53441E-03 T
  2.10000E-02  1.17810E+00  9.81748E-01  2.45458E+00 -9.77769E-03 T
  2.10000E-02  1.17810E+00  1.17810E+00  2.45974E+00 -1.15294E-02 T
  2.10000E-02  1.17810E+00  1.37445E+00  2.46563E+00 -1.27452E-02 T
  2.10000E-02  1.17810E+00  1.57080E+00  2.47200E+00 -1.34495E-02 T
  2.10000E-02  1.17810E+00  1.76715E+00  2.47861E+00 -1.36790E-02 T
  2.10000E-02  1.17810E+00  1.96350E+00  2.48524E+00 -1.34475E-02 T
  2.10000E-02  1.17810E+00  2.15985E+00  2.49166E+00 -1.27646E-02 T
  2.10000E-02  1.17810E+00  2.35619E+00  2.49766E+00 -1.16693E-02 T
  2.10000E-02  1.17810E+00  2.55254E+00  2.50305E+00 -1.02235E-02 T
  2.10000E-02  1.17810E+00  2.74889E+00  2.50766E+00 -8.46565E-03 T
  2.10000E-02  1.17810E+00  2.94524E+00  2.51133E+00 -6.38998E-03 T
  2.10000E-02  1.17810E+00  3.14159E+00  2.51390E+00 -3.99332E-03 T
  2.10000E-02  1.17810E+00  3.33794E+00  2.51523E+00 -1.34973E-03 T
  2.10000E-02  1.17810E+00  3.53429E+00  2.51522E+00  1.37308E-03 T
  2.10000E-02  1.17810E+00  3.73064E+00  2.51389E+00  3.98745E-03 T
  2.10000E-02  1.17810E+00  3.92699E+00  2.51132E+00  6.38259E-03 T
  2.10000E-02  1.17810E+00  4.12334E+00  2.50764E+00  8.54733E-03 T
  2.10000E-02  1.17810E+00  4.31969E+00  2.50294E+00  1.04978E-02 T
  2.10000E-02  1.17810E+00  4.51604E+00  2.49736E+00  1.21883E-02 T
  2.10000E-02  1.17810E+00  4.71239E+00  2.49105E+00  1.34950E-02 T
  2.10000E-02  1.17810E+00  4.90874E+00  2.48425E+00  1.42810E-02 T
  2.10000E-02  1.17810E+00  5.10509E+00  2.47722E+00  1.44653E-02 T
  2.10000E-02  1.17810E+00  5.30144E+00  2.47028E+00  1.40313E-02 T
  2.10000E-02  1.17810E+00  5.49779E+00  2.46371E+00  1.29900E-02 T
  2.10000E-02  1.17810E+00  5.69414E+00  2.45780E+00  1.13605E-02 T
  2.10000E-02  1.17810E+00  5.89049E+00  2.45283E+00  9.19625E-03 T
  2.10000E-02  1.17810E+00  6.08684E+00  2.44901E+00  6.61471E-03 T
  2.10000E-02  1.21737E+00  0.00000E+00  2.45507E+00  2.13503E-03 T
  2.10000E-02  1.21737E+00  1.96350E-01  2.45475E+00 -8.04941E-04 T
  2.10000E-02  1.21737E+00  3.92699E-01  2.45584E+00 -3.71441E-03 T
  2.10000E-02  1.21737E+00  5.89049E-01  2.45831E+00 -6.48455E-03 T
  2.10000E-02  1.21737E+00  7.85398E-01  2.46206E+00 -8.96319E-03 T
  2.10000E-02  1.21737E+00  9.81748E-01  2.46691E+00 -1.09952E-02 T
  2.10000E-02  1.21737E+00  1.17810E+00  2.47262E+00 -1.24863E-02 T
  2.10000E-02  1.21737E+00  1.37445E+00  2.47894E+00 -1.34215E-02 T
  2.10000E-02  1.21737E+00  1.57080E+00  2.48560E+00 -1.38256E-02 T
  2.10000E-02  1.21737E+00  1.76715E+00  2.49236E+00 -1.37198E-02 T
  2.10000E-02  1.21737E+00  1.96350E+00  2.49895E+00 -1.31237E-02 T
  2.10000E-02  1.21737E+00  2.15985E+00  2.50516E+00 -1.20872E-02 T
  2.10000E-02  1.21737E+00  2.35619E+00  2.51078E+00 -1.06920E-02 T
  2.10000E-02  1.21737E+00  2.55254E+00  2.51565E+00 -9.00508E-03 T
  2.10000E-02  1.21737E+00  2.74889E+00  2.51963E+00 -7.03620E-03 T
  2.10000E-02  1.21737E+00  2.94524E+00  2.52256E+00 -4.76403E-03 T
  2.10000E-02  1.21737E+00  3.14159E+00  2.52430E+00 -2.21738E-03 T
  2.10000E-02  1.21737E+00  3.33794E+00  2.52474E+00  4.72719E-04 T
  2.10000E-02  1.21737E+00  3.53429E+00  2.52384E+00  3.11457E-03 T
  2.10000E-02  1.21737E+00  3.73064E+00  2.52168E+00  5.55777E-03 T
  2.10000E-02  1.21737E+00  3.92699E+00  2.51838E+00  7.75474E-03 T
  2.10000E-02  1.21737E+00  4.12334E+00  2.51405E+00  9.72292E-03 T
  2.10000E-02  1.21737E+00  4.31969E+00  2.50882E+00  1.14529E-02 T
  2.10000E-02  1.21737E+00  4.51604E+00  2.50283E+00  1.28595E-02 T
  2.10000E-02  1.21737E+00  4.71239E+00  2.49626E+00  1.38181E-02 T
  2.10000E-02  1.21737E+00  4.90874E+00  2.48937E+00  1.42341E-02 T
  2.10000E-02  1.21737E+00  5.10509E+00  2.48244E+00  1.40708E-02 T
  2.10000E-02  1.21737E+00  5.30144E+00  2.47575E+00  1.33230E-02 T
  2.10000E-02  1.21737E+00  5.49779E+00  2.46958E+00  1.19903E-02 T
  2.10000E-02  1.21737E+00  5.69414E+00  2.46421E+00  1.00953E-02 T
  2.10000E-02  1.21737E+00  5.89049E+00  2.45989E+00  7.72231E-03 T
  2.10000E-02  1.21737E+00  6.08684E+00  2.45680E+00  5.01685E-03 T
