s \zeta_{Boozer}  \theta_{Boozer}(right-handed)  B[T]  (v_B.\nabla\psi)[A.U.]
  8.50000E-01  0.00000E+00  0.00000E+00  2.29387E+00  0.00000E+00 F
  8.50000E-01  0.00000E+00  1.96350E-01  2.29973E+00 -2.84988E-02 F
  8.50000E-01  0.00000E+00  3.92699E-01  2.32092E+00 -6.40410E-02 F
  8.50000E-01  0.00000E+00  5.89049E-01  2.35744E+00 -9.49551E-02 F
  8.50000E-01  0.00000E+00  7.85398E-01  2.40767E+00 -1.15480E-01 F
  8.50000E-01  0.00000E+00  9.81748E-01  2.46214E+00 -1.09155E-01 F
  8.50000E-01  0.00000E+00  1.17810E+00  2.51138E+00 -9.11008E-02 F
  8.50000E-01  0.00000E+00  1.37445E+00  2.55109E+00 -6.99081E-02 F
  8.50000E-01  0.00000E+00  1.57080E+00  2.58413E+00 -6.39831E-02 F
  8.50000E-01  0.00000E+00  1.76715E+00  2.61752E+00 -6.73352E-02 F
  8.50000E-01  0.00000E+00  1.96350E+00  2.65397E+00 -7.41684E-02 F
  8.50000E-01  0.00000E+00  2.15985E+00  2.69501E+00 -8.13541E-02 F
  8.50000E-01  0.00000E+00  2.35619E+00  2.73822E+00 -7.84241E-02 F
  8.50000E-01  0.00000E+00  2.55254E+00  2.77745E+00 -6.56566E-02 F
  8.50000E-01  0.00000E+00  2.74889E+00  2.80928E+00 -4.98466E-02 F
  8.50000E-01  0.00000E+00  2.94524E+00  2.83125E+00 -2.82318E-02 F
  8.50000E-01  0.00000E+00  3.14159E+00  2.83932E+00  1.32539E-08 F
  8.50000E-01  0.00000E+00  3.33794E+00  2.83125E+00  2.82318E-02 F
  8.50000E-01  0.00000E+00  3.53429E+00  2.80928E+00  4.98466E-02 F
  8.50000E-01  0.00000E+00  3.73064E+00  2.77745E+00  6.56566E-02 F
  8.50000E-01  0.00000E+00  3.92699E+00  2.73822E+00  7.84241E-02 F
  8.50000E-01  0.00000E+00  4.12334E+00  2.69501E+00  8.13541E-02 F
  8.50000E-01  0.00000E+00  4.31969E+00  2.65397E+00  7.41684E-02 F
  8.50000E-01  0.00000E+00  4.51604E+00  2.61752E+00  6.73352E-02 F
  8.50000E-01  0.00000E+00  4.71239E+00  2.58413E+00  6.39831E-02 F
  8.50000E-01  0.00000E+00  4.90874E+00  2.55109E+00  6.99081E-02 F
  8.50000E-01  0.00000E+00  5.10509E+00  2.51138E+00  9.11009E-02 F
  8.50000E-01  0.00000E+00  5.30144E+00  2.46214E+00  1.09155E-01 F
  8.50000E-01  0.00000E+00  5.49779E+00  2.40767E+00  1.15480E-01 F
  8.50000E-01  0.00000E+00  5.69414E+00  2.35744E+00  9.49550E-02 F
  8.50000E-01  0.00000E+00  5.89049E+00  2.32092E+00  6.40409E-02 F
  8.50000E-01  0.00000E+00  6.08684E+00  2.29973E+00  2.84988E-02 F
  8.50000E-01  3.92699E-02  0.00000E+00  2.31710E+00 -1.91614E-02 F
  8.50000E-01  3.92699E-02  1.96350E-01  2.33351E+00 -5.39803E-02 F
  8.50000E-01  3.92699E-02  3.92699E-01  2.36535E+00 -8.13245E-02 F
  8.50000E-01  3.92699E-02  5.89049E-01  2.40825E+00 -1.01635E-01 F
  8.50000E-01  3.92699E-02  7.85398E-01  2.45968E+00 -1.09824E-01 F
  8.50000E-01  3.92699E-02  9.81748E-01  2.51182E+00 -1.02925E-01 F
  8.50000E-01  3.92699E-02  1.17810E+00  2.56010E+00 -8.94177E-02 F
  8.50000E-01  3.92699E-02  1.37445E+00  2.60102E+00 -7.33468E-02 F
  8.50000E-01  3.92699E-02  1.57080E+00  2.63677E+00 -6.67929E-02 F
  8.50000E-01  3.92699E-02  1.76715E+00  2.67045E+00 -6.26662E-02 F
  8.50000E-01  3.92699E-02  1.96350E+00  2.70309E+00 -6.20031E-02 F
  8.50000E-01  3.92699E-02  2.15985E+00  2.73718E+00 -6.59286E-02 F
  8.50000E-01  3.92699E-02  2.35619E+00  2.77291E+00 -6.40463E-02 F
  8.50000E-01  3.92699E-02  2.55254E+00  2.80459E+00 -5.03638E-02 F
  8.50000E-01  3.92699E-02  2.74889E+00  2.82748E+00 -3.15006E-02 F
  8.50000E-01  3.92699E-02  2.94524E+00  2.83767E+00 -3.23055E-03 F
  8.50000E-01  3.92699E-02  3.14159E+00  2.83007E+00  2.98332E-02 F
  8.50000E-01  3.92699E-02  3.33794E+00  2.80663E+00  5.28170E-02 F
  8.50000E-01  3.92699E-02  3.53429E+00  2.77376E+00  6.57499E-02 F
  8.50000E-01  3.92699E-02  3.73064E+00  2.73677E+00  6.95745E-02 F
  8.50000E-01  3.92699E-02  3.92699E+00  2.69980E+00  6.89267E-02 F
  8.50000E-01  3.92699E-02  4.12334E+00  2.66346E+00  6.91759E-02 F
  8.50000E-01  3.92699E-02  4.31969E+00  2.62779E+00  6.76932E-02 F
  8.50000E-01  3.92699E-02  4.51604E+00  2.59362E+00  6.61034E-02 F
  8.50000E-01  3.92699E-02  4.71239E+00  2.55994E+00  6.74305E-02 F
  8.50000E-01  3.92699E-02  4.90874E+00  2.52498E+00  7.41134E-02 F
  8.50000E-01  3.92699E-02  5.10509E+00  2.48553E+00  8.61952E-02 F
  8.50000E-01  3.92699E-02  5.30144E+00  2.44153E+00  9.50856E-02 F
  8.50000E-01  3.92699E-02  5.49779E+00  2.39597E+00  9.34689E-02 F
  8.50000E-01  3.92699E-02  5.69414E+00  2.35659E+00  7.37208E-02 F
  8.50000E-01  3.92699E-02  5.89049E+00  2.32828E+00  4.76715E-02 F
  8.50000E-01  3.92699E-02  6.08684E+00  2.31490E+00  1.05863E-02 F
  8.50000E-01  7.85398E-02  0.00000E+00  2.31283E+00 -2.84342E-02 F
  8.50000E-01  7.85398E-02  1.96350E-01  2.33623E+00 -7.51574E-02 F
  8.50000E-01  7.85398E-02  3.92699E-01  2.38002E+00 -1.10485E-01 F
  8.50000E-01  7.85398E-02  5.89049E-01  2.43695E+00 -1.26992E-01 F
  8.50000E-01  7.85398E-02  7.85398E-01  2.49785E+00 -1.21300E-01 F
  8.50000E-01  7.85398E-02  9.81748E-01  2.55463E+00 -1.07248E-01 F
  8.50000E-01  7.85398E-02  1.17810E+00  2.60434E+00 -8.83347E-02 F
  8.50000E-01  7.85398E-02  1.37445E+00  2.64570E+00 -7.40661E-02 F
  8.50000E-01  7.85398E-02  1.57080E+00  2.68244E+00 -6.66330E-02 F
  8.50000E-01  7.85398E-02  1.76715E+00  2.71596E+00 -6.00220E-02 F
  8.50000E-01  7.85398E-02  1.96350E+00  2.74628E+00 -5.28423E-02 F
  8.50000E-01  7.85398E-02  2.15985E+00  2.77319E+00 -4.70774E-02 F
  8.50000E-01  7.85398E-02  2.35619E+00  2.79758E+00 -4.12892E-02 F
  8.50000E-01  7.85398E-02  2.55254E+00  2.81727E+00 -2.91772E-02 F
  8.50000E-01  7.85398E-02  2.74889E+00  2.82878E+00 -1.10090E-02 F
  8.50000E-01  7.85398E-02  2.94524E+00  2.82735E+00  1.80930E-02 F
  8.50000E-01  7.85398E-02  3.14159E+00  2.80802E+00  5.07316E-02 F
  8.50000E-01  7.85398E-02  3.33794E+00  2.77385E+00  7.16589E-02 F
  8.50000E-01  7.85398E-02  3.53429E+00  2.73238E+00  7.96433E-02 F
  8.50000E-01  7.85398E-02  3.73064E+00  2.69092E+00  7.38639E-02 F
  8.50000E-01  7.85398E-02  3.92699E+00  2.65555E+00  6.11689E-02 F
  8.50000E-01  7.85398E-02  4.12334E+00  2.62538E+00  5.73704E-02 F
  8.50000E-01  7.85398E-02  4.31969E+00  2.59478E+00  6.29877E-02 F
  8.50000E-01  7.85398E-02  4.51604E+00  2.56043E+00  7.34792E-02 F
  8.50000E-01  7.85398E-02  4.71239E+00  2.52091E+00  8.42931E-02 F
  8.50000E-01  7.85398E-02  4.90874E+00  2.47784E+00  9.04113E-02 F
  8.50000E-01  7.85398E-02  5.10509E+00  2.43410E+00  8.95663E-02 F
  8.50000E-01  7.85398E-02  5.30144E+00  2.39323E+00  8.18867E-02 F
  8.50000E-01  7.85398E-02  5.49779E+00  2.35882E+00  6.35805E-02 F
  8.50000E-01  7.85398E-02  5.69414E+00  2.33404E+00  4.63074E-02 F
  8.50000E-01  7.85398E-02  5.89049E+00  2.31563E+00  3.19368E-02 F
  8.50000E-01  7.85398E-02  6.08684E+00  2.30752E+00  3.08814E-03 F
  8.50000E-01  1.17810E-01  0.00000E+00  2.27560E+00 -4.02766E-02 F
  8.50000E-01  1.17810E-01  1.96350E-01  2.30628E+00 -9.73536E-02 F
  8.50000E-01  1.17810E-01  3.92699E-01  2.36201E+00 -1.41426E-01 F
  8.50000E-01  1.17810E-01  5.89049E-01  2.43302E+00 -1.54439E-01 F
  8.50000E-01  1.17810E-01  7.85398E-01  2.50466E+00 -1.38032E-01 F
  8.50000E-01  1.17810E-01  9.81748E-01  2.56705E+00 -1.11664E-01 F
  8.50000E-01  1.17810E-01  1.17810E+00  2.61676E+00 -8.52438E-02 F
  8.50000E-01  1.17810E-01  1.37445E+00  2.65742E+00 -7.43696E-02 F
  8.50000E-01  1.17810E-01  1.57080E+00  2.69537E+00 -7.01078E-02 F
  8.50000E-01  1.17810E-01  1.76715E+00  2.73169E+00 -6.61851E-02 F
  8.50000E-01  1.17810E-01  1.96350E+00  2.76543E+00 -5.73911E-02 F
  8.50000E-01  1.17810E-01  2.15985E+00  2.79254E+00 -4.12410E-02 F
  8.50000E-01  1.17810E-01  2.35619E+00  2.81039E+00 -2.37872E-02 F
  8.50000E-01  1.17810E-01  2.55254E+00  2.81883E+00 -6.61723E-03 F
  8.50000E-01  1.17810E-01  2.74889E+00  2.81718E+00  1.33196E-02 F
  8.50000E-01  1.17810E-01  2.94524E+00  2.80323E+00  3.78943E-02 F
  8.50000E-01  1.17810E-01  3.14159E+00  2.77565E+00  6.19062E-02 F
  8.50000E-01  1.17810E-01  3.33794E+00  2.73747E+00  7.74214E-02 F
  8.50000E-01  1.17810E-01  3.53429E+00  2.69445E+00  8.21206E-02 F
  8.50000E-01  1.17810E-01  3.73064E+00  2.65233E+00  7.69777E-02 F
  8.50000E-01  1.17810E-01  3.92699E+00  2.61498E+00  6.77277E-02 F
  8.50000E-01  1.17810E-01  4.12334E+00  2.58145E+00  6.54079E-02 F
  8.50000E-01  1.17810E-01  4.31969E+00  2.54736E+00  7.10142E-02 F
  8.50000E-01  1.17810E-01  4.51604E+00  2.50948E+00  8.23584E-02 F
  8.50000E-01  1.17810E-01  4.71239E+00  2.46604E+00  9.54135E-02 F
  8.50000E-01  1.17810E-01  4.90874E+00  2.41751E+00  1.05906E-01 F
  8.50000E-01  1.17810E-01  5.10509E+00  2.36773E+00  1.03304E-01 F
  8.50000E-01  1.17810E-01  5.30144E+00  2.32367E+00  8.51174E-02 F
  8.50000E-01  1.17810E-01  5.49779E+00  2.29284E+00  4.93162E-02 F
  8.50000E-01  1.17810E-01  5.69414E+00  2.27697E+00  2.60800E-02 F
  8.50000E-01  1.17810E-01  5.89049E+00  2.26771E+00  1.38852E-02 F
  8.50000E-01  1.17810E-01  6.08684E+00  2.26609E+00 -7.03614E-03 F
  8.50000E-01  1.57080E-01  0.00000E+00  2.30716E+00 -6.17041E-02 F
  8.50000E-01  1.57080E-01  1.96350E-01  2.34490E+00 -1.02245E-01 F
  8.50000E-01  1.57080E-01  3.92699E-01  2.39899E+00 -1.26894E-01 F
  8.50000E-01  1.57080E-01  5.89049E-01  2.46134E+00 -1.30623E-01 F
  8.50000E-01  1.57080E-01  7.85398E-01  2.52232E+00 -1.17156E-01 F
  8.50000E-01  1.57080E-01  9.81748E-01  2.57649E+00 -9.87818E-02 F
  8.50000E-01  1.57080E-01  1.17810E+00  2.62238E+00 -8.25963E-02 F
  8.50000E-01  1.57080E-01  1.37445E+00  2.66344E+00 -7.68990E-02 F
  8.50000E-01  1.57080E-01  1.57080E+00  2.70308E+00 -7.34455E-02 F
  8.50000E-01  1.57080E-01  1.76715E+00  2.74119E+00 -6.86209E-02 F
  8.50000E-01  1.57080E-01  1.96350E+00  2.77544E+00 -5.58204E-02 F
  8.50000E-01  1.57080E-01  2.15985E+00  2.79988E+00 -3.24011E-02 F
  8.50000E-01  1.57080E-01  2.35619E+00  2.81078E+00 -7.38988E-03 F
  8.50000E-01  1.57080E-01  2.55254E+00  2.80799E+00  1.77106E-02 F
  8.50000E-01  1.57080E-01  2.74889E+00  2.79139E+00  4.20908E-02 F
  8.50000E-01  1.57080E-01  2.94524E+00  2.76307E+00  6.04649E-02 F
  8.50000E-01  1.57080E-01  3.14159E+00  2.72747E+00  7.01651E-02 F
  8.50000E-01  1.57080E-01  3.33794E+00  2.68940E+00  7.16278E-02 F
  8.50000E-01  1.57080E-01  3.53429E+00  2.65324E+00  6.52774E-02 F
  8.50000E-01  1.57080E-01  3.73064E+00  2.62146E+00  5.80902E-02 F
  8.50000E-01  1.57080E-01  3.92699E+00  2.59237E+00  5.68024E-02 F
  8.50000E-01  1.57080E-01  4.12334E+00  2.56244E+00  6.23547E-02 F
  8.50000E-01  1.57080E-01  4.31969E+00  2.52924E+00  7.07551E-02 F
  8.50000E-01  1.57080E-01  4.51604E+00  2.49200E+00  8.03620E-02 F
  8.50000E-01  1.57080E-01  4.71239E+00  2.45074E+00  8.97305E-02 F
  8.50000E-01  1.57080E-01  4.90874E+00  2.40610E+00  9.60327E-02 F
  8.50000E-01  1.57080E-01  5.10509E+00  2.36197E+00  9.07098E-02 F
  8.50000E-01  1.57080E-01  5.30144E+00  2.32345E+00  7.41053E-02 F
  8.50000E-01  1.57080E-01  5.49779E+00  2.29690E+00  4.19868E-02 F
  8.50000E-01  1.57080E-01  5.69414E+00  2.28371E+00  1.91245E-02 F
  8.50000E-01  1.57080E-01  5.89049E+00  2.27985E+00 -3.65903E-03 F
  8.50000E-01  1.57080E-01  6.08684E+00  2.28735E+00 -2.91544E-02 F
  8.50000E-01  1.96350E-01  0.00000E+00  2.34675E+00 -8.43435E-02 F
  8.50000E-01  1.96350E-01  1.96350E-01  2.39100E+00 -1.02744E-01 F
  8.50000E-01  1.96350E-01  3.92699E-01  2.44081E+00 -1.05603E-01 F
  8.50000E-01  1.96350E-01  5.89049E-01  2.49098E+00 -1.00677E-01 F
  8.50000E-01  1.96350E-01  7.85398E-01  2.53897E+00 -9.40095E-02 F
  8.50000E-01  1.96350E-01  9.81748E-01  2.58476E+00 -8.77832E-02 F
  8.50000E-01  1.96350E-01  1.17810E+00  2.62802E+00 -8.16967E-02 F
  8.50000E-01  1.96350E-01  1.37445E+00  2.66949E+00 -7.80223E-02 F
  8.50000E-01  1.96350E-01  1.57080E+00  2.70975E+00 -7.40537E-02 F
  8.50000E-01  1.96350E-01  1.76715E+00  2.74721E+00 -6.42610E-02 F
  8.50000E-01  1.96350E-01  1.96350E+00  2.77708E+00 -4.43358E-02 F
  8.50000E-01  1.96350E-01  2.15985E+00  2.79459E+00 -1.95857E-02 F
  8.50000E-01  1.96350E-01  2.35619E+00  2.79831E+00  6.78765E-03 F
  8.50000E-01  1.96350E-01  2.55254E+00  2.78623E+00  3.74756E-02 F
  8.50000E-01  1.96350E-01  2.74889E+00  2.75818E+00  6.43345E-02 F
  8.50000E-01  1.96350E-01  2.94524E+00  2.71839E+00  8.15719E-02 F
  8.50000E-01  1.96350E-01  3.14159E+00  2.67395E+00  8.37372E-02 F
  8.50000E-01  1.96350E-01  3.33794E+00  2.63260E+00  7.33999E-02 F
  8.50000E-01  1.96350E-01  3.53429E+00  2.59903E+00  5.71855E-02 F
  8.50000E-01  1.96350E-01  3.73064E+00  2.57328E+00  4.58071E-02 F
  8.50000E-01  1.96350E-01  3.92699E+00  2.55068E+00  4.64269E-02 F
  8.50000E-01  1.96350E-01  4.12334E+00  2.52472E+00  5.89589E-02 F
  8.50000E-01  1.96350E-01  4.31969E+00  2.49212E+00  7.29452E-02 F
  8.50000E-01  1.96350E-01  4.51604E+00  2.45419E+00  8.21690E-02 F
  8.50000E-01  1.96350E-01  4.71239E+00  2.41422E+00  8.38889E-02 F
  8.50000E-01  1.96350E-01  4.90874E+00  2.37574E+00  7.85636E-02 F
  8.50000E-01  1.96350E-01  5.10509E+00  2.34167E+00  6.80855E-02 F
  8.50000E-01  1.96350E-01  5.30144E+00  2.31399E+00  5.09943E-02 F
  8.50000E-01  1.96350E-01  5.49779E+00  2.29664E+00  2.58994E-02 F
  8.50000E-01  1.96350E-01  5.69414E+00  2.28985E+00  3.65256E-03 F
  8.50000E-01  1.96350E-01  5.89049E+00  2.29511E+00 -2.81865E-02 F
  8.50000E-01  1.96350E-01  6.08684E+00  2.31457E+00 -5.65818E-02 F
  8.50000E-01  2.35619E-01  0.00000E+00  2.33469E+00 -1.09429E-01 F
  8.50000E-01  2.35619E-01  1.96350E-01  2.38837E+00 -1.17878E-01 F
  8.50000E-01  2.35619E-01  3.92699E-01  2.44217E+00 -1.07136E-01 F
  8.50000E-01  2.35619E-01  5.89049E-01  2.49043E+00 -9.26904E-02 F
  8.50000E-01  2.35619E-01  7.85398E-01  2.53356E+00 -8.29036E-02 F
  8.50000E-01  2.35619E-01  9.81748E-01  2.57357E+00 -7.78389E-02 F
  8.50000E-01  2.35619E-01  1.17810E+00  2.61345E+00 -7.94696E-02 F
  8.50000E-01  2.35619E-01  1.37445E+00  2.65513E+00 -8.13703E-02 F
  8.50000E-01  2.35619E-01  1.57080E+00  2.69781E+00 -8.00841E-02 F
  8.50000E-01  2.35619E-01  1.76715E+00  2.73788E+00 -6.73467E-02 F
  8.50000E-01  2.35619E-01  1.96350E+00  2.76722E+00 -3.94272E-02 F
  8.50000E-01  2.35619E-01  2.15985E+00  2.78013E+00 -8.51351E-03 F
  8.50000E-01  2.35619E-01  2.35619E+00  2.77688E+00  2.04606E-02 F
  8.50000E-01  2.35619E-01  2.55254E+00  2.75815E+00  4.75935E-02 F
  8.50000E-01  2.35619E-01  2.74889E+00  2.72649E+00  6.95384E-02 F
  8.50000E-01  2.35619E-01  2.94524E+00  2.68432E+00  8.80528E-02 F
  8.50000E-01  2.35619E-01  3.14159E+00  2.63596E+00  9.46521E-02 F
  8.50000E-01  2.35619E-01  3.33794E+00  2.58859E+00  8.84169E-02 F
  8.50000E-01  2.35619E-01  3.53429E+00  2.54676E+00  7.77655E-02 F
  8.50000E-01  2.35619E-01  3.73064E+00  2.51004E+00  7.09737E-02 F
  8.50000E-01  2.35619E-01  3.92699E+00  2.47565E+00  7.10894E-02 F
  8.50000E-01  2.35619E-01  4.12334E+00  2.43994E+00  7.69191E-02 F
  8.50000E-01  2.35619E-01  4.31969E+00  2.40241E+00  8.07821E-02 F
  8.50000E-01  2.35619E-01  4.51604E+00  2.36373E+00  8.41113E-02 F
  8.50000E-01  2.35619E-01  4.71239E+00  2.32555E+00  7.99945E-02 F
  8.50000E-01  2.35619E-01  4.90874E+00  2.29200E+00  6.68869E-02 F
  8.50000E-01  2.35619E-01  5.10509E+00  2.26601E+00  4.83704E-02 F
  8.50000E-01  2.35619E-01  5.30144E+00  2.24994E+00  2.32367E-02 F
  8.50000E-01  2.35619E-01  5.49779E+00  2.24486E+00  1.65441E-03 F
  8.50000E-01  2.35619E-01  5.69414E+00  2.24794E+00 -1.72931E-02 F
  8.50000E-01  2.35619E-01  5.89049E+00  2.26221E+00 -4.84053E-02 F
  8.50000E-01  2.35619E-01  6.08684E+00  2.29111E+00 -8.07123E-02 F
  8.50000E-01  2.74889E-01  0.00000E+00  2.34729E+00 -1.05601E-01 F
  8.50000E-01  2.74889E-01  1.96350E-01  2.39630E+00 -1.01469E-01 F
  8.50000E-01  2.74889E-01  3.92699E-01  2.44051E+00 -8.42284E-02 F
  8.50000E-01  2.74889E-01  5.89049E-01  2.47806E+00 -7.32681E-02 F
  8.50000E-01  2.74889E-01  7.85398E-01  2.51302E+00 -7.00251E-02 F
  8.50000E-01  2.74889E-01  9.81748E-01  2.54821E+00 -7.33439E-02 F
  8.50000E-01  2.74889E-01  1.17810E+00  2.58765E+00 -8.31352E-02 F
  8.50000E-01  2.74889E-01  1.37445E+00  2.63214E+00 -8.98402E-02 F
  8.50000E-01  2.74889E-01  1.57080E+00  2.67962E+00 -9.04772E-02 F
  8.50000E-01  2.74889E-01  1.76715E+00  2.72399E+00 -7.26926E-02 F
  8.50000E-01  2.74889E-01  1.96350E+00  2.75301E+00 -3.25953E-02 F
  8.50000E-01  2.74889E-01  2.15985E+00  2.75858E+00  1.06851E-02 F
  8.50000E-01  2.74889E-01  2.35619E+00  2.74349E+00  4.31709E-02 F
  8.50000E-01  2.74889E-01  2.55254E+00  2.71463E+00  6.21105E-02 F
  8.50000E-01  2.74889E-01  2.74889E+00  2.67921E+00  7.10080E-02 F
  8.50000E-01  2.74889E-01  2.94524E+00  2.64008E+00  7.88266E-02 F
  8.50000E-01  2.74889E-01  3.14159E+00  2.59784E+00  8.47761E-02 F
  8.50000E-01  2.74889E-01  3.33794E+00  2.55473E+00  8.46018E-02 F
  8.50000E-01  2.74889E-01  3.53429E+00  2.51320E+00  8.27937E-02 F
  8.50000E-01  2.74889E-01  3.73064E+00  2.47272E+00  8.24740E-02 F
  8.50000E-01  2.74889E-01  3.92699E+00  2.43328E+00  8.12398E-02 F
  8.50000E-01  2.74889E-01  4.12334E+00  2.39539E+00  7.80694E-02 F
  8.50000E-01  2.74889E-01  4.31969E+00  2.35974E+00  7.54606E-02 F
  8.50000E-01  2.74889E-01  4.51604E+00  2.32514E+00  7.41439E-02 F
  8.50000E-01  2.74889E-01  4.71239E+00  2.29349E+00  6.38897E-02 F
  8.50000E-01  2.74889E-01  4.90874E+00  2.26831E+00  4.82953E-02 F
  8.50000E-01  2.74889E-01  5.10509E+00  2.25051E+00  3.15194E-02 F
  8.50000E-01  2.74889E-01  5.30144E+00  2.24108E+00  1.08142E-02 F
  8.50000E-01  2.74889E-01  5.49779E+00  2.24055E+00 -7.70383E-03 F
  8.50000E-01  2.74889E-01  5.69414E+00  2.24838E+00 -2.97227E-02 F
  8.50000E-01  2.74889E-01  5.89049E+00  2.26831E+00 -6.06409E-02 F
  8.50000E-01  2.74889E-01  6.08684E+00  2.30215E+00 -8.91350E-02 F
  8.50000E-01  3.14159E-01  0.00000E+00  2.37834E+00 -7.19263E-02 F
  8.50000E-01  3.14159E-01  1.96350E-01  2.40870E+00 -5.68796E-02 F
  8.50000E-01  3.14159E-01  3.92699E-01  2.43306E+00 -4.82080E-02 F
  8.50000E-01  3.14159E-01  5.89049E-01  2.45767E+00 -5.65249E-02 F
  8.50000E-01  3.14159E-01  7.85398E-01  2.48826E+00 -6.91958E-02 F
  8.50000E-01  3.14159E-01  9.81748E-01  2.52540E+00 -8.19437E-02 F
  8.50000E-01  3.14159E-01  1.17810E+00  2.56930E+00 -9.27205E-02 F
  8.50000E-01  3.14159E-01  1.37445E+00  2.61809E+00 -9.77397E-02 F
  8.50000E-01  3.14159E-01  1.57080E+00  2.66775E+00 -9.06881E-02 F
  8.50000E-01  3.14159E-01  1.76715E+00  2.70917E+00 -6.23628E-02 F
  8.50000E-01  3.14159E-01  1.96350E+00  2.73026E+00 -1.45228E-02 F
  8.50000E-01  3.14159E-01  2.15985E+00  2.72445E+00  3.49019E-02 F
  8.50000E-01  3.14159E-01  2.35619E+00  2.69524E+00  7.23393E-02 F
  8.50000E-01  3.14159E-01  2.55254E+00  2.65142E+00  9.10768E-02 F
  8.50000E-01  3.14159E-01  2.74889E+00  2.60381E+00  9.09270E-02 F
  8.50000E-01  3.14159E-01  2.94524E+00  2.56020E+00  8.03165E-02 F
  8.50000E-01  3.14159E-01  3.14159E+00  2.52291E+00  6.94904E-02 F
  8.50000E-01  3.14159E-01  3.33794E+00  2.49118E+00  5.95374E-02 F
  8.50000E-01  3.14159E-01  3.53429E+00  2.46394E+00  5.35774E-02 F
  8.50000E-01  3.14159E-01  3.73064E+00  2.43837E+00  5.34353E-02 F
  8.50000E-01  3.14159E-01  3.92699E+00  2.41214E+00  5.71866E-02 F
  8.50000E-01  3.14159E-01  4.12334E+00  2.38424E+00  6.10564E-02 F
  8.50000E-01  3.14159E-01  4.31969E+00  2.35521E+00  6.33345E-02 F
  8.50000E-01  3.14159E-01  4.51604E+00  2.32644E+00  6.08400E-02 F
  8.50000E-01  3.14159E-01  4.71239E+00  2.30015E+00  5.46730E-02 F
  8.50000E-01  3.14159E-01  4.90874E+00  2.27734E+00  4.60697E-02 F
  8.50000E-01  3.14159E-01  5.10509E+00  2.26014E+00  2.91176E-02 F
  8.50000E-01  3.14159E-01  5.30144E+00  2.25327E+00  6.65736E-04 F
  8.50000E-01  3.14159E-01  5.49779E+00  2.25957E+00 -2.84934E-02 F
  8.50000E-01  3.14159E-01  5.69414E+00  2.27826E+00 -5.49165E-02 F
  8.50000E-01  3.14159E-01  5.89049E+00  2.30761E+00 -7.33884E-02 F
  8.50000E-01  3.14159E-01  6.08684E+00  2.34288E+00 -7.90351E-02 F
  8.50000E-01  3.53429E-01  0.00000E+00  2.37847E+00 -5.03105E-02 F
  8.50000E-01  3.53429E-01  1.96350E-01  2.39710E+00 -3.11242E-02 F
  8.50000E-01  3.53429E-01  3.92699E-01  2.41050E+00 -2.91665E-02 F
  8.50000E-01  3.53429E-01  5.89049E-01  2.42771E+00 -4.54281E-02 F
  8.50000E-01  3.53429E-01  7.85398E-01  2.45483E+00 -6.79446E-02 F
  8.50000E-01  3.53429E-01  9.81748E-01  2.49312E+00 -8.88524E-02 F
  8.50000E-01  3.53429E-01  1.17810E+00  2.54062E+00 -1.01772E-01 F
  8.50000E-01  3.53429E-01  1.37445E+00  2.59291E+00 -1.03453E-01 F
  8.50000E-01  3.53429E-01  1.57080E+00  2.64288E+00 -8.75925E-02 F
  8.50000E-01  3.53429E-01  1.76715E+00  2.68010E+00 -5.17855E-02 F
  8.50000E-01  3.53429E-01  1.96350E+00  2.69491E+00 -3.53312E-03 F
  8.50000E-01  3.53429E-01  2.15985E+00  2.68408E+00  4.38132E-02 F
  8.50000E-01  3.53429E-01  2.35619E+00  2.65005E+00  8.44967E-02 F
  8.50000E-01  3.53429E-01  2.55254E+00  2.59881E+00  1.11640E-01 F
  8.50000E-01  3.53429E-01  2.74889E+00  2.53966E+00  1.18944E-01 F
  8.50000E-01  3.53429E-01  2.94524E+00  2.48407E+00  1.03430E-01 F
  8.50000E-01  3.53429E-01  3.14159E+00  2.43997E+00  7.87822E-02 F
  8.50000E-01  3.53429E-01  3.33794E+00  2.40804E+00  5.63667E-02 F
  8.50000E-01  3.53429E-01  3.53429E+00  2.38512E+00  4.29067E-02 F
  8.50000E-01  3.53429E-01  3.73064E+00  2.36622E+00  3.95384E-02 F
  8.50000E-01  3.53429E-01  3.92699E+00  2.34752E+00  4.16783E-02 F
  8.50000E-01  3.53429E-01  4.12334E+00  2.32754E+00  4.59147E-02 F
  8.50000E-01  3.53429E-01  4.31969E+00  2.30497E+00  5.36522E-02 F
  8.50000E-01  3.53429E-01  4.51604E+00  2.27928E+00  5.98245E-02 F
  8.50000E-01  3.53429E-01  4.71239E+00  2.25235E+00  5.97063E-02 F
  8.50000E-01  3.53429E-01  4.90874E+00  2.22839E+00  4.64875E-02 F
  8.50000E-01  3.53429E-01  5.10509E+00  2.21437E+00  1.45046E-02 F
  8.50000E-01  3.53429E-01  5.30144E+00  2.21749E+00 -2.88331E-02 F
  8.50000E-01  3.53429E-01  5.49779E+00  2.23827E+00 -6.42699E-02 F
  8.50000E-01  3.53429E-01  5.69414E+00  2.27231E+00 -8.65820E-02 F
  8.50000E-01  3.53429E-01  5.89049E+00  2.31236E+00 -8.78289E-02 F
  8.50000E-01  3.53429E-01  6.08684E+00  2.34964E+00 -7.32099E-02 F
  8.50000E-01  3.92699E-01  0.00000E+00  2.36891E+00 -2.02737E-02 F
  8.50000E-01  3.92699E-01  1.96350E-01  2.37361E+00 -3.69109E-03 F
  8.50000E-01  3.92699E-01  3.92699E-01  2.37581E+00 -9.18220E-03 F
  8.50000E-01  3.92699E-01  5.89049E-01  2.38496E+00 -3.22241E-02 F
  8.50000E-01  3.92699E-01  7.85398E-01  2.40737E+00 -6.36171E-02 F
  8.50000E-01  3.92699E-01  9.81748E-01  2.44504E+00 -9.33808E-02 F
  8.50000E-01  3.92699E-01  1.17810E+00  2.49546E+00 -1.12109E-01 F
  8.50000E-01  3.92699E-01  1.37445E+00  2.55224E+00 -1.13762E-01 F
  8.50000E-01  3.92699E-01  1.57080E+00  2.60538E+00 -9.14959E-02 F
  8.50000E-01  3.92699E-01  1.76715E+00  2.64113E+00 -4.43899E-02 F
  8.50000E-01  3.92699E-01  1.96350E+00  2.65068E+00  6.02203E-03 F
  8.50000E-01  3.92699E-01  2.15985E+00  2.63704E+00  4.46915E-02 F
  8.50000E-01  3.92699E-01  2.35619E+00  2.60630E+00  7.31328E-02 F
  8.50000E-01  3.92699E-01  2.55254E+00  2.56346E+00  9.50995E-02 F
  8.50000E-01  3.92699E-01  2.74889E+00  2.51187E+00  1.09709E-01 F
  8.50000E-01  3.92699E-01  2.94524E+00  2.45821E+00  1.07501E-01 F
  8.50000E-01  3.92699E-01  3.14159E+00  2.40987E+00  9.35212E-02 F
  8.50000E-01  3.92699E-01  3.33794E+00  2.37021E+00  7.54933E-02 F
  8.50000E-01  3.92699E-01  3.53429E+00  2.33913E+00  5.94981E-02 F
  8.50000E-01  3.92699E-01  3.73064E+00  2.31481E+00  4.78612E-02 F
  8.50000E-01  3.92699E-01  3.92699E+00  2.29485E+00  4.11069E-02 F
  8.50000E-01  3.92699E-01  4.12334E+00  2.27672E+00  4.11402E-02 F
  8.50000E-01  3.92699E-01  4.31969E+00  2.25721E+00  4.64673E-02 F
  8.50000E-01  3.92699E-01  4.51604E+00  2.23629E+00  4.73602E-02 F
  8.50000E-01  3.92699E-01  4.71239E+00  2.21633E+00  4.31996E-02 F
  8.50000E-01  3.92699E-01  4.90874E+00  2.19983E+00  3.04362E-02 F
  8.50000E-01  3.92699E-01  5.10509E+00  2.19324E+00 -3.97609E-03 F
  8.50000E-01  3.92699E-01  5.30144E+00  2.20509E+00 -5.03911E-02 F
  8.50000E-01  3.92699E-01  5.49779E+00  2.23530E+00 -8.55711E-02 F
  8.50000E-01  3.92699E-01  5.69414E+00  2.27735E+00 -9.95548E-02 F
  8.50000E-01  3.92699E-01  5.89049E+00  2.31992E+00 -8.49946E-02 F
  8.50000E-01  3.92699E-01  6.08684E+00  2.35209E+00 -5.36273E-02 F
  8.50000E-01  4.31969E-01  0.00000E+00  2.35495E+00  2.48959E-02 F
  8.50000E-01  4.31969E-01  1.96350E-01  2.34316E+00  2.00093E-02 F
  8.50000E-01  4.31969E-01  3.92699E-01  2.34074E+00 -1.21005E-02 F
  8.50000E-01  4.31969E-01  5.89049E-01  2.35506E+00 -4.94137E-02 F
  8.50000E-01  4.31969E-01  7.85398E-01  2.38552E+00 -8.02080E-02 F
  8.50000E-01  4.31969E-01  9.81748E-01  2.42911E+00 -1.02477E-01 F
  8.50000E-01  4.31969E-01  1.17810E+00  2.48121E+00 -1.10955E-01 F
  8.50000E-01  4.31969E-01  1.37445E+00  2.53420E+00 -1.00448E-01 F
  8.50000E-01  4.31969E-01  1.57080E+00  2.57605E+00 -6.09019E-02 F
  8.50000E-01  4.31969E-01  1.76715E+00  2.59157E+00  4.94558E-04 F
  8.50000E-01  4.31969E-01  1.96350E+00  2.57812E+00  4.80204E-02 F
  8.50000E-01  4.31969E-01  2.15985E+00  2.54763E+00  6.90812E-02 F
  8.50000E-01  4.31969E-01  2.35619E+00  2.51269E+00  6.89203E-02 F
  8.50000E-01  4.31969E-01  2.55254E+00  2.48041E+00  6.35570E-02 F
  8.50000E-01  4.31969E-01  2.74889E+00  2.44972E+00  6.39519E-02 F
  8.50000E-01  4.31969E-01  2.94524E+00  2.41868E+00  6.58111E-02 F
  8.50000E-01  4.31969E-01  3.14159E+00  2.38776E+00  6.43550E-02 F
  8.50000E-01  4.31969E-01  3.33794E+00  2.35898E+00  5.87779E-02 F
  8.50000E-01  4.31969E-01  3.53429E+00  2.33339E+00  5.24880E-02 F
  8.50000E-01  4.31969E-01  3.73064E+00  2.31036E+00  4.91006E-02 F
  8.50000E-01  4.31969E-01  3.92699E+00  2.28889E+00  4.55071E-02 F
  8.50000E-01  4.31969E-01  4.12334E+00  2.26958E+00  4.11850E-02 F
  8.50000E-01  4.31969E-01  4.31969E+00  2.25181E+00  3.88959E-02 F
  8.50000E-01  4.31969E-01  4.51604E+00  2.23543E+00  3.49107E-02 F
  8.50000E-01  4.31969E-01  4.71239E+00  2.22212E+00  2.42433E-02 F
  8.50000E-01  4.31969E-01  4.90874E+00  2.21594E+00  1.99739E-03 F
  8.50000E-01  4.31969E-01  5.10509E+00  2.22213E+00 -3.17070E-02 F
  8.50000E-01  4.31969E-01  5.30144E+00  2.24353E+00 -6.43289E-02 F
  8.50000E-01  4.31969E-01  5.49779E+00  2.27705E+00 -8.40971E-02 F
  8.50000E-01  4.31969E-01  5.69414E+00  2.31545E+00 -8.14800E-02 F
  8.50000E-01  4.31969E-01  5.89049E+00  2.34674E+00 -5.13291E-02 F
  8.50000E-01  4.31969E-01  6.08684E+00  2.36030E+00 -6.75641E-03 F
  8.50000E-01  4.71239E-01  0.00000E+00  2.35064E+00  3.61535E-02 F
  8.50000E-01  4.71239E-01  1.96350E-01  2.33769E+00  1.32399E-02 F
  8.50000E-01  4.71239E-01  3.92699E-01  2.34259E+00 -3.59183E-02 F
  8.50000E-01  4.71239E-01  5.89049E-01  2.36951E+00 -7.71878E-02 F
  8.50000E-01  4.71239E-01  7.85398E-01  2.41135E+00 -9.78176E-02 F
  8.50000E-01  4.71239E-01  9.81748E-01  2.45921E+00 -9.92768E-02 F
  8.50000E-01  4.71239E-01  1.17810E+00  2.50448E+00 -8.39780E-02 F
  8.50000E-01  4.71239E-01  1.37445E+00  2.53874E+00 -5.06185E-02 F
  8.50000E-01  4.71239E-01  1.57080E+00  2.55038E+00  7.84128E-03 F
  8.50000E-01  4.71239E-01  1.76715E+00  2.52987E+00  7.19886E-02 F
  8.50000E-01  4.71239E-01  1.96350E+00  2.48408E+00  1.08121E-01 F
  8.50000E-01  4.71239E-01  2.15985E+00  2.43014E+00  1.10071E-01 F
  8.50000E-01  4.71239E-01  2.35619E+00  2.38348E+00  8.39432E-02 F
  8.50000E-01  4.71239E-01  2.55254E+00  2.35259E+00  4.93914E-02 F
  8.50000E-01  4.71239E-01  2.74889E+00  2.33640E+00  2.30653E-02 F
  8.50000E-01  4.71239E-01  2.94524E+00  2.32897E+00  1.22546E-02 F
  8.50000E-01  4.71239E-01  3.14159E+00  2.32282E+00  1.67187E-02 F
  8.50000E-01  4.71239E-01  3.33794E+00  2.31270E+00  2.78277E-02 F
  8.50000E-01  4.71239E-01  3.53429E+00  2.29807E+00  3.63385E-02 F
  8.50000E-01  4.71239E-01  3.73064E+00  2.27995E+00  4.43227E-02 F
  8.50000E-01  4.71239E-01  3.92699E+00  2.25879E+00  4.99293E-02 F
  8.50000E-01  4.71239E-01  4.12334E+00  2.23622E+00  5.16171E-02 F
  8.50000E-01  4.71239E-01  4.31969E+00  2.21462E+00  4.55048E-02 F
  8.50000E-01  4.71239E-01  4.51604E+00  2.19820E+00  2.83395E-02 F
  8.50000E-01  4.71239E-01  4.71239E+00  2.19197E+00 -1.37748E-03 F
  8.50000E-01  4.71239E-01  4.90874E+00  2.20025E+00 -3.70937E-02 F
  8.50000E-01  4.71239E-01  5.10509E+00  2.22364E+00 -6.94664E-02 F
  8.50000E-01  4.71239E-01  5.30144E+00  2.25936E+00 -9.00728E-02 F
  8.50000E-01  4.71239E-01  5.49779E+00  2.30074E+00 -9.11761E-02 F
  8.50000E-01  4.71239E-01  5.69414E+00  2.33818E+00 -6.94656E-02 F
  8.50000E-01  4.71239E-01  5.89049E+00  2.36142E+00 -2.89717E-02 F
  8.50000E-01  4.71239E-01  6.08684E+00  2.36418E+00  1.57523E-02 F
  8.50000E-01  5.10509E-01  0.00000E+00  2.34768E+00  3.50503E-02 F
  8.50000E-01  5.10509E-01  1.96350E-01  2.33622E+00  8.99478E-03 F
  8.50000E-01  5.10509E-01  3.92699E-01  2.34336E+00 -4.17451E-02 F
  8.50000E-01  5.10509E-01  5.89049E-01  2.37359E+00 -8.51752E-02 F
  8.50000E-01  5.10509E-01  7.85398E-01  2.41871E+00 -1.01806E-01 F
  8.50000E-01  5.10509E-01  9.81748E-01  2.46614E+00 -9.23313E-02 F
  8.50000E-01  5.10509E-01  1.17810E+00  2.50507E+00 -6.45323E-02 F
  8.50000E-01  5.10509E-01  1.37445E+00  2.52660E+00 -1.97108E-02 F
  8.50000E-01  5.10509E-01  1.57080E+00  2.52234E+00  3.77229E-02 F
  8.50000E-01  5.10509E-01  1.76715E+00  2.49074E+00  8.74034E-02 F
  8.50000E-01  5.10509E-01  1.96350E+00  2.44119E+00  1.13074E-01 F
  8.50000E-01  5.10509E-01  2.15985E+00  2.38627E+00  1.14771E-01 F
  8.50000E-01  5.10509E-01  2.35619E+00  2.33700E+00  9.47308E-02 F
  8.50000E-01  5.10509E-01  2.55254E+00  2.30083E+00  6.34395E-02 F
  8.50000E-01  5.10509E-01  2.74889E+00  2.27920E+00  3.41531E-02 F
  8.50000E-01  5.10509E-01  2.94524E+00  2.26814E+00  1.81887E-02 F
  8.50000E-01  5.10509E-01  3.14159E+00  2.26066E+00  1.74887E-02 F
  8.50000E-01  5.10509E-01  3.33794E+00  2.25155E+00  2.40939E-02 F
  8.50000E-01  5.10509E-01  3.53429E+00  2.23919E+00  3.21369E-02 F
  8.50000E-01  5.10509E-01  3.73064E+00  2.22356E+00  3.82185E-02 F
  8.50000E-01  5.10509E-01  3.92699E+00  2.20694E+00  3.71219E-02 F
  8.50000E-01  5.10509E-01  4.12334E+00  2.19197E+00  3.16848E-02 F
  8.50000E-01  5.10509E-01  4.31969E+00  2.18023E+00  2.22028E-02 F
  8.50000E-01  5.10509E-01  4.51604E+00  2.17396E+00  5.21981E-03 F
  8.50000E-01  5.10509E-01  4.71239E+00  2.17791E+00 -2.61956E-02 F
  8.50000E-01  5.10509E-01  4.90874E+00  2.19784E+00 -6.69957E-02 F
  8.50000E-01  5.10509E-01  5.10509E+00  2.23483E+00 -9.98339E-02 F
  8.50000E-01  5.10509E-01  5.30144E+00  2.28163E+00 -1.06160E-01 F
  8.50000E-01  5.10509E-01  5.49779E+00  2.32575E+00 -8.51411E-02 F
  8.50000E-01  5.10509E-01  5.69414E+00  2.35667E+00 -4.76579E-02 F
  8.50000E-01  5.10509E-01  5.89049E+00  2.36897E+00 -5.59974E-03 F
  8.50000E-01  5.10509E-01  6.08684E+00  2.36327E+00  2.71895E-02 F
  8.50000E-01  5.49779E-01  0.00000E+00  2.32296E+00  3.02505E-02 F
  8.50000E-01  5.49779E-01  1.96350E-01  2.31679E+00 -5.12213E-03 F
  8.50000E-01  5.49779E-01  3.92699E-01  2.32892E+00 -4.81155E-02 F
  8.50000E-01  5.49779E-01  5.89049E-01  2.35933E+00 -8.09282E-02 F
  8.50000E-01  5.49779E-01  7.85398E-01  2.40078E+00 -9.26533E-02 F
  8.50000E-01  5.49779E-01  9.81748E-01  2.44298E+00 -8.10268E-02 F
  8.50000E-01  5.49779E-01  1.17810E+00  2.47510E+00 -4.92165E-02 F
  8.50000E-01  5.49779E-01  1.37445E+00  2.48865E+00 -5.26648E-03 F
  8.50000E-01  5.49779E-01  1.57080E+00  2.48023E+00  3.85875E-02 F
  8.50000E-01  5.49779E-01  1.76715E+00  2.45344E+00  6.89600E-02 F
  8.50000E-01  5.49779E-01  1.96350E+00  2.41693E+00  8.11283E-02 F
  8.50000E-01  5.49779E-01  2.15985E+00  2.37812E+00  8.27351E-02 F
  8.50000E-01  5.49779E-01  2.35619E+00  2.34037E+00  7.95280E-02 F
  8.50000E-01  5.49779E-01  2.55254E+00  2.30590E+00  7.03703E-02 F
  8.50000E-01  5.49779E-01  2.74889E+00  2.27757E+00  5.49274E-02 F
  8.50000E-01  5.49779E-01  2.94524E+00  2.25657E+00  4.02095E-02 F
  8.50000E-01  5.49779E-01  3.14159E+00  2.24091E+00  3.19505E-02 F
  8.50000E-01  5.49779E-01  3.33794E+00  2.22755E+00  2.95554E-02 F
  8.50000E-01  5.49779E-01  3.53429E+00  2.21510E+00  2.67988E-02 F
  8.50000E-01  5.49779E-01  3.73064E+00  2.20517E+00  1.80922E-02 F
  8.50000E-01  5.49779E-01  3.92699E+00  2.19958E+00  8.05322E-03 F
  8.50000E-01  5.49779E-01  4.12334E+00  2.19812E+00 -1.73401E-03 F
  8.50000E-01  5.49779E-01  4.31969E+00  2.20192E+00 -1.72177E-02 F
  8.50000E-01  5.49779E-01  4.51604E+00  2.21419E+00 -4.04535E-02 F
  8.50000E-01  5.49779E-01  4.71239E+00  2.23759E+00 -6.63926E-02 F
  8.50000E-01  5.49779E-01  4.90874E+00  2.27187E+00 -8.66497E-02 F
  8.50000E-01  5.49779E-01  5.10509E+00  2.31232E+00 -8.92862E-02 F
  8.50000E-01  5.49779E-01  5.30144E+00  2.34951E+00 -6.99390E-02 F
  8.50000E-01  5.49779E-01  5.49779E+00  2.37399E+00 -3.32352E-02 F
  8.50000E-01  5.49779E-01  5.69414E+00  2.37922E+00  1.05748E-02 F
  8.50000E-01  5.49779E-01  5.89049E+00  2.36571E+00  4.43074E-02 F
  8.50000E-01  5.49779E-01  6.08684E+00  2.34237E+00  5.12081E-02 F
  8.50000E-01  5.89049E-01  0.00000E+00  2.33968E+00  8.09750E-03 F
  8.50000E-01  5.89049E-01  1.96350E-01  2.34567E+00 -3.22907E-02 F
  8.50000E-01  5.89049E-01  3.92699E-01  2.36705E+00 -5.66144E-02 F
  8.50000E-01  5.89049E-01  5.89049E-01  2.39521E+00 -6.13499E-02 F
  8.50000E-01  5.89049E-01  7.85398E-01  2.42290E+00 -5.33884E-02 F
  8.50000E-01  5.89049E-01  9.81748E-01  2.44303E+00 -2.77926E-02 F
  8.50000E-01  5.89049E-01  1.17810E+00  2.44727E+00  1.17016E-02 F
  8.50000E-01  5.89049E-01  1.37445E+00  2.43083E+00  5.70294E-02 F
  8.50000E-01  5.89049E-01  1.57080E+00  2.39489E+00  9.05891E-02 F
  8.50000E-01  5.89049E-01  1.76715E+00  2.35086E+00  9.28733E-02 F
  8.50000E-01  5.89049E-01  1.96350E+00  2.31278E+00  7.14773E-02 F
  8.50000E-01  5.89049E-01  2.15985E+00  2.28594E+00  4.84029E-02 F
  8.50000E-01  5.89049E-01  2.35619E+00  2.26820E+00  3.20384E-02 F
  8.50000E-01  5.89049E-01  2.55254E+00  2.25638E+00  2.25318E-02 F
  8.50000E-01  5.89049E-01  2.74889E+00  2.24693E+00  2.14707E-02 F
  8.50000E-01  5.89049E-01  2.94524E+00  2.23689E+00  2.41150E-02 F
  8.50000E-01  5.89049E-01  3.14159E+00  2.22589E+00  2.61364E-02 F
  8.50000E-01  5.89049E-01  3.33794E+00  2.21377E+00  2.97636E-02 F
  8.50000E-01  5.89049E-01  3.53429E+00  2.20038E+00  3.08286E-02 F
  8.50000E-01  5.89049E-01  3.73064E+00  2.18851E+00  2.24302E-02 F
  8.50000E-01  5.89049E-01  3.92699E+00  2.18280E+00  2.11113E-03 F
  8.50000E-01  5.89049E-01  4.12334E+00  2.18811E+00 -2.77257E-02 F
  8.50000E-01  5.89049E-01  4.31969E+00  2.20695E+00 -5.96134E-02 F
  8.50000E-01  5.89049E-01  4.51604E+00  2.23979E+00 -9.02258E-02 F
  8.50000E-01  5.89049E-01  4.71239E+00  2.28516E+00 -1.11292E-01 F
  8.50000E-01  5.89049E-01  4.90874E+00  2.33612E+00 -1.08406E-01 F
  8.50000E-01  5.89049E-01  5.10509E+00  2.38040E+00 -8.00249E-02 F
  8.50000E-01  5.89049E-01  5.30144E+00  2.40942E+00 -4.24502E-02 F
  8.50000E-01  5.89049E-01  5.49779E+00  2.41922E+00  1.97704E-03 F
  8.50000E-01  5.89049E-01  5.69414E+00  2.40817E+00  4.25050E-02 F
  8.50000E-01  5.89049E-01  5.89049E+00  2.38205E+00  6.43411E-02 F
  8.50000E-01  5.89049E-01  6.08684E+00  2.35367E+00  5.07541E-02 F
  8.50000E-01  6.28319E-01  0.00000E+00  2.37001E+00 -5.86398E-10 F
  8.50000E-01  6.28319E-01  1.96350E-01  2.38040E+00 -4.22555E-02 F
  8.50000E-01  6.28319E-01  3.92699E-01  2.40523E+00 -5.73606E-02 F
  8.50000E-01  6.28319E-01  5.89049E-01  2.42990E+00 -4.36159E-02 F
  8.50000E-01  6.28319E-01  7.85398E-01  2.44470E+00 -1.57073E-02 F
  8.50000E-01  6.28319E-01  9.81748E-01  2.44249E+00  2.65043E-02 F
  8.50000E-01  6.28319E-01  1.17810E+00  2.41881E+00  7.31232E-02 F
  8.50000E-01  6.28319E-01  1.37445E+00  2.37328E+00  1.18894E-01 F
  8.50000E-01  6.28319E-01  1.57080E+00  2.31269E+00  1.37256E-01 F
  8.50000E-01  6.28319E-01  1.76715E+00  2.25536E+00  1.12406E-01 F
  8.50000E-01  6.28319E-01  1.96350E+00  2.21567E+00  6.78590E-02 F
  8.50000E-01  6.28319E-01  2.15985E+00  2.19511E+00  2.90426E-02 F
  8.50000E-01  6.28319E-01  2.35619E+00  2.18891E+00  1.65085E-03 F
  8.50000E-01  6.28319E-01  2.55254E+00  2.19185E+00 -1.30407E-02 F
  8.50000E-01  6.28319E-01  2.74889E+00  2.19843E+00 -1.59952E-02 F
  8.50000E-01  6.28319E-01  2.94524E+00  2.20458E+00 -1.12434E-02 F
  8.50000E-01  6.28319E-01  3.14159E+00  2.20718E+00 -8.17871E-09 F
  8.50000E-01  6.28319E-01  3.33794E+00  2.20458E+00  1.12433E-02 F
  8.50000E-01  6.28319E-01  3.53429E+00  2.19843E+00  1.59952E-02 F
  8.50000E-01  6.28319E-01  3.73064E+00  2.19185E+00  1.30407E-02 F
  8.50000E-01  6.28319E-01  3.92699E+00  2.18891E+00 -1.65088E-03 F
  8.50000E-01  6.28319E-01  4.12334E+00  2.19511E+00 -2.90427E-02 F
  8.50000E-01  6.28319E-01  4.31969E+00  2.21567E+00 -6.78591E-02 F
  8.50000E-01  6.28319E-01  4.51604E+00  2.25536E+00 -1.12406E-01 F
  8.50000E-01  6.28319E-01  4.71239E+00  2.31269E+00 -1.37256E-01 F
  8.50000E-01  6.28319E-01  4.90874E+00  2.37328E+00 -1.18894E-01 F
  8.50000E-01  6.28319E-01  5.10509E+00  2.41881E+00 -7.31232E-02 F
  8.50000E-01  6.28319E-01  5.30144E+00  2.44249E+00 -2.65042E-02 F
  8.50000E-01  6.28319E-01  5.49779E+00  2.44470E+00  1.57074E-02 F
  8.50000E-01  6.28319E-01  5.69414E+00  2.42990E+00  4.36159E-02 F
  8.50000E-01  6.28319E-01  5.89049E+00  2.40523E+00  5.73606E-02 F
  8.50000E-01  6.28319E-01  6.08684E+00  2.38040E+00  4.22555E-02 F
  8.50000E-01  6.67588E-01  0.00000E+00  2.33968E+00 -8.09752E-03 F
  8.50000E-01  6.67588E-01  1.96350E-01  2.35367E+00 -5.07541E-02 F
  8.50000E-01  6.67588E-01  3.92699E-01  2.38205E+00 -6.43411E-02 F
  8.50000E-01  6.67588E-01  5.89049E-01  2.40817E+00 -4.25050E-02 F
  8.50000E-01  6.67588E-01  7.85398E-01  2.41922E+00 -1.97699E-03 F
  8.50000E-01  6.67588E-01  9.81748E-01  2.40942E+00  4.24502E-02 F
  8.50000E-01  6.67588E-01  1.17810E+00  2.38040E+00  8.00250E-02 F
  8.50000E-01  6.67588E-01  1.37445E+00  2.33612E+00  1.08406E-01 F
  8.50000E-01  6.67588E-01  1.57080E+00  2.28516E+00  1.11292E-01 F
  8.50000E-01  6.67588E-01  1.76715E+00  2.23979E+00  9.02257E-02 F
  8.50000E-01  6.67588E-01  1.96350E+00  2.20695E+00  5.96133E-02 F
  8.50000E-01  6.67588E-01  2.15985E+00  2.18811E+00  2.77257E-02 F
  8.50000E-01  6.67588E-01  2.35619E+00  2.18280E+00 -2.11116E-03 F
  8.50000E-01  6.67588E-01  2.55254E+00  2.18851E+00 -2.24302E-02 F
  8.50000E-01  6.67588E-01  2.74889E+00  2.20038E+00 -3.08285E-02 F
  8.50000E-01  6.67588E-01  2.94524E+00  2.21377E+00 -2.97636E-02 F
  8.50000E-01  6.67588E-01  3.14159E+00  2.22589E+00 -2.61364E-02 F
  8.50000E-01  6.67588E-01  3.33794E+00  2.23689E+00 -2.41151E-02 F
  8.50000E-01  6.67588E-01  3.53429E+00  2.24693E+00 -2.14707E-02 F
  8.50000E-01  6.67588E-01  3.73064E+00  2.25638E+00 -2.25319E-02 F
  8.50000E-01  6.67588E-01  3.92699E+00  2.26820E+00 -3.20384E-02 F
  8.50000E-01  6.67588E-01  4.12334E+00  2.28594E+00 -4.84029E-02 F
  8.50000E-01  6.67588E-01  4.31969E+00  2.31278E+00 -7.14774E-02 F
  8.50000E-01  6.67588E-01  4.51604E+00  2.35086E+00 -9.28732E-02 F
  8.50000E-01  6.67588E-01  4.71239E+00  2.39489E+00 -9.05890E-02 F
  8.50000E-01  6.67588E-01  4.90874E+00  2.43083E+00 -5.70293E-02 F
  8.50000E-01  6.67588E-01  5.10509E+00  2.44727E+00 -1.17015E-02 F
  8.50000E-01  6.67588E-01  5.30144E+00  2.44303E+00  2.77927E-02 F
  8.50000E-01  6.67588E-01  5.49779E+00  2.42290E+00  5.33884E-02 F
  8.50000E-01  6.67588E-01  5.69414E+00  2.39521E+00  6.13500E-02 F
  8.50000E-01  6.67588E-01  5.89049E+00  2.36705E+00  5.66144E-02 F
  8.50000E-01  6.67588E-01  6.08684E+00  2.34567E+00  3.22906E-02 F
  8.50000E-01  7.06858E-01  0.00000E+00  2.32296E+00 -3.02506E-02 F
  8.50000E-01  7.06858E-01  1.96350E-01  2.34237E+00 -5.12081E-02 F
  8.50000E-01  7.06858E-01  3.92699E-01  2.36571E+00 -4.43073E-02 F
  8.50000E-01  7.06858E-01  5.89049E-01  2.37922E+00 -1.05747E-02 F
  8.50000E-01  7.06858E-01  7.85398E-01  2.37399E+00  3.32353E-02 F
  8.50000E-01  7.06858E-01  9.81748E-01  2.34951E+00  6.99390E-02 F
  8.50000E-01  7.06858E-01  1.17810E+00  2.31232E+00  8.92862E-02 F
  8.50000E-01  7.06858E-01  1.37445E+00  2.27187E+00  8.66497E-02 F
  8.50000E-01  7.06858E-01  1.57080E+00  2.23759E+00  6.63925E-02 F
  8.50000E-01  7.06858E-01  1.76715E+00  2.21419E+00  4.04535E-02 F
  8.50000E-01  7.06858E-01  1.96350E+00  2.20192E+00  1.72177E-02 F
  8.50000E-01  7.06858E-01  2.15985E+00  2.19812E+00  1.73398E-03 F
  8.50000E-01  7.06858E-01  2.35619E+00  2.19958E+00 -8.05324E-03 F
  8.50000E-01  7.06858E-01  2.55254E+00  2.20517E+00 -1.80922E-02 F
  8.50000E-01  7.06858E-01  2.74889E+00  2.21510E+00 -2.67988E-02 F
  8.50000E-01  7.06858E-01  2.94524E+00  2.22755E+00 -2.95554E-02 F
  8.50000E-01  7.06858E-01  3.14159E+00  2.24091E+00 -3.19505E-02 F
  8.50000E-01  7.06858E-01  3.33794E+00  2.25657E+00 -4.02096E-02 F
  8.50000E-01  7.06858E-01  3.53429E+00  2.27757E+00 -5.49274E-02 F
  8.50000E-01  7.06858E-01  3.73064E+00  2.30590E+00 -7.03704E-02 F
  8.50000E-01  7.06858E-01  3.92699E+00  2.34037E+00 -7.95280E-02 F
  8.50000E-01  7.06858E-01  4.12334E+00  2.37812E+00 -8.27351E-02 F
  8.50000E-01  7.06858E-01  4.31969E+00  2.41693E+00 -8.11283E-02 F
  8.50000E-01  7.06858E-01  4.51604E+00  2.45344E+00 -6.89600E-02 F
  8.50000E-01  7.06858E-01  4.71239E+00  2.48023E+00 -3.85875E-02 F
  8.50000E-01  7.06858E-01  4.90874E+00  2.48865E+00  5.26655E-03 F
  8.50000E-01  7.06858E-01  5.10509E+00  2.47510E+00  4.92166E-02 F
  8.50000E-01  7.06858E-01  5.30144E+00  2.44298E+00  8.10268E-02 F
  8.50000E-01  7.06858E-01  5.49779E+00  2.40078E+00  9.26533E-02 F
  8.50000E-01  7.06858E-01  5.69414E+00  2.35933E+00  8.09282E-02 F
  8.50000E-01  7.06858E-01  5.89049E+00  2.32892E+00  4.81155E-02 F
  8.50000E-01  7.06858E-01  6.08684E+00  2.31679E+00  5.12207E-03 F
  8.50000E-01  7.46128E-01  0.00000E+00  2.34768E+00 -3.50503E-02 F
  8.50000E-01  7.46128E-01  1.96350E-01  2.36327E+00 -2.71895E-02 F
  8.50000E-01  7.46128E-01  3.92699E-01  2.36897E+00  5.59982E-03 F
  8.50000E-01  7.46128E-01  5.89049E-01  2.35667E+00  4.76580E-02 F
  8.50000E-01  7.46128E-01  7.85398E-01  2.32575E+00  8.51412E-02 F
  8.50000E-01  7.46128E-01  9.81748E-01  2.28163E+00  1.06160E-01 F
  8.50000E-01  7.46128E-01  1.17810E+00  2.23483E+00  9.98338E-02 F
  8.50000E-01  7.46128E-01  1.37445E+00  2.19784E+00  6.69957E-02 F
  8.50000E-01  7.46128E-01  1.57080E+00  2.17791E+00  2.61955E-02 F
  8.50000E-01  7.46128E-01  1.76715E+00  2.17396E+00 -5.21986E-03 F
  8.50000E-01  7.46128E-01  1.96350E+00  2.18023E+00 -2.22028E-02 F
  8.50000E-01  7.46128E-01  2.15985E+00  2.19197E+00 -3.16849E-02 F
  8.50000E-01  7.46128E-01  2.35619E+00  2.20694E+00 -3.71219E-02 F
  8.50000E-01  7.46128E-01  2.55254E+00  2.22356E+00 -3.82185E-02 F
  8.50000E-01  7.46128E-01  2.74889E+00  2.23919E+00 -3.21369E-02 F
  8.50000E-01  7.46128E-01  2.94524E+00  2.25155E+00 -2.40939E-02 F
  8.50000E-01  7.46128E-01  3.14159E+00  2.26066E+00 -1.74887E-02 F
  8.50000E-01  7.46128E-01  3.33794E+00  2.26814E+00 -1.81886E-02 F
  8.50000E-01  7.46128E-01  3.53429E+00  2.27920E+00 -3.41531E-02 F
  8.50000E-01  7.46128E-01  3.73064E+00  2.30083E+00 -6.34396E-02 F
  8.50000E-01  7.46128E-01  3.92699E+00  2.33700E+00 -9.47308E-02 F
  8.50000E-01  7.46128E-01  4.12334E+00  2.38627E+00 -1.14771E-01 F
  8.50000E-01  7.46128E-01  4.31969E+00  2.44119E+00 -1.13074E-01 F
  8.50000E-01  7.46128E-01  4.51604E+00  2.49074E+00 -8.74033E-02 F
  8.50000E-01  7.46128E-01  4.71239E+00  2.52234E+00 -3.77228E-02 F
  8.50000E-01  7.46128E-01  4.90874E+00  2.52660E+00  1.97109E-02 F
  8.50000E-01  7.46128E-01  5.10509E+00  2.50507E+00  6.45323E-02 F
  8.50000E-01  7.46128E-01  5.30144E+00  2.46614E+00  9.23313E-02 F
  8.50000E-01  7.46128E-01  5.49779E+00  2.41871E+00  1.01806E-01 F
  8.50000E-01  7.46128E-01  5.69414E+00  2.37359E+00  8.51752E-02 F
  8.50000E-01  7.46128E-01  5.89049E+00  2.34336E+00  4.17450E-02 F
  8.50000E-01  7.46128E-01  6.08684E+00  2.33622E+00 -8.99482E-03 F
  8.50000E-01  7.85398E-01  0.00000E+00  2.35064E+00 -3.61535E-02 F
  8.50000E-01  7.85398E-01  1.96350E-01  2.36418E+00 -1.57522E-02 F
  8.50000E-01  7.85398E-01  3.92699E-01  2.36142E+00  2.89717E-02 F
  8.50000E-01  7.85398E-01  5.89049E-01  2.33818E+00  6.94657E-02 F
  8.50000E-01  7.85398E-01  7.85398E-01  2.30074E+00  9.11761E-02 F
  8.50000E-01  7.85398E-01  9.81748E-01  2.25936E+00  9.00728E-02 F
  8.50000E-01  7.85398E-01  1.17810E+00  2.22364E+00  6.94663E-02 F
  8.50000E-01  7.85398E-01  1.37445E+00  2.20025E+00  3.70936E-02 F
  8.50000E-01  7.85398E-01  1.57080E+00  2.19197E+00  1.37743E-03 F
  8.50000E-01  7.85398E-01  1.76715E+00  2.19820E+00 -2.83395E-02 F
  8.50000E-01  7.85398E-01  1.96350E+00  2.21462E+00 -4.55048E-02 F
  8.50000E-01  7.85398E-01  2.15985E+00  2.23622E+00 -5.16171E-02 F
  8.50000E-01  7.85398E-01  2.35619E+00  2.25879E+00 -4.99293E-02 F
  8.50000E-01  7.85398E-01  2.55254E+00  2.27995E+00 -4.43227E-02 F
  8.50000E-01  7.85398E-01  2.74889E+00  2.29807E+00 -3.63385E-02 F
  8.50000E-01  7.85398E-01  2.94524E+00  2.31270E+00 -2.78277E-02 F
  8.50000E-01  7.85398E-01  3.14159E+00  2.32282E+00 -1.67187E-02 F
  8.50000E-01  7.85398E-01  3.33794E+00  2.32897E+00 -1.22546E-02 F
  8.50000E-01  7.85398E-01  3.53429E+00  2.33640E+00 -2.30653E-02 F
  8.50000E-01  7.85398E-01  3.73064E+00  2.35259E+00 -4.93914E-02 F
  8.50000E-01  7.85398E-01  3.92699E+00  2.38348E+00 -8.39432E-02 F
  8.50000E-01  7.85398E-01  4.12334E+00  2.43014E+00 -1.10071E-01 F
  8.50000E-01  7.85398E-01  4.31969E+00  2.48408E+00 -1.08121E-01 F
  8.50000E-01  7.85398E-01  4.51604E+00  2.52987E+00 -7.19885E-02 F
  8.50000E-01  7.85398E-01  4.71239E+00  2.55038E+00 -7.84116E-03 F
  8.50000E-01  7.85398E-01  4.90874E+00  2.53874E+00  5.06186E-02 F
  8.50000E-01  7.85398E-01  5.10509E+00  2.50448E+00  8.39780E-02 F
  8.50000E-01  7.85398E-01  5.30144E+00  2.45921E+00  9.92768E-02 F
  8.50000E-01  7.85398E-01  5.49779E+00  2.41135E+00  9.78176E-02 F
  8.50000E-01  7.85398E-01  5.69414E+00  2.36951E+00  7.71877E-02 F
  8.50000E-01  7.85398E-01  5.89049E+00  2.34259E+00  3.59183E-02 F
  8.50000E-01  7.85398E-01  6.08684E+00  2.33769E+00 -1.32399E-02 F
  8.50000E-01  8.24668E-01  0.00000E+00  2.35495E+00 -2.48959E-02 F
  8.50000E-01  8.24668E-01  1.96350E-01  2.36030E+00  6.75648E-03 F
  8.50000E-01  8.24668E-01  3.92699E-01  2.34674E+00  5.13292E-02 F
  8.50000E-01  8.24668E-01  5.89049E-01  2.31545E+00  8.14800E-02 F
  8.50000E-01  8.24668E-01  7.85398E-01  2.27705E+00  8.40971E-02 F
  8.50000E-01  8.24668E-01  9.81748E-01  2.24353E+00  6.43288E-02 F
  8.50000E-01  8.24668E-01  1.17810E+00  2.22213E+00  3.17069E-02 F
  8.50000E-01  8.24668E-01  1.37445E+00  2.21594E+00 -1.99745E-03 F
  8.50000E-01  8.24668E-01  1.57080E+00  2.22212E+00 -2.42433E-02 F
  8.50000E-01  8.24668E-01  1.76715E+00  2.23543E+00 -3.49107E-02 F
  8.50000E-01  8.24668E-01  1.96350E+00  2.25181E+00 -3.88959E-02 F
  8.50000E-01  8.24668E-01  2.15985E+00  2.26958E+00 -4.11850E-02 F
  8.50000E-01  8.24668E-01  2.35619E+00  2.28889E+00 -4.55071E-02 F
  8.50000E-01  8.24668E-01  2.55254E+00  2.31036E+00 -4.91006E-02 F
  8.50000E-01  8.24668E-01  2.74889E+00  2.33339E+00 -5.24880E-02 F
  8.50000E-01  8.24668E-01  2.94524E+00  2.35898E+00 -5.87779E-02 F
  8.50000E-01  8.24668E-01  3.14159E+00  2.38776E+00 -6.43551E-02 F
  8.50000E-01  8.24668E-01  3.33794E+00  2.41868E+00 -6.58111E-02 F
  8.50000E-01  8.24668E-01  3.53429E+00  2.44972E+00 -6.39519E-02 F
  8.50000E-01  8.24668E-01  3.73064E+00  2.48042E+00 -6.35571E-02 F
  8.50000E-01  8.24668E-01  3.92699E+00  2.51269E+00 -6.89203E-02 F
  8.50000E-01  8.24668E-01  4.12334E+00  2.54763E+00 -6.90812E-02 F
  8.50000E-01  8.24668E-01  4.31969E+00  2.57812E+00 -4.80203E-02 F
  8.50000E-01  8.24668E-01  4.51604E+00  2.59157E+00 -4.94443E-04 F
  8.50000E-01  8.24668E-01  4.71239E+00  2.57605E+00  6.09020E-02 F
  8.50000E-01  8.24668E-01  4.90874E+00  2.53420E+00  1.00448E-01 F
  8.50000E-01  8.24668E-01  5.10509E+00  2.48121E+00  1.10955E-01 F
  8.50000E-01  8.24668E-01  5.30144E+00  2.42911E+00  1.02477E-01 F
  8.50000E-01  8.24668E-01  5.49779E+00  2.38552E+00  8.02079E-02 F
  8.50000E-01  8.24668E-01  5.69414E+00  2.35506E+00  4.94136E-02 F
  8.50000E-01  8.24668E-01  5.89049E+00  2.34074E+00  1.21005E-02 F
  8.50000E-01  8.24668E-01  6.08684E+00  2.34316E+00 -2.00093E-02 F
  8.50000E-01  8.63938E-01  0.00000E+00  2.36891E+00  2.02737E-02 F
  8.50000E-01  8.63938E-01  1.96350E-01  2.35209E+00  5.36274E-02 F
  8.50000E-01  8.63938E-01  3.92699E-01  2.31992E+00  8.49947E-02 F
  8.50000E-01  8.63938E-01  5.89049E-01  2.27735E+00  9.95548E-02 F
  8.50000E-01  8.63938E-01  7.85398E-01  2.23530E+00  8.55711E-02 F
  8.50000E-01  8.63938E-01  9.81748E-01  2.20509E+00  5.03911E-02 F
  8.50000E-01  8.63938E-01  1.17810E+00  2.19324E+00  3.97603E-03 F
  8.50000E-01  8.63938E-01  1.37445E+00  2.19983E+00 -3.04362E-02 F
  8.50000E-01  8.63938E-01  1.57080E+00  2.21633E+00 -4.31996E-02 F
  8.50000E-01  8.63938E-01  1.76715E+00  2.23629E+00 -4.73602E-02 F
  8.50000E-01  8.63938E-01  1.96350E+00  2.25721E+00 -4.64673E-02 F
  8.50000E-01  8.63938E-01  2.15985E+00  2.27673E+00 -4.11402E-02 F
  8.50000E-01  8.63938E-01  2.35619E+00  2.29485E+00 -4.11069E-02 F
  8.50000E-01  8.63938E-01  2.55254E+00  2.31481E+00 -4.78612E-02 F
  8.50000E-01  8.63938E-01  2.74889E+00  2.33913E+00 -5.94981E-02 F
  8.50000E-01  8.63938E-01  2.94524E+00  2.37021E+00 -7.54933E-02 F
  8.50000E-01  8.63938E-01  3.14159E+00  2.40987E+00 -9.35212E-02 F
  8.50000E-01  8.63938E-01  3.33794E+00  2.45821E+00 -1.07501E-01 F
  8.50000E-01  8.63938E-01  3.53429E+00  2.51187E+00 -1.09709E-01 F
  8.50000E-01  8.63938E-01  3.73064E+00  2.56346E+00 -9.50995E-02 F
  8.50000E-01  8.63938E-01  3.92699E+00  2.60630E+00 -7.31327E-02 F
  8.50000E-01  8.63938E-01  4.12334E+00  2.63704E+00 -4.46915E-02 F
  8.50000E-01  8.63938E-01  4.31969E+00  2.65068E+00 -6.02197E-03 F
  8.50000E-01  8.63938E-01  4.51604E+00  2.64113E+00  4.43900E-02 F
  8.50000E-01  8.63938E-01  4.71239E+00  2.60538E+00  9.14960E-02 F
  8.50000E-01  8.63938E-01  4.90874E+00  2.55224E+00  1.13762E-01 F
  8.50000E-01  8.63938E-01  5.10509E+00  2.49546E+00  1.12109E-01 F
  8.50000E-01  8.63938E-01  5.30144E+00  2.44504E+00  9.33807E-02 F
  8.50000E-01  8.63938E-01  5.49779E+00  2.40737E+00  6.36171E-02 F
  8.50000E-01  8.63938E-01  5.69414E+00  2.38496E+00  3.22240E-02 F
  8.50000E-01  8.63938E-01  5.89049E+00  2.37581E+00  9.18220E-03 F
  8.50000E-01  8.63938E-01  6.08684E+00  2.37361E+00  3.69112E-03 F
  8.50000E-01  9.03208E-01  0.00000E+00  2.37847E+00  5.03106E-02 F
  8.50000E-01  9.03208E-01  1.96350E-01  2.34964E+00  7.32099E-02 F
  8.50000E-01  9.03208E-01  3.92699E-01  2.31236E+00  8.78289E-02 F
  8.50000E-01  9.03208E-01  5.89049E-01  2.27231E+00  8.65820E-02 F
  8.50000E-01  9.03208E-01  7.85398E-01  2.23827E+00  6.42699E-02 F
  8.50000E-01  9.03208E-01  9.81748E-01  2.21749E+00  2.88330E-02 F
  8.50000E-01  9.03208E-01  1.17810E+00  2.21437E+00 -1.45046E-02 F
  8.50000E-01  9.03208E-01  1.37445E+00  2.22839E+00 -4.64875E-02 F
  8.50000E-01  9.03208E-01  1.57080E+00  2.25235E+00 -5.97063E-02 F
  8.50000E-01  9.03208E-01  1.76715E+00  2.27928E+00 -5.98245E-02 F
  8.50000E-01  9.03208E-01  1.96350E+00  2.30497E+00 -5.36522E-02 F
  8.50000E-01  9.03208E-01  2.15985E+00  2.32754E+00 -4.59147E-02 F
  8.50000E-01  9.03208E-01  2.35619E+00  2.34752E+00 -4.16783E-02 F
  8.50000E-01  9.03208E-01  2.55254E+00  2.36622E+00 -3.95384E-02 F
  8.50000E-01  9.03208E-01  2.74889E+00  2.38512E+00 -4.29067E-02 F
  8.50000E-01  9.03208E-01  2.94524E+00  2.40804E+00 -5.63667E-02 F
  8.50000E-01  9.03208E-01  3.14159E+00  2.43997E+00 -7.87822E-02 F
  8.50000E-01  9.03208E-01  3.33794E+00  2.48407E+00 -1.03430E-01 F
  8.50000E-01  9.03208E-01  3.53429E+00  2.53966E+00 -1.18944E-01 F
  8.50000E-01  9.03208E-01  3.73064E+00  2.59881E+00 -1.11640E-01 F
  8.50000E-01  9.03208E-01  3.92699E+00  2.65005E+00 -8.44967E-02 F
  8.50000E-01  9.03208E-01  4.12334E+00  2.68408E+00 -4.38132E-02 F
  8.50000E-01  9.03208E-01  4.31969E+00  2.69491E+00  3.53316E-03 F
  8.50000E-01  9.03208E-01  4.51604E+00  2.68010E+00  5.17856E-02 F
  8.50000E-01  9.03208E-01  4.71239E+00  2.64288E+00  8.75925E-02 F
  8.50000E-01  9.03208E-01  4.90874E+00  2.59291E+00  1.03453E-01 F
  8.50000E-01  9.03208E-01  5.10509E+00  2.54062E+00  1.01772E-01 F
  8.50000E-01  9.03208E-01  5.30144E+00  2.49312E+00  8.88524E-02 F
  8.50000E-01  9.03208E-01  5.49779E+00  2.45483E+00  6.79446E-02 F
  8.50000E-01  9.03208E-01  5.69414E+00  2.42771E+00  4.54281E-02 F
  8.50000E-01  9.03208E-01  5.89049E+00  2.41050E+00  2.91665E-02 F
  8.50000E-01  9.03208E-01  6.08684E+00  2.39710E+00  3.11243E-02 F
  8.50000E-01  9.42478E-01  0.00000E+00  2.37834E+00  7.19263E-02 F
  8.50000E-01  9.42478E-01  1.96350E-01  2.34288E+00  7.90351E-02 F
  8.50000E-01  9.42478E-01  3.92699E-01  2.30761E+00  7.33884E-02 F
  8.50000E-01  9.42478E-01  5.89049E-01  2.27826E+00  5.49164E-02 F
  8.50000E-01  9.42478E-01  7.85398E-01  2.25957E+00  2.84934E-02 F
  8.50000E-01  9.42478E-01  9.81748E-01  2.25327E+00 -6.65783E-04 F
  8.50000E-01  9.42478E-01  1.17810E+00  2.26014E+00 -2.91176E-02 F
  8.50000E-01  9.42478E-01  1.37445E+00  2.27734E+00 -4.60698E-02 F
  8.50000E-01  9.42478E-01  1.57080E+00  2.30015E+00 -5.46730E-02 F
  8.50000E-01  9.42478E-01  1.76715E+00  2.32644E+00 -6.08401E-02 F
  8.50000E-01  9.42478E-01  1.96350E+00  2.35521E+00 -6.33345E-02 F
  8.50000E-01  9.42478E-01  2.15985E+00  2.38424E+00 -6.10564E-02 F
  8.50000E-01  9.42478E-01  2.35619E+00  2.41214E+00 -5.71866E-02 F
  8.50000E-01  9.42478E-01  2.55254E+00  2.43837E+00 -5.34353E-02 F
  8.50000E-01  9.42478E-01  2.74889E+00  2.46394E+00 -5.35774E-02 F
  8.50000E-01  9.42478E-01  2.94524E+00  2.49118E+00 -5.95375E-02 F
  8.50000E-01  9.42478E-01  3.14159E+00  2.52291E+00 -6.94904E-02 F
  8.50000E-01  9.42478E-01  3.33794E+00  2.56020E+00 -8.03165E-02 F
  8.50000E-01  9.42478E-01  3.53429E+00  2.60381E+00 -9.09270E-02 F
  8.50000E-01  9.42478E-01  3.73064E+00  2.65142E+00 -9.10767E-02 F
  8.50000E-01  9.42478E-01  3.92699E+00  2.69524E+00 -7.23392E-02 F
  8.50000E-01  9.42478E-01  4.12334E+00  2.72445E+00 -3.49019E-02 F
  8.50000E-01  9.42478E-01  4.31969E+00  2.73026E+00  1.45228E-02 F
  8.50000E-01  9.42478E-01  4.51604E+00  2.70917E+00  6.23629E-02 F
  8.50000E-01  9.42478E-01  4.71239E+00  2.66775E+00  9.06881E-02 F
  8.50000E-01  9.42478E-01  4.90874E+00  2.61809E+00  9.77397E-02 F
  8.50000E-01  9.42478E-01  5.10509E+00  2.56930E+00  9.27205E-02 F
  8.50000E-01  9.42478E-01  5.30144E+00  2.52540E+00  8.19437E-02 F
  8.50000E-01  9.42478E-01  5.49779E+00  2.48826E+00  6.91958E-02 F
  8.50000E-01  9.42478E-01  5.69414E+00  2.45767E+00  5.65249E-02 F
  8.50000E-01  9.42478E-01  5.89049E+00  2.43306E+00  4.82080E-02 F
  8.50000E-01  9.42478E-01  6.08684E+00  2.40870E+00  5.68797E-02 F
  8.50000E-01  9.81748E-01  0.00000E+00  2.34729E+00  1.05602E-01 F
  8.50000E-01  9.81748E-01  1.96350E-01  2.30215E+00  8.91349E-02 F
  8.50000E-01  9.81748E-01  3.92699E-01  2.26831E+00  6.06409E-02 F
  8.50000E-01  9.81748E-01  5.89049E-01  2.24838E+00  2.97227E-02 F
  8.50000E-01  9.81748E-01  7.85398E-01  2.24055E+00  7.70381E-03 F
  8.50000E-01  9.81748E-01  9.81748E-01  2.24108E+00 -1.08142E-02 F
  8.50000E-01  9.81748E-01  1.17810E+00  2.25051E+00 -3.15194E-02 F
  8.50000E-01  9.81748E-01  1.37445E+00  2.26831E+00 -4.82953E-02 F
  8.50000E-01  9.81748E-01  1.57080E+00  2.29349E+00 -6.38898E-02 F
  8.50000E-01  9.81748E-01  1.76715E+00  2.32514E+00 -7.41439E-02 F
  8.50000E-01  9.81748E-01  1.96350E+00  2.35974E+00 -7.54606E-02 F
  8.50000E-01  9.81748E-01  2.15985E+00  2.39539E+00 -7.80694E-02 F
  8.50000E-01  9.81748E-01  2.35619E+00  2.43328E+00 -8.12398E-02 F
  8.50000E-01  9.81748E-01  2.55254E+00  2.47272E+00 -8.24740E-02 F
  8.50000E-01  9.81748E-01  2.74889E+00  2.51320E+00 -8.27937E-02 F
  8.50000E-01  9.81748E-01  2.94524E+00  2.55473E+00 -8.46018E-02 F
  8.50000E-01  9.81748E-01  3.14159E+00  2.59784E+00 -8.47761E-02 F
  8.50000E-01  9.81748E-01  3.33794E+00  2.64008E+00 -7.88266E-02 F
  8.50000E-01  9.81748E-01  3.53429E+00  2.67921E+00 -7.10080E-02 F
  8.50000E-01  9.81748E-01  3.73064E+00  2.71463E+00 -6.21104E-02 F
  8.50000E-01  9.81748E-01  3.92699E+00  2.74349E+00 -4.31708E-02 F
  8.50000E-01  9.81748E-01  4.12334E+00  2.75858E+00 -1.06851E-02 F
  8.50000E-01  9.81748E-01  4.31969E+00  2.75301E+00  3.25953E-02 F
  8.50000E-01  9.81748E-01  4.51604E+00  2.72399E+00  7.26926E-02 F
  8.50000E-01  9.81748E-01  4.71239E+00  2.67962E+00  9.04772E-02 F
  8.50000E-01  9.81748E-01  4.90874E+00  2.63214E+00  8.98402E-02 F
  8.50000E-01  9.81748E-01  5.10509E+00  2.58765E+00  8.31352E-02 F
  8.50000E-01  9.81748E-01  5.30144E+00  2.54821E+00  7.33438E-02 F
  8.50000E-01  9.81748E-01  5.49779E+00  2.51302E+00  7.00252E-02 F
  8.50000E-01  9.81748E-01  5.69414E+00  2.47806E+00  7.32681E-02 F
  8.50000E-01  9.81748E-01  5.89049E+00  2.44051E+00  8.42284E-02 F
  8.50000E-01  9.81748E-01  6.08684E+00  2.39630E+00  1.01469E-01 F
  8.50000E-01  1.02102E+00  0.00000E+00  2.33469E+00  1.09429E-01 F
  8.50000E-01  1.02102E+00  1.96350E-01  2.29111E+00  8.07123E-02 F
  8.50000E-01  1.02102E+00  3.92699E-01  2.26221E+00  4.84052E-02 F
  8.50000E-01  1.02102E+00  5.89049E-01  2.24794E+00  1.72931E-02 F
  8.50000E-01  1.02102E+00  7.85398E-01  2.24486E+00 -1.65444E-03 F
  8.50000E-01  1.02102E+00  9.81748E-01  2.24994E+00 -2.32368E-02 F
  8.50000E-01  1.02102E+00  1.17810E+00  2.26601E+00 -4.83705E-02 F
  8.50000E-01  1.02102E+00  1.37445E+00  2.29200E+00 -6.68870E-02 F
  8.50000E-01  1.02102E+00  1.57080E+00  2.32555E+00 -7.99945E-02 F
  8.50000E-01  1.02102E+00  1.76715E+00  2.36373E+00 -8.41113E-02 F
  8.50000E-01  1.02102E+00  1.96350E+00  2.40241E+00 -8.07821E-02 F
  8.50000E-01  1.02102E+00  2.15985E+00  2.43994E+00 -7.69191E-02 F
  8.50000E-01  1.02102E+00  2.35619E+00  2.47565E+00 -7.10894E-02 F
  8.50000E-01  1.02102E+00  2.55254E+00  2.51004E+00 -7.09737E-02 F
  8.50000E-01  1.02102E+00  2.74889E+00  2.54676E+00 -7.77655E-02 F
  8.50000E-01  1.02102E+00  2.94524E+00  2.58859E+00 -8.84169E-02 F
  8.50000E-01  1.02102E+00  3.14159E+00  2.63596E+00 -9.46521E-02 F
  8.50000E-01  1.02102E+00  3.33794E+00  2.68432E+00 -8.80528E-02 F
  8.50000E-01  1.02102E+00  3.53429E+00  2.72649E+00 -6.95384E-02 F
  8.50000E-01  1.02102E+00  3.73064E+00  2.75815E+00 -4.75935E-02 F
  8.50000E-01  1.02102E+00  3.92699E+00  2.77688E+00 -2.04605E-02 F
  8.50000E-01  1.02102E+00  4.12334E+00  2.78013E+00  8.51354E-03 F
  8.50000E-01  1.02102E+00  4.31969E+00  2.76722E+00  3.94272E-02 F
  8.50000E-01  1.02102E+00  4.51604E+00  2.73788E+00  6.73467E-02 F
  8.50000E-01  1.02102E+00  4.71239E+00  2.69781E+00  8.00841E-02 F
  8.50000E-01  1.02102E+00  4.90874E+00  2.65513E+00  8.13703E-02 F
  8.50000E-01  1.02102E+00  5.10509E+00  2.61345E+00  7.94696E-02 F
  8.50000E-01  1.02102E+00  5.30144E+00  2.57357E+00  7.78389E-02 F
  8.50000E-01  1.02102E+00  5.49779E+00  2.53356E+00  8.29037E-02 F
  8.50000E-01  1.02102E+00  5.69414E+00  2.49043E+00  9.26905E-02 F
  8.50000E-01  1.02102E+00  5.89049E+00  2.44217E+00  1.07136E-01 F
  8.50000E-01  1.02102E+00  6.08684E+00  2.38837E+00  1.17878E-01 F
  8.50000E-01  1.06029E+00  0.00000E+00  2.34675E+00  8.43435E-02 F
  8.50000E-01  1.06029E+00  1.96350E-01  2.31457E+00  5.65817E-02 F
  8.50000E-01  1.06029E+00  3.92699E-01  2.29511E+00  2.81865E-02 F
  8.50000E-01  1.06029E+00  5.89049E-01  2.28985E+00 -3.65260E-03 F
  8.50000E-01  1.06029E+00  7.85398E-01  2.29664E+00 -2.58994E-02 F
  8.50000E-01  1.06029E+00  9.81748E-01  2.31399E+00 -5.09943E-02 F
  8.50000E-01  1.06029E+00  1.17810E+00  2.34167E+00 -6.80855E-02 F
  8.50000E-01  1.06029E+00  1.37445E+00  2.37574E+00 -7.85636E-02 F
  8.50000E-01  1.06029E+00  1.57080E+00  2.41422E+00 -8.38889E-02 F
  8.50000E-01  1.06029E+00  1.76715E+00  2.45419E+00 -8.21690E-02 F
  8.50000E-01  1.06029E+00  1.96350E+00  2.49212E+00 -7.29452E-02 F
  8.50000E-01  1.06029E+00  2.15985E+00  2.52472E+00 -5.89589E-02 F
  8.50000E-01  1.06029E+00  2.35619E+00  2.55068E+00 -4.64269E-02 F
  8.50000E-01  1.06029E+00  2.55254E+00  2.57328E+00 -4.58071E-02 F
  8.50000E-01  1.06029E+00  2.74889E+00  2.59903E+00 -5.71855E-02 F
  8.50000E-01  1.06029E+00  2.94524E+00  2.63260E+00 -7.33999E-02 F
  8.50000E-01  1.06029E+00  3.14159E+00  2.67395E+00 -8.37372E-02 F
  8.50000E-01  1.06029E+00  3.33794E+00  2.71839E+00 -8.15719E-02 F
  8.50000E-01  1.06029E+00  3.53429E+00  2.75818E+00 -6.43344E-02 F
  8.50000E-01  1.06029E+00  3.73064E+00  2.78623E+00 -3.74756E-02 F
  8.50000E-01  1.06029E+00  3.92699E+00  2.79831E+00 -6.78761E-03 F
  8.50000E-01  1.06029E+00  4.12334E+00  2.79459E+00  1.95857E-02 F
  8.50000E-01  1.06029E+00  4.31969E+00  2.77708E+00  4.43358E-02 F
  8.50000E-01  1.06029E+00  4.51604E+00  2.74721E+00  6.42610E-02 F
  8.50000E-01  1.06029E+00  4.71239E+00  2.70975E+00  7.40537E-02 F
  8.50000E-01  1.06029E+00  4.90874E+00  2.66949E+00  7.80223E-02 F
  8.50000E-01  1.06029E+00  5.10509E+00  2.62802E+00  8.16967E-02 F
  8.50000E-01  1.06029E+00  5.30144E+00  2.58476E+00  8.77832E-02 F
  8.50000E-01  1.06029E+00  5.49779E+00  2.53897E+00  9.40095E-02 F
  8.50000E-01  1.06029E+00  5.69414E+00  2.49098E+00  1.00677E-01 F
  8.50000E-01  1.06029E+00  5.89049E+00  2.44081E+00  1.05603E-01 F
  8.50000E-01  1.06029E+00  6.08684E+00  2.39100E+00  1.02744E-01 F
  8.50000E-01  1.09956E+00  0.00000E+00  2.30716E+00  6.17041E-02 F
  8.50000E-01  1.09956E+00  1.96350E-01  2.28735E+00  2.91543E-02 F
  8.50000E-01  1.09956E+00  3.92699E-01  2.27985E+00  3.65899E-03 F
  8.50000E-01  1.09956E+00  5.89049E-01  2.28371E+00 -1.91245E-02 F
  8.50000E-01  1.09956E+00  7.85398E-01  2.29690E+00 -4.19869E-02 F
  8.50000E-01  1.09956E+00  9.81748E-01  2.32345E+00 -7.41054E-02 F
  8.50000E-01  1.09956E+00  1.17810E+00  2.36197E+00 -9.07099E-02 F
  8.50000E-01  1.09956E+00  1.37445E+00  2.40610E+00 -9.60327E-02 F
  8.50000E-01  1.09956E+00  1.57080E+00  2.45074E+00 -8.97305E-02 F
  8.50000E-01  1.09956E+00  1.76715E+00  2.49200E+00 -8.03619E-02 F
  8.50000E-01  1.09956E+00  1.96350E+00  2.52924E+00 -7.07551E-02 F
  8.50000E-01  1.09956E+00  2.15985E+00  2.56244E+00 -6.23547E-02 F
  8.50000E-01  1.09956E+00  2.35619E+00  2.59237E+00 -5.68024E-02 F
  8.50000E-01  1.09956E+00  2.55254E+00  2.62146E+00 -5.80903E-02 F
  8.50000E-01  1.09956E+00  2.74889E+00  2.65324E+00 -6.52774E-02 F
  8.50000E-01  1.09956E+00  2.94524E+00  2.68940E+00 -7.16278E-02 F
  8.50000E-01  1.09956E+00  3.14159E+00  2.72747E+00 -7.01651E-02 F
  8.50000E-01  1.09956E+00  3.33794E+00  2.76307E+00 -6.04649E-02 F
  8.50000E-01  1.09956E+00  3.53429E+00  2.79139E+00 -4.20907E-02 F
  8.50000E-01  1.09956E+00  3.73064E+00  2.80799E+00 -1.77106E-02 F
  8.50000E-01  1.09956E+00  3.92699E+00  2.81078E+00  7.38992E-03 F
  8.50000E-01  1.09956E+00  4.12334E+00  2.79988E+00  3.24011E-02 F
  8.50000E-01  1.09956E+00  4.31969E+00  2.77544E+00  5.58204E-02 F
  8.50000E-01  1.09956E+00  4.51604E+00  2.74119E+00  6.86209E-02 F
  8.50000E-01  1.09956E+00  4.71239E+00  2.70308E+00  7.34455E-02 F
  8.50000E-01  1.09956E+00  4.90874E+00  2.66344E+00  7.68990E-02 F
  8.50000E-01  1.09956E+00  5.10509E+00  2.62238E+00  8.25963E-02 F
  8.50000E-01  1.09956E+00  5.30144E+00  2.57649E+00  9.87818E-02 F
  8.50000E-01  1.09956E+00  5.49779E+00  2.52232E+00  1.17156E-01 F
  8.50000E-01  1.09956E+00  5.69414E+00  2.46134E+00  1.30623E-01 F
  8.50000E-01  1.09956E+00  5.89049E+00  2.39899E+00  1.26894E-01 F
  8.50000E-01  1.09956E+00  6.08684E+00  2.34490E+00  1.02245E-01 F
  8.50000E-01  1.13883E+00  0.00000E+00  2.27560E+00  4.02766E-02 F
  8.50000E-01  1.13883E+00  1.96350E-01  2.26609E+00  7.03611E-03 F
  8.50000E-01  1.13883E+00  3.92699E-01  2.26771E+00 -1.38852E-02 F
  8.50000E-01  1.13883E+00  5.89049E-01  2.27697E+00 -2.60800E-02 F
  8.50000E-01  1.13883E+00  7.85398E-01  2.29284E+00 -4.93163E-02 F
  8.50000E-01  1.13883E+00  9.81748E-01  2.32367E+00 -8.51174E-02 F
  8.50000E-01  1.13883E+00  1.17810E+00  2.36773E+00 -1.03304E-01 F
  8.50000E-01  1.13883E+00  1.37445E+00  2.41751E+00 -1.05906E-01 F
  8.50000E-01  1.13883E+00  1.57080E+00  2.46604E+00 -9.54135E-02 F
  8.50000E-01  1.13883E+00  1.76715E+00  2.50948E+00 -8.23584E-02 F
  8.50000E-01  1.13883E+00  1.96350E+00  2.54736E+00 -7.10142E-02 F
  8.50000E-01  1.13883E+00  2.15985E+00  2.58145E+00 -6.54079E-02 F
  8.50000E-01  1.13883E+00  2.35619E+00  2.61498E+00 -6.77277E-02 F
  8.50000E-01  1.13883E+00  2.55254E+00  2.65233E+00 -7.69778E-02 F
  8.50000E-01  1.13883E+00  2.74889E+00  2.69445E+00 -8.21206E-02 F
  8.50000E-01  1.13883E+00  2.94524E+00  2.73747E+00 -7.74214E-02 F
  8.50000E-01  1.13883E+00  3.14159E+00  2.77565E+00 -6.19062E-02 F
  8.50000E-01  1.13883E+00  3.33794E+00  2.80323E+00 -3.78943E-02 F
  8.50000E-01  1.13883E+00  3.53429E+00  2.81718E+00 -1.33195E-02 F
  8.50000E-01  1.13883E+00  3.73064E+00  2.81883E+00  6.61726E-03 F
  8.50000E-01  1.13883E+00  3.92699E+00  2.81039E+00  2.37873E-02 F
  8.50000E-01  1.13883E+00  4.12334E+00  2.79254E+00  4.12411E-02 F
  8.50000E-01  1.13883E+00  4.31969E+00  2.76543E+00  5.73911E-02 F
  8.50000E-01  1.13883E+00  4.51604E+00  2.73169E+00  6.61851E-02 F
  8.50000E-01  1.13883E+00  4.71239E+00  2.69537E+00  7.01078E-02 F
  8.50000E-01  1.13883E+00  4.90874E+00  2.65742E+00  7.43696E-02 F
  8.50000E-01  1.13883E+00  5.10509E+00  2.61676E+00  8.52438E-02 F
  8.50000E-01  1.13883E+00  5.30144E+00  2.56705E+00  1.11665E-01 F
  8.50000E-01  1.13883E+00  5.49779E+00  2.50466E+00  1.38032E-01 F
  8.50000E-01  1.13883E+00  5.69414E+00  2.43302E+00  1.54439E-01 F
  8.50000E-01  1.13883E+00  5.89049E+00  2.36201E+00  1.41426E-01 F
  8.50000E-01  1.13883E+00  6.08684E+00  2.30628E+00  9.73535E-02 F
  8.50000E-01  1.17810E+00  0.00000E+00  2.31283E+00  2.84342E-02 F
  8.50000E-01  1.17810E+00  1.96350E-01  2.30752E+00 -3.08817E-03 F
  8.50000E-01  1.17810E+00  3.92699E-01  2.31563E+00 -3.19369E-02 F
  8.50000E-01  1.17810E+00  5.89049E-01  2.33404E+00 -4.63074E-02 F
  8.50000E-01  1.17810E+00  7.85398E-01  2.35882E+00 -6.35805E-02 F
  8.50000E-01  1.17810E+00  9.81748E-01  2.39323E+00 -8.18867E-02 F
  8.50000E-01  1.17810E+00  1.17810E+00  2.43410E+00 -8.95663E-02 F
  8.50000E-01  1.17810E+00  1.37445E+00  2.47784E+00 -9.04113E-02 F
  8.50000E-01  1.17810E+00  1.57080E+00  2.52091E+00 -8.42931E-02 F
  8.50000E-01  1.17810E+00  1.76715E+00  2.56043E+00 -7.34792E-02 F
  8.50000E-01  1.17810E+00  1.96350E+00  2.59478E+00 -6.29877E-02 F
  8.50000E-01  1.17810E+00  2.15985E+00  2.62538E+00 -5.73704E-02 F
  8.50000E-01  1.17810E+00  2.35619E+00  2.65555E+00 -6.11689E-02 F
  8.50000E-01  1.17810E+00  2.55254E+00  2.69092E+00 -7.38639E-02 F
  8.50000E-01  1.17810E+00  2.74889E+00  2.73238E+00 -7.96433E-02 F
  8.50000E-01  1.17810E+00  2.94524E+00  2.77385E+00 -7.16589E-02 F
  8.50000E-01  1.17810E+00  3.14159E+00  2.80802E+00 -5.07315E-02 F
  8.50000E-01  1.17810E+00  3.33794E+00  2.82735E+00 -1.80930E-02 F
  8.50000E-01  1.17810E+00  3.53429E+00  2.82878E+00  1.10090E-02 F
  8.50000E-01  1.17810E+00  3.73064E+00  2.81727E+00  2.91772E-02 F
  8.50000E-01  1.17810E+00  3.92699E+00  2.79758E+00  4.12892E-02 F
  8.50000E-01  1.17810E+00  4.12334E+00  2.77319E+00  4.70774E-02 F
  8.50000E-01  1.17810E+00  4.31969E+00  2.74628E+00  5.28423E-02 F
  8.50000E-01  1.17810E+00  4.51604E+00  2.71596E+00  6.00220E-02 F
  8.50000E-01  1.17810E+00  4.71239E+00  2.68244E+00  6.66330E-02 F
  8.50000E-01  1.17810E+00  4.90874E+00  2.64570E+00  7.40661E-02 F
  8.50000E-01  1.17810E+00  5.10509E+00  2.60434E+00  8.83347E-02 F
  8.50000E-01  1.17810E+00  5.30144E+00  2.55463E+00  1.07248E-01 F
  8.50000E-01  1.17810E+00  5.49779E+00  2.49785E+00  1.21300E-01 F
  8.50000E-01  1.17810E+00  5.69414E+00  2.43695E+00  1.26992E-01 F
  8.50000E-01  1.17810E+00  5.89049E+00  2.38002E+00  1.10484E-01 F
  8.50000E-01  1.17810E+00  6.08684E+00  2.33623E+00  7.51573E-02 F
  8.50000E-01  1.21737E+00  0.00000E+00  2.31710E+00  1.91614E-02 F
  8.50000E-01  1.21737E+00  1.96350E-01  2.31490E+00 -1.05863E-02 F
  8.50000E-01  1.21737E+00  3.92699E-01  2.32828E+00 -4.76715E-02 F
  8.50000E-01  1.21737E+00  5.89049E-01  2.35659E+00 -7.37208E-02 F
  8.50000E-01  1.21737E+00  7.85398E-01  2.39597E+00 -9.34689E-02 F
  8.50000E-01  1.21737E+00  9.81748E-01  2.44153E+00 -9.50856E-02 F
  8.50000E-01  1.21737E+00  1.17810E+00  2.48553E+00 -8.61952E-02 F
  8.50000E-01  1.21737E+00  1.37445E+00  2.52498E+00 -7.41134E-02 F
  8.50000E-01  1.21737E+00  1.57080E+00  2.55994E+00 -6.74305E-02 F
  8.50000E-01  1.21737E+00  1.76715E+00  2.59362E+00 -6.61034E-02 F
  8.50000E-01  1.21737E+00  1.96350E+00  2.62779E+00 -6.76932E-02 F
  8.50000E-01  1.21737E+00  2.15985E+00  2.66346E+00 -6.91760E-02 F
  8.50000E-01  1.21737E+00  2.35619E+00  2.69980E+00 -6.89267E-02 F
  8.50000E-01  1.21737E+00  2.55254E+00  2.73677E+00 -6.95745E-02 F
  8.50000E-01  1.21737E+00  2.74889E+00  2.77376E+00 -6.57498E-02 F
  8.50000E-01  1.21737E+00  2.94524E+00  2.80663E+00 -5.28169E-02 F
  8.50000E-01  1.21737E+00  3.14159E+00  2.83007E+00 -2.98331E-02 F
  8.50000E-01  1.21737E+00  3.33794E+00  2.83767E+00  3.23060E-03 F
  8.50000E-01  1.21737E+00  3.53429E+00  2.82748E+00  3.15007E-02 F
  8.50000E-01  1.21737E+00  3.73064E+00  2.80459E+00  5.03639E-02 F
  8.50000E-01  1.21737E+00  3.92699E+00  2.77291E+00  6.40463E-02 F
  8.50000E-01  1.21737E+00  4.12334E+00  2.73718E+00  6.59286E-02 F
  8.50000E-01  1.21737E+00  4.31969E+00  2.70309E+00  6.20031E-02 F
  8.50000E-01  1.21737E+00  4.51604E+00  2.67045E+00  6.26662E-02 F
  8.50000E-01  1.21737E+00  4.71239E+00  2.63677E+00  6.67929E-02 F
  8.50000E-01  1.21737E+00  4.90874E+00  2.60102E+00  7.33468E-02 F
  8.50000E-01  1.21737E+00  5.10509E+00  2.56010E+00  8.94177E-02 F
  8.50000E-01  1.21737E+00  5.30144E+00  2.51182E+00  1.02925E-01 F
  8.50000E-01  1.21737E+00  5.49779E+00  2.45968E+00  1.09824E-01 F
  8.50000E-01  1.21737E+00  5.69414E+00  2.40825E+00  1.01635E-01 F
  8.50000E-01  1.21737E+00  5.89049E+00  2.36535E+00  8.13245E-02 F
  8.50000E-01  1.21737E+00  6.08684E+00  2.33351E+00  5.39802E-02 F
