s E_r[V/m] (\Gamma_b/n_b[m/s]  Q_b/n_b/T_b[m/s] L_1^b[m^2/s] L_2^b[m^2/s]  Z_b n_b[10^{19}m^{-3}] dlnn_b/dr[m^{-1}] T_b[eV] dlnT_b/dr[m^{-1}], b=1,NBB), size(e\varphi_1/T_i) 
  1.50000E-01 -1.48442E+04  4.61637E-02  1.77999E-01  7.14763E-03  2.82734E-02  5.87275E+00 -5.94189E-01  1.47134E+03 -5.79080E+00 -1.00000E+00 -6.21232E-01 -1.42465E+00  1.65777E-01  5.49874E-01  5.87275E+00 -5.94189E-01  1.10383E+03 -2.34459E+00  1.00000E+00 -7.88663E+77  0.00000E+00          NaN
  1.50000E-01 -1.36072E+04  4.42310E-02  1.72555E-01  7.16057E-03  2.83686E-02  5.87275E+00 -5.94189E-01  1.47134E+03 -5.79080E+00 -1.00000E+00 -5.52123E-01 -1.23891E+00  1.65851E-01  5.50337E-01  5.87275E+00 -5.94189E-01  1.10383E+03 -2.34459E+00  1.00000E+00 -7.88663E+77  0.00000E+00          NaN
  1.50000E-01 -1.23701E+04  4.22926E-02  1.67071E-01  7.17304E-03  2.84604E-02  5.87275E+00 -5.94189E-01  1.47134E+03 -5.79080E+00 -1.00000E+00 -4.82988E-01 -1.05300E+00  1.65943E-01  5.50912E-01  5.87275E+00 -5.94189E-01  1.10383E+03 -2.34459E+00  1.00000E+00 -7.88663E+77  0.00000E+00          NaN
  1.50000E-01 -1.11331E+04  4.03481E-02  1.61543E-01  7.18496E-03  2.85483E-02  5.87275E+00 -5.94189E-01  1.47134E+03 -5.79080E+00 -1.00000E+00 -4.13814E-01 -8.66838E-01  1.66060E-01  5.51643E-01  5.87275E+00 -5.94189E-01  1.10383E+03 -2.34459E+00  1.00000E+00 -7.88663E+77  0.00000E+00          NaN
  1.50000E-01 -9.89611E+03  3.83971E-02  1.55968E-01  7.19622E-03  2.86314E-02  5.87275E+00 -5.94189E-01  1.47134E+03 -5.79080E+00 -1.00000E+00 -3.44585E-01 -6.80318E-01  1.66212E-01  5.52594E-01  5.87275E+00 -5.94189E-01  1.10383E+03 -2.34459E+00  1.00000E+00 -7.88663E+77  0.00000E+00          NaN
  1.50000E-01 -8.65910E+03  3.64392E-02  1.50344E-01  7.20671E-03  2.87090E-02  5.87275E+00 -5.94189E-01  1.47134E+03 -5.79080E+00 -1.00000E+00 -2.75271E-01 -4.93253E-01  1.66416E-01  5.53871E-01  5.87275E+00 -5.94189E-01  1.10383E+03 -2.34459E+00  1.00000E+00 -7.88663E+77  0.00000E+00          NaN
  1.50000E-01 -7.42209E+03  3.44739E-02  1.44666E-01  7.21629E-03  2.87799E-02  5.87275E+00 -5.94189E-01  1.47134E+03 -5.79080E+00 -1.00000E+00 -2.05820E-01 -3.05326E-01  1.66700E-01  5.55652E-01  5.87275E+00 -5.94189E-01  1.10383E+03 -2.34459E+00  1.00000E+00 -7.88663E+77  0.00000E+00          NaN
  1.50000E-01 -6.18507E+03  3.25004E-02  1.38931E-01  7.22476E-03  2.88428E-02  5.87275E+00 -5.94189E-01  1.47134E+03 -5.79080E+00 -1.00000E+00 -1.36138E-01 -1.15942E-01  1.67118E-01  5.58266E-01  5.87275E+00 -5.94189E-01  1.10383E+03 -2.34459E+00  1.00000E+00 -7.88663E+77  0.00000E+00          NaN
  1.50000E-01 -4.94806E+03  3.05178E-02  1.33131E-01  7.23188E-03  2.88960E-02  5.87275E+00 -5.94189E-01  1.47134E+03 -5.79080E+00 -1.00000E+00 -6.60278E-02  7.61114E-02  1.67773E-01  5.62371E-01  5.87275E+00 -5.94189E-01  1.10383E+03 -2.34459E+00  1.00000E+00 -7.88663E+77  0.00000E+00          NaN
  1.50000E-01 -3.71104E+03  2.85246E-02  1.27258E-01  7.23734E-03  2.89370E-02  5.87275E+00 -5.94189E-01  1.47134E+03 -5.79080E+00 -1.00000E+00  4.95950E-03  2.73623E-01  1.68903E-01  5.69448E-01  5.87275E+00 -5.94189E-01  1.10383E+03 -2.34459E+00  1.00000E+00 -7.88663E+77  0.00000E+00          NaN
  1.50000E-01 -2.47403E+03  2.65181E-02  1.21298E-01  7.24064E-03  2.89622E-02  5.87275E+00 -5.94189E-01  1.47134E+03 -5.79080E+00 -1.00000E+00  7.80116E-02  4.83988E-01  1.71115E-01  5.83312E-01  5.87275E+00 -5.94189E-01  1.10383E+03 -2.34459E+00  1.00000E+00 -7.88663E+77  0.00000E+00          NaN
  1.50000E-01 -1.23701E+03  2.44938E-02  1.15229E-01  7.24097E-03  2.89658E-02  5.87275E+00 -5.94189E-01  1.47134E+03 -5.79080E+00 -1.00000E+00  1.70170E-01  8.28503E-01  1.83668E-01  6.70111E-01  5.87275E+00 -5.94189E-01  1.10383E+03 -2.34459E+00  1.00000E+00 -7.88663E+77  0.00000E+00          NaN
  1.50000E-01 -4.12111E-13  2.24481E-02  1.09004E-01  7.23677E-03  2.89363E-02  5.87275E+00 -5.94189E-01  1.47134E+03 -5.79080E+00 -1.00000E+00  2.67024E-01  1.22428E+00  1.96290E-01  7.66859E-01  5.87275E+00 -5.94189E-01  1.10383E+03 -2.34459E+00  1.00000E+00 -7.88663E+77  0.00000E+00          NaN
  1.50000E-01  1.23701E+03  2.05558E-02  1.03796E-01  7.26441E-03  2.91301E-02  5.87275E+00 -5.94189E-01  1.47134E+03 -5.79080E+00 -1.00000E+00  2.93499E-01  1.09121E+00  1.73591E-01  5.98837E-01  5.87275E+00 -5.94189E-01  1.10383E+03 -2.34459E+00  1.00000E+00 -7.88663E+77  0.00000E+00          NaN
  1.50000E-01  2.47403E+03  1.85170E-02  9.75361E-02  7.25972E-03  2.90959E-02  5.87275E+00 -5.94189E-01  1.47134E+03 -5.79080E+00 -1.00000E+00  3.56296E-01  1.23689E+00  1.70106E-01  5.76987E-01  5.87275E+00 -5.94189E-01  1.10383E+03 -2.34459E+00  1.00000E+00 -7.88663E+77  0.00000E+00          NaN
  1.50000E-01  3.71104E+03  1.64699E-02  9.12302E-02  7.25335E-03  2.90493E-02  5.87275E+00 -5.94189E-01  1.47134E+03 -5.79080E+00 -1.00000E+00  4.22139E-01  1.40178E+00  1.68405E-01  5.66326E-01  5.87275E+00 -5.94189E-01  1.10383E+03 -2.34459E+00  1.00000E+00 -7.88663E+77  0.00000E+00          NaN
  1.50000E-01  4.94806E+03  1.44170E-02  8.48914E-02  7.24560E-03  2.89924E-02  5.87275E+00 -5.94189E-01  1.47134E+03 -5.79080E+00 -1.00000E+00  4.89403E-01  1.57569E+00  1.67493E-01  5.60613E-01  5.87275E+00 -5.94189E-01  1.10383E+03 -2.34459E+00  1.00000E+00 -7.88663E+77  0.00000E+00          NaN
  1.50000E-01  6.18507E+03  1.23604E-02  7.85299E-02  7.23668E-03  2.89269E-02  5.87275E+00 -5.94189E-01  1.47134E+03 -5.79080E+00 -1.00000E+00  5.57344E-01  1.75392E+00  1.66948E-01  5.57198E-01  5.87275E+00 -5.94189E-01  1.10383E+03 -2.34459E+00  1.00000E+00 -7.88663E+77  0.00000E+00          NaN
  1.50000E-01  7.42209E+03  1.03017E-02  7.21541E-02  7.22677E-03  2.88540E-02  5.87275E+00 -5.94189E-01  1.47134E+03 -5.79080E+00 -1.00000E+00  6.25642E-01  1.93445E+00  1.66593E-01  5.54976E-01  5.87275E+00 -5.94189E-01  1.10383E+03 -2.34459E+00  1.00000E+00 -7.88663E+77  0.00000E+00          NaN
  1.50000E-01  8.65910E+03  8.24176E-03  6.57709E-02  7.21601E-03  2.87750E-02  5.87275E+00 -5.94189E-01  1.47134E+03 -5.79080E+00 -1.00000E+00  6.94148E-01  2.11633E+00  1.66347E-01  5.53437E-01  5.87275E+00 -5.94189E-01  1.10383E+03 -2.34459E+00  1.00000E+00 -7.88663E+77  0.00000E+00          NaN
  1.50000E-01  9.89611E+03  6.18158E-03  5.93858E-02  7.20452E-03  2.86906E-02  5.87275E+00 -5.94189E-01  1.47134E+03 -5.79080E+00 -1.00000E+00  7.62786E-01  2.29905E+00  1.66168E-01  5.52319E-01  5.87275E+00 -5.94189E-01  1.10383E+03 -2.34459E+00  1.00000E+00 -7.88663E+77  0.00000E+00          NaN
  1.50000E-01  1.11331E+04  4.12179E-03  5.30036E-02  7.19242E-03  2.86018E-02  5.87275E+00 -5.94189E-01  1.47134E+03 -5.79080E+00 -1.00000E+00  8.31512E-01  2.48233E+00  1.66034E-01  5.51478E-01  5.87275E+00 -5.94189E-01  1.10383E+03 -2.34459E+00  1.00000E+00 -7.88663E+77  0.00000E+00          NaN
  1.50000E-01  1.23701E+04  2.06297E-03  4.66283E-02  7.17978E-03  2.85091E-02  5.87275E+00 -5.94189E-01  1.47134E+03 -5.79080E+00 -1.00000E+00  9.00299E-01  2.66600E+00  1.65929E-01  5.50826E-01  5.87275E+00 -5.94189E-01  1.10383E+03 -2.34459E+00  1.00000E+00 -7.88663E+77  0.00000E+00          NaN
  1.50000E-01  1.36072E+04  5.59497E-06  4.02631E-02  7.16670E-03  2.84131E-02  5.87275E+00 -5.94189E-01  1.47134E+03 -5.79080E+00 -1.00000E+00  9.69131E-01  2.84996E+00  1.65847E-01  5.50308E-01  5.87275E+00 -5.94189E-01  1.10383E+03 -2.34459E+00  1.00000E+00 -7.88663E+77  0.00000E+00          NaN
  1.50000E-01  1.48442E+04 -2.04995E-03  3.39109E-02  7.15323E-03  2.83144E-02  5.87275E+00 -5.94189E-01  1.47134E+03 -5.79080E+00 -1.00000E+00  1.03800E+00  3.03414E+00  1.65780E-01  5.49890E-01  5.87275E+00 -5.94189E-01  1.10383E+03 -2.34459E+00  1.00000E+00 -7.88663E+77  0.00000E+00          NaN
  1.50000E-01  1.60812E+04 -4.10333E-03  2.75741E-02  7.13944E-03  2.82133E-02  5.87275E+00 -5.94189E-01  1.47134E+03 -5.79080E+00 -1.00000E+00  1.10689E+00  3.21847E+00  1.65725E-01  5.49545E-01  5.87275E+00 -5.94189E-01  1.10383E+03 -2.34459E+00  1.00000E+00 -7.88663E+77  0.00000E+00          NaN
  1.50000E-01  1.73182E+04 -6.15426E-03  2.12547E-02  7.12538E-03  2.81103E-02  5.87275E+00 -5.94189E-01  1.47134E+03 -5.79080E+00 -1.00000E+00  1.17580E+00  3.40294E+00  1.65679E-01  5.49258E-01  5.87275E+00 -5.94189E-01  1.10383E+03 -2.34459E+00  1.00000E+00 -7.88663E+77  0.00000E+00          NaN
  1.50000E-01  1.85552E+04 -8.20249E-03  1.49544E-02  7.11110E-03  2.80058E-02  5.87275E+00 -5.94189E-01  1.47134E+03 -5.79080E+00 -1.00000E+00  1.24473E+00  3.58750E+00  1.65640E-01  5.49016E-01  5.87275E+00 -5.94189E-01  1.10383E+03 -2.34459E+00  1.00000E+00 -7.88663E+77  0.00000E+00          NaN
  1.50000E-01  1.97922E+04 -1.02478E-02  8.67473E-03  7.09663E-03  2.79000E-02  5.87275E+00 -5.94189E-01  1.47134E+03 -5.79080E+00 -1.00000E+00  1.31367E+00  3.77215E+00  1.65607E-01  5.48810E-01  5.87275E+00 -5.94189E-01  1.10383E+03 -2.34459E+00  1.00000E+00 -7.88663E+77  0.00000E+00          NaN
  1.50000E-01  2.10292E+04 -1.22901E-02  2.41693E-03  7.08202E-03  2.77932E-02  5.87275E+00 -5.94189E-01  1.47134E+03 -5.79080E+00 -1.00000E+00  1.38262E+00  3.95686E+00  1.65579E-01  5.48632E-01  5.87275E+00 -5.94189E-01  1.10383E+03 -2.34459E+00  1.00000E+00 -7.88663E+77  0.00000E+00          NaN
  1.50000E-01  2.22663E+04 -1.43291E-02 -3.81796E-03  7.06731E-03  2.76857E-02  5.87275E+00 -5.94189E-01  1.47134E+03 -5.79080E+00 -1.00000E+00  1.45158E+00  4.14164E+00  1.65554E-01  5.48478E-01  5.87275E+00 -5.94189E-01  1.10383E+03 -2.34459E+00  1.00000E+00 -7.88663E+77  0.00000E+00          NaN
  1.50000E-01  2.35033E+04 -1.63648E-02 -1.00291E-02  7.05252E-03  2.75777E-02  5.87275E+00 -5.94189E-01  1.47134E+03 -5.79080E+00 -1.00000E+00  1.52055E+00  4.32645E+00  1.65533E-01  5.48344E-01  5.87275E+00 -5.94189E-01  1.10383E+03 -2.34459E+00  1.00000E+00 -7.88663E+77  0.00000E+00          NaN
  1.50000E-01  2.47403E+04 -1.83970E-02 -1.62157E-02  7.03769E-03  2.74695E-02  5.87275E+00 -5.94189E-01  1.47134E+03 -5.79080E+00 -1.00000E+00  1.58953E+00  4.51131E+00  1.65514E-01  5.48225E-01  5.87275E+00 -5.94189E-01  1.10383E+03 -2.34459E+00  1.00000E+00 -7.88663E+77  0.00000E+00          NaN
  1.50000E-01  2.59773E+04 -2.04257E-02 -2.23772E-02  7.02284E-03  2.73612E-02  5.87275E+00 -5.94189E-01  1.47134E+03 -5.79080E+00 -1.00000E+00  1.65851E+00  4.69621E+00  1.65497E-01  5.48120E-01  5.87275E+00 -5.94189E-01  1.10383E+03 -2.34459E+00  1.00000E+00 -7.88663E+77  0.00000E+00          NaN
  1.50000E-01  2.72143E+04 -2.24508E-02 -2.85133E-02  7.00800E-03  2.72531E-02  5.87275E+00 -5.94189E-01  1.47134E+03 -5.79080E+00 -1.00000E+00  1.72750E+00  4.88113E+00  1.65482E-01  5.48027E-01  5.87275E+00 -5.94189E-01  1.10383E+03 -2.34459E+00  1.00000E+00 -7.88663E+77  0.00000E+00          NaN
  1.50000E-01  2.84513E+04 -2.44723E-02 -3.46235E-02  6.99319E-03  2.71452E-02  5.87275E+00 -5.94189E-01  1.47134E+03 -5.79080E+00 -1.00000E+00  1.79648E+00  5.06608E+00  1.65469E-01  5.47943E-01  5.87275E+00 -5.94189E-01  1.10383E+03 -2.34459E+00  1.00000E+00 -7.88663E+77  0.00000E+00          NaN
  1.50000E-01  2.96883E+04 -2.64901E-02 -4.07077E-02  6.97843E-03  2.70378E-02  5.87275E+00 -5.94189E-01  1.47134E+03 -5.79080E+00 -1.00000E+00  1.86548E+00  5.25105E+00  1.65457E-01  5.47868E-01  5.87275E+00 -5.94189E-01  1.10383E+03 -2.34459E+00  1.00000E+00 -7.88663E+77  0.00000E+00          NaN
  1.50000E-01  3.09254E+04 -2.85042E-02 -4.67657E-02  6.96373E-03  2.69309E-02  5.87275E+00 -5.94189E-01  1.47134E+03 -5.79080E+00 -1.00000E+00  1.93447E+00  5.43604E+00  1.65446E-01  5.47801E-01  5.87275E+00 -5.94189E-01  1.10383E+03 -2.34459E+00  1.00000E+00 -7.88663E+77  0.00000E+00          NaN
  1.50000E-01  3.21624E+04 -3.05146E-02 -5.27976E-02  6.94913E-03  2.68248E-02  5.87275E+00 -5.94189E-01  1.47134E+03 -5.79080E+00 -1.00000E+00  2.00347E+00  5.62105E+00  1.65436E-01  5.47739E-01  5.87275E+00 -5.94189E-01  1.10383E+03 -2.34459E+00  1.00000E+00 -7.88663E+77  0.00000E+00          NaN
  1.50000E-01  3.33994E+04 -3.25213E-02 -5.88033E-02  6.93462E-03  2.67195E-02  5.87275E+00 -5.94189E-01  1.47134E+03 -5.79080E+00 -1.00000E+00  2.07247E+00  5.80607E+00  1.65427E-01  5.47683E-01  5.87275E+00 -5.94189E-01  1.10383E+03 -2.34459E+00  1.00000E+00 -7.88663E+77  0.00000E+00          NaN
  1.50000E-01  3.46364E+04 -3.49618E-02 -6.84636E-02  6.70497E-03  2.48036E-02  5.87275E+00 -5.94189E-01  1.47134E+03 -5.79080E+00 -1.00000E+00  2.14148E+00  5.99111E+00  1.65419E-01  5.47633E-01  5.87275E+00 -5.94189E-01  1.10383E+03 -2.34459E+00  1.00000E+00 -7.88663E+77  0.00000E+00          NaN
  1.50000E-01  3.58734E+04 -3.69317E-02 -7.41698E-02  6.69482E-03  2.47347E-02  5.87275E+00 -5.94189E-01  1.47134E+03 -5.79080E+00 -1.00000E+00  2.21048E+00  6.17616E+00  1.65412E-01  5.47586E-01  5.87275E+00 -5.94189E-01  1.10383E+03 -2.34459E+00  1.00000E+00 -7.88663E+77  0.00000E+00          NaN
  1.50000E-01  3.71104E+04 -3.88990E-02 -7.98583E-02  6.68472E-03  2.46663E-02  5.87275E+00 -5.94189E-01  1.47134E+03 -5.79080E+00 -1.00000E+00  2.27949E+00  6.36122E+00  1.65405E-01  5.47543E-01  5.87275E+00 -5.94189E-01  1.10383E+03 -2.34459E+00  1.00000E+00 -7.88663E+77  0.00000E+00          NaN
  1.50000E-01  3.83474E+04 -4.08636E-02 -8.55294E-02  6.67471E-03  2.45984E-02  5.87275E+00 -5.94189E-01  1.47134E+03 -5.79080E+00 -1.00000E+00  2.34850E+00  6.54629E+00  1.65399E-01  5.47504E-01  5.87275E+00 -5.94189E-01  1.10383E+03 -2.34459E+00  1.00000E+00 -7.88663E+77  0.00000E+00          NaN
  1.50000E-01  3.95845E+04 -4.28256E-02 -9.11832E-02  6.66477E-03  2.45311E-02  5.87275E+00 -5.94189E-01  1.47134E+03 -5.79080E+00 -1.00000E+00  2.41751E+00  6.73136E+00  1.65393E-01  5.47467E-01  5.87275E+00 -5.94189E-01  1.10383E+03 -2.34459E+00  1.00000E+00 -7.88663E+77  0.00000E+00          NaN
  1.50000E-01  4.08215E+04 -4.47849E-02 -9.68199E-02  6.65492E-03  2.44643E-02  5.87275E+00 -5.94189E-01  1.47134E+03 -5.79080E+00 -1.00000E+00  2.48652E+00  6.91645E+00  1.65387E-01  5.47434E-01  5.87275E+00 -5.94189E-01  1.10383E+03 -2.34459E+00  1.00000E+00 -7.88663E+77  0.00000E+00          NaN
  1.50000E-01  4.20585E+04 -4.67417E-02 -1.02440E-01  6.64516E-03  2.43983E-02  5.87275E+00 -5.94189E-01  1.47134E+03 -5.79080E+00 -1.00000E+00  2.55553E+00  7.10155E+00  1.65382E-01  5.47402E-01  5.87275E+00 -5.94189E-01  1.10383E+03 -2.34459E+00  1.00000E+00 -7.88663E+77  0.00000E+00          NaN
  1.50000E-01  4.32955E+04 -4.86960E-02 -1.08043E-01  6.63550E-03  2.43329E-02  5.87275E+00 -5.94189E-01  1.47134E+03 -5.79080E+00 -1.00000E+00  2.62454E+00  7.28665E+00  1.65378E-01  5.47373E-01  5.87275E+00 -5.94189E-01  1.10383E+03 -2.34459E+00  1.00000E+00 -7.88663E+77  0.00000E+00          NaN
  1.50000E-01  4.45325E+04 -5.06477E-02 -1.13629E-01  6.62595E-03  2.42682E-02  5.87275E+00 -5.94189E-01  1.47134E+03 -5.79080E+00 -1.00000E+00  2.69356E+00  7.47175E+00  1.65373E-01  5.47346E-01  5.87275E+00 -5.94189E-01  1.10383E+03 -2.34459E+00  1.00000E+00 -7.88663E+77  0.00000E+00          NaN
  1.50000E-01  4.57695E+04 -5.25970E-02 -1.19200E-01  6.61650E-03  2.42042E-02  5.87275E+00 -5.94189E-01  1.47134E+03 -5.79080E+00 -1.00000E+00  2.76257E+00  7.65687E+00  1.65369E-01  5.47321E-01  5.87275E+00 -5.94189E-01  1.10383E+03 -2.34459E+00  1.00000E+00 -7.88663E+77  0.00000E+00          NaN
  1.50000E-01 -3.71104E+03  2.85246E-02  1.27258E-01  7.23734E-03  2.89370E-02  5.87275E+00 -5.94189E-01  1.47134E+03 -5.79080E+00 -1.00000E+00  4.95950E-03  2.73623E-01  1.68903E-01  5.69448E-01  5.87275E+00 -5.94189E-01  1.10383E+03 -2.34459E+00  1.00000E+00 -7.88663E+77  0.00000E+00          NaN
  1.50000E-01 -2.47403E+03  2.65181E-02  1.21298E-01  7.24064E-03  2.89622E-02  5.87275E+00 -5.94189E-01  1.47134E+03 -5.79080E+00 -1.00000E+00  7.80116E-02  4.83988E-01  1.71115E-01  5.83312E-01  5.87275E+00 -5.94189E-01  1.10383E+03 -2.34459E+00  1.00000E+00 -7.88663E+77  0.00000E+00          NaN
  1.50000E-01 -3.09254E+03  2.75232E-02  1.24290E-01  7.23930E-03  2.89519E-02  5.87275E+00 -5.94189E-01  1.47134E+03 -5.79080E+00 -1.00000E+00  4.10957E-02  3.76377E-01  1.69807E-01  5.75116E-01  5.87275E+00 -5.94189E-01  1.10383E+03 -2.34459E+00  1.00000E+00 -7.88663E+77  0.00000E+00          NaN
  1.50000E-01 -3.40179E+03  2.80243E-02  1.25777E-01  7.23839E-03  2.89449E-02  5.87275E+00 -5.94189E-01  1.47134E+03 -5.79080E+00 -1.00000E+00  2.29521E-02  3.24530E-01  1.69316E-01  5.72035E-01  5.87275E+00 -5.94189E-01  1.10383E+03 -2.34459E+00  1.00000E+00 -7.88663E+77  0.00000E+00          NaN
  1.50000E-01 -3.24716E+03  2.77739E-02  1.25034E-01  7.23886E-03  2.89485E-02  5.87275E+00 -5.94189E-01  1.47134E+03 -5.79080E+00 -1.00000E+00  3.20028E-02  3.50321E-01  1.69550E-01  5.73506E-01  5.87275E+00 -5.94189E-01  1.10383E+03 -2.34459E+00  1.00000E+00 -7.88663E+77  0.00000E+00          NaN
  1.50000E-01 -3.32448E+03  2.78991E-02  1.25406E-01  7.23863E-03  2.89468E-02  5.87275E+00 -5.94189E-01  1.47134E+03 -5.79080E+00 -1.00000E+00  2.74725E-02  3.37395E-01  1.69430E-01  5.72754E-01  5.87275E+00 -5.94189E-01  1.10383E+03 -2.34459E+00  1.00000E+00 -7.88663E+77  0.00000E+00          NaN
